{
    "_id": "JBRmOWh7Dg2HfvsC",
    "data": {
        "attributes": {
            "ac": {
                "value": 10
            },
            "hardness": 0,
            "hasHealth": false,
            "hp": {
                "details": "",
                "max": 0,
                "temp": 0,
                "value": 0
            },
            "stealth": {
                "details": "(expert)",
                "value": 13
            }
        },
        "creatureType": "",
        "details": {
            "description": "The characters witness Burning Mammoths walking this mountain pass in ages long past.",
            "disable": "<p>@Check[type:diplomacy|dc:26|name:Convince the spirits to remain dormant|traits:hazard,haunt] (trained) to convince the spirits to remain dormant, or @Check[type:religion|dc:26|name:Ritually silence the spirits|traits:hazard,haunt] (trained) to ritually silence the spirits</p>",
            "isComplex": false,
            "level": {
                "value": 5
            },
            "reset": "1 hour",
            "routine": ""
        },
        "saves": {
            "fortitude": {
                "saveDetail": "",
                "value": 0
            },
            "reflex": {
                "saveDetail": "",
                "value": 0
            },
            "will": {
                "saveDetail": "",
                "value": 0
            }
        },
        "source": {
            "value": "Pathfinder #176: Lost Mammoth Valley"
        },
        "statusEffects": [],
        "traits": {
            "ci": [],
            "di": {
                "custom": "",
                "selected": {},
                "value": []
            },
            "dr": [],
            "dv": [],
            "rarity": "unique",
            "size": {
                "value": "med"
            },
            "traits": {
                "custom": "",
                "value": [
                    "haunt"
                ]
            }
        }
    },
    "flags": {},
    "img": "systems/pf2e/icons/default-icons/hazard.svg",
    "items": [
        {
            "_id": "61841rqh9nllx967",
            "data": {
                "actionCategory": {
                    "value": "offensive"
                },
                "actionType": {
                    "value": "reaction"
                },
                "actions": {
                    "value": null
                },
                "description": {
                    "value": "<p><strong>Trigger</strong> A good‑aligned spiritual descendant of the Burning Mammoth following enters the mountain pass</p><hr />\n<p><strong>Effect</strong> Burning Mammoths from long ago appear alongside the party, walking the mountain pass as one united following. They walk in the footsteps of ancestors, heroes, and legends. Each creature that witnesses the vision gains a +1 status bonus to Will saving throws and all skill checks for 24 hours.</p>\n<p>@Compendium[pf2e.bestiary-effects.Effect: Ancestral Journey]{Effect: Ancestral Journey}</p>"
                },
                "requirements": {
                    "value": ""
                },
                "rules": [],
                "slug": null,
                "source": {
                    "value": ""
                },
                "traits": {
                    "custom": "",
                    "rarity": "common",
                    "value": []
                },
                "trigger": {
                    "value": ""
                }
            },
            "flags": {},
            "img": "systems/pf2e/icons/actions/Reaction.webp",
            "name": "Ancestral Journey",
            "sort": 0,
            "type": "action"
        }
    ],
    "name": "Footsteps Of Legends",
    "token": {
        "disposition": 0,
        "height": 1,
        "img": "systems/pf2e/icons/default-icons/npc.svg",
        "name": "Footsteps Of Legends",
        "width": 1
    },
    "type": "hazard"
}
