{
    "_id": "ZRIxdOd91foyBnHO",
    "data": {
        "attributes": {
            "ac": {
                "value": 16
            },
            "hardness": 8,
            "hasHealth": true,
            "hp": {
                "details": "",
                "max": 32,
                "temp": 0,
                "value": 32
            },
            "stealth": {
                "details": "<p>(trained)</p>",
                "value": 11
            }
        },
        "creatureType": "",
        "details": {
            "description": "<p>When a concealed cord is tripped, several sharp stones fall onto the square containing the cord.</p>",
            "disable": "<p>@Check[type:thievery|dc:18|name:Cut the Trip Cord|traits:hazard,mechanical,trap] (trained) to safely cut the trip cord</p>",
            "isComplex": false,
            "level": {
                "value": 1
            },
            "reset": "",
            "routine": ""
        },
        "saves": {
            "fortitude": {
                "saveDetail": "",
                "value": 9
            },
            "reflex": {
                "saveDetail": "",
                "value": 5
            },
            "will": {
                "saveDetail": "",
                "value": 0
            }
        },
        "source": {
            "value": "Pathfinder #175: Broken Tusk Moon"
        },
        "statusEffects": [],
        "traits": {
            "ci": [],
            "di": {
                "custom": "",
                "selected": {},
                "value": [
                    "critical-hits",
                    "object-immunities",
                    "precision"
                ]
            },
            "dr": [],
            "dv": [],
            "rarity": "common",
            "size": {
                "value": "med"
            },
            "traits": {
                "custom": "",
                "value": [
                    "mechanical",
                    "trap"
                ]
            }
        }
    },
    "flags": {},
    "img": "systems/pf2e/icons/default-icons/hazard.svg",
    "items": [
        {
            "_id": "Vhb7DC7sstGvRHUb",
            "data": {
                "actionCategory": {
                    "value": "offensive"
                },
                "actionType": {
                    "value": "reaction"
                },
                "actions": {
                    "value": null
                },
                "description": {
                    "value": "<p><strong>Trigger</strong> A creature walks into the square containing the trip cord</p>\n<p><strong>Effect</strong> Falling rocks deal [[/r {4d8}[slashing]]]{4d8 slashing damage} (@Check[type:reflex|dc:19|basic:true]) to any creature in the square, possibly pinning them to the ground. On a failed save, the creature falls @Compendium[pf2e.conditionitems.Prone]{Prone}; on a critical failure, the creature is @Compendium[pf2e.conditionitems.Immobilized]{Immobilized} (DC 17 to @Compendium[pf2e.actionspf2e.Escape]{Escape}).</p>\n<p>An adjacent creature can attempt a @Check[type:athletics|dc:19] check to shove the rocks aside to free an immobilized creature.</p>"
                },
                "requirements": {
                    "value": ""
                },
                "rules": [],
                "slug": null,
                "source": {
                    "value": ""
                },
                "traits": {
                    "custom": "",
                    "rarity": "common",
                    "value": []
                },
                "trigger": {
                    "value": ""
                }
            },
            "flags": {},
            "img": "systems/pf2e/icons/actions/Reaction.webp",
            "name": "Deadfall",
            "sort": 0,
            "type": "action"
        }
    ],
    "name": "Hail of Razor Stones",
    "token": {
        "disposition": 0,
        "height": 1,
        "img": "systems/pf2e/icons/default-icons/hazard.svg",
        "name": "Hail of Razor Stones",
        "width": 1
    },
    "type": "hazard"
}
