{
    "_id": "E6e8iE0BgIxLYqQZ",
    "data": {
        "attributes": {
            "ac": {
                "value": 19
            },
            "hardness": 12,
            "hasHealth": true,
            "hp": {
                "details": "",
                "max": 50,
                "temp": 0,
                "value": 50
            },
            "stealth": {
                "details": "<p>(expert)</p>",
                "value": 13
            }
        },
        "creatureType": "",
        "details": {
            "description": "<p>A spring-loaded, poisoned needle is hidden near the drawer's keyhole. Disabling or breaking the trap does not disable or break the lock.</p>",
            "disable": "<p>@Check[type:thievery|dc:23|name:Disable Thievery] (expert) on the spring mechanism.</p>",
            "isComplex": false,
            "level": {
                "value": 5
            },
            "reset": "",
            "routine": ""
        },
        "saves": {
            "fortitude": {
                "saveDetail": "",
                "value": 15
            },
            "reflex": {
                "saveDetail": "",
                "value": 9
            },
            "will": {
                "saveDetail": "",
                "value": 0
            }
        },
        "source": {
            "value": "Pathfinder One-Shot #2: Dinner at Lionlodge"
        },
        "statusEffects": [],
        "traits": {
            "ci": [],
            "di": {
                "custom": "",
                "selected": {},
                "value": [
                    "precision",
                    "critical-hits",
                    "object-immunities"
                ]
            },
            "dr": [],
            "dv": [],
            "rarity": "common",
            "size": {
                "value": "med"
            },
            "traits": {
                "custom": "",
                "value": [
                    "mechanical",
                    "trap"
                ]
            }
        }
    },
    "flags": {},
    "img": "systems/pf2e/icons/default-icons/hazard.svg",
    "items": [
        {
            "_id": "mSHFzRlFXnG67gvg",
            "data": {
                "actionCategory": {
                    "value": "offensive"
                },
                "actionType": {
                    "value": "reaction"
                },
                "actions": {
                    "value": null
                },
                "description": {
                    "value": "<p><strong>Trigger</strong> A creature tries to unlock or @Compendium[pf2e.actionspf2e.Pick a Lock]{Pick the Lock}</p>\n<p><strong>Effect</strong> The needle extends to attack the triggering creature.</p>"
                },
                "requirements": {
                    "value": ""
                },
                "rules": [],
                "slug": null,
                "source": {
                    "value": ""
                },
                "traits": {
                    "custom": "",
                    "rarity": "common",
                    "value": []
                },
                "trigger": {
                    "value": ""
                },
                "weapon": {
                    "value": ""
                }
            },
            "flags": {},
            "img": "systems/pf2e/icons/actions/Reaction.webp",
            "name": "Spring",
            "sort": 0,
            "type": "action"
        },
        {
            "_id": "F7pAqbfwb5BHQasS",
            "data": {
                "attack": {
                    "value": ""
                },
                "attackEffects": {
                    "custom": "",
                    "value": [
                        "enhanced-hunting-spider-venom"
                    ]
                },
                "bonus": {
                    "value": 19
                },
                "damageRolls": {
                    "ji0llge43nloqgvmrlxa": {
                        "damage": "1",
                        "damageType": "piercing"
                    }
                },
                "description": {
                    "value": "<p>plus Enhanced Hunting Spider Venom</p>"
                },
                "rules": [],
                "slug": null,
                "source": {
                    "value": ""
                },
                "traits": {
                    "custom": "",
                    "rarity": "common",
                    "value": []
                },
                "weaponType": {
                    "value": "melee"
                }
            },
            "flags": {},
            "img": "systems/pf2e/icons/default-icons/melee.svg",
            "name": "Needle",
            "sort": 0,
            "type": "melee"
        },
        {
            "_id": "4HwflTBmGsWNVzQu",
            "data": {
                "actionCategory": {
                    "value": "offensive"
                },
                "actionType": {
                    "value": "passive"
                },
                "actions": {
                    "value": null
                },
                "description": {
                    "value": "<p><strong>Saving Throw</strong> @Check[type:fortitude|dc:23|basic:true]</p>\n<p><strong>Maximum Duration</strong> 6 rounds</p>\n<hr />\n<p><strong>Stage 1</strong> [[/r {1d10}[poison]]]{1d10 poison damage} and @Compendium[pf2e.conditionitems.Flat-Footed]{Flat-Footed} (1 round)</p>\n<p><strong>Stage 2</strong> [[/r {1d12}[poison]]]{1d12 poison damage}, @Compendium[pf2e.conditionitems.Clumsy]{Clumsy 1}, and flat-footed (1 round)</p>\n<p><strong>Stage 3</strong> [[/r {2d6}[poison]]]{2d6 poison damage}, @Compendium[pf2e.conditionitems.Clumsy]{Clumsy 2}, and flat-footed (1 round).</p>\n<hr />\n<p><strong>Note</strong> The clumsy condition caused by this venom persists for 24 hours before fading.</p>"
                },
                "requirements": {
                    "value": ""
                },
                "rules": [],
                "slug": null,
                "source": {
                    "value": ""
                },
                "traits": {
                    "custom": "",
                    "rarity": "common",
                    "value": [
                        "poison"
                    ]
                },
                "trigger": {
                    "value": ""
                },
                "weapon": {
                    "value": ""
                }
            },
            "flags": {},
            "img": "systems/pf2e/icons/actions/Passive.webp",
            "name": "Enhanced Hunting Spider Venom",
            "sort": 0,
            "type": "action"
        }
    ],
    "name": "Poisoned Lock (Lionlodge)",
    "token": {
        "disposition": 0,
        "height": 1,
        "img": "systems/pf2e/icons/default-icons/hazard.svg",
        "name": "Poisoned Lock (Lionlodge)",
        "width": 1
    },
    "type": "hazard"
}
