{
    "_id": "QW5TpsCjn70RTFnL",
    "data": {
        "abilities": {
            "cha": {
                "value": 10
            },
            "con": {
                "value": 10
            },
            "dex": {
                "value": 18
            },
            "int": {
                "value": 12
            },
            "str": {
                "value": 16
            },
            "wis": {
                "value": 12
            }
        },
        "attributes": {
            "bonusEncumbranceBulk": 0,
            "bonusLimitBulk": 0,
            "classDC": {},
            "flatbonushp": 0,
            "flatbonussp": 0,
            "hp": {
                "details": "",
                "temp": 0,
                "value": 16
            },
            "initiative": {
                "ability": "perception"
            },
            "levelbonushp": 0,
            "levelbonussp": 0,
            "perception": {},
            "resolve": {
                "max": 0,
                "value": 0
            },
            "sp": {
                "details": "",
                "max": 0,
                "value": 0
            },
            "speed": {
                "otherSpeeds": [],
                "value": "25"
            }
        },
        "crafting": {
            "entries": {},
            "formulas": []
        },
        "details": {
            "age": {
                "value": ""
            },
            "alignment": {
                "value": "LG"
            },
            "biography": {
                "allies": "",
                "appearance": "",
                "attitude": "",
                "backstory": "<p>Many in the Mwangi Expanse believe Ekujae elves are dedicated isolationists, but they are actually close allies of the Magaambya. On a trip to deliver relics there, two Ekujae lore-bearers brought their daughter, Ekene. After concluding their business, they told Ekene that she was to stay and learn. Her first lonely night in the dormitory was also the first time the serious young elf ever wept.</p>\n<p>Ekene spent her youth training to be one of the Ekujae's defenders. She believed the warrior's road was her life's path, not that of a scholar. She works hard at her studies to make her parents proud, even though she still doesn't feel like she belongs. Ekene's traditional Ekujae paint markings have faded since her arrival and she has intentionally chosen not to reapply them. She hopes to have her family apply new markings upon her return that better represent the person she will become upon leaving the Magaambya, whether or not it's who they expect her to be.</p>\n<p>Ekene is generally amiable, but is particularly close with Muruwa, as the two share a love for climbing trees and spending time outdoors.</p>",
                "beliefs": "",
                "birthPlace": "",
                "campaignNotes": "",
                "catchphrases": "",
                "dislikes": "",
                "enemies": "",
                "likes": "",
                "organaizations": ""
            },
            "deity": {
                "image": "",
                "value": ""
            },
            "ethnicity": {
                "value": "Ekujae"
            },
            "gender": {
                "value": "Female"
            },
            "height": {
                "value": ""
            },
            "keyability": {
                "value": "str"
            },
            "level": {
                "value": 1
            },
            "nationality": {
                "value": "Mwangi Expanse"
            },
            "weight": {
                "value": ""
            },
            "xp": {
                "max": 1000,
                "min": 0,
                "pct": 0,
                "value": 0
            }
        },
        "martial": {},
        "pfs": {
            "characterNumber": "",
            "currentFaction": "EA",
            "fame": 0,
            "levelBump": false,
            "playerNumber": "",
            "reputation": {
                "EA": 0,
                "GA": 0,
                "HH": 0,
                "RO": 0,
                "VS": 0,
                "VW": 0
            },
            "school": "none"
        },
        "resources": {
            "heroPoints": {
                "max": 3,
                "value": 1
            }
        },
        "saves": {},
        "skills": {
            "acr": {
                "rank": 0
            },
            "arc": {
                "rank": 1
            },
            "ath": {
                "rank": 1
            },
            "cra": {
                "rank": 0
            },
            "dec": {
                "rank": 0
            },
            "dip": {
                "rank": 0
            },
            "itm": {
                "rank": 0
            },
            "med": {
                "rank": 0
            },
            "nat": {
                "rank": 1
            },
            "occ": {
                "rank": 0
            },
            "prf": {
                "rank": 0
            },
            "rel": {
                "rank": 0
            },
            "soc": {
                "rank": 0
            },
            "ste": {
                "rank": 1
            },
            "sur": {
                "rank": 1
            },
            "thi": {
                "rank": 0
            }
        },
        "traits": {
            "ci": [],
            "di": {
                "custom": "",
                "value": []
            },
            "dr": [],
            "dv": [],
            "languages": {
                "custom": "",
                "selected": [],
                "value": [
                    "mwangi"
                ]
            },
            "senses": [],
            "traits": {
                "custom": "",
                "value": []
            }
        }
    },
    "flags": {},
    "img": "systems/pf2e/icons/default-icons/alternatives/ancestries/elf.svg",
    "items": [
        {
            "_id": "3zdo1f93az68d9br",
            "data": {
                "additionalLanguages": {
                    "count": 0,
                    "custom": "",
                    "value": [
                        "celestial",
                        "draconic",
                        "gnoll",
                        "gnomish",
                        "goblin",
                        "orcish",
                        "sylvan"
                    ]
                },
                "boosts": {
                    "0": {
                        "value": [
                            "dex"
                        ]
                    },
                    "1": {
                        "value": [
                            "int"
                        ]
                    },
                    "2": {
                        "value": [
                            "str",
                            "dex",
                            "con",
                            "int",
                            "wis",
                            "cha"
                        ]
                    }
                },
                "description": {
                    "value": "<p><em>As an ancient people, elves have seen great change and have the perspective that can come only from watching the arc of history. After leaving the world in ancient times, they returned to a changed land, and they still struggle to reclaim their ancestral homes, most notably from terrible demons that have invaded parts of their lands. To some, the elves are objects of awe—graceful and beautiful, with immense talent and knowledge. Among themselves, however, the elves place far more importance on personal freedom than on living up to these ideals.</em></p>\n<hr />\n<p>Elves combine otherworldly grace, sharp intellect, and mysterious charm in a way that is practically magnetic to members of other ancestries. They are often voraciously intellectual, though their studies delve into a level of detail that most shorter-lived peoples find excessive or inefficient. Valuing kindness and beauty, elves ever strive to improve their manners, appearance, and culture.</p>\n<p>Elves are often rather private people, steeped in the secrets of their groves and kinship groups. They're slow to build friendships outside their kinsfolk, but for a specific reason: they subtly and deeply attune to their environment and their companions. There's a physical element to this attunement, but it isn't only superficial. Elves who spend their lives among shorter‑lived peoples often develop a skewed perception of their own mortality and tend to become morose after watching generation after generation of companions age and die. These elves are called the Forlorn.</p>\n<p>If you want a character who is magical, mystical, and mysterious, you should play an elf.</p>\n<h2>You Might...</h2>\n<ul>\n<li>Carefully curate your relationships with people with shorter lifespans, either keeping a careful emotional distance or resigning yourself to outliving them.</li>\n<li>Adopt specialized or obscure interests simply for the sake of mastering them.</li>\n<li>Have features such as eye color, skin tone, hair, or mannerisms that reflect the environment in which you live.</li>\n</ul>\n<h2>Others Probably...</h2>\n<ul>\n<li>Focus on your appearance, either admiring your grace or treating you as if you're physically fragile.</li>\n<li>Assume you practice archery, cast spells, fight demons, and have perfected one or more fine arts.</li>\n<li>Worry that you privately look down on them, or feel like you're condescending and aloof.</li>\n</ul>\n<h2>Physical Description</h2>\n<p>While generally taller than humans, elves possess a fragile grace, accentuated by long features and sharply pointed ears. Their eyes are wide and almond-shaped, featuring large and vibrant-colored pupils that make up the entire visible portion of the eye. These pupils give them an alien look and allow them to see sharply even in very little light.</p>\n<p>Elves gradually adapt to their environment and their companions, and they often take on physical traits reflecting their surroundings. An elf who has dwelled in primeval forests for centuries, for example, might exhibit verdant hair and gnarled fingers, while one who's lived in a desert might have golden pupils and skin. Elven fashion, like the elves themselves, tends to reflect their surroundings. Elves living in the forests and other wilderness locales wear clothing that plays off the terrain and flora of their homes, while those who live in cities tend to wear the latest fashions.</p>\n<p>Elves reach physical adulthood around the age of 20, though they aren't considered to be fully emotionally mature by other elves until closer to the passing of their first century, once they've experienced more, held several occupations, and outlived a generation of shorter-lived people. A typical elf can live to around 600 years old.</p>\n<h2>Society</h2>\n<p>Elven culture is deep, rich, and on the decline. Their society peaked millennia ago, long before they fled the world to escape a great calamity. They've since returned, but rebuilding is no easy task. Their inborn patience and intellectual curiosity make elves excellent sages, philosophers, and wizards, and their societies are built upon their inherent sense of wonder and knowledge. Elven architecture displays their deep appreciation of beauty, and elven cities are wondrous works of art.</p>\n<p>Elves hold deeply seated ideals of individualism, allowing each elf to explore multiple occupations before alighting on a particular pursuit or passion that suits her best. Elves bear notorious grudges against rivals, which the elves call ilduliel, but these antagonistic relationships can sometimes blossom into friendships over time.</p>\n<h2>Alignment and Religion</h2>\n<p>Elves are often emotional and capricious, yet they hold high ideals close to their hearts. As such, many are chaotic good. They prefer deities who share their love of all things mystic and artistic. Desna and Shelyn are particular favorites, the former for her sense of wonder and the latter for her appreciation of artistry. Calistria is the most notorious of elven deities, as she represents many of the elven ideals taken to the extreme.</p>\n<h2>Adventurers</h2>\n<p>Many elves adventure to find beauty and discover new things. Typical backgrounds for an elf include emissary, hunter, noble, scholar, or scout. Elves often become rangers or rogues, taking advantage of their dexterity, or alchemists or wizards, exploring their intellectual curiosity.</p>\n<h2>Names</h2>\n<p>An elf keeps their personal name secret among their family, while giving a nickname when meeting other people. This nickname can change over time, due to events in the elf's life or even on a whim. A single elf might be known by many names by associates of different ages and regions. Elven names consist of multiple syllables and are meant to flow lyrically—at least in the Elven tongue. They so commonly end in '-el' or '-ara' that other cultures sometimes avoid names ending in these syllables to avoid sounding too elven.</p>\n<h3><span style=\"text-decoration: underline;\">Sample Names</span></h3>\n<p>Aerel, Amrunelara, Caladrel, Dardlara, Faunra, Heldalel, Jathal, Lanliss, Oparal, Seldlon, Soumral, Talathel, Tessara, Variel, Yalandlara, Zordlon</p>"
                },
                "flaws": {
                    "0": {
                        "value": [
                            "con"
                        ]
                    }
                },
                "hp": 6,
                "items": {},
                "languages": {
                    "custom": "",
                    "value": [
                        "common",
                        "elven"
                    ]
                },
                "reach": 5,
                "rules": [],
                "size": "med",
                "slug": "elf",
                "source": {
                    "value": "Pathfinder Core Rulebook"
                },
                "speed": 30,
                "traits": {
                    "custom": "",
                    "rarity": "common",
                    "value": [
                        "elf",
                        "humanoid"
                    ]
                },
                "vision": "lowLightVision"
            },
            "flags": {
                "core": {
                    "sourceId": "Compendium.pf2e.ancestries.PgKmsA2aKdbLU6O0"
                }
            },
            "img": "systems/pf2e/icons/default-icons/alternatives/ancestries/elf.svg",
            "name": "Elf",
            "sort": 0,
            "type": "ancestry"
        },
        {
            "_id": "ai4645xsqyghxr5o",
            "data": {
                "actionCategory": {
                    "value": "offensive"
                },
                "actionType": {
                    "value": "action"
                },
                "actions": {
                    "value": 1
                },
                "description": {
                    "value": "<p>You can attack rapidly with fists, feet, elbows, knees, and other unarmed attacks. You gain the Flurry of Blows action.</p>\n<hr />\n<p>Make two unarmed @Compendium[pf2e.actionspf2e.Strike]{Strikes}. If both hit the same creature, combine their damage for the purpose of resistances and weaknesses. Apply your multiple attack penalty to the Strikes normally. As it has the flourish trait, you can use Flurry of Blows only once per turn.</p>"
                },
                "featType": {
                    "value": "classfeature"
                },
                "level": {
                    "value": 1
                },
                "location": "jpp0xjfe5gu49d92",
                "prerequisites": {
                    "value": []
                },
                "rules": [],
                "slug": "flurry-of-blows",
                "source": {
                    "value": ""
                },
                "traits": {
                    "custom": "",
                    "rarity": "common",
                    "value": [
                        "flourish",
                        "monk"
                    ]
                }
            },
            "flags": {
                "core": {
                    "sourceId": "Compendium.pf2e.classfeatures.NLHHHiAcdnZ5ohc2"
                }
            },
            "img": "systems/pf2e/icons/features/classes/flurry-of-blows.webp",
            "name": "Flurry of Blows",
            "sort": 0,
            "type": "feat"
        },
        {
            "_id": "ojzro753w3mb9x1n",
            "data": {
                "actionCategory": {
                    "value": ""
                },
                "actionType": {
                    "value": "passive"
                },
                "actions": {
                    "value": null
                },
                "description": {
                    "value": "<p>You know how to wield your fists as deadly weapons. The damage die for your fist increases to 1d6 instead of 1d4. Most people take a -2 circumstance penalty when making a lethal attack with nonlethal unarmed attacks, because they find it hard to use their fists with deadly force. You don't take this penalty when making a lethal attack with your fist or any other unarmed attacks.</p>"
                },
                "featType": {
                    "value": "classfeature"
                },
                "level": {
                    "value": 1
                },
                "location": "jpp0xjfe5gu49d92",
                "prerequisites": {
                    "value": []
                },
                "rules": [
                    {
                        "category": "unarmed",
                        "damage": {
                            "base": {
                                "damageType": "bludgeoning",
                                "dice": 1,
                                "die": "d6"
                            }
                        },
                        "group": "brawling",
                        "img": "systems/pf2e/icons/features/classes/powerful-fist.webp",
                        "key": "Strike",
                        "label": "PF2E.Strike.Fist.Label",
                        "range": null,
                        "slug": "fist",
                        "traits": [
                            "agile",
                            "finesse",
                            "nonlethal",
                            "unarmed"
                        ]
                    }
                ],
                "slug": "powerful-fist",
                "source": {
                    "value": ""
                },
                "traits": {
                    "custom": "",
                    "rarity": "common",
                    "value": [
                        "monk"
                    ]
                }
            },
            "flags": {
                "core": {
                    "sourceId": "Compendium.pf2e.classfeatures.SB8UJ8rZmvbcBweJ"
                }
            },
            "img": "systems/pf2e/icons/features/classes/powerful-fist.webp",
            "name": "Powerful Fist",
            "sort": 0,
            "type": "feat"
        },
        {
            "_id": "jpp0xjfe5gu49d92",
            "data": {
                "ancestryFeatLevels": {
                    "value": [
                        1,
                        5,
                        9,
                        13,
                        17
                    ]
                },
                "attacks": {
                    "advanced": 0,
                    "martial": 0,
                    "other": {
                        "name": "",
                        "rank": 0
                    },
                    "simple": 1,
                    "unarmed": 1
                },
                "classDC": 1,
                "classFeatLevels": {
                    "value": [
                        1,
                        2,
                        4,
                        6,
                        8,
                        10,
                        12,
                        14,
                        16,
                        18,
                        20
                    ]
                },
                "defenses": {
                    "heavy": 0,
                    "light": 0,
                    "medium": 0,
                    "unarmored": 2
                },
                "description": {
                    "value": "<p><em>The strength of your fist flows from your mind and spirit. You seek perfection-honing your body into a flawless instrument and your mind into an orderly bastion of wisdom. You're a fierce combatant renowned for martial arts skills and combat stances that grant you unique fighting moves. While the challenge of mastering many fighting styles drives you to great heights, you also enjoy meditating on philosophical questions and discovering new ways to obtain peace and enlightenment.</em></p>\n<p><strong>Key Ability: STRENGTH OR DEXTERITY</strong></p>\n<p>At 1st level, your class gives you an ability boost to your choice of Strength or Dexterity.</p>\n<p><strong>Hit Points: 10 plus your Constitution modifier</strong></p>\n<p>You increase your maximum number of HP by this number at 1st level and every level thereafter.</p>\n<h1>Roleplaying the Monk</h1>\n<h2>During Combat Encounters...</h2>\n<p>You speed into the fray, dodging or leaping past obstacles with acrobatic maneuvers. You strike opponents in a rapid flurry of attacks, using your bare fists or wielding specialized weapons that you mastered during your monastic training. Stances let you change up your combat style for different situations, and ki abilities allow you to perform mystic feats like healing yourself and soaring through the air.</p>\n<h2>During Social Encounters...</h2>\n<p>Your perceptiveness lets you see through falsehoods, and your philosophical training provides insight into any situation.</p>\n<h2>While Exploring...</h2>\n<p>You climb up walls, dodge traps, overcome obstacles, and leap over pits. You usually stay toward the outside of the group to protect more vulnerable members, and you're well suited to looking for danger or moving stealthily.</p>\n<h2>In Downtime...</h2>\n<p>You diligently exercise, eat healthy foods, meditate, and study various philosophies. You might also take up a craft that you strive to perfect.</p>\n<h2>You Might...</h2>\n<ul>\n<li>Maintain a regimen of physical training and meditation.</li>\n<li>Face adversity with a calm and measured approach, never panicking or succumbing to despair.</li>\n<li>Look to the future for ways you can improve, while remaining at peace with your present self.</li>\n</ul>\n<h2>Others Probably...</h2>\n<ul>\n<li>Marvel at your feats of physical prowess.</li>\n<li>Think you're more than a bit uptight, given your vows and tenets.</li>\n<li>Come to you for philosophical advice.</li>\n</ul>\n<h1>Initial Proficiencies</h1>\n<p>At 1st level, you gain the listed proficiency ranks in the following statistics. You are untrained in anything not listed unless you gain a better proficiency rank in some other way.</p>\n<h2>Perception</h2>\n<p>Trained in Perception</p>\n<h2>Saving Throws</h2>\n<p>Expert in Fortitude</p>\n<p>Expert in Reflex</p>\n<p>Expert in Will</p>\n<h2>Skills</h2>\n<p>Trained in a number of skills equal to 4 plus your Intelligence modifier</p>\n<h2>Attacks</h2>\n<p>Trained in simple weapons</p>\n<p>Trained in unarmed attacks</p>\n<h2>Defenses</h2>\n<p>Untrained in all armor</p>\n<p>Expert in unarmored defense</p>\n<h2>Class DC</h2>\n<p>Trained in monk class DC</p>\n<h1>Class Features</h1>\n<p>You gain these features as a Monk. Abilities gained at higher levels list the levels at which you gain them next to the features' names.</p>\n<table class=\"pf2-table\">\n<thead>\n<tr>\n<th>Your Level</th>\n<th>Class Features</th>\n</tr>\n</thead>\n<tbody>\n<tr>\n<td>1</td>\n<td>Ancestry and background, initial proficiencies, flurry of blows, monk feat, powerful fist</td>\n</tr>\n<tr>\n<td>2</td>\n<td>Monk feat, skill feat</td>\n</tr>\n<tr>\n<td>3</td>\n<td>General feat, incredible movement +10 feet, mystic strikes, skill increase</td>\n</tr>\n<tr>\n<td>4</td>\n<td>Monk feat, skill feat</td>\n</tr>\n<tr>\n<td>5</td>\n<td>Ability boosts, alertness, ancestry feat, expert strikes, skill increase</td>\n</tr>\n<tr>\n<td>6</td>\n<td>Monk feat, skill feat</td>\n</tr>\n<tr>\n<td>7</td>\n<td>General feat, incredible movement +15 feet, path to perfection, skill increase, weapon specialization</td>\n</tr>\n<tr>\n<td>8</td>\n<td>Monk feat, skill feat</td>\n</tr>\n<tr>\n<td>9</td>\n<td>Ancestry feat, metal strikes, monk expertise, skill increase</td>\n</tr>\n<tr>\n<td>10</td>\n<td>Ability boosts, monk feat, skill feat</td>\n</tr>\n<tr>\n<td>11</td>\n<td>General feat, incredible movement +20 feet, second path to perfection, skill increase</td>\n</tr>\n<tr>\n<td>12</td>\n<td>Monk feat, skill feat</td>\n</tr>\n<tr>\n<td>13</td>\n<td>Ancestry feat, graceful mastery, master strikes, skill increase</td>\n</tr>\n<tr>\n<td>14</td>\n<td>Monk feat, skill feat</td>\n</tr>\n<tr>\n<td>15</td>\n<td>Ability boosts, general feat, greater weapon specialization, incredible movement +25 feet, skill increase, third path to perfection</td>\n</tr>\n<tr>\n<td>16</td>\n<td>Monk feat, skill feat</td>\n</tr>\n<tr>\n<td>17</td>\n<td>Adamantine strikes, ancestry feat, graceful legend, skill increase</td>\n</tr>\n<tr>\n<td>18</td>\n<td>Monk feat, skill feat</td>\n</tr>\n<tr>\n<td>19</td>\n<td>General feat, incredible movement +30 feet, perfected form, skill increase</td>\n</tr>\n<tr>\n<td>20</td>\n<td>Ability boosts, monk feat, skill feat</td>\n</tr>\n</tbody>\n</table>\n<h2>Ancestry and Background</h2>\n<p>In addition to the abilities provided by your class at 1st level, you have the benefits of your selected ancestry and background.</p>\n<h2>Flurry of Blows</h2>\n<p>You can attack rapidly with fists, feet, elbows, knees, and other unarmed attacks. You gain the Flurry of Blows action.</p>\n<p>@Compendium[pf2e.actionspf2e.Flurry of Blows]{Flurry of Blows} <span class=\"pf2-icon\">A</span></p>\n<hr />\n<p>Make two unarmed Strikes. If both hit the same creature, combine their damage for the purpose of resistances and weaknesses. Apply your multiple attack penalty to the Strikes normally. As it has the flourish trait, you can use Flurry of Blows only once per turn.</p>\n<h2>Ki Spells</h2>\n<p>By tapping into a supernatural inner reserve called ki, you can create magical effects. Certain feats grant you special spells called ki spells, which are a type of focus spell. It costs 1 Focus Point to cast a focus spell. When you gain your first ki spell, you also gain a focus pool of 1 Focus Point. You refill your focus pool during your daily preparations, and you regain 1 Focus Point by spending 10 minutes using the @Compendium[pf2e.actionspf2e.Refocus]{Refocus} activity to meditate in order to reach inner peace.</p>\n<p>Focus spells are automatically heightened to half your level rounded up. Taking feats can give you more focus spells and increase the size of your focus pool, though your focus pool can never hold more than 3 points.</p>\n<p>When you first gain a ki spell, decide whether your ki spells are divine or occult spells. You are trained in spell attack rolls and spell DCs of that tradition, and your key spellcasting ability is Wisdom.</p>\n<h2>Initial Proficiencies</h2>\n<p>At 1st level, you gain a number of proficiencies representing your basic training, which are noted at the start of this class.</p>\n<h2>Monk Feats</h2>\n<p>At 1st level and every even-numbered level thereafter, you gain a monk class feat.</p>\n<h2>Powerful Fist</h2>\n<p>You know how to wield your fists as deadly weapons. The damage die for your fist increases to 1d6 instead of 1d4. Most people take a -2 circumstance penalty when making a lethal attack with nonlethal unarmed attacks, because they find it hard to use their fists with deadly force. You don't take this penalty when making a lethal attack with your fist or any other unarmed attacks.</p>\n<h2>Skill Feats<span style=\"float: right;\">Level 2</span></h2>\n<p>At 2nd level and every 2 levels thereafter, you gain a skill feat. You must be trained or better in the corresponding skill to select a skill feat.</p>\n<h2>General Feats<span style=\"float: right;\">Level 3</span></h2>\n<p>At 3rd level and every 4 levels thereafter, you gain a general feat.</p>\n<h2>Incredible Movement<span style=\"float: right;\">Level 3</span></h2>\n<p>You move like the wind. You gain a +10-foot status bonus to your Speed whenever you're not wearing armor. The bonus increases by 5 feet for every 4 levels you have beyond 3rd.</p>\n<h2>Mystic Strikes<span style=\"float: right;\">Level 3</span></h2>\n<p>Focusing your will into your physical attacks imbues them with mystical energy. Your unarmed attacks become magical, allowing them to get past resistances to non-magical attacks. However, you still need an item such as @Compendium[pf2e.equipment-srd.Handwraps of Mighty Blows]{Handwraps of Mighty Blows (+1)} to gain an item bonus to attack rolls or increase your attacks' weapon damage dice.</p>\n<h2>Skill Increases<span style=\"float: right;\">Level 3</span></h2>\n<p>At 3rd level and every 2 levels thereafter, you gain a skill increase. You can use this increase to either become trained in one skill you're untrained in, or become an expert in one skill in which you're already trained.</p>\n<p>At 7th level, you can use skill increases to become a master in a skill in which you're already an expert, and at 15th level, you can use them to become legendary in a skill in which you're already a master.</p>\n<h2>Ability Boosts<span style=\"float: right;\">Level 5</span></h2>\n<p>At 5th level and every 5 levels thereafter, you boost four different ability scores. You can use these ability boosts to increase your ability scores above 18. Boosting an ability score increases it by 1 if it's already 18 or above, or by 2 if it starts out below 18.</p>\n<h2>Alertness<span style=\"float: right;\">Level 5</span></h2>\n<p>You remain alert to threats around you. Your proficiency rank for Perception increases to expert.</p>\n<h2>Ancestry Feats<span style=\"float: right;\">Level 5</span></h2>\n<p>In addition to the ancestry feat you started with, you gain an ancestry feat at 5th level and every 4 levels thereafter.</p>\n<h2>Expert Strikes<span style=\"float: right;\">Level 5</span></h2>\n<p>You've practiced martial arts and have now surpassed your former skill. Your proficiency ranks for unarmed attacks and simple weapons increase to expert.</p>\n<h2>Path to Perfection<span style=\"float: right;\">Level 7</span></h2>\n<p>You have progressed along your own path to enlightenment. Choose your Fortitude, Reflex, or Will saving throw. Your proficiency rank for the chosen saving throw increases to master. When you roll a success on the chosen saving throw, you get a critical success instead.</p>\n<h2>Weapon Specialization<span style=\"float: right;\">Level 7</span></h2>\n<p>You've learned how to inflict greater injuries with the weapons you know best. You deal 2 additional damage with weapons and unarmed attacks in which you are an expert. This damage increases to 3 if you're a master, and 4 if you're legendary.</p>\n<h2>Metal Strikes<span style=\"float: right;\">Level 9</span></h2>\n<p>You can adjust your body to make unarmed attacks infused with the mystic energy of rare metals. Your unarmed attacks are treated as cold iron and silver. This allows you to deal more damage to a variety of supernatural creatures, such as demons, devils, and fey.</p>\n<h2>Monk Expertise<span style=\"float: right;\">Level 9</span></h2>\n<p>Your proficiency rank for your monk class DC increases to expert. If you have ki spells, your proficiency rank for spell attacks and spell DCs with the tradition of magic you use for your ki spells increases to expert.</p>\n<h2>Second Path to Perfection<span style=\"float: right;\">Level 11</span></h2>\n<p>You've learned to find perfection in every success. Choose a different saving throw than the one you chose for your path to perfection. Your proficiency rank for the chosen saving throw increases to master. If you roll a success with the chosen saving throw, you instead critically succeed.</p>\n<h2>Graceful Mastery<span style=\"float: right;\">Level 13</span></h2>\n<p>You move with perpetual grace in battle, eluding and turning aside blows. Your proficiency rank for unarmored defense increases to master.</p>\n<h2>Master Strikes<span style=\"float: right;\">Level 13</span></h2>\n<p>You have honed your skill in using your body as a weapon. Your proficiency ranks for unarmed attacks and simple weapons increase to master.</p>\n<h2>Greater Weapon Specialization<span style=\"float: right;\">Level 15</span></h2>\n<p>Your damage from weapon specialization increases to 4 with weapons and unarmed attacks in which you're an expert, 6 if you're a master, and 8 if you're legendary.</p>\n<h2>Third Path to Perfection<span style=\"float: right;\">Level 15</span></h2>\n<p>You have made great progress in your personal studies of enlightenment. Choose one of the saving throws you selected for path to perfection or second path to perfection. Your proficiency rank for the chosen type of save increases to legendary. When you roll a critical failure on the chosen type of save, you get a failure instead. When you roll a failure on the chosen type of save against an effect that deals damage, you take half damage.</p>\n<h2>Adamantine Strikes<span style=\"float: right;\">Level 17</span></h2>\n<p>When you focus your will into your limbs, your blows are as unyielding as the hardest of metals. Your unarmed attacks are treated as adamantine.</p>\n<h2>Graceful Legend<span style=\"float: right;\">Level 17</span></h2>\n<p>Your sublime movement grants you unparalleled protection and offense. Your proficiency rank for unarmored defense increases to legendary, and your proficiency rank for your monk class DC increases to master. If you have ki spells, your proficiency rank for spell attack rolls and spell DCs with the tradition of magic you use for your ki spells increases to master.</p>\n<h2>Perfected Form<span style=\"float: right;\">Level 19</span></h2>\n<p>You have purged incompetence from your techniques. On your first Strike of your turn, if you roll lower than 10, you can treat the attack roll as a 10. This is a fortune effect.</p>"
                },
                "generalFeatLevels": {
                    "value": [
                        3,
                        7,
                        11,
                        15,
                        19
                    ]
                },
                "hp": 10,
                "items": {
                    "1fw9s": {
                        "id": "D2AE8RfMlZ3D1FuV",
                        "img": "systems/pf2e/icons/features/classes/mystic-strikes.webp",
                        "level": 3,
                        "name": "Mystic Strikes",
                        "pack": "pf2e.classfeatures"
                    },
                    "2yqet": {
                        "id": "9EqIasqfI8YIM3Pt",
                        "img": "systems/pf2e/icons/features/classes/weapon-specialization.webp",
                        "level": 7,
                        "name": "Weapon Specialization",
                        "pack": "pf2e.classfeatures"
                    },
                    "3ohvk": {
                        "id": "y6qnbUc8y0815QNE",
                        "img": "systems/pf2e/icons/features/classes/choice-feature.webp",
                        "level": 11,
                        "name": "Second Path to Perfection",
                        "pack": "pf2e.classfeatures"
                    },
                    "4ru9g": {
                        "id": "Z7HX6TeFsaup7Dx9",
                        "img": "systems/pf2e/icons/features/classes/greater-weapon-specialization.webp",
                        "level": 15,
                        "name": "Greater Weapon Specialization (Level 15)",
                        "pack": "pf2e.classfeatures"
                    },
                    "8tl8t": {
                        "id": "Cq6NjvcKZOMySBVj",
                        "img": "systems/pf2e/icons/features/classes/incredible-movement.webp",
                        "level": 3,
                        "name": "Incredible Movement",
                        "pack": "pf2e.classfeatures"
                    },
                    "ai4sq": {
                        "id": "VgZIutWjFl8oZQFi",
                        "img": "systems/pf2e/icons/features/classes/expert-strikes.webp",
                        "level": 5,
                        "name": "Expert Strikes",
                        "pack": "pf2e.classfeatures"
                    },
                    "bgd0f": {
                        "id": "D8CSi8c9XiRpVc5M",
                        "img": "systems/pf2e/icons/features/classes/alertness.webp",
                        "level": 5,
                        "name": "Alertness",
                        "pack": "pf2e.classfeatures"
                    },
                    "c8q3r": {
                        "id": "NLHHHiAcdnZ5ohc2",
                        "img": "systems/pf2e/icons/features/classes/flurry-of-blows.webp",
                        "level": 1,
                        "name": "Flurry of Blows",
                        "pack": "pf2e.classfeatures"
                    },
                    "dzcvw": {
                        "id": "JWDfzYub3JfuEtth",
                        "img": "systems/pf2e/icons/features/classes/graceful-legend.webp",
                        "level": 17,
                        "name": "Graceful Legend",
                        "pack": "pf2e.classfeatures"
                    },
                    "iqbky": {
                        "id": "SB8UJ8rZmvbcBweJ",
                        "img": "systems/pf2e/icons/features/classes/powerful-fist.webp",
                        "level": 1,
                        "name": "Powerful Fist",
                        "pack": "pf2e.classfeatures"
                    },
                    "k3mxz": {
                        "id": "95LI24ZSx0d4qfKX",
                        "img": "systems/pf2e/icons/features/classes/graceful-mastery.webp",
                        "level": 13,
                        "name": "Graceful Mastery",
                        "pack": "pf2e.classfeatures"
                    },
                    "t4zic": {
                        "id": "lxImO5D0qWp0gXFB",
                        "img": "systems/pf2e/icons/features/classes/monk-expertise.webp",
                        "level": 9,
                        "name": "Monk Expertise",
                        "pack": "pf2e.classfeatures"
                    },
                    "udbeu": {
                        "id": "CoRfFkisEsHE1e43",
                        "img": "systems/pf2e/icons/features/classes/metal-strikes.webp",
                        "level": 9,
                        "name": "Metal Strikes",
                        "pack": "pf2e.classfeatures"
                    },
                    "xcxpa": {
                        "id": "5cthRUkRqRtduVvN",
                        "img": "systems/pf2e/icons/features/classes/adamantine-strikes.webp",
                        "level": 17,
                        "name": "Adamantine Strikes",
                        "pack": "pf2e.classfeatures"
                    },
                    "z0s0v": {
                        "id": "1K6m6AVmn3r8XZ9d",
                        "img": "systems/pf2e/icons/features/classes/choice-feature.webp",
                        "level": 7,
                        "name": "Path to Perfection",
                        "pack": "pf2e.classfeatures"
                    },
                    "zeyz5": {
                        "id": "KmTfg7Sg5va4yU00",
                        "img": "systems/pf2e/icons/features/classes/perfected-form.webp",
                        "level": 19,
                        "name": "Perfected Form",
                        "pack": "pf2e.classfeatures"
                    },
                    "zgtbz": {
                        "id": "haoTkr2U5k7kaAKN",
                        "img": "systems/pf2e/icons/features/classes/choice-feature.webp",
                        "level": 15,
                        "name": "Third Path to Perfection",
                        "pack": "pf2e.classfeatures"
                    },
                    "zl9gg": {
                        "id": "0iidKkzC2yy13lIf",
                        "img": "systems/pf2e/icons/features/classes/master-strikes.webp",
                        "level": 13,
                        "name": "Master Strikes",
                        "pack": "pf2e.classfeatures"
                    }
                },
                "keyAbility": {
                    "value": [
                        "dex",
                        "str"
                    ]
                },
                "perception": 1,
                "rules": [],
                "savingThrows": {
                    "fortitude": 2,
                    "reflex": 2,
                    "will": 2
                },
                "skillFeatLevels": {
                    "value": [
                        2,
                        4,
                        6,
                        8,
                        10,
                        12,
                        14,
                        16,
                        18,
                        20
                    ]
                },
                "skillIncreaseLevels": {
                    "value": [
                        3,
                        5,
                        7,
                        9,
                        11,
                        13,
                        15,
                        17,
                        19
                    ]
                },
                "slug": "monk",
                "source": {
                    "value": "Pathfinder Core Rulebook"
                },
                "trainedSkills": {
                    "additional": 4,
                    "value": []
                },
                "traits": {
                    "custom": "",
                    "rarity": "common",
                    "value": []
                }
            },
            "flags": {
                "core": {
                    "sourceId": "Compendium.pf2e.classes.YPxpk9JbMnKjbNLc"
                },
                "pf2e": {
                    "insertedClassFeaturesLevel": 1
                }
            },
            "img": "systems/pf2e/icons/classes/monk.webp",
            "items": {
                "1fw9s": {
                    "id": "D2AE8RfMlZ3D1FuV",
                    "name": "Mystic Strikes",
                    "pack": "pf2e.classfeatures"
                },
                "2yqet": {
                    "id": "WiM7X4xmpMx4s6LD",
                    "name": "Weapon Specialization (Level 7)",
                    "pack": "pf2e.classfeatures"
                },
                "3ohvk": {
                    "id": "y6qnbUc8y0815QNE",
                    "name": "Second Path to Perfection",
                    "pack": "pf2e.classfeatures"
                },
                "4ru9g": {
                    "id": "Z7HX6TeFsaup7Dx9",
                    "name": "Greater Weapon Specialization (Level 15)",
                    "pack": "pf2e.classfeatures"
                },
                "8tl8t": {
                    "id": "Cq6NjvcKZOMySBVj",
                    "name": "Incredible Movement",
                    "pack": "pf2e.classfeatures"
                },
                "ai4sq": {
                    "id": "VgZIutWjFl8oZQFi",
                    "name": "Expert Strikes",
                    "pack": "pf2e.classfeatures"
                },
                "bgd0f": {
                    "id": "2o1Cj7hDayDlslqY",
                    "name": "Alertness (Level 5)",
                    "pack": "pf2e.classfeatures"
                },
                "c8q3r": {
                    "id": "NLHHHiAcdnZ5ohc2",
                    "name": "Flurry of Blows",
                    "pack": "pf2e.classfeatures"
                },
                "dzcvw": {
                    "id": "JWDfzYub3JfuEtth",
                    "name": "Graceful Legend",
                    "pack": "pf2e.classfeatures"
                },
                "iqbky": {
                    "id": "SB8UJ8rZmvbcBweJ",
                    "name": "Powerful Fist",
                    "pack": "pf2e.classfeatures"
                },
                "k3mxz": {
                    "id": "95LI24ZSx0d4qfKX",
                    "name": "Graceful Mastery",
                    "pack": "pf2e.classfeatures"
                },
                "t4zic": {
                    "id": "lxImO5D0qWp0gXFB",
                    "name": "Monk Expertise",
                    "pack": "pf2e.classfeatures"
                },
                "udbeu": {
                    "id": "CoRfFkisEsHE1e43",
                    "name": "Metal Strikes",
                    "pack": "pf2e.classfeatures"
                },
                "xcxpa": {
                    "id": "5cthRUkRqRtduVvN",
                    "name": "Adamantine Strikes",
                    "pack": "pf2e.classfeatures"
                },
                "z0s0v": {
                    "id": "1K6m6AVmn3r8XZ9d",
                    "name": "Path to Perfection",
                    "pack": "pf2e.classfeatures"
                },
                "zeyz5": {
                    "id": "KmTfg7Sg5va4yU00",
                    "name": "Perfected Form",
                    "pack": "pf2e.classfeatures"
                },
                "zgtbz": {
                    "id": "haoTkr2U5k7kaAKN",
                    "name": "Third Path to Perfection",
                    "pack": "pf2e.classfeatures"
                },
                "zl9gg": {
                    "id": "0iidKkzC2yy13lIf",
                    "name": "Master Strikes",
                    "pack": "pf2e.classfeatures"
                }
            },
            "name": "Monk",
            "sort": 0,
            "type": "class"
        },
        {
            "_id": "x2k6kbhksi7md18z",
            "data": {
                "boosts": {
                    "0": {
                        "value": [
                            "dex",
                            "str"
                        ]
                    },
                    "1": {
                        "value": [
                            "cha",
                            "con",
                            "dex",
                            "int",
                            "str",
                            "wis"
                        ]
                    }
                },
                "description": {
                    "value": "<p>You dedicated yourself to intense training and rigorous study to become a great warrior. The school you attended might have been a traditionalist monastery, an elite military academy, or the local branch of a prestigious mercenary organization.</p>\n<p>Choose two ability boosts. One must be to <strong>Strength</strong> or <strong>Dexterity</strong>, and one is a free ability boost.</p>\n<p>You're trained in the Acrobatics skill and the Warfare Lore skill. You gain the @Compendium[pf2e.feats-srd.Cat Fall]{Cat Fall} skill feat.</p>"
                },
                "items": {
                    "fdifx": {
                        "id": "LQw0yIMDUJJkq1nD",
                        "img": "systems/pf2e/icons/features/feats/feats.webp",
                        "level": "1",
                        "name": "Cat Fall",
                        "pack": "pf2e.feats-srd"
                    }
                },
                "rules": [],
                "slug": "martial-disciple-acrobatics",
                "source": {
                    "value": "Pathfinder Core Rulebook"
                },
                "trainedLore": "Warfare Lore",
                "trainedSkills": {
                    "value": [
                        "acr"
                    ]
                },
                "traits": {
                    "custom": "",
                    "rarity": "common",
                    "value": []
                }
            },
            "flags": {
                "core": {
                    "sourceId": "Compendium.pf2e.backgrounds.lRVYgV9zL6O6O3U4"
                }
            },
            "img": "systems/pf2e/icons/default-icons/background.svg",
            "name": "Martial Disciple (Acrobatics)",
            "sort": 0,
            "type": "background"
        },
        {
            "_id": "51kuth1ik2ip939r",
            "data": {
                "actionCategory": {
                    "value": ""
                },
                "actionType": {
                    "value": "passive"
                },
                "actions": {
                    "value": null
                },
                "description": {
                    "value": "<p>Your catlike aerial acrobatics allow you to cushion your falls. Treat falls as 10 feet shorter. If you're an expert in Acrobatics, treat falls as 25 feet shorter. If you're a master in Acrobatics, treat them as 50 feet shorter. If you're legendary in Acrobatics, you always land on your feet and don't take damage, regardless of the distance of the fall.</p>"
                },
                "featType": {
                    "value": "skill"
                },
                "level": {
                    "value": 1
                },
                "location": "x2k6kbhksi7md18z",
                "prerequisites": {
                    "value": [
                        {
                            "value": "trained in Acrobatics"
                        }
                    ]
                },
                "rules": [],
                "slug": "cat-fall",
                "source": {
                    "value": "Pathfinder Core Rulebook"
                },
                "traits": {
                    "custom": "",
                    "rarity": "common",
                    "value": [
                        "general",
                        "skill"
                    ]
                }
            },
            "flags": {
                "core": {
                    "sourceId": "Compendium.pf2e.feats-srd.LQw0yIMDUJJkq1nD"
                }
            },
            "img": "systems/pf2e/icons/features/feats/feats.webp",
            "name": "Cat Fall",
            "sort": 0,
            "type": "feat"
        },
        {
            "_id": "fMNWQ7KJeKHRANnQ",
            "data": {
                "ability": {
                    "value": "cha"
                },
                "autoHeightenLevel": {
                    "value": null
                },
                "description": {
                    "value": ""
                },
                "displayLevels": {},
                "prepared": {
                    "flexible": false,
                    "value": "innate"
                },
                "proficiency": {
                    "value": 0
                },
                "rules": [],
                "showSlotlessLevels": {
                    "value": false
                },
                "showUnpreparedSpells": {
                    "value": true
                },
                "slots": {
                    "slot0": {
                        "max": 0,
                        "prepared": [],
                        "value": 0
                    },
                    "slot1": {
                        "max": 0,
                        "prepared": [],
                        "value": 0
                    },
                    "slot10": {
                        "max": 0,
                        "prepared": [],
                        "value": 0
                    },
                    "slot11": {
                        "max": 0,
                        "prepared": [],
                        "value": 0
                    },
                    "slot2": {
                        "max": 0,
                        "prepared": [],
                        "value": 0
                    },
                    "slot3": {
                        "max": 0,
                        "prepared": [],
                        "value": 0
                    },
                    "slot4": {
                        "max": 0,
                        "prepared": [],
                        "value": 0
                    },
                    "slot5": {
                        "max": 0,
                        "prepared": [],
                        "value": 0
                    },
                    "slot6": {
                        "max": 0,
                        "prepared": [],
                        "value": 0
                    },
                    "slot7": {
                        "max": 0,
                        "prepared": [],
                        "value": 0
                    },
                    "slot8": {
                        "max": 0,
                        "prepared": [],
                        "value": 0
                    },
                    "slot9": {
                        "max": 0,
                        "prepared": [],
                        "value": 0
                    }
                },
                "slug": null,
                "source": {
                    "value": ""
                },
                "spelldc": {
                    "dc": 0,
                    "mod": 0,
                    "value": 0
                },
                "tradition": {
                    "value": "arcane"
                },
                "traits": {
                    "custom": "",
                    "rarity": "common",
                    "value": []
                }
            },
            "flags": {},
            "img": "systems/pf2e/icons/default-icons/spellcastingEntry.svg",
            "name": "Innate Arcane Spells",
            "sort": 0,
            "type": "spellcastingEntry"
        },
        {
            "_id": "cvkJBzJs0NRoZjKp",
            "data": {
                "ability": {
                    "value": ""
                },
                "area": {
                    "areaType": "emanation",
                    "value": "30"
                },
                "areasize": {
                    "value": "30-foot emanation"
                },
                "category": {
                    "value": "spell"
                },
                "components": {
                    "focus": false,
                    "material": false,
                    "somatic": true,
                    "verbal": true
                },
                "cost": {
                    "value": ""
                },
                "damage": {
                    "value": {}
                },
                "description": {
                    "value": "<p>You send out a pulse that registers the presence of magic. You receive no information beyond the presence or absence of magic. You can choose to ignore magic you're fully aware of, such as the magic items and ongoing spells of you and your allies.</p>\n<p>You detect illusion magic only if that magic's effect has a lower level than the level of your detect magic spell. However, items that have an illusion aura but aren't deceptive in appearance (such as an invisibility potion) typically are detected normally.</p>\n<hr />\n<p><strong>Heightened (3rd)</strong> You learn the school of magic for the highest-level effect within range that the spell detects. If multiple effects are equally strong, the GM determines which you learn.</p>\n<p><strong>Heightened (4th)</strong> As 3rd level, but you also pinpoint the source of the highest-level magic. Like for an imprecise sense, you don't learn the exact location, but can narrow down the source to within a 5-foot cube (or the nearest if larger than that).</p>"
                },
                "duration": {
                    "value": ""
                },
                "hasCounteractCheck": {
                    "value": false
                },
                "level": {
                    "value": 1
                },
                "location": {
                    "value": "fMNWQ7KJeKHRANnQ"
                },
                "materials": {
                    "value": ""
                },
                "prepared": {
                    "value": ""
                },
                "primarycheck": {
                    "value": ""
                },
                "range": {
                    "value": ""
                },
                "rules": [],
                "save": {
                    "basic": "",
                    "value": ""
                },
                "school": {
                    "value": "divination"
                },
                "secondarycasters": {
                    "value": ""
                },
                "secondarycheck": {
                    "value": ""
                },
                "slug": "detect-magic",
                "source": {
                    "value": "Pathfinder Core Rulebook"
                },
                "spellType": {
                    "value": "utility"
                },
                "sustained": {
                    "value": false
                },
                "target": {
                    "value": ""
                },
                "time": {
                    "value": "2"
                },
                "traditions": {
                    "custom": "",
                    "value": [
                        "arcane",
                        "divine",
                        "occult",
                        "primal"
                    ]
                },
                "traits": {
                    "custom": "",
                    "rarity": "common",
                    "value": [
                        "detection",
                        "cantrip"
                    ]
                }
            },
            "flags": {
                "core": {
                    "sourceId": "Compendium.pf2e.spells-srd.gpzpAAAJ1Lza2JVl"
                }
            },
            "img": "systems/pf2e/icons/spells/detect-magic.webp",
            "name": "Detect Magic",
            "sort": 0,
            "type": "spell"
        },
        {
            "_id": "SpCtTqougVUgAoqz",
            "data": {
                "actionCategory": {
                    "value": ""
                },
                "actionType": {
                    "value": "passive"
                },
                "actions": {
                    "value": null
                },
                "description": {
                    "value": "<p>Your elven magic manifests as a simple arcane spell, even if you aren't formally trained in magic. Choose one cantrip from the arcane spell list. You can cast this cantrip as an arcane innate spell at will. A cantrip is heightened to a spell level equal to half your level rounded up.</p>"
                },
                "featType": {
                    "value": "ancestry"
                },
                "level": {
                    "value": 1
                },
                "location": "ancestry-1",
                "prerequisites": {
                    "value": []
                },
                "rules": [],
                "slug": "otherworldly-magic",
                "source": {
                    "value": "Pathfinder Core Rulebook"
                },
                "traits": {
                    "custom": "",
                    "rarity": "common",
                    "value": [
                        "elf"
                    ]
                }
            },
            "flags": {
                "core": {
                    "sourceId": "Compendium.pf2e.feats-srd.Pat4H0VbmApblZxc"
                }
            },
            "img": "systems/pf2e/icons/features/feats/feats.webp",
            "name": "Otherworldly Magic",
            "sort": 0,
            "type": "feat"
        },
        {
            "_id": "hhH8UH1qoW939iDy",
            "data": {
                "ability": {
                    "value": ""
                },
                "area": {
                    "areaType": "",
                    "value": null
                },
                "areasize": {
                    "value": ""
                },
                "category": {
                    "value": "spell"
                },
                "components": {
                    "focus": false,
                    "material": false,
                    "somatic": false,
                    "verbal": true
                },
                "cost": {
                    "value": ""
                },
                "damage": {
                    "value": {}
                },
                "description": {
                    "value": "<p>You raise a magical shield of force. This counts as using the Raise a Shield action, giving you a +1 circumstance bonus to AC until the start of your next turn, but it doesn't require a hand to use.</p>\n<p>While the spell is in effect, you can use the Shield Block reaction with your magic shield. The shield has Hardness 5. After you use Shield Block, the spell ends and you can't cast it again for 10 minutes. Unlike a normal Shield Block, you can use the spell's reaction against the magic missile spell.</p>\n<p>Heightening the spell increases the shield's Hardness.</p>\n<p>@Compendium[pf2e.spell-effects.Spell Effect: Shield]{Spell Effect: Shield}</p>\n<hr />\n<p><strong>Heightened (3rd)</strong> The shield has Hardness 10.</p>\n<p><strong>Heightened (5th)</strong> The shield has Hardness 15.</p>\n<p><strong>Heightened (7th)</strong> The shield has Hardness 20.</p>\n<p><strong>Heightened (9th)</strong> The shield has Hardness 25.</p>"
                },
                "duration": {
                    "value": "until the start of your next turn"
                },
                "hasCounteractCheck": {
                    "value": false
                },
                "level": {
                    "value": 1
                },
                "location": {
                    "value": "fMNWQ7KJeKHRANnQ"
                },
                "materials": {
                    "value": ""
                },
                "prepared": {
                    "value": ""
                },
                "primarycheck": {
                    "value": ""
                },
                "range": {
                    "value": ""
                },
                "rules": [],
                "save": {
                    "basic": "",
                    "value": ""
                },
                "school": {
                    "value": "abjuration"
                },
                "secondarycasters": {
                    "value": ""
                },
                "secondarycheck": {
                    "value": ""
                },
                "slug": "shield",
                "source": {
                    "value": "Pathfinder Core Rulebook"
                },
                "spellType": {
                    "value": "utility"
                },
                "sustained": {
                    "value": false
                },
                "target": {
                    "value": ""
                },
                "time": {
                    "value": "1"
                },
                "traditions": {
                    "value": [
                        "arcane",
                        "divine",
                        "occult"
                    ]
                },
                "traits": {
                    "custom": "",
                    "rarity": "common",
                    "value": [
                        "cantrip",
                        "force"
                    ]
                }
            },
            "flags": {
                "core": {
                    "sourceId": "Compendium.pf2e.spells-srd.TVKNbcgTee19PXZR"
                }
            },
            "img": "systems/pf2e/icons/spells/shield.webp",
            "name": "Shield",
            "sort": 0,
            "type": "spell"
        },
        {
            "_id": "YAv8QmpOUkSXxTqw",
            "data": {
                "actionCategory": {
                    "value": ""
                },
                "actionType": {
                    "value": "action"
                },
                "actions": {
                    "value": 1
                },
                "description": {
                    "value": "<p><strong>Requirements</strong> You are unarmored</p>\n<hr />\n<p>You enter the stance of a crane, holding your arms in an imitation of a crane's wings and using flowing, defensive motions.</p>\n<p>You gain a +1 circumstance bonus to AC, but the only Strikes you can make are crane wing attacks. These deal 1d6 bludgeoning damage; are in the brawling group; and have the agile, finesse, nonlethal, and unarmed traits.</p>\n<p>While in Crane Stance, reduce the DC for High Jump and Long Jump by 5, and when you Leap, you can move an additional 5 feet horizontally or 2 feet vertically.</p>\n<p>@Compendium[pf2e.feat-effects.Stance: Crane Stance]{Stance: Crane Stance}</p>"
                },
                "featType": {
                    "value": "class"
                },
                "level": {
                    "value": 1
                },
                "location": "class-1",
                "prerequisites": {
                    "value": [
                        {
                            "value": "You are unarmoured"
                        }
                    ]
                },
                "rules": [],
                "slug": "crane-stance",
                "source": {
                    "value": "Pathfinder Core Rulebook"
                },
                "traits": {
                    "custom": "",
                    "rarity": "common",
                    "value": [
                        "monk",
                        "stance"
                    ]
                }
            },
            "flags": {
                "core": {
                    "sourceId": "Compendium.pf2e.feats-srd.bf7NCeKqDClaqhTR"
                }
            },
            "img": "systems/pf2e/icons/features/feats/feats.webp",
            "name": "Crane Stance",
            "sort": 0,
            "type": "feat"
        },
        {
            "_id": "LVr7R9d8eHQ5OZyo",
            "data": {
                "description": {
                    "value": ""
                },
                "mod": {
                    "value": 0
                },
                "proficient": {
                    "value": 1
                },
                "rules": [],
                "slug": null,
                "source": {
                    "value": ""
                },
                "traits": {
                    "custom": "",
                    "rarity": "common",
                    "value": []
                }
            },
            "flags": {},
            "img": "systems/pf2e/icons/default-icons/lore.svg",
            "name": "Warfare Lore",
            "sort": 0,
            "type": "lore"
        },
        {
            "_id": "vmARB9kKGmBbRS2r",
            "data": {
                "MAP": {
                    "value": ""
                },
                "baseItem": "alchemical-bomb",
                "bonus": {
                    "value": 0
                },
                "bonusDamage": {
                    "value": 0
                },
                "category": "martial",
                "containerId": null,
                "damage": {
                    "damageType": "fire",
                    "dice": 1,
                    "die": "d8",
                    "value": ""
                },
                "description": {
                    "value": "<p><strong>Activate</strong> <span class=\"pf2-icon\">A</span> Strike</p>\n<p>Alchemist's fire is a combination of volatile liquids that ignite when exposed to air. Alchemist's fire deals 1d8 fire damage, 1 persistent fire damage, and 1 fire splash damage.</p>"
                },
                "equipped": {
                    "carryType": "worn",
                    "handsHeld": 0,
                    "invested": null
                },
                "equippedBulk": {
                    "value": ""
                },
                "group": "bomb",
                "hardness": 0,
                "hp": {
                    "brokenThreshold": 0,
                    "max": 0,
                    "value": 0
                },
                "level": {
                    "value": 1
                },
                "negateBulk": {
                    "value": "0"
                },
                "potencyRune": {
                    "value": null
                },
                "preciousMaterial": {
                    "value": ""
                },
                "preciousMaterialGrade": {
                    "value": ""
                },
                "price": {
                    "value": {
                        "gp": 3
                    }
                },
                "property1": {
                    "critDamage": "",
                    "critDamageType": "",
                    "critDice": null,
                    "critDie": "",
                    "criticalConditionType": "",
                    "criticalConditionValue": null,
                    "damageType": "",
                    "dice": null,
                    "die": "",
                    "strikeConditionType": "",
                    "strikeConditionValue": null,
                    "value": ""
                },
                "propertyRune1": {
                    "value": ""
                },
                "propertyRune2": {
                    "value": ""
                },
                "propertyRune3": {
                    "value": ""
                },
                "propertyRune4": {
                    "value": ""
                },
                "quantity": 2,
                "range": 20,
                "reload": {
                    "value": ""
                },
                "rules": [
                    {
                        "key": "Note",
                        "outcome": [
                            "success"
                        ],
                        "selector": "{item|_id}-damage",
                        "text": "<p class='compact-text'>@Localize[PF2E.BombNotes.AlchemistsFire.Lesser.success]</p>"
                    },
                    {
                        "key": "Note",
                        "outcome": [
                            "criticalSuccess"
                        ],
                        "selector": "{item|_id}-damage",
                        "text": "<p class='compact-text'>@Localize[PF2E.BombNotes.AlchemistsFire.Lesser.criticalSuccess]</p>"
                    }
                ],
                "size": "med",
                "slug": "alchemists-fire-lesser",
                "source": {
                    "value": "Pathfinder Core Rulebook"
                },
                "specific": {
                    "value": false
                },
                "splashDamage": {
                    "value": 1
                },
                "stackGroup": null,
                "strikingRune": {
                    "value": ""
                },
                "traits": {
                    "custom": "",
                    "rarity": "common",
                    "value": [
                        "alchemical",
                        "bomb",
                        "consumable",
                        "fire",
                        "splash"
                    ]
                },
                "usage": {
                    "value": "held-in-one-hand"
                },
                "weight": {
                    "value": "L"
                }
            },
            "flags": {
                "core": {
                    "sourceId": "Compendium.pf2e.equipment-srd.yd3kEK21YknZLlcT"
                }
            },
            "img": "systems/pf2e/icons/equipment/alchemical-items/alchemical-bombs/alchemists-fire.webp",
            "name": "Alchemist's Fire (Lesser)",
            "sort": 0,
            "type": "weapon"
        },
        {
            "_id": "Rp5iANzz1obxjWeM",
            "data": {
                "baseItem": null,
                "bulkCapacity": {
                    "value": "4"
                },
                "collapsed": false,
                "containerId": null,
                "description": {
                    "value": "<p>A backpack holds up to 4 Bulk of items and the first 2 Bulk of these items don't count against your Bulk limits. If you're carrying or stowing the pack rather than wearing it on your back, its Bulk is light instead of negligible</p>"
                },
                "equipped": {
                    "carryType": "worn",
                    "inSlot": true,
                    "invested": null
                },
                "equippedBulk": {
                    "value": "0"
                },
                "hardness": 0,
                "hp": {
                    "brokenThreshold": 0,
                    "max": 0,
                    "value": 0
                },
                "level": {
                    "value": 0
                },
                "negateBulk": {
                    "value": "2"
                },
                "preciousMaterial": {
                    "value": ""
                },
                "preciousMaterialGrade": {
                    "value": ""
                },
                "price": {
                    "value": {
                        "sp": 1
                    }
                },
                "quantity": 1,
                "rules": [],
                "size": "med",
                "slug": "backpack",
                "source": {
                    "value": "Pathfinder Core Rulebook"
                },
                "stackGroup": null,
                "stowing": true,
                "traits": {
                    "custom": "",
                    "rarity": "common",
                    "value": []
                },
                "usage": {
                    "value": "wornbackpack"
                },
                "weight": {
                    "value": "L"
                }
            },
            "flags": {
                "core": {
                    "sourceId": "Compendium.pf2e.equipment-srd.3lgwjrFEsQVKzhh7"
                }
            },
            "img": "systems/pf2e/icons/equipment/adventuring-gear/backpack.webp",
            "name": "Backpack",
            "sort": 0,
            "type": "backpack"
        },
        {
            "_id": "dMU07uhpHxqIKQQl",
            "data": {
                "baseItem": null,
                "containerId": "Rp5iANzz1obxjWeM",
                "description": {
                    "value": ""
                },
                "equipped": {
                    "carryType": "stowed",
                    "handsHeld": 0,
                    "invested": null
                },
                "equippedBulk": {
                    "value": ""
                },
                "hardness": 0,
                "hp": {
                    "brokenThreshold": 0,
                    "max": 0,
                    "value": 0
                },
                "level": {
                    "value": 0
                },
                "negateBulk": {
                    "value": "0"
                },
                "preciousMaterial": {
                    "value": ""
                },
                "preciousMaterialGrade": {
                    "value": ""
                },
                "price": {
                    "value": {
                        "cp": 1
                    }
                },
                "quantity": 10,
                "rules": [],
                "size": "med",
                "slug": "chalk",
                "source": {
                    "value": "Pathfinder Core Rulebook"
                },
                "stackGroup": null,
                "traits": {
                    "custom": "",
                    "rarity": "common",
                    "value": []
                },
                "usage": {
                    "value": "held-in-one-hand"
                },
                "weight": {
                    "value": "-"
                }
            },
            "flags": {
                "core": {
                    "sourceId": "Compendium.pf2e.equipment-srd.xShIDyydOMkGvGNb"
                }
            },
            "img": "systems/pf2e/icons/equipment/adventuring-gear/chalk.webp",
            "name": "Chalk",
            "sort": 0,
            "type": "equipment"
        },
        {
            "_id": "W5sXSYspMCMa2tIV",
            "data": {
                "MAP": {
                    "value": ""
                },
                "baseItem": "dagger",
                "bonus": {
                    "value": 0
                },
                "bonusDamage": {
                    "value": 0
                },
                "category": "simple",
                "containerId": null,
                "damage": {
                    "damageType": "piercing",
                    "dice": 1,
                    "die": "d4",
                    "value": ""
                },
                "description": {
                    "value": "<p>This small, bladed weapon is held in one hand and used to stab a creature in close combat. It can also be thrown.</p>"
                },
                "equipped": {
                    "carryType": "worn",
                    "handsHeld": 0,
                    "invested": null
                },
                "equippedBulk": {
                    "value": ""
                },
                "group": "knife",
                "hardness": 0,
                "hp": {
                    "brokenThreshold": 0,
                    "max": 0,
                    "value": 0
                },
                "level": {
                    "value": 0
                },
                "negateBulk": {
                    "value": "0"
                },
                "potencyRune": {
                    "value": 0
                },
                "preciousMaterial": {
                    "value": null
                },
                "preciousMaterialGrade": {
                    "value": null
                },
                "price": {
                    "value": {
                        "sp": 2
                    }
                },
                "property1": {
                    "critDamage": "",
                    "critDamageType": "",
                    "critDice": null,
                    "critDie": "",
                    "criticalConditionType": "",
                    "criticalConditionValue": null,
                    "damageType": "",
                    "dice": null,
                    "die": "",
                    "strikeConditionType": "",
                    "strikeConditionValue": null,
                    "value": ""
                },
                "propertyRune1": {
                    "value": null
                },
                "propertyRune2": {
                    "value": null
                },
                "propertyRune3": {
                    "value": null
                },
                "propertyRune4": {
                    "value": null
                },
                "quantity": 2,
                "range": null,
                "reload": {
                    "value": ""
                },
                "rules": [],
                "size": "med",
                "slug": "dagger",
                "source": {
                    "value": "Pathfinder Core Rulebook"
                },
                "specific": {
                    "value": false
                },
                "splashDamage": {
                    "value": 0
                },
                "stackGroup": null,
                "strikingRune": {
                    "value": ""
                },
                "traits": {
                    "custom": "",
                    "rarity": "common",
                    "value": [
                        "agile",
                        "finesse",
                        "thrown-10",
                        "versatile-s"
                    ]
                },
                "usage": {
                    "value": "held-in-one-hand"
                },
                "weight": {
                    "value": "L"
                }
            },
            "flags": {
                "core": {
                    "sourceId": "Compendium.pf2e.equipment-srd.rQWaJhI5Bko5x14Z"
                }
            },
            "img": "systems/pf2e/icons/equipment/weapons/dagger.webp",
            "name": "Dagger",
            "sort": 0,
            "type": "weapon"
        },
        {
            "_id": "7pLYOHgV0oytatSN",
            "data": {
                "activation": {
                    "condition": "",
                    "cost": 0,
                    "type": ""
                },
                "autoDestroy": {
                    "_deprecated": true,
                    "value": true
                },
                "autoUse": {
                    "_deprecated": true,
                    "value": true
                },
                "baseItem": null,
                "charges": {
                    "_deprecated": true,
                    "max": 1,
                    "value": 1
                },
                "consumableType": {
                    "value": "elixir"
                },
                "consume": {
                    "_deprecated": true,
                    "value": "1d6"
                },
                "containerId": null,
                "description": {
                    "value": "<p><strong>Activate</strong> <span class=\"pf2-icon\">A</span> Interact</p>\n<p>Elixirs of life accelerate a living creature's natural healing processes and immune system. Upon drinking this elixir, you regain [[/r {1d6}[healing]]]{1d6 Hit Points} and gain +1 item bonus to saving throws against diseases and poisons for 10 minutes.</p>\n<p>@Compendium[pf2e.consumable-effects.Effect: Elixir of Life (Minor)]{Effect: Elixir of Life (Minor)}</p>"
                },
                "duration": {
                    "units": "",
                    "value": null
                },
                "equipped": {
                    "carryType": "worn",
                    "handsHeld": 0
                },
                "equippedBulk": {
                    "value": ""
                },
                "hardness": 0,
                "hp": {
                    "brokenThreshold": 0,
                    "max": 0,
                    "value": 0
                },
                "level": {
                    "value": 1
                },
                "negateBulk": {
                    "value": "0"
                },
                "preciousMaterial": {
                    "value": ""
                },
                "preciousMaterialGrade": {
                    "value": ""
                },
                "price": {
                    "value": {
                        "gp": 3
                    }
                },
                "quantity": 2,
                "range": {
                    "long": null,
                    "units": "",
                    "value": null
                },
                "rules": [],
                "size": "med",
                "slug": "elixir-of-life-minor",
                "source": {
                    "value": "Pathfinder Core Rulebook"
                },
                "spell": {
                    "data": null,
                    "heightenedLevel": null
                },
                "stackGroup": null,
                "target": {
                    "type": "",
                    "units": "",
                    "value": null
                },
                "traits": {
                    "custom": "",
                    "rarity": "common",
                    "value": [
                        "alchemical",
                        "consumable",
                        "elixir",
                        "healing"
                    ]
                },
                "usage": {
                    "value": "held-in-one-hand"
                },
                "uses": {
                    "autoDestroy": true,
                    "autoUse": true,
                    "max": 0,
                    "per": null,
                    "value": 0
                },
                "weight": {
                    "value": "L"
                }
            },
            "flags": {
                "core": {
                    "sourceId": "Compendium.pf2e.equipment-srd.hDLbR56Id2OtU318"
                }
            },
            "img": "systems/pf2e/icons/equipment/alchemical-items/alchemical-elixirs/elixir-of-life.webp",
            "name": "Elixir of Life (Minor)",
            "sort": 0,
            "type": "consumable"
        },
        {
            "_id": "vJBnXOlgVEcidf1s",
            "data": {
                "baseItem": null,
                "containerId": "Rp5iANzz1obxjWeM",
                "description": {
                    "value": "<p>50 feet of rope.</p>"
                },
                "equipped": {
                    "carryType": "stowed",
                    "handsHeld": 0,
                    "invested": null
                },
                "equippedBulk": {
                    "value": ""
                },
                "hardness": 0,
                "hp": {
                    "brokenThreshold": 0,
                    "max": 0,
                    "value": 0
                },
                "level": {
                    "value": 0
                },
                "negateBulk": {
                    "value": ""
                },
                "preciousMaterial": {
                    "value": ""
                },
                "preciousMaterialGrade": {
                    "value": ""
                },
                "price": {
                    "value": {
                        "sp": 5
                    }
                },
                "quantity": 1,
                "rules": [],
                "size": "med",
                "slug": "rope",
                "source": {
                    "value": "Pathfinder Core Rulebook"
                },
                "stackGroup": null,
                "traits": {
                    "custom": "",
                    "rarity": "common",
                    "value": []
                },
                "usage": {
                    "value": "held-in-one-hand"
                },
                "weight": {
                    "value": "L"
                }
            },
            "flags": {
                "core": {
                    "sourceId": "Compendium.pf2e.equipment-srd.fyYnQf1NAx9fWFaS"
                }
            },
            "img": "systems/pf2e/icons/equipment/adventuring-gear/rope.webp",
            "name": "Rope",
            "sort": 0,
            "type": "equipment"
        },
        {
            "_id": "WjKhwB7xwjavXnti",
            "data": {
                "baseItem": null,
                "containerId": "Rp5iANzz1obxjWeM",
                "description": {
                    "value": "<p>Using a writing set, you can draft correspondence and scribe scrolls. A set includes stationery, including a variety of paper and parchment, as well as ink, a quill or inkpen, sealing wax, and a simple seal. If you've written a large amount, you can refill your kit with extra ink and paper.</p>"
                },
                "equipped": {
                    "carryType": "stowed",
                    "handsHeld": 0,
                    "invested": null
                },
                "equippedBulk": {
                    "value": ""
                },
                "hardness": 0,
                "hp": {
                    "brokenThreshold": 0,
                    "max": 0,
                    "value": 0
                },
                "level": {
                    "value": 0
                },
                "negateBulk": {
                    "value": "0"
                },
                "preciousMaterial": {
                    "value": ""
                },
                "preciousMaterialGrade": {
                    "value": ""
                },
                "price": {
                    "value": {
                        "gp": 1
                    }
                },
                "quantity": 1,
                "rules": [],
                "size": "med",
                "slug": "writing-set",
                "source": {
                    "value": "Pathfinder Core Rulebook"
                },
                "stackGroup": null,
                "traits": {
                    "custom": "",
                    "rarity": "common",
                    "value": []
                },
                "usage": {
                    "value": "held-in-one-hand"
                },
                "weight": {
                    "value": "L"
                }
            },
            "flags": {
                "core": {
                    "sourceId": "Compendium.pf2e.equipment-srd.QJb8S927Yj81EgHH"
                }
            },
            "img": "systems/pf2e/icons/equipment/adventuring-gear/writing-set.webp",
            "name": "Writing Set",
            "sort": 0,
            "type": "equipment"
        },
        {
            "_id": "u4gKTeq3QV6nRPZl",
            "data": {
                "baseItem": null,
                "containerId": null,
                "description": {
                    "value": ""
                },
                "equipped": {
                    "carryType": "worn"
                },
                "equippedBulk": {
                    "value": ""
                },
                "hardness": 0,
                "hp": {
                    "brokenThreshold": 0,
                    "max": 0,
                    "value": 0
                },
                "level": {
                    "value": 0
                },
                "negateBulk": {
                    "value": "0"
                },
                "preciousMaterial": {
                    "value": ""
                },
                "preciousMaterialGrade": {
                    "value": ""
                },
                "price": {
                    "value": {
                        "sp": 1
                    }
                },
                "quantity": 9,
                "rules": [],
                "size": "med",
                "slug": "silver-pieces",
                "source": {
                    "value": "Pathfinder Core Rulebook"
                },
                "stackGroup": "coins",
                "traits": {
                    "custom": "",
                    "rarity": "common",
                    "value": []
                },
                "usage": {
                    "value": ""
                },
                "weight": {
                    "value": 0
                }
            },
            "flags": {
                "core": {
                    "sourceId": "Compendium.pf2e.equipment-srd.5Ew82vBF9YfaiY9f"
                }
            },
            "img": "systems/pf2e/icons/equipment/treasure/currency/silver-pieces.webp",
            "name": "Silver Pieces",
            "sort": 0,
            "type": "treasure"
        },
        {
            "_id": "f08y87sruseqldyd",
            "data": {
                "ancestry": {
                    "name": "Elf",
                    "uuid": "Compendium.pf2e.ancestries.PgKmsA2aKdbLU6O0"
                },
                "description": {
                    "value": "<p>You have an inborn ability to detect and understand magical phenomena. You can cast the <em>@Compendium[pf2e.spells-srd.Detect Magic]{Detect Magic}</em> cantrip as an arcane innate spell at will. A cantrip is heightened to a spell level equal to half your level rounded up.</p>\n<p>In addition, you gain a +1 circumstance bonus to checks to @Compendium[pf2e.actionspf2e.Identify Magic]{Identify Magic} and to @Compendium[pf2e.actionspf2e.Decipher Writing]{Decipher Writing} of a magical nature. These skill actions typically use the Arcana, Nature, Occultism, or Religion skill.</p>"
                },
                "rules": [
                    {
                        "key": "FlatModifier",
                        "label": "Seer Elf (Identity Magic or Decipher Writing)",
                        "predicate": {
                            "any": [
                                "action:identify-magic",
                                "action:decipher-writing"
                            ]
                        },
                        "selector": "skill-check",
                        "type": "circumstance",
                        "value": 1
                    }
                ],
                "slug": "seer-elf",
                "source": {
                    "value": ""
                },
                "traits": {
                    "custom": "",
                    "rarity": "common",
                    "value": []
                }
            },
            "flags": {
                "core": {
                    "sourceId": "Compendium.pf2e.heritages.jEtVesbqYcWGbBYk"
                }
            },
            "img": "systems/pf2e/icons/features/ancestry/seer-elf.webp",
            "name": "Seer Elf",
            "sort": 0,
            "type": "heritage"
        }
    ],
    "name": "Ekene",
    "token": {
        "disposition": 1,
        "height": 1,
        "img": "systems/pf2e/icons/default-icons/alternatives/ancestries/elf.svg",
        "name": "Ekene",
        "width": 1
    },
    "type": "character"
}
