{
    "_id": "lgyGhpyPosriQUzE",
    "data": {
        "attributes": {
            "ac": {
                "value": 10
            },
            "hardness": 0,
            "hasHealth": false,
            "hp": {
                "details": "",
                "max": 0,
                "temp": 0,
                "tempmax": 0,
                "value": 0
            },
            "stealth": {
                "details": "<p>(expert)</p>",
                "value": 22
            }
        },
        "creatureType": "",
        "details": {
            "description": "<p>Whether made up of water rushing through the streets that sweeps up dangerous debris along the way or a less natural substance bursting free of its container, this relentless flood batters everything in its path.</p>",
            "disable": "<p>three DC 35 Athletics, Crafting, or Survival checks to move or construct barricades strong enough to create a shelter from the flood. While this creates a safe place to stand, creatures outside of the barricaded area may still be in danger depending on the nature and the source of the flood.</p>",
            "isComplex": true,
            "level": {
                "value": 10
            },
            "reset": "",
            "routine": "<p>(1 action) The flood advances forward 60 feet, crashing into all creatures within its area. Each creature must attempt a DC 30 Fortitude save as the floodwaters pummel them and pull them downstream. The amount and type of damage dealt are based on the nature of the flood, and certain types of floods impose additional effects. The turbulent waters mean creatures within the area of the flood must attempt a DC 20 Athletics check to Swim in order to move, and those who do not succeed at a check to Swim each round may drown.</p>\n<p><strong>Critical Success</strong> The creature takes no damage.</p>\n<p><strong>Success</strong> The creature takes half damage.</p>\n<p><strong>Failure</strong> The creature takes full damage and is moved 10 feet along with the water.</p>\n<p><strong>Critical Failure</strong> The creature takes double damage and is moved 20 feet along with the water.</p>\n<p>• <strong>Acidic Runoff</strong> This caustic flood dissolves flesh as it moves, dealing 1d12 bludgeoning damage and 1d12+8 acid damage. Additionally, it deals [[/r {2d6}[persistent,acid]]] @Compendium[pf2e.conditionitems.Persistent Damage]{Persistent Acid Damage} to creatures who critically fail their Fortitude saves.</p>\n<p>• <strong>Battering Waves</strong> This flood of rushing water deals 2d12+10 bludgeoning damage.</p>\n<p>• <strong>Repulsive Refuse</strong> This flood has picked up tainted or disease-ridden objects like sewer runoff or rotting food. It deals 2d12+8 bludgeoning damage. Each creature exposed to the flood must attempt a DC 29 Fortitude save, becoming sickened 1 on a failure or sickened 2 on a critical failure. Additionally, creatures who come into contact with the flood waters are exposed to filth fever (DC 20 Fortitude, <i>Bestiary</i> 258).</p>\n<p>• <strong>Sharp Debris</strong> The waters have picked up various objects, some of which are particularly sharp. The flood deals 1d12 bludgeoning damage and 1d12+12 piercing damage.</p>\n<p>• <strong>Sticky Goo</strong> The substance is particularly sticky. It deals 2d12+6 bludgeoning damage. Additionally, each creature in the flood must attempt a DC 29 Reflex save at the beginning of their turn each round. On a failed saving throw, they take a -10-foot circumstance penalty to all their Speeds for 1 round. On a critical failure, they are instead immobilized for 1 round.</p>"
        },
        "saves": {
            "fortitude": {
                "saveDetail": "",
                "value": 0
            },
            "reflex": {
                "saveDetail": "",
                "value": 0
            },
            "will": {
                "saveDetail": "",
                "value": 0
            }
        },
        "source": {
            "value": "Pathfinder Gamemastery Guide"
        },
        "statusEffects": [],
        "traits": {
            "ci": [],
            "di": {
                "custom": "",
                "selected": {},
                "value": []
            },
            "dr": [],
            "dv": [],
            "rarity": "common",
            "size": {
                "value": "med"
            },
            "traits": {
                "custom": "",
                "value": [
                    "environmental"
                ]
            }
        }
    },
    "flags": {},
    "img": "systems/pf2e/icons/default-icons/hazard.svg",
    "items": [
        {
            "_id": "gxjS3APksgflCuua",
            "data": {
                "actionCategory": {
                    "value": ""
                },
                "actionType": {
                    "value": "reaction"
                },
                "actions": {
                    "value": null
                },
                "description": {
                    "value": "<p><strong>Trigger</strong> A creature or effect breaks the flood's containment.</p>\n<p><strong>Effect</strong> The hazard rolls initiative as the flood surges forth.</p>"
                },
                "requirements": {
                    "value": ""
                },
                "rules": [],
                "slug": null,
                "source": {
                    "value": ""
                },
                "traits": {
                    "custom": "",
                    "rarity": "common",
                    "value": []
                },
                "trigger": {
                    "value": ""
                },
                "weapon": {
                    "value": ""
                }
            },
            "flags": {},
            "img": "systems/pf2e/icons/actions/Reaction.webp",
            "name": "Burst Free",
            "sort": 100000,
            "type": "action"
        }
    ],
    "name": "Perilous Flash Flood",
    "token": {
        "disposition": 0,
        "height": 1,
        "img": "systems/pf2e/icons/default-icons/hazard.svg",
        "name": "Perilous Flash Flood",
        "width": 1
    },
    "type": "hazard"
}
