{
    "_id": "Buptz08MArCtY41w",
    "content": "<h1>Investigator</h1>\n<p>You've developed a keen eye for investigating mysteries.</p>\n<h2>@Compendium[pf2e.feats-srd.Investigator Dedication]{Investigator Dedication} Feat 2</h2>\n<p><strong>Prerequisites</strong> Intelligence 14</p>\n<hr />\n<p>You gain the on the case class feature, which grants you both the @Compendium[pf2e.actionspf2e.Pursue a Lead]{Pursue a Lead} activity and @Compendium[pf2e.actionspf2e.Clue In]{Clue In} reaction. You become trained in Society and another skill of your choice. If you were already trained in Society, you instead become trained in an additional skill of your choice. You also become trained in investigator class DC.</p>\n<p><strong>Special</strong> You can't select another dedication feat until you have gained two other feats from the investigator archetype.</p>\n<h2>@Compendium[pf2e.feats-srd.Basic Deduction]{Basic Deduction} Feat 4</h2>\n<p><strong>Prerequisites</strong> Investigator Dedication</p>\n<hr />\n<p>You gain a 1st- or 2nd-level investigator feat of your choice.</p>\n<h2>@Compendium[pf2e.feats-srd.Investigator's Stratagem]{Investigator's Stratagem} Feat 4</h2>\n<p><strong>Prerequisites</strong> Investigator Dedication</p>\n<hr />\n<p>You play out battles in your head, allowing you to strike when the time is right. You gain the Devise a Stratagem action; however, when you substitute its result for your attack roll, you can't use your Intelligence modifier in place of your Strength or Dexterity modifier. You also can't use your Intelligence modifier on other rolls from abilities that expand Devise a Stratagem, such as the Athletic Strategist feat.</p>\n<h2>@Compendium[pf2e.feats-srd.Advanced Deduction]{Advanced Deduction} Feat 6</h2>\n<p><strong>Prerequisites</strong> Basic Deduction</p>\n<hr />\n<p>You gain one investigator feat. For the purpose of meeting its prerequisites, your investigator level is equal to half your character level.</p>\n<p><strong>Special</strong> You can select this feat more than once. Each time you select it, you gain another investigator feat.</p>\n<h2>@Compendium[pf2e.feats-srd.Keen Recollection]{Keen Recollection} Feat 6</h2>\n<p><strong>Prerequisites</strong> Investigator Dedication</p>\n<hr />\n<p>You can recall all sorts of information. You gain the keen recollection class feature.</p>\n<h2>@Compendium[pf2e.feats-srd.Skill Mastery (Investigator)]{Skill Mastery} Feat 8</h2>\n<p><strong>Prerequisites</strong> Investigator Dedication, trained in at least one skill and expert in at least one skill</p>\n<hr />\n<p>Increase your proficiency rank in one of your skills from expert to master and in another of your skills from trained to expert. You gain a skill feat associated with one of the skills you chose.</p>\n<p><strong>Special</strong> You can select this feat up to five times.</p>\n<h2>@Compendium[pf2e.feats-srd.Master Spotter (Investigator)]{Master Spotter} Feat 12</h2>\n<p><strong>Prerequisites</strong> Investigator Dedication, expert in Perception</p>\n<hr />\n<p>Your proficiency rank in Perception increases to master.</p>",
    "flags": {},
    "name": "Investigator",
    "permission": {
        "default": 0
    }
}
