{
    "_id": "4xzvjFVytFA0LIYj",
    "content": "<h1>Living Monolith</h1>\n<p>You have delved into ancient sphinx magic to imbue your body and soul with the patience and strength of stone, as you work to create a special magical ka stone to finalize your oaths.</p>\n<h2>@Compendium[pf2e.feats-srd.Living Monolith Dedication]{Living Monolith Dedication} Feat 2</h2>\n<div><strong>Prerequisites</strong> Ancient Osiriani and Sphinx languages, trained in Crafting</div>\n<div><strong>Access</strong> You are from the Golden Road region.</div>\n<hr />\n<p>You've begun to inscribe a magical stone called a ka stone that you will some day tie to your soul. You gain knowledge of Ancient Osirion and a connection to your nascent ka stone. If you fail a recovery check while dying, your dying condition does not increase; if you critically fail, your dying condition increases by only 1. You become trained in Ancient Osirion Lore, or expert if you were already trained.</p>\n<p><strong>Special</strong> You cannot select another dedication feat until you have gained two other feats from the living monolith archetype.</p>\n<h2>@Compendium[pf2e.feats-srd.Ka Stone Ritual]{Ka Stone Ritual} Feat 4</h2>\n<p><strong>Prerequisites</strong> Living Monolith Dedication, a sphinx or living monolith with this feat performs a ritual with you</p>\n<hr />\n<p>You inscribe your true name on your ka stone, as well as oaths to gods and pharaohs, and embed it in your forehead in a special ritual with a sphinx or with a living monolith who already has this feat. The ka stone is an invested magic item that you automatically invest each day. It can't be removed without your permission, nor can it be dispelled, and you can never lose investiture in the ka stone. Its Bulk is negligible.</p>\n<p>The ka stone grants you a +1 item bonus to saves against death effects and negative effects, which increases to +2 at 8th level, +3 at 14th level, and +4 at 20th level.</p>\n<p><strong>Activate</strong> <span class=\"pf2-icon\">D</span> (envision), or a different activation if otherwise specified</p>\n<p><strong>Frequency</strong> a number of times each day equal to the number of class feats you have from the Living Monolith archetype</p>\n<p><strong>Effect</strong> You cast enlarge on yourself or use one of the other activated abilities granted by a later Living Monolith feat.</p>\n<h2>@Compendium[pf2e.feats-srd.Stone Blood]{Stone Blood} Feat 6</h2>\n<p><strong>Prerequisites</strong> Ka Stone Ritual</p>\n<hr />\n<p>You can selectively stop your bleeding with ease. Reduce the DC of flat checks to stop @Compendium[pf2e.conditionitems.Persistent Damage]{Persistent Bleed Damage} you have from 15 to 10, and you can use a single action that has the concentrate trait to gain an early flat check without physically binding the wounds. You recover naturally from the drained condition twice as quickly as normal.</p>\n<h2>@Compendium[pf2e.feats-srd.Fortified Flesh]{Fortified Flesh} Feat 8</h2>\n<p><strong>Prerequisites</strong> Ka Stone Ritual</p>\n<hr />\n<p>Your flesh takes on the hardness of stone. You gain resistance to physical damage (except adamantine) equal to your number of class feats from the Living Monolith archetype.</p>\n<h2>@Compendium[pf2e.feats-srd.Attunement to Stone]{Attunement to Stone} Feat 10</h2>\n<p><strong>Prerequisites</strong> Ka Stone Ritual</p>\n<hr />\n<p>You become attuned to the stone around you. When in contact with a stone surface, you gain tremorsense (imprecise) 5 feet along that surface, and you can activate your ka stone to cast meld into stone.</p>\n<h2>@Compendium[pf2e.feats-srd.Judgement of the Monolith]{Judgement of the Monolith} Feat 12</h2>\n<p><strong>Prerequisites</strong> Ka Stone Ritual</p>\n<hr />\n<p>You can use the oaths bound in your ka stone to compel the truth from the living and the dead. You can activate your ka stone to target a single living creature, causing that creature to experience the effects of being in a zone of truth. You can also activate it with a 10-minute activation (envision) to cast talking corpse.</p>\n<h2>@Compendium[pf2e.feats-srd.Stone Communion]{Stone Communion} Feat 14</h2>\n<p><strong>Prerequisites</strong> Ka Stone Ritual</p>\n<hr />\n<p>You gain a unique communion with the earth and stones. You learn the Terran language and you can Activate your ka stone with a 10-minute activation (envision) to cast stone tell.</p>",
    "flags": {},
    "name": "Living Monolith",
    "permission": {
        "default": 0
    }
}
