{
    "_id": "vBUYl8mREwhO2Vst",
    "data": {
        "attributes": {
            "ac": {
                "value": 21
            },
            "hardness": 11,
            "hasHealth": true,
            "hp": {
                "details": "",
                "max": 44,
                "temp": 0,
                "tempmax": 0,
                "value": 44
            },
            "stealth": {
                "details": "<p>(trained)</p>",
                "value": 13
            }
        },
        "creatureType": "",
        "details": {
            "description": "<p>The ceiling is unstable, and any Medium or larger creature that approaches within 5 feet of the collapsed tunnel triggers a cave-in.</p>",
            "disable": "<p>@Check[type:thievery|dc:21|name:Prop Up Ceiling] (trained) to prop up the ceiling in key locations prior to the cave-in.</p>",
            "isComplex": false,
            "level": {
                "value": 4
            },
            "reset": "",
            "routine": ""
        },
        "saves": {
            "fortitude": {
                "saveDetail": "",
                "value": 12
            },
            "reflex": {
                "saveDetail": "",
                "value": 8
            },
            "will": {
                "saveDetail": "",
                "value": 0
            }
        },
        "source": {
            "value": "Pathfinder #151: The Show Must Go On"
        },
        "statusEffects": [],
        "traits": {
            "ci": [],
            "di": {
                "custom": "",
                "selected": {},
                "value": [
                    "critical-hits",
                    "object-immunities",
                    "precision"
                ]
            },
            "dr": [],
            "dv": [
                {
                    "type": "sonic",
                    "value": 10
                }
            ],
            "rarity": "common",
            "size": {
                "value": "med"
            },
            "traits": {
                "custom": "",
                "value": [
                    "environmental",
                    "trap"
                ]
            }
        }
    },
    "flags": {},
    "img": "systems/pf2e/icons/default-icons/hazard.svg",
    "items": [
        {
            "_id": "GXC9PnE9TL5hNcx5",
            "data": {
                "actionCategory": {
                    "value": ""
                },
                "actionType": {
                    "value": "reaction"
                },
                "actions": {
                    "value": null
                },
                "description": {
                    "value": "<p><strong>Trigger</strong> A Medium or larger creature approaches within 5 feet of the collapsed tunnel</p>\n<p><strong>Effect</strong> Massive stones in the ceiling fall, dealing [[/r {4d6}[bludgeoning]]]{4d6 bludgeoning damage} to the triggering creature and all creatures within 10 feet (@Check[type:reflex|dc:18|basic:true] save).</p>\n<p>Creatures that fail the saving throw are also buried and begin to suffocate. A buried creature can attempt a @Check[type:athletics|dc:20|name:Escape Falling Stones] check every round, breaking free on a success. Other characters who are not buried can @Compendium[pf2e.actionspf2e.Aid]{Aid} on this check.</p>"
                },
                "requirements": {
                    "value": ""
                },
                "rules": [],
                "slug": null,
                "source": {
                    "value": ""
                },
                "traits": {
                    "custom": "",
                    "rarity": "common",
                    "value": []
                },
                "trigger": {
                    "value": ""
                },
                "weapon": {
                    "value": ""
                }
            },
            "flags": {},
            "img": "systems/pf2e/icons/actions/Reaction.webp",
            "name": "Falling Stones",
            "sort": 100000,
            "type": "action"
        }
    ],
    "name": "Catacomb Cave-In",
    "token": {
        "disposition": 0,
        "height": 1,
        "img": "systems/pf2e/icons/default-icons/hazard.svg",
        "name": "Catacomb Cave-In",
        "width": 1
    },
    "type": "hazard"
}
