{
    "_id": "i3kQzeKcSoxkNYJb",
    "data": {
        "abilities": {
            "cha": {
                "mod": -1
            },
            "con": {
                "mod": 3
            },
            "dex": {
                "mod": 0
            },
            "int": {
                "mod": 1
            },
            "str": {
                "mod": 5
            },
            "wis": {
                "mod": 2
            }
        },
        "attributes": {
            "ac": {
                "details": "",
                "value": 22
            },
            "allSaves": {
                "value": "successful Fortitude saves are critical successes instead"
            },
            "hp": {
                "details": "",
                "max": 115,
                "temp": 0,
                "value": 115
            },
            "initiative": {
                "ability": "perception"
            },
            "perception": {
                "value": 14
            },
            "speed": {
                "otherSpeeds": [],
                "value": "35"
            }
        },
        "details": {
            "alignment": {
                "value": "N"
            },
            "blurb": "Female half-orc mammoth trainer",
            "creatureType": "",
            "level": {
                "value": 7
            },
            "privateNotes": "",
            "publicNotes": "",
            "source": {
                "value": "Pathfinder #152: Legacy of the Lost God"
            }
        },
        "resources": {},
        "saves": {
            "fortitude": {
                "saveDetail": "",
                "value": 16
            },
            "reflex": {
                "saveDetail": "",
                "value": 11
            },
            "will": {
                "saveDetail": "",
                "value": 13
            }
        },
        "traits": {
            "ci": [],
            "di": {
                "custom": "",
                "value": []
            },
            "dr": [],
            "dv": [],
            "languages": {
                "custom": "",
                "selected": [],
                "value": [
                    "common",
                    "hallit",
                    "orcish"
                ]
            },
            "rarity": "unique",
            "senses": {
                "value": "low-light vision"
            },
            "size": {
                "value": "med"
            },
            "traits": {
                "custom": "",
                "value": [
                    "human",
                    "humanoid",
                    "orc"
                ]
            }
        }
    },
    "flags": {},
    "img": "systems/pf2e/icons/default-icons/npc.svg",
    "items": [
        {
            "_id": "mGBjl8y8lB2kGFjC",
            "data": {
                "baseItem": null,
                "containerId": null,
                "description": {
                    "value": "<p>A <em>bullhook</em> is a stout rod about 4 feet long with a blunt hook on the end. Too dull to be useful as a weapon, a <em>bullhook</em> is instead used to direct animals in training or in performing their tasks. A <em>bullhook</em> grants you a +2 item bonus to Nature checks to Command an Animal while you are holding it.</p>\n<p><strong>Activate</strong> <span class=\"pf2-icon\">D</span> command, Interact</p>\n<p><strong>Frequency</strong> once per day</p>\n<p><strong>Effect</strong> You wave the <em>bullhook</em> to produce the effects of a first level <em>@Compendium[pf2e.spells-srd.Command]{Command}</em> spell (DC 18). This spell loses the linguistic trait and can target only animals.</p>\n<p><strong>Craft Requirements</strong> Supply a casting of <em>command</em> of the appropriate level.</p>"
                },
                "equipped": {
                    "carryType": "worn",
                    "invested": null
                },
                "equippedBulk": {
                    "value": ""
                },
                "hardness": 0,
                "hp": {
                    "brokenThreshold": 0,
                    "max": 0,
                    "value": 0
                },
                "level": {
                    "value": 3
                },
                "negateBulk": {
                    "value": ""
                },
                "preciousMaterial": {
                    "value": ""
                },
                "preciousMaterialGrade": {
                    "value": ""
                },
                "price": {
                    "value": {
                        "gp": 55
                    }
                },
                "quantity": 1,
                "rules": [
                    {
                        "key": "FlatModifier",
                        "label": "Bullhook (Command an Animal)",
                        "predicate": {
                            "any": [
                                "action:command-an-animal"
                            ]
                        },
                        "selector": "nature",
                        "type": "item",
                        "value": 2
                    }
                ],
                "size": "med",
                "slug": "bullhook",
                "source": {
                    "value": "Pathfinder #152: Legacy of the Lost God"
                },
                "stackGroup": null,
                "traits": {
                    "custom": "",
                    "rarity": "uncommon",
                    "value": [
                        "enchantment",
                        "magical"
                    ]
                },
                "usage": {
                    "value": "held-in-one-hand"
                },
                "weight": {
                    "value": "1"
                }
            },
            "flags": {
                "core": {
                    "sourceId": "Compendium.pf2e.equipment-srd.2EOeljZiUdNVf8s2"
                }
            },
            "img": "systems/pf2e/icons/equipment/held-items/bullhook.webp",
            "name": "Bullhook",
            "sort": 100000,
            "type": "equipment"
        },
        {
            "_id": "8pEUtQIaEuhNMeNq",
            "data": {
                "attack": {
                    "value": ""
                },
                "attackEffects": {
                    "value": []
                },
                "bonus": {
                    "value": 18
                },
                "damageRolls": {
                    "0": {
                        "damage": "2d8+6",
                        "damageType": "bludgeoning"
                    }
                },
                "description": {
                    "value": ""
                },
                "rules": [],
                "slug": null,
                "source": {
                    "value": ""
                },
                "traits": {
                    "custom": "",
                    "rarity": "common",
                    "value": [
                        "forceful",
                        "nonlethal",
                        "unarmed"
                    ]
                },
                "weaponType": {
                    "value": "melee"
                }
            },
            "flags": {},
            "img": "systems/pf2e/icons/default-icons/melee.svg",
            "name": "Falling Stone Unarmed Attack",
            "sort": 200000,
            "type": "melee"
        },
        {
            "_id": "cZEvbEpDTZmmwmdY",
            "data": {
                "actionCategory": {
                    "value": "interaction"
                },
                "actionType": {
                    "value": "passive"
                },
                "actions": {
                    "value": null
                },
                "description": {
                    "value": "<p>@Localize[PF2E.NPC.Abilities.Glossary.LowLightVision]</p>"
                },
                "requirements": {
                    "value": ""
                },
                "rules": [],
                "slug": "low-light-vision",
                "source": {
                    "value": ""
                },
                "traits": {
                    "custom": "",
                    "rarity": "common",
                    "value": []
                },
                "trigger": {
                    "value": ""
                },
                "weapon": {
                    "value": ""
                }
            },
            "flags": {
                "core": {
                    "sourceId": "Compendium.pf2e.bestiary-ability-glossary-srd.fFu2sZz4KB01fVRc"
                }
            },
            "img": "systems/pf2e/icons/actions/Passive.webp",
            "name": "Low-Light Vision",
            "sort": 300000,
            "type": "action"
        },
        {
            "_id": "QR5bODSKMiojeESn",
            "data": {
                "actionCategory": {
                    "value": "defensive"
                },
                "actionType": {
                    "value": "reaction"
                },
                "actions": {
                    "value": null
                },
                "deathNote": true,
                "description": {
                    "value": "<p><strong>Frequency</strong> once per day</p>\n<p><strong>Trigger</strong> Evora would be reduced to 0 Hit Points but not immediately killed</p>\n<p><strong>Effect</strong> Evora avoids being knocked out and remains at 1 Hit Point, and her @Compendium[pf2e.conditionitems.Wounded]{Wounded} condition increases by 1.</p>"
                },
                "requirements": {
                    "value": ""
                },
                "rules": [],
                "slug": null,
                "source": {
                    "value": ""
                },
                "traits": {
                    "custom": "",
                    "rarity": "common",
                    "value": []
                },
                "trigger": {
                    "value": ""
                },
                "weapon": {
                    "value": ""
                }
            },
            "flags": {},
            "img": "systems/pf2e/icons/actions/Reaction.webp",
            "name": "Orc Ferocity",
            "sort": 400000,
            "type": "action"
        },
        {
            "_id": "JBZGDHmgcSKsrjtc",
            "data": {
                "actionCategory": {
                    "value": "defensive"
                },
                "actionType": {
                    "value": "reaction"
                },
                "actions": {
                    "value": null
                },
                "description": {
                    "value": "<p><strong>Trigger</strong> A creature within Evora's reach uses a move action or leaves a square during a move action it's using</p>\n<p><strong>Effect</strong> Evora makes a melee Strike against the triggering creature. If this attack is a critical hit and the trigger was a move action, she disrupts that action.</p>"
                },
                "requirements": {
                    "value": ""
                },
                "rules": [],
                "slug": null,
                "source": {
                    "value": ""
                },
                "traits": {
                    "custom": "",
                    "rarity": "common",
                    "value": []
                },
                "trigger": {
                    "value": ""
                },
                "weapon": {
                    "value": ""
                }
            },
            "flags": {},
            "img": "systems/pf2e/icons/actions/Reaction.webp",
            "name": "Stand Still",
            "sort": 500000,
            "type": "action"
        },
        {
            "_id": "Cgn2V1u3dIaaSjCc",
            "data": {
                "actionCategory": {
                    "value": "defensive"
                },
                "actionType": {
                    "value": "passive"
                },
                "actions": {
                    "value": null
                },
                "description": {
                    "value": "<p>Successful Fortitude saves are critical successes instead</p>"
                },
                "requirements": {
                    "value": ""
                },
                "rules": [
                    {
                        "adjustment": {
                            "success": "one-degree-better"
                        },
                        "key": "AdjustDegreeOfSuccess",
                        "selector": "fortitude",
                        "type": "save"
                    },
                    {
                        "key": "Note",
                        "selector": "fortitude",
                        "text": "<p class='compact-text'><strong>{item|name}</strong> When you roll a success on a Fortitude save, you get a critical success instead.</p>"
                    }
                ],
                "slug": null,
                "source": {
                    "value": ""
                },
                "traits": {
                    "custom": "",
                    "rarity": "common",
                    "value": []
                },
                "trigger": {
                    "value": ""
                }
            },
            "flags": {},
            "img": "systems/pf2e/icons/actions/Passive.webp",
            "name": "Successful Fortitude saves are critical successes instead",
            "sort": 600000,
            "type": "action"
        },
        {
            "_id": "mXs0X782H3FV7qJD",
            "data": {
                "actionCategory": {
                    "value": "offensive"
                },
                "actionType": {
                    "value": "action"
                },
                "actions": {
                    "value": 1
                },
                "description": {
                    "value": "<p><strong>Effect</strong> Evora makes two unarmed Strikes. If both hit the same creature, combine their damage and apply resistances and weaknesses only once. She applies her multiple attack penalty to the Strikes normally.</p>\n<p>As it has the flourish trait, Evora can use Flurry of Blows only once per turn.</p>"
                },
                "requirements": {
                    "value": ""
                },
                "rules": [],
                "slug": null,
                "source": {
                    "value": ""
                },
                "traits": {
                    "custom": "",
                    "rarity": "common",
                    "value": [
                        "flourish"
                    ]
                },
                "trigger": {
                    "value": ""
                },
                "weapon": {
                    "value": ""
                }
            },
            "flags": {},
            "img": "systems/pf2e/icons/actions/OneAction.webp",
            "name": "Flurry of Blows",
            "sort": 700000,
            "type": "action"
        },
        {
            "_id": "QhKOuFQANuodhk8x",
            "data": {
                "actionCategory": {
                    "value": "offensive"
                },
                "actionType": {
                    "value": "action"
                },
                "actions": {
                    "value": 1
                },
                "description": {
                    "value": "<p><strong>Requirements</strong> Evora is unarmored and touching the ground</p>\n<p><strong>Effect</strong> Evora enters the stance of an implacable mountain until she is knocked out or the encounter ends. She gains a +4 status bonus to AC and a +2 circumstance bonus to any defenses against being Shoved or Tripped. Her Speed is reduced by 5 feet.</p>"
                },
                "requirements": {
                    "value": ""
                },
                "rules": [
                    {
                        "domain": "all",
                        "key": "RollOption",
                        "option": "mountain-stance",
                        "toggleable": true
                    },
                    {
                        "key": "FlatModifier",
                        "predicate": {
                            "all": [
                                "mountain-stance"
                            ]
                        },
                        "selector": "ac",
                        "type": "status",
                        "value": 4
                    },
                    {
                        "key": "FlatModifier",
                        "predicate": {
                            "all": [
                                "mountain-stance"
                            ]
                        },
                        "selector": "speed",
                        "value": -5
                    },
                    {
                        "key": "FlatModifier",
                        "predicate": {
                            "all": [
                                "mountain-stance"
                            ],
                            "any": [
                                "action:shove",
                                "action:trip"
                            ]
                        },
                        "selector": "saving-throw",
                        "type": "circumstance",
                        "value": 2
                    }
                ],
                "slug": null,
                "source": {
                    "value": ""
                },
                "traits": {
                    "custom": "",
                    "rarity": "common",
                    "value": [
                        "stance"
                    ]
                },
                "trigger": {
                    "value": ""
                },
                "weapon": {
                    "value": ""
                }
            },
            "flags": {},
            "img": "systems/pf2e/icons/actions/OneAction.webp",
            "name": "Mountain Stance",
            "sort": 800000,
            "type": "action"
        },
        {
            "_id": "q0Go6gYxsqhxoIiT",
            "data": {
                "actionCategory": {
                    "value": "offensive"
                },
                "actionType": {
                    "value": "action"
                },
                "actions": {
                    "value": 1
                },
                "description": {
                    "value": "<p><strong>Requirements</strong> Evora is in Mountain Stance</p>\n<p><strong>Effect</strong> Evora gains a +2 circumstance bonus to AC until the beginning of her next turn.</p>"
                },
                "requirements": {
                    "value": ""
                },
                "rules": [
                    {
                        "domain": "ac",
                        "key": "RollOption",
                        "option": "mountain-stronghold",
                        "toggleable": true
                    },
                    {
                        "key": "FlatModifier",
                        "predicate": {
                            "all": [
                                "mountain-stance",
                                "mountain-stronghold"
                            ]
                        },
                        "selector": "ac",
                        "type": "circumstance",
                        "value": 2
                    }
                ],
                "slug": null,
                "source": {
                    "value": ""
                },
                "traits": {
                    "custom": "",
                    "rarity": "common",
                    "value": []
                },
                "trigger": {
                    "value": ""
                },
                "weapon": {
                    "value": ""
                }
            },
            "flags": {},
            "img": "systems/pf2e/icons/actions/OneAction.webp",
            "name": "Mountain Stronghold",
            "sort": 900000,
            "type": "action"
        },
        {
            "_id": "yEw93aGVxbH9XEI6",
            "data": {
                "description": {
                    "value": ""
                },
                "mod": {
                    "value": 11
                },
                "proficient": {
                    "value": 0
                },
                "rules": [],
                "slug": null,
                "source": {
                    "value": ""
                },
                "traits": {
                    "custom": "",
                    "rarity": "common",
                    "value": []
                }
            },
            "flags": {},
            "img": "systems/pf2e/icons/default-icons/lore.svg",
            "name": "Acrobatics",
            "sort": 1000000,
            "type": "lore"
        },
        {
            "_id": "iXO7eDNTMnolGDae",
            "data": {
                "description": {
                    "value": ""
                },
                "mod": {
                    "value": 19
                },
                "proficient": {
                    "value": 0
                },
                "rules": [],
                "slug": null,
                "source": {
                    "value": ""
                },
                "traits": {
                    "custom": "",
                    "rarity": "common",
                    "value": []
                }
            },
            "flags": {},
            "img": "systems/pf2e/icons/default-icons/lore.svg",
            "name": "Athletics",
            "sort": 1100000,
            "type": "lore"
        },
        {
            "_id": "25EWmLzIMNEz2stf",
            "data": {
                "description": {
                    "value": ""
                },
                "mod": {
                    "value": 10
                },
                "proficient": {
                    "value": 0
                },
                "rules": [],
                "slug": null,
                "source": {
                    "value": ""
                },
                "traits": {
                    "custom": "",
                    "rarity": "common",
                    "value": []
                }
            },
            "flags": {},
            "img": "systems/pf2e/icons/default-icons/lore.svg",
            "name": "Intimidation",
            "sort": 1200000,
            "type": "lore"
        },
        {
            "_id": "W6FlZx1Jf0Zae55R",
            "data": {
                "description": {
                    "value": ""
                },
                "mod": {
                    "value": 13
                },
                "proficient": {
                    "value": 0
                },
                "rules": [],
                "slug": null,
                "source": {
                    "value": ""
                },
                "traits": {
                    "custom": "",
                    "rarity": "common",
                    "value": []
                }
            },
            "flags": {},
            "img": "systems/pf2e/icons/default-icons/lore.svg",
            "name": "Nature",
            "sort": 1300000,
            "type": "lore"
        },
        {
            "_id": "SE9etkzCvFUAd3Xs",
            "data": {
                "description": {
                    "value": ""
                },
                "mod": {
                    "value": 10
                },
                "proficient": {
                    "value": 0
                },
                "rules": [],
                "slug": null,
                "source": {
                    "value": ""
                },
                "traits": {
                    "custom": "",
                    "rarity": "common",
                    "value": []
                }
            },
            "flags": {},
            "img": "systems/pf2e/icons/default-icons/lore.svg",
            "name": "Performance",
            "sort": 1400000,
            "type": "lore"
        },
        {
            "_id": "WOTwiUyJSVQLFWBL",
            "data": {
                "description": {
                    "value": ""
                },
                "mod": {
                    "value": 13
                },
                "proficient": {
                    "value": 0
                },
                "rules": [],
                "slug": null,
                "source": {
                    "value": ""
                },
                "traits": {
                    "custom": "",
                    "rarity": "common",
                    "value": []
                }
            },
            "flags": {},
            "img": "systems/pf2e/icons/default-icons/lore.svg",
            "name": "Survival",
            "sort": 1500000,
            "type": "lore"
        }
    ],
    "name": "Evora Yarket",
    "token": {
        "disposition": -1,
        "height": 1,
        "img": "systems/pf2e/icons/default-icons/npc.svg",
        "name": "Evora Yarket",
        "width": 1
    },
    "type": "npc"
}
