{
    "_id": "mTQYkgy9lfrv2yGG",
    "data": {
        "attributes": {
            "ac": {
                "value": 30
            },
            "hardness": 18,
            "hasHealth": true,
            "hp": {
                "details": "",
                "max": 48,
                "temp": 0,
                "tempmax": 0,
                "value": 48
            },
            "stealth": {
                "details": "<p>(expert)</p>",
                "value": 20
            }
        },
        "creatureType": "",
        "details": {
            "description": "<p>Ten masks adorn twelve stone statues.</p>",
            "disable": "<p>@Check[type:religion|dc:29|name:Dismiss the magic|traits:hazard,complex,magical,trap] (expert) or @Check[type:occultism|dc:29|name:Dismiss the magic|traits:hazard,complex,magical,trap] or @Check[type:thievery|dc:31|name:Dismiss the magic|traits:hazard,complex,magical,trap] (expert) to dismiss the magic on a single statue. Replacing the two missing masks (a mask made of or incorporating coins on the merchant statue and a mask made of any valuable fabric on the tailor statue) and succeeding at a @Check[type:religion|dc:27|name:Disarm the trap|traits:hazard,complex,magical,trap] check disarms the trap.</p>",
            "isComplex": true,
            "level": {
                "value": 10
            },
            "reset": "<p>The trap deactivates and resets 1 minute after it has no target creatures</p>",
            "routine": "<p><span class=\"pf2-icon\">3</span></p>\n<p>An unmasked statue casts <em>@Compendium[pf2e.spells-srd.Phantasmal Killer]{Phantasmal Killer}</em> (@Check[type:will|dc:27|traits:hazard,complex,magical,trap,death,emotion,fear,illusion,mental] and @Check[type:fortitude|dc:27|traits:hazard,complex,magical,trap,death,emotion,fear,illusion,mental,incapacitation]) against a target in the room for each of the trap's actions, creating an image of the statue lunging forth. It doesn't affect the same creature more than once; if there are fewer targets than it has actions, the trap doesn't use its remaining actions. Unmasking an additional statue increases the hazard's actions by 1, and replacing a mask reduces its actions by 1.</p>"
        },
        "saves": {
            "fortitude": {
                "saveDetail": "",
                "value": 20
            },
            "reflex": {
                "saveDetail": "",
                "value": 16
            },
            "will": {
                "saveDetail": "",
                "value": 0
            }
        },
        "source": {
            "value": "Pathfinder #152: Legacy of the Lost God"
        },
        "statusEffects": [],
        "traits": {
            "ci": [],
            "di": {
                "custom": "",
                "selected": {},
                "value": [
                    "critical-hits",
                    "object-immunities",
                    "precision"
                ]
            },
            "dr": [],
            "dv": [],
            "rarity": "rare",
            "size": {
                "value": "med"
            },
            "traits": {
                "custom": "",
                "value": [
                    "magical",
                    "trap"
                ]
            }
        }
    },
    "flags": {},
    "img": "systems/pf2e/icons/default-icons/hazard.svg",
    "items": [
        {
            "_id": "wcALGN4qxbG1E6A4",
            "data": {
                "actionCategory": {
                    "value": ""
                },
                "actionType": {
                    "value": "reaction"
                },
                "actions": {
                    "value": null
                },
                "description": {
                    "value": "<p><strong>Trigger</strong> A creature removes the mask from a statue</p>\n<p><strong>Effect</strong> The trap casts <em>@Compendium[pf2e.spells-srd.Phantasmal Killer]{Phantasmal Killer}</em> (DC 27) against the creature, creating an image of the statue lunging forth. The trap then rolls initiative.</p>"
                },
                "requirements": {
                    "value": ""
                },
                "rules": [],
                "slug": null,
                "source": {
                    "value": ""
                },
                "traits": {
                    "custom": "",
                    "rarity": "common",
                    "value": [
                        "occult"
                    ]
                },
                "trigger": {
                    "value": ""
                },
                "weapon": {
                    "value": ""
                }
            },
            "flags": {},
            "img": "systems/pf2e/icons/actions/Reaction.webp",
            "name": "Unmasked Statues",
            "sort": 100000,
            "type": "action"
        }
    ],
    "name": "Masks of Aroden's Guises",
    "token": {
        "disposition": 0,
        "height": 1,
        "img": "systems/pf2e/icons/default-icons/hazard.svg",
        "name": "Mask of Aroden's Guises",
        "width": 1
    },
    "type": "hazard"
}
