{
    "_id": "TG9L9JvKpomFQUfl",
    "content": "<p>A fiend becomes filled with anger, jealousy, envy, or some other reason to despise you. Its hatred for you doesn't cease until either it or you is dead. It attacks you or otherwise attempts to foil you within [[/r 1d20 #days]]{1d20 days}. The GM determines the specifics of the fiend.</p>",
    "flags": {},
    "name": "Flames",
    "permission": {
        "default": 0
    }
}
