{
    "_id": "tmrnZkUzHVC0s6D9",
    "content": "<p>You've had blood on your hands since your youth, when you first took the life of another. You still have the weapon you used for the deed; add a common weapon worth 15 gp or less to your background options. If you select this option instead of a skill feat, you are trained in Athletics.</p>",
    "flags": {},
    "name": "Had Your First Kill",
    "permission": {
        "default": 0
    }
}
