{
    "_id": "dcP3oqjsl85p6R2Z",
    "content": "<p>You were kidnapped at some point in your childhood and had to escape, perhaps by pirates, slavers, a cult, or someone else.</p>\n<p>Add the @Compendium[pf2e.feats-srd.Quick Squeeze]{Quick Squeeze} skill feat to your background options.</p>",
    "flags": {},
    "name": "Kidnapped",
    "permission": {
        "default": 0
    }
}
