{
    "_id": "a0mJO7io1hcwMAjJ",
    "content": "<p>Whether lured to the wilderness by a malevolent force or simply lost, you had to survive on your own for a while. Add the @Compendium[pf2e.feats-srd.Survey Wildlife]{Survey Wildlife} skill feat to your background options.</p>",
    "flags": {},
    "name": "Lost in the Wilderness",
    "permission": {
        "default": 0
    }
}
