{
    "_id": "xGkT6QZGfYE3kBqn",
    "content": "<p>You must immediately battle a @Compendium[pf2e.pathfinder-bestiary.Lesser Death]{Lesser Death}. If slain in the battle, you can never be revived, except by a deity.</p>",
    "flags": {},
    "name": "Skull",
    "permission": {
        "default": 0
    }
}
