{
    "_id": "cD51eAUtbGlp5UKr",
    "content": "<p>You and this character were rivals for the same person's affections, and you stooped to spreading vicious lies before the whole situation fell apart.</p>\n<p>Add the @Compendium[pf2e.feats-srd.Charming Liar]{Charming Liar} skill feat to your background options.</p>",
    "flags": {},
    "name": "Slander",
    "permission": {
        "default": 0
    }
}
