{
    "_id": "yqCZWcX9e3iwmvSS",
    "content": "<p>You have always wanted to prove yourself better than this character in a fancy social situation but have yet to decisively do so.</p>\n<p>Add the @Compendium[pf2e.feats-srd.Courtly Graces]{Courtly Graces} skill feat to your background options.</p>",
    "flags": {},
    "name": "Social Maneuvering",
    "permission": {
        "default": 0
    }
}
