{
    "_id": "6abqATPjYoF946LD",
    "data": {
        "boosts": {
            "0": {
                "value": [
                    "cha",
                    "dex"
                ]
            },
            "1": {
                "value": [
                    "cha",
                    "con",
                    "dex",
                    "int",
                    "str",
                    "wis"
                ]
            }
        },
        "description": {
            "value": "<p>Your past includes no small amount of rural banditry, robbing travelers on the road and scraping by. Whether your robbery was sanctioned by a local noble or you did so of your own accord, you eventually got caught up in the adventuring life. Now, adventure is your stock and trade, and years of camping and skirmishing have only helped.</p>\n<p>Choose two ability boosts. One must be to <strong>Dexterity</strong> or <strong>Charisma</strong>, and one is a free ability boost.</p>\n<p>You're trained in the Intimidation skill and a Lore skill related to the terrain you worked in (such as Desert Lore or Plains Lore). You gain the @Compendium[pf2e.feats-srd.Group Coercion]{Group Coercion} skill feat.</p>"
        },
        "items": {
            "r7b3d": {
                "id": "gUqvezs2zzoTXFAI",
                "img": "systems/pf2e/icons/features/feats/feats.webp",
                "level": "1",
                "name": "Group Coercion",
                "pack": "pf2e.feats-srd"
            }
        },
        "rules": [],
        "source": {
            "value": "Pathfinder Advanced Player's Guide"
        },
        "trainedLore": "<Terrain> Lore",
        "trainedSkills": {
            "value": [
                "itm"
            ]
        },
        "traits": {
            "custom": "",
            "rarity": "common",
            "value": []
        }
    },
    "flags": {},
    "img": "systems/pf2e/icons/default-icons/background.svg",
    "name": "Bandit",
    "type": "background"
}
