{
    "_id": "wudDO9OEsRjJsqhU",
    "data": {
        "boosts": {
            "0": {
                "value": [
                    "dex",
                    "wis"
                ]
            },
            "1": {
                "value": [
                    "cha",
                    "con",
                    "dex",
                    "int",
                    "str",
                    "wis"
                ]
            }
        },
        "description": {
            "value": "<p>Haircuts, dentistry, bloodletting, and surgery-if it takes a steady hand and a razor, you do it. You may have taken to the road to expand your skills, or to test yourself against a world that leaves your patients so battered and bruised.</p>\n<p>Choose two ability boosts. One must be to <strong>Dexterity</strong> or <strong>Wisdom</strong>, and one is a free ability boost.</p>\n<p>You're trained in the Medicine skill and the Surgery Lore skill. You gain the @Compendium[pf2e.feats-srd.Risky Surgery]{Risky Surgery} skill feat.</p>"
        },
        "items": {
            "ph05m": {
                "id": "bkZgWFSFV4cAf5Ot",
                "img": "systems/pf2e/icons/features/feats/feats.webp",
                "level": "1",
                "name": "Risky Surgery",
                "pack": "pf2e.feats-srd"
            }
        },
        "rules": [],
        "source": {
            "value": "Pathfinder Advanced Player's Guide"
        },
        "trainedLore": "Surgery Lore",
        "trainedSkills": {
            "value": [
                "med"
            ]
        },
        "traits": {
            "custom": "",
            "rarity": "common",
            "value": []
        }
    },
    "flags": {},
    "img": "systems/pf2e/icons/default-icons/background.svg",
    "name": "Barber",
    "type": "background"
}
