{
    "_id": "YJpEdmSOjlA2QZeu",
    "data": {
        "boosts": {
            "0": {
                "value": [
                    "cha",
                    "int"
                ]
            },
            "1": {
                "value": [
                    "cha",
                    "con",
                    "dex",
                    "int",
                    "str",
                    "wis"
                ]
            }
        },
        "description": {
            "value": "<p>The itinerant life of a traveling circus performer is nothing new to you; you were born and raised in the circus. You've seen more acts than you can count and grew up hearing the tall tales of circus performers while gathered around their campfires. You've experienced the thrill of captivating crowd ever since you were young. You may have tried a few times to settle down, but the lure of the open road and the glamor of the big top always called you back.</p>\n<p>Choose two ability boosts. One must be to <strong>Intelligence</strong> or <strong>Charisma</strong>, and one is a free ability boost.</p>\n<p>You're trained in the Performance skill and the Circus Lore skill. You gain the @Compendium[pf2e.feats-srd.Experienced Professional]{Experienced Professional} skill feat.</p>"
        },
        "items": {
            "pem87": {
                "id": "sMm0UfYxEPpq2Yzd",
                "img": "systems/pf2e/icons/features/feats/feats.webp",
                "level": "1",
                "name": "Experienced Professional",
                "pack": "pf2e.feats-srd"
            }
        },
        "rules": [],
        "source": {
            "value": "Pathfinder: Extinction Curse Player's Guide"
        },
        "trainedLore": "Circus Lore",
        "trainedSkills": {
            "value": [
                "prf"
            ]
        },
        "traits": {
            "custom": "",
            "rarity": "common",
            "value": []
        }
    },
    "flags": {},
    "img": "systems/pf2e/icons/default-icons/background.svg",
    "name": "Circus Born",
    "type": "background"
}
