{
    "_id": "vTyG1bQkEENZHroY",
    "data": {
        "boosts": {
            "0": {
                "value": [
                    "str",
                    "wis"
                ]
            },
            "1": {
                "value": [
                    "cha",
                    "con",
                    "dex",
                    "int",
                    "str",
                    "wis"
                ]
            }
        },
        "description": {
            "value": "<p>You live on the outskirts of civilization, combing through the detritus left behind for interesting trinkets to sell or use in your own crafting. Though you have a preferred terrain to search, you know that the greatest treasures occur where people make greater use of technology.</p>\n<p>Choose two ability boosts. One must be to <strong>Strength</strong> or <strong>Wisdom</strong>, and one is a free ability boost.</p>\n<p>You're trained in the Athletics skill and the Lore skill of the terrain in which you scavenge. You gain the @Compendium[pf2e.feats-srd.Hefty Hauler]{Hefty Hauler} skill feat.</p>"
        },
        "items": {
            "uzu2f": {
                "id": "C0Tcelg3BAPhML6J",
                "img": "systems/pf2e/icons/features/feats/feats.webp",
                "level": 1,
                "name": "Hefty Hauler",
                "pack": "pf2e.feats-srd"
            }
        },
        "rules": [],
        "source": {
            "value": "Pathfinder Guns & Gears"
        },
        "trainedLore": "",
        "trainedSkills": {
            "custom": "",
            "value": [
                "ath"
            ]
        },
        "traits": {
            "custom": "",
            "rarity": "common",
            "value": []
        }
    },
    "flags": {},
    "img": "systems/pf2e/icons/default-icons/background.svg",
    "name": "Junker",
    "type": "background"
}
