{
    "_id": "RxhdWJUoRTBEeHYZ",
    "data": {
        "boosts": {
            "0": {
                "value": [
                    "cha",
                    "str"
                ]
            },
            "1": {
                "value": [
                    "cha",
                    "con",
                    "dex",
                    "int",
                    "str",
                    "wis"
                ]
            }
        },
        "description": {
            "value": "<p>When everyone else slumbers, you're on guard. You might have been a watch member in a teeming metropolis, the guard in an unquiet cemetery, or a lonely shepherd. Many a night you've shouted out warnings into the dark, unsure of what lurked just beyond the range of your lantern's light. More than once you've seen things shambling in the dark that never should have been up and about.</p>\n<p>Choose two ability boosts. One must be to <strong>Strength</strong> or <strong>Charisma</strong>, and one is a free ability boost.</p>\n<p>You're trained in the Intimidation skill and either Legal Lore or the Lore skill for your home settlement. You gain the @Compendium[pf2e.feats-srd.Quick Coercion]{Quick Coercion} skill feat.</p>"
        },
        "items": {
            "64gag": {
                "id": "ar2DUlvDK4LDcH9J",
                "img": "systems/pf2e/icons/features/feats/feats.webp",
                "level": 1,
                "name": "Quick Coercion",
                "pack": "pf2e.feats-srd"
            }
        },
        "rules": [],
        "source": {
            "value": "Pathfinder Book of the Dead"
        },
        "trainedLore": "",
        "trainedSkills": {
            "custom": "",
            "value": [
                "itm"
            ]
        },
        "traits": {
            "custom": "",
            "rarity": "common",
            "value": []
        }
    },
    "flags": {},
    "img": "systems/pf2e/icons/default-icons/background.svg",
    "name": "Night Watch",
    "type": "background"
}
