{
    "_id": "NXYce9NAHls2fcIf",
    "data": {
        "boosts": {
            "0": {
                "value": [
                    "cha",
                    "wis"
                ]
            },
            "1": {
                "value": [
                    "cha",
                    "con",
                    "dex",
                    "int",
                    "str",
                    "wis"
                ]
            }
        },
        "description": {
            "value": "<p>The Pathfinder Society's always on the lookout for talent, but that talent rarely just stumbles into the Grand Lodge. Whether you're professionally trained to encourage new recruits or the Society's own scouts identified your potential and raised you from childhood, you're committed to expanding the Society's roster.</p>\n<p>Choose two ability boosts. One must be to <strong>Wisdom</strong> or <strong>Charisma</strong>, and one is a free ability boost.</p>\n<p>You're trained in the Diplomacy skill and a Lore skill related to one city you've visited often. You gain the Group Impression skill feat.</p>"
        },
        "items": {
            "2dltm": {
                "id": "KpFetnUqTiweypZk",
                "img": "systems/pf2e/icons/features/feats/feats.webp",
                "level": "1",
                "name": "Group Impression",
                "pack": "pf2e.feats-srd"
            }
        },
        "rules": [],
        "source": {
            "value": "Pathfinder Lost Omens: Pathfinder Society Guide"
        },
        "trainedLore": "<City> Lore",
        "trainedSkills": {
            "value": [
                "dip"
            ]
        },
        "traits": {
            "custom": "",
            "rarity": "common",
            "value": []
        }
    },
    "flags": {},
    "img": "systems/pf2e/icons/default-icons/background.svg",
    "name": "Pathfinder Recruiter",
    "type": "background"
}
