{
    "_id": "a9YjyQRNEOyespFf",
    "data": {
        "boosts": {
            "0": {
                "value": [
                    "dex",
                    "int"
                ]
            },
            "1": {
                "value": [
                    "cha",
                    "con",
                    "dex",
                    "int",
                    "str",
                    "wis"
                ]
            }
        },
        "description": {
            "value": "<p>You're experienced at building funeral pyres. You might have lit flaming biers in the Land of the Linnorm Kings, tended the cremation pits of Cheliax or Vudra, or been a backwoods charcoal burner, using the right mixture of alchemy to act as an accelerant. However you worship, you know nothing sends off the departed like flame.</p>\n<p>Choose two ability boosts. One must be to <strong>Dexterity</strong> or <strong>Intelligence</strong>, and one is a free ability boost.</p>\n<p>You're trained in the Crafting skill and the Funeral Lore skill. You gain the @Compendium[pf2e.feats-srd.Alchemical Crafting]{Alchemical Crafting} skill feat.</p>"
        },
        "items": {
            "y1mm1": {
                "id": "is3Oz9wt11lNq62K",
                "img": "systems/pf2e/icons/features/feats/feats.webp",
                "level": 1,
                "name": "Alchemical Crafting",
                "pack": "pf2e.feats-srd"
            }
        },
        "rules": [],
        "source": {
            "value": "Pathfinder Book of the Dead"
        },
        "trainedLore": "Funeral",
        "trainedSkills": {
            "custom": "",
            "value": [
                "cra"
            ]
        },
        "traits": {
            "custom": "",
            "rarity": "common",
            "value": []
        }
    },
    "flags": {},
    "img": "systems/pf2e/icons/default-icons/background.svg",
    "name": "Pyre Tender",
    "type": "background"
}
