{
    "_id": "TPoP1mKpqUOpRQ5Y",
    "data": {
        "boosts": {
            "0": {
                "value": [
                    "dex",
                    "int"
                ]
            },
            "1": {
                "value": [
                    "cha",
                    "con",
                    "dex",
                    "int",
                    "str",
                    "wis"
                ]
            }
        },
        "description": {
            "value": "<p>You're likely from Breachill, but unlike the Local Scion, your family has no notable legacy in the area. You might not even have much of a family at all to call your own, and could be an orphan. You've seen so many people make names for themselves that you set out on your own and spent some time abroad in the jungles or deserts of Garund or in the upper reaches of the Darklands-regions that proved too dangerous to remain in for long on your own. You returned home with more caution and knowledge of the world beyond Breachill's borders, but still determined to win fame.</p>\n<p>You've decided that joining an adventuring group would be the best way to secure aid in your quest to build your own reputation, and are attending the Call for Heroes to find such allies.</p>\n<p>Choose two ability boosts. One must be to <strong>Dexterity</strong> or <strong>Intelligence</strong>, and one is a free ability boost.</p>\n<p>You're trained in the Survival skill and the Darklands, Desert, or Jungle Lore skill. You gain the @Compendium[pf2e.feats-srd.Terrain Expertise]{Terrain Expertise} skill feat (underground if you have Darklands Lore, desert if you have Desert Lore, or forest if you have Jungle Lore).</p>"
        },
        "items": {
            "u6r5t": {
                "id": "4tTkRyOQ0VuRBac3",
                "img": "systems/pf2e/icons/features/feats/feats.webp",
                "level": "1",
                "name": "Terrain Expertise",
                "pack": "pf2e.feats-srd"
            }
        },
        "rules": [],
        "source": {
            "value": "Pathfinder: Age of Ashes Player's Guide"
        },
        "trainedLore": "<Terrain> Lore",
        "trainedSkills": {
            "value": [
                "sur"
            ]
        },
        "traits": {
            "custom": "",
            "rarity": "common",
            "value": []
        }
    },
    "flags": {},
    "img": "systems/pf2e/icons/default-icons/background.svg",
    "name": "Reputation Seeker",
    "type": "background"
}
