{
    "_id": "5qUQOpdlNsJjpFVX",
    "data": {
        "boosts": {
            "0": {
                "value": [
                    "dex",
                    "int"
                ]
            },
            "1": {
                "value": [
                    "cha",
                    "con",
                    "dex",
                    "int",
                    "str",
                    "wis"
                ]
            }
        },
        "description": {
            "value": "<p>You've looked through some of the smaller ruins in the Otari hinterlands but have never quite built up the courage to check out the creepy lighthouse called Gauntlight. You've heard that these ruins are pretty well picked over, and mostly collapsed, but you always planned to some day explore them and perhaps find some bauble left behind from the centuries-old battle where the Roseguard slew an evil sorcerer. You know that the crumbled stone of old ruins has a tendency to shift, so you'd better step lightly if you get the chance to explore Gauntlight.</p>\n<p>Choose two ability boosts. One must be to <strong>Dexterity</strong> or <strong>Intelligence</strong>, and one is a free ability boost.</p>\n<p>You're trained in Acrobatics and the Roseguard Lore skill. You gain the @Compendium[pf2e.feats-srd.Cat Fall]{Cat Fall} skill feat.</p>"
        },
        "items": {
            "1jgzx": {
                "id": "LQw0yIMDUJJkq1nD",
                "img": "systems/pf2e/icons/features/feats/feats.webp",
                "level": "1",
                "name": "Cat Fall",
                "pack": "pf2e.feats-srd"
            }
        },
        "rules": [],
        "source": {
            "value": "Pathfinder: Abomination Vaults Player's Guide"
        },
        "trainedLore": "Roseguard Lore",
        "trainedSkills": {
            "value": [
                "acr"
            ]
        },
        "traits": {
            "custom": "",
            "rarity": "common",
            "value": []
        }
    },
    "flags": {},
    "img": "systems/pf2e/icons/default-icons/background.svg",
    "name": "Ruin Delver",
    "type": "background"
}
