{
    "_id": "4Vc8uXVHonrasFnU",
    "data": {
        "boosts": {
            "0": {
                "value": [
                    "dex",
                    "str"
                ]
            },
            "1": {
                "value": [
                    "cha",
                    "con",
                    "dex",
                    "int",
                    "str",
                    "wis"
                ]
            }
        },
        "description": {
            "value": "<p>Whether you do it for personal enjoyment or at the behest of a mercenary company or military organization, you have a knack for destroying things. You have a sense for an object or structure's weak spots and know where to deliver a hammer strike or alchemical bomb. You adventure to hone your skills or complete a particular mission.</p>\n<p>Choose two ability boosts. One must be to <strong>Strength</strong> or <strong>Dexterity</strong>, and one is a free ability boost.</p>\n<p>You're trained in the Thievery skill and the Engineering Lore skill. You gain the @Compendium[pf2e.feats-srd.Concealing Legerdemain]{Concealing Legerdemain} skill feat.</p>"
        },
        "items": {
            "hb9mc": {
                "id": "B9cQLRHtXoLlF0iR",
                "img": "systems/pf2e/icons/features/feats/feats.webp",
                "level": 1,
                "name": "Concealing Legerdemain",
                "pack": "pf2e.feats-srd"
            }
        },
        "rules": [],
        "source": {
            "value": "Pathfinder Guns & Gears"
        },
        "trainedLore": "Engineering",
        "trainedSkills": {
            "custom": "",
            "value": [
                "thi"
            ]
        },
        "traits": {
            "custom": "",
            "rarity": "common",
            "value": []
        }
    },
    "flags": {},
    "img": "systems/pf2e/icons/default-icons/background.svg",
    "name": "Saboteur",
    "type": "background"
}
