{
    "_id": "4KCa67gyxUn60zdf",
    "data": {
        "boosts": {
            "0": {
                "value": [
                    "cha",
                    "dex"
                ]
            },
            "1": {
                "value": [
                    "cha",
                    "con",
                    "dex",
                    "int",
                    "str",
                    "wis"
                ]
            }
        },
        "description": {
            "value": "<p>All you want to do is entertain the people, but sure enough, bad news seems to follow you. Gunfights, brawls, robberies, and more befall establishments you play at, and word is quick to spread. Keep one town ahead of the gossip, and you just might be able to play a gig, command a stage, or run a table again.</p>\n<p>Choose two ability boosts. One must be to <strong>Charisma</strong> or <strong>Dexterity</strong>, and one is a free ability boost.</p>\n<p>You're trained in the Performance skill and a lore skill of your choice. You gain the @Compendium[pf2e.feats-srd.Virtuosic Performer]{Virtuosic Performer} skill feat.</p>"
        },
        "items": {},
        "rules": [
            {
                "choices": [
                    {
                        "value": "Compendium.pf2e.feats-srd.Virtuosic Performer (Acting)"
                    },
                    {
                        "value": "Compendium.pf2e.feats-srd.Virtuosic Performer (Comedy)"
                    },
                    {
                        "value": "Compendium.pf2e.feats-srd.Virtuosic Performer (Dance)"
                    },
                    {
                        "value": "Compendium.pf2e.feats-srd.Virtuosic Performer (Keyboards)"
                    },
                    {
                        "value": "Compendium.pf2e.feats-srd.Virtuosic Performer (Oratory)"
                    },
                    {
                        "value": "Compendium.pf2e.feats-srd.Virtuosic Performer (Percussion)"
                    },
                    {
                        "value": "Compendium.pf2e.feats-srd.Virtuosic Performer (Singing)"
                    },
                    {
                        "value": "Compendium.pf2e.feats-srd.Virtuosic Performer (Strings)"
                    },
                    {
                        "value": "Compendium.pf2e.feats-srd.Virtuosic Performer (Winds)"
                    }
                ],
                "flag": "performanceChoice",
                "key": "ChoiceSet",
                "prompt": "PF2E.SpecificRule.VirtuosicPerformer.Prompt"
            },
            {
                "key": "GrantItem",
                "uuid": "{item|flags.pf2e.rulesSelections.performanceChoice}"
            }
        ],
        "source": {
            "value": "Pathfinder Guns & Gears"
        },
        "trainedLore": "",
        "trainedSkills": {
            "custom": "",
            "value": [
                "prf"
            ]
        },
        "traits": {
            "custom": "",
            "rarity": "common",
            "value": []
        }
    },
    "flags": {},
    "img": "systems/pf2e/icons/default-icons/background.svg",
    "name": "Saloon Entertainer",
    "type": "background"
}
