{
    "_id": "khGFmnQMBYmz2ONR",
    "data": {
        "boosts": {
            "0": {
                "value": [
                    "con",
                    "wis"
                ]
            },
            "1": {
                "value": [
                    "cha",
                    "con",
                    "dex",
                    "int",
                    "str",
                    "wis"
                ]
            }
        },
        "description": {
            "value": "<p><strong>Prerequisite</strong> Region - Broken Lands</p>\n<hr />\n<p>Whether you trace your heritage to lost Sarkoris or are a crusader trying to atone for past fanatics' wrongs, you seek to liberate the Sarkorian homeland from the demons who have defiled it.</p>\n<p>Choose two ability boosts. One must be to <strong>Constitution</strong> or <strong>Wisdom</strong>, and one is a free boost.</p>\n<p>You're trained in the Medicine skill and the Abyssal Lore skill. You gain the @Compendium[pf2e.feats-srd.Battle Medicine]{Battle Medicine} skill feat.</p>"
        },
        "items": {
            "qsfyf": {
                "id": "wYerMk6F1RZb0Fwt",
                "img": "systems/pf2e/icons/features/feats/feats.webp",
                "level": "1",
                "name": "Battle Medicine",
                "pack": "pf2e.feats-srd"
            }
        },
        "rules": [],
        "source": {
            "value": "Pathfinder Lost Omens: World Guide"
        },
        "trainedLore": "Abyssal Lore",
        "trainedSkills": {
            "value": [
                "med"
            ]
        },
        "traits": {
            "custom": "",
            "rarity": "common",
            "value": []
        }
    },
    "flags": {},
    "img": "systems/pf2e/icons/default-icons/background.svg",
    "name": "Sarkorian Reclaimer",
    "type": "background"
}
