{
    "_id": "h98cEl4DY75IL6KJ",
    "data": {
        "boosts": {
            "0": {
                "value": [
                    "str",
                    "wis"
                ]
            },
            "1": {
                "value": [
                    "cha",
                    "con",
                    "dex",
                    "int",
                    "str",
                    "wis"
                ]
            }
        },
        "description": {
            "value": "<p>You left your home a few months back for a life on the road, working for one caravan company and then another, always on the lookout for a new job and a better life. Last week, you were hired by the Bort Bargith's company in Elidir. You don't know anyone from the company just yet, but most of its members seem to be honest merchants and traders.</p>\n<p>Choose two ability boosts. One must be to <strong>Strength</strong> or <strong>Wisdom</strong>, and one is a free ability boost.</p>\n<p>You're trained in the Nature skill and the Mercantile Lore skill. You gain the @Compendium[pf2e.feats-srd.Train Animal]{Train Animal} skill feat.</p>"
        },
        "items": {
            "7z8e4": {
                "id": "nowEaHgIyij7im8F",
                "img": "systems/pf2e/icons/features/feats/feats.webp",
                "level": "1",
                "name": "Train Animal",
                "pack": "pf2e.feats-srd"
            }
        },
        "rules": [],
        "source": {
            "value": "Pathfinder Adventure: The Fall of Plaguestone"
        },
        "trainedLore": "Mercantile Lore",
        "trainedSkills": {
            "value": [
                "nat"
            ]
        },
        "traits": {
            "custom": "",
            "rarity": "common",
            "value": []
        }
    },
    "flags": {},
    "img": "systems/pf2e/icons/default-icons/background.svg",
    "name": "Teamster",
    "type": "background"
}
