{
    "_id": "4naQmCXBl0007c2W",
    "data": {
        "boosts": {
            "0": {
                "value": [
                    "cha",
                    "str"
                ]
            },
            "1": {
                "value": [
                    "cha",
                    "con",
                    "dex",
                    "int",
                    "str",
                    "wis"
                ]
            }
        },
        "description": {
            "value": "<p><strong>[Legacy - Age of Ashes]</strong></p>\n<p>As the manifestation of Dahak was destroyed, a shard of the dragon god's wrathful nature infused you, resulting in a violent temper, strange apocalyptic dreams, an obsession with dragon hunting, or some other touch of his influence.</p>\n<p>Choose two ability boosts. One must be to <strong>Strength</strong> or <strong>Charisma</strong>, and one is a free ability boost.</p>\n<p>You're trained in the Athletics skill and the Dragon Lore skill. You gain the @Compendium[pf2e.feats-srd.Titan Wrestler]{Titan Wrestler} skill feat.</p>"
        },
        "items": {
            "uy8ld": {
                "id": "KxaYlC50zzHysJj8",
                "img": "systems/pf2e/icons/features/feats/feats.webp",
                "level": "1",
                "name": "Titan Wrestler",
                "pack": "pf2e.feats-srd"
            }
        },
        "rules": [],
        "source": {
            "value": "Pathfinder #150: Broken Promises"
        },
        "trainedLore": "Dragon Lore",
        "trainedSkills": {
            "value": [
                "ath"
            ]
        },
        "traits": {
            "custom": "",
            "rarity": "rare",
            "value": []
        }
    },
    "flags": {},
    "img": "systems/pf2e/icons/default-icons/background.svg",
    "name": "Touched by Dahak",
    "type": "background"
}
