{
    "_id": "ykYaQwIX7sxvbhwc",
    "data": {
        "boosts": {
            "0": {
                "value": [
                    "cha",
                    "wis"
                ]
            },
            "1": {
                "value": [
                    "cha",
                    "con",
                    "dex",
                    "int",
                    "str",
                    "wis"
                ]
            }
        },
        "description": {
            "value": "<p>You speak to spirits only you can perceive: wispy shreds of lost souls, household guardians, ancestral spirits, and other entities. You can negotiate with these beings, allowing them into your body to impart knowledge or aid in a task for the price of a favor.</p>\n<p>Choose two ability boosts. One must be to <strong>Wisdom</strong> or <strong>Charisma</strong>, and one is a free ability boost.</p>\n<p>You're trained in the Spirit Lore skill. You gain the @Compendium[pf2e.actionspf2e.Host Spirit]{Host Spirit} action.</p>"
        },
        "items": {},
        "rules": [
            {
                "key": "GrantItem",
                "uuid": "Compendium.pf2e.actionspf2e.Host Spirit"
            }
        ],
        "source": {
            "value": "Pathfinder Book of the Dead"
        },
        "trainedLore": "Spirit",
        "trainedSkills": {
            "value": []
        },
        "traits": {
            "custom": "",
            "rarity": "rare",
            "value": []
        }
    },
    "flags": {},
    "img": "systems/pf2e/icons/default-icons/background.svg",
    "name": "Willing Host",
    "type": "background"
}
