{
    "_id": "5sMAAIymln2yIl4q",
    "data": {
        "baseItem": null,
        "containerId": null,
        "description": {
            "value": "<p>This functions as a pale lavender ellipsoid aeon stone, but it casts an 8th-level <em>@Compendium[pf2e.spells-srd.Dispel Magic]{Dispel Magic}</em> spell with a counteract modifier of [[/r 1d20+31]].</p>\n<p>The resonant power allows you to cast <em>@Compendium[pf2e.spells-srd.Detect Magic]{Detect Magic}</em> and <em>@Compendium[pf2e.spells-srd.Read Aura]{Read Aura}</em> as arcane innate spells at will.</p>"
        },
        "equippedBulk": {
            "value": ""
        },
        "hardness": 0,
        "hp": {
            "brokenThreshold": 0,
            "max": 0,
            "value": 0
        },
        "level": {
            "value": 19
        },
        "negateBulk": {
            "value": "0"
        },
        "preciousMaterial": {
            "value": ""
        },
        "preciousMaterialGrade": {
            "value": ""
        },
        "price": {
            "value": {
                "gp": 30000
            }
        },
        "quantity": 1,
        "rules": [],
        "size": "med",
        "source": {
            "value": "Pathfinder Core Rulebook"
        },
        "stackGroup": null,
        "traits": {
            "custom": "",
            "rarity": "uncommon",
            "value": [
                "invested",
                "magical",
                "transmutation"
            ]
        },
        "usage": {
            "value": "worn"
        },
        "weight": {
            "value": "-"
        }
    },
    "flags": {},
    "img": "systems/pf2e/icons/equipment/worn-items/other-worn-items/aeon-stone-lavender-and-green-ellipsoid.webp",
    "name": "Aeon Stone (Lavender and Green Ellipsoid)",
    "type": "equipment"
}
