{
    "_id": "MO8J2IcBhiTnm9D8",
    "data": {
        "baseItem": null,
        "containerId": null,
        "description": {
            "value": "<p>An <em>orange prism aeon stone</em> must be activated to provide a benefit. The resonant power grants you a +2 item bonus to Arcana, Nature, Occultism, or Religion checks-whichever corresponds to the tradition of the last spell you enhanced with this <em>aeon stone</em>.</p>\n<hr />\n<p><strong>Activate</strong> <span class=\"pf2-icon\">A</span> envision</p>\n<p><strong>Effect</strong> If your next action is to Cast a Spell, that spell's level is 1 higher (maximum 10th level) for the purposes of counteracting and being counteracted.</p>\n<p>@Compendium[pf2e.equipment-effects.Effect: Aeon Stone (Orange Prism) (Arcana)]{Effect: Aeon Stone (Orange Prism) (Arcana)}</p>\n<p>@Compendium[pf2e.equipment-effects.Effect: Aeon Stone (Orange Prism) (Nature)]{Effect: Aeon Stone (Orange Prism) (Nature)}</p>\n<p>@Compendium[pf2e.equipment-effects.Effect: Aeon Stone (Orange Prism) (Occultism)]{Effect: Aeon Stone (Orange Prism) (Occultism)}</p>\n<p>@Compendium[pf2e.equipment-effects.Effect: Aeon Stone (Orange Prism) (Religion)]{Effect: Aeon Stone (Orange Prism) (Religion)}</p>"
        },
        "equippedBulk": {
            "value": ""
        },
        "hardness": 0,
        "hp": {
            "brokenThreshold": 0,
            "max": 0,
            "value": 0
        },
        "level": {
            "value": 16
        },
        "negateBulk": {
            "value": "0"
        },
        "preciousMaterial": {
            "value": ""
        },
        "preciousMaterialGrade": {
            "value": ""
        },
        "price": {
            "value": {
                "gp": 9750
            }
        },
        "quantity": 1,
        "rules": [],
        "size": "med",
        "source": {
            "value": "Pathfinder Core Rulebook"
        },
        "stackGroup": null,
        "traits": {
            "custom": "",
            "rarity": "uncommon",
            "value": [
                "invested",
                "magical",
                "transmutation"
            ]
        },
        "usage": {
            "value": "worn"
        },
        "weight": {
            "value": "-"
        }
    },
    "flags": {},
    "img": "systems/pf2e/icons/equipment/worn-items/other-worn-items/aeon-stone-orange-prism.webp",
    "name": "Aeon Stone (Orange Prism)",
    "type": "equipment"
}
