{
    "_id": "k6xZkDUpF7E1Totd",
    "data": {
        "baseItem": null,
        "containerId": null,
        "description": {
            "value": "<p>You need an alchemist's lab to Craft alchemical items during downtime.</p>"
        },
        "equippedBulk": {
            "value": ""
        },
        "hardness": 0,
        "hp": {
            "brokenThreshold": 0,
            "max": 0,
            "value": 0
        },
        "level": {
            "value": 0
        },
        "negateBulk": {
            "value": "0"
        },
        "preciousMaterial": {
            "value": ""
        },
        "preciousMaterialGrade": {
            "value": ""
        },
        "price": {
            "value": {
                "gp": 5
            }
        },
        "quantity": 1,
        "rules": [],
        "size": "med",
        "source": {
            "value": "Pathfinder Core Rulebook"
        },
        "stackGroup": null,
        "traits": {
            "custom": "",
            "rarity": "common",
            "value": []
        },
        "usage": {
            "value": "held-in-two-hands"
        },
        "weight": {
            "value": "6"
        }
    },
    "flags": {},
    "img": "systems/pf2e/icons/equipment/adventuring-gear/alchemists-lab.webp",
    "name": "Alchemist's Lab",
    "type": "equipment"
}
