{
    "_id": "VBaxMSVNY2n6kLzT",
    "data": {
        "baseItem": null,
        "containerId": "null",
        "description": {
            "value": "<p>A basic prosthesis replaces a missing or damaged body part. Typical prostheses include artificial feet, eyes, hands, and limbs, though a basic prosthesis can be designed as a replacement for any body part. A prosthesis has a number of belts or cuffs that keep it attached to your body. You can attach or remove a prosthesis as an Interact action.</p>"
        },
        "equippedBulk": {
            "value": ""
        },
        "hardness": 0,
        "hp": {
            "brokenThreshold": 0,
            "max": 0,
            "value": 0
        },
        "level": {
            "value": 0
        },
        "negateBulk": {
            "value": "0"
        },
        "preciousMaterial": {
            "value": null
        },
        "preciousMaterialGrade": {
            "value": null
        },
        "price": {
            "value": {
                "sp": 5
            }
        },
        "quantity": 1,
        "rules": [],
        "size": "med",
        "source": {
            "value": "Pathfinder Lost Omens: The Grand Bazaar"
        },
        "stackGroup": null,
        "traits": {
            "custom": "",
            "rarity": "common",
            "value": []
        },
        "usage": {
            "value": "worn"
        },
        "weight": {
            "value": "-"
        }
    },
    "flags": {},
    "img": "systems/pf2e/icons/default-icons/equipment.svg",
    "name": "Basic Prosthesis",
    "type": "equipment"
}
