{
    "_id": "LhMXIGelSrFPYild",
    "data": {
        "MAP": {
            "value": ""
        },
        "baseItem": "alchemical-bomb",
        "bonus": {
            "value": 2
        },
        "bonusDamage": {
            "value": null
        },
        "category": "martial",
        "containerId": null,
        "damage": {
            "damageType": "poison",
            "dice": 3,
            "die": "d6",
            "value": ""
        },
        "description": {
            "value": "<p><strong>Usage</strong> held in 1 hand</p>\n<p><strong>Activate</strong> <span class=\"pf2-icon\">A</span> Strike</p>\n<p>Blight bombs contain volatile toxic chemicals that rot flesh. A blight bomb deals 3d6 poison damage, 3d4 persistent poison damage, and 3 poison splash damage. You gain a +2 item bonus to attack rolls.</p>"
        },
        "equippedBulk": {
            "value": ""
        },
        "group": "bomb",
        "hardness": 0,
        "hp": {
            "brokenThreshold": 0,
            "max": 0,
            "value": 0
        },
        "level": {
            "value": 11
        },
        "negateBulk": {
            "value": "0"
        },
        "potencyRune": {
            "value": 0
        },
        "preciousMaterial": {
            "value": ""
        },
        "preciousMaterialGrade": {
            "value": ""
        },
        "price": {
            "value": {
                "gp": 250
            }
        },
        "property1": {
            "critDamage": "",
            "critDamageType": "",
            "critDice": null,
            "critDie": "",
            "criticalConditionType": "",
            "criticalConditionValue": null,
            "damageType": "",
            "dice": null,
            "die": "",
            "strikeConditionType": "",
            "strikeConditionValue": null,
            "value": ""
        },
        "propertyRune1": {
            "value": null
        },
        "propertyRune2": {
            "value": null
        },
        "propertyRune3": {
            "value": null
        },
        "propertyRune4": {
            "value": null
        },
        "quantity": 1,
        "range": 20,
        "reload": {
            "value": ""
        },
        "rules": [
            {
                "key": "Note",
                "outcome": [
                    "success"
                ],
                "selector": "{item|_id}-damage",
                "text": "<p class='compact-text'>@Localize[PF2E.BombNotes.BlightBomb.Greater.success]</p>"
            },
            {
                "key": "Note",
                "outcome": [
                    "criticalSuccess"
                ],
                "selector": "{item|_id}-damage",
                "text": "<p class='compact-text'>@Localize[PF2E.BombNotes.BlightBomb.Greater.criticalSuccess]</p>"
            }
        ],
        "size": "med",
        "source": {
            "value": "Pathfinder Advanced Player's Guide"
        },
        "specific": {
            "value": false
        },
        "splashDamage": {
            "value": 3
        },
        "stackGroup": null,
        "strikingRune": {
            "value": ""
        },
        "traits": {
            "custom": "",
            "rarity": "common",
            "value": [
                "alchemical",
                "bomb",
                "consumable",
                "poison",
                "splash"
            ]
        },
        "usage": {
            "value": "held-in-one-hand"
        },
        "weight": {
            "value": "L"
        }
    },
    "flags": {},
    "img": "systems/pf2e/icons/equipment/alchemical-items/alchemical-bombs/blight-bomb.webp",
    "name": "Blight Bomb (Greater)",
    "type": "weapon"
}
