{
    "_id": "AgDNThyJHtsp1Vjt",
    "data": {
        "baseItem": null,
        "containerId": "null",
        "description": {
            "value": "<p><strong>Usage</strong> etched onto a slashing or piercing melee weapon</p>\n<hr />\n<p>The magic in this rune sings in time with your attacks and coaxes you into finishing your opponent. When you critically hit a target that's taking persistent bleed damage, your target becomes @Compendium[pf2e.conditionitems.Drained]{Drained 1}.</p>\n<hr />\n<p><strong>Activate</strong> <span class=\"pf2-icon\">r</span> envision</p>\n<p><strong>Trigger</strong> You reduce a creature to 0 Hit Points with the weapon</p>\n<p><strong>Effect</strong> You gain a number of temporary Hit Points equal to twice the creature's level. These Hit Points remain for 1 minute.</p>"
        },
        "equippedBulk": {
            "value": ""
        },
        "hardness": 0,
        "hp": {
            "brokenThreshold": 0,
            "max": 0,
            "value": 0
        },
        "level": {
            "value": 16
        },
        "negateBulk": {
            "value": "0"
        },
        "preciousMaterial": {
            "value": null
        },
        "preciousMaterialGrade": {
            "value": null
        },
        "price": {
            "value": {
                "gp": 8500
            }
        },
        "quantity": 1,
        "rules": [],
        "size": "med",
        "source": {
            "value": "Pathfinder Lost Omens: The Grand Bazaar"
        },
        "stackGroup": "",
        "traits": {
            "custom": "",
            "rarity": "uncommon",
            "value": [
                "magical",
                "necromancy"
            ]
        },
        "usage": {
            "value": "etched-onto-a-weapon"
        },
        "weight": {
            "value": "-"
        }
    },
    "flags": {},
    "img": "systems/pf2e/icons/equipment/runes/weapon-property-runes/weapon-property-runes.webp",
    "name": "Bloodthirsty",
    "type": "equipment"
}
