{
    "_id": "U5MKmx60jAX4xV8x",
    "data": {
        "baseItem": null,
        "containerId": "null",
        "description": {
            "value": "<p>The common saying, \"Where there is progress in the field of magic, there is always someone who uses it to set things on fire,\" is engraved in gold on the cover of this red spellbook.</p>\n<hr />\n<p><strong>Activate</strong> <span class=\"pf2-icon\">1</span> envision (metamagic)</p>\n<p><strong>Frequency</strong> once per day</p>\n<p><strong>Effect</strong> If your next action is to cast an evocation spell dealing fire damage that you prepared from this grimoire, you superheat the flames, allowing the spell to ignore up to 10 resistance to fire of creatures affected by the spell.</p>"
        },
        "equippedBulk": {
            "value": ""
        },
        "hardness": 0,
        "hp": {
            "brokenThreshold": 0,
            "max": 0,
            "value": 0
        },
        "level": {
            "value": 10
        },
        "negateBulk": {
            "value": "0"
        },
        "preciousMaterial": {
            "value": null
        },
        "preciousMaterialGrade": {
            "value": null
        },
        "price": {
            "value": {
                "gp": 900
            }
        },
        "quantity": 1,
        "rules": [],
        "size": "med",
        "source": {
            "value": "Pathfinder Secrets of Magic"
        },
        "stackGroup": null,
        "traits": {
            "custom": "",
            "rarity": "common",
            "value": [
                "evocation",
                "grimoire",
                "magical"
            ]
        },
        "usage": {
            "value": "held-in-one-hand"
        },
        "weight": {
            "value": "L"
        }
    },
    "flags": {},
    "img": "systems/pf2e/icons/default-icons/equipment.svg",
    "name": "Book of Lingering Blaze",
    "type": "equipment"
}
