{
    "_id": "1oWATIKLaZBXzw9N",
    "data": {
        "activation": {
            "condition": "",
            "cost": 0,
            "type": ""
        },
        "autoDestroy": {
            "_deprecated": true,
            "value": true
        },
        "autoUse": {
            "_deprecated": true,
            "value": true
        },
        "baseItem": null,
        "charges": {
            "_deprecated": true,
            "max": 0,
            "value": 0
        },
        "consumableType": {
            "value": "snare"
        },
        "consume": {
            "_deprecated": true,
            "value": ""
        },
        "containerId": "null",
        "description": {
            "value": "<p>By combining a @Compendium[pf2e.equipment-srd.Alchemist's Fire (Lesser)]{Alchemist's Fire (Lesser)}, a @Compendium[pf2e.equipment-srd.Thunderstone (Lesser)]{Thunderstone (Lesser)}, and other catalysts with a pressure sensitive trigger, you create a snare that creates a fiery and thunderous explosion when triggered. The target and all creatures in adjacent squares take [[/r {2d6}[fire]+{2d6}[sonic]]]{2d6 fire damage and 2d6 sonic damage} with a basic @Check[type:reflex|dc:19|traits:mechanicle] save. On a failure, they are @Compendium[pf2e.conditionitems.Deafened]{Deafened} for [[/r 1d4 #rounds]]{1d4 rounds} and take [[/r {1d4}[persistent,fire]]] @Compendium[pf2e.conditionitems.Persistent Damage]{Persistent Fire Damage}.</p>\n<hr />\n<p><strong>Craft Requirements</strong> Supply a lesser alchemist's fire and a lesser thunderstone.</p>"
        },
        "duration": {
            "units": "",
            "value": null
        },
        "equippedBulk": {
            "value": ""
        },
        "hardness": 0,
        "hp": {
            "brokenThreshold": 0,
            "max": 0,
            "value": 0
        },
        "level": {
            "value": 4
        },
        "negateBulk": {
            "value": "0"
        },
        "preciousMaterial": {
            "value": null
        },
        "preciousMaterialGrade": {
            "value": null
        },
        "price": {
            "value": {
                "gp": 18
            }
        },
        "quantity": 1,
        "range": {
            "long": null,
            "units": "",
            "value": null
        },
        "rules": [],
        "size": "med",
        "source": {
            "value": "Pathfinder Special: Fumbus!"
        },
        "spell": {
            "data": null,
            "heightenedLevel": null
        },
        "stackGroup": null,
        "target": {
            "type": "",
            "units": "",
            "value": null
        },
        "traits": {
            "custom": "",
            "rarity": "uncommon",
            "value": [
                "consumable",
                "mechanical",
                "snare",
                "trap"
            ]
        },
        "usage": {
            "value": "held-in-one-hand"
        },
        "uses": {
            "autoDestroy": true,
            "autoUse": true,
            "max": 0,
            "per": null,
            "value": 0
        },
        "weight": {
            "value": "-"
        }
    },
    "flags": {},
    "img": "systems/pf2e/icons/default-icons/consumable.svg",
    "name": "Boom Snare",
    "type": "consumable"
}
