{
    "_id": "AH0u9DDvs4napvdh",
    "data": {
        "MAP": {
            "value": ""
        },
        "baseItem": "alchemical-bomb",
        "bonus": {
            "value": 0
        },
        "bonusDamage": {
            "value": 0
        },
        "category": "simple",
        "containerId": null,
        "damage": {
            "damageType": "positive",
            "dice": 3,
            "die": "d4",
            "value": ""
        },
        "description": {
            "value": "<p><strong>Activate</strong> <span class=\"pf2-icon\">1</span> Interact</p>\n<p>This mirrored bottle contains various chemicals dissolved in two immiscible solvents. Shaking the bottle induces chemical reactions that cause it to glow. For 1 hour, the bottle sheds bright light in a 20-foot radius (and dim light to the next 40 feet).</p>\n<p>During this hour, it can be thrown like a bomb. This requires a single action to Activate with a Strike, like other bombs, and deals the damage below. If it's not thrown within an hour of the first activation, it defuses harmlessly and is consumed.</p>\n<p>The bomb deals 3d4 positive damage and 3 positive splash damage, as well as 3d4 additional fire damage. As normal, positive damage harms only undead and other creatures with negative healing. Undead with a particular vulnerability to sunlight (such as vampires or wraiths) take the maximum amount of positive damage from bottled sunlight (12 instead of 3d4). For any ability that depends on the number of weapon dice bottled sunlight has, count only the positive damage dice</p>"
        },
        "equippedBulk": {
            "value": ""
        },
        "group": "bomb",
        "hardness": 0,
        "hp": {
            "brokenThreshold": 0,
            "max": 0,
            "value": 0
        },
        "level": {
            "value": 12
        },
        "negateBulk": {
            "value": "0"
        },
        "potencyRune": {
            "value": 0
        },
        "preciousMaterial": {
            "value": null
        },
        "preciousMaterialGrade": {
            "value": null
        },
        "price": {
            "value": {
                "gp": 360
            }
        },
        "property1": {
            "critDamage": "",
            "critDamageType": "",
            "critDice": 0,
            "critDie": "",
            "criticalConditionType": "",
            "criticalConditionValue": null,
            "damageType": "",
            "dice": 0,
            "die": "",
            "strikeConditionType": "",
            "strikeConditionValue": null,
            "value": ""
        },
        "propertyRune1": {
            "value": null
        },
        "propertyRune2": {
            "value": null
        },
        "propertyRune3": {
            "value": null
        },
        "propertyRune4": {
            "value": null
        },
        "quantity": 1,
        "range": 10,
        "reload": {
            "value": ""
        },
        "rules": [
            {
                "damageType": "fire",
                "diceNumber": 3,
                "dieSize": "d4",
                "key": "DamageDice",
                "selector": "{item|_id}-damage"
            }
        ],
        "size": "med",
        "source": {
            "value": "Pathfinder Book of the Dead"
        },
        "specific": {
            "value": false
        },
        "splashDamage": {
            "value": 3
        },
        "stackGroup": null,
        "strikingRune": {
            "value": ""
        },
        "traits": {
            "custom": "",
            "rarity": "common",
            "value": [
                "alchemical",
                "bomb",
                "consumable",
                "fire",
                "light",
                "positive",
                "splash"
            ]
        },
        "usage": {
            "value": "held-in-one-hand"
        },
        "weight": {
            "value": "L"
        }
    },
    "flags": {},
    "img": "systems/pf2e/icons/default-icons/consumable.webp",
    "name": "Bottled Sunlight (Greater)",
    "type": "weapon"
}
