{
    "_id": "RN8TnAhWQ4tNKHgP",
    "data": {
        "activation": {
            "condition": "",
            "cost": 0,
            "type": ""
        },
        "autoDestroy": {
            "_deprecated": true,
            "value": true
        },
        "autoUse": {
            "_deprecated": true,
            "value": true
        },
        "baseItem": null,
        "charges": {
            "_deprecated": true,
            "max": 0,
            "value": 0
        },
        "consumableType": {
            "value": "other"
        },
        "consume": {
            "_deprecated": true,
            "value": ""
        },
        "containerId": "null",
        "description": {
            "value": "<p><strong>Activate</strong> <span class=\"pf2-icon\">1</span> Interact</p>\n<hr />\n<p>When a brewer makes a batch of something they'd rather not drink, they often boil it down; add myrrh, mugwort extract, and violet salt; and sell it to chefs looking for cheap sandwich fillings. The thick, salty sourness ruins the taste of most other food, but it also creates a strong desire to live to taste anything else. For 1 hour after consumption, you gain a +3 item bonus to saves against death and negative effects. In addition, your doomed value decreases by 1 (minimum 0). You can reduce the doomed condition with brewer's regret only once per day, and after you do, you can't reduce the doomed condition from the <em>@Compendium[pf2e.spells-srd.Restoration]{Restoration}</em> spell that same day (or vice versa).</p>\n<p>@Compendium[pf2e.equipment-effects.Effect: Brewer's Regret (Greater)]{Effect: Brewer's Regret (Greater)}</p>"
        },
        "duration": {
            "units": "",
            "value": null
        },
        "equippedBulk": {
            "value": ""
        },
        "hardness": 0,
        "hp": {
            "brokenThreshold": 0,
            "max": 0,
            "value": 0
        },
        "level": {
            "value": 14
        },
        "negateBulk": {
            "value": "0"
        },
        "preciousMaterial": {
            "value": null
        },
        "preciousMaterialGrade": {
            "value": null
        },
        "price": {
            "value": {
                "gp": 625
            }
        },
        "quantity": 1,
        "range": {
            "long": null,
            "units": "",
            "value": null
        },
        "rules": [],
        "size": "med",
        "source": {
            "value": "Pathfinder Lost Omens: The Grand Bazaar"
        },
        "spell": {
            "data": null,
            "heightenedLevel": null
        },
        "stackGroup": null,
        "target": {
            "type": "",
            "units": "",
            "value": null
        },
        "traits": {
            "custom": "",
            "rarity": "uncommon",
            "value": [
                "alchemical",
                "consumable"
            ]
        },
        "usage": {
            "value": "held-in-one-hand"
        },
        "uses": {
            "autoDestroy": true,
            "autoUse": true,
            "max": 0,
            "per": null,
            "value": 0
        },
        "weight": {
            "value": "L"
        }
    },
    "flags": {},
    "img": "systems/pf2e/icons/equipment/alchemical-items/alchemical-tapas/brewers-regret.webp",
    "name": "Brewer's Regret (Greater)",
    "type": "consumable"
}
