{
    "_id": "KlkPJgiCiHpuyNpv",
    "data": {
        "baseItem": null,
        "containerId": null,
        "description": {
            "value": "<p>Chronicler wayfinders bear a mystical connection to the Pathfinder Chronicles themselves, granting them the ability to assist in situations where unusual lore is needed by drawing on lore from a particular topic. Each chronicler wayfinder is attuned to a specific Lore skill, chosen at the time of creation. In addition to the effects of a @Compendium[pf2e.equipment-srd.Wayfinder]{Wayfinder}, a chronicler wayfinder has the following activation.</p>\n<hr />\n<p><strong>Activate</strong> <span class=\"pf2-icon\">A</span> Envision</p>\n<p><strong>Effect</strong> You tap into the Pathfinder Chronicles on the chronicler wayfinder's attuned topic, gaining the effects of a Recall Knowledge action with the chosen Lore skill. For the Lore check's modifier, use whichever is better of +12 or your own modifier, using your level as your proficiency bonus even if you're untrained in the attuned Lore skill.</p>"
        },
        "equippedBulk": {
            "value": ""
        },
        "hardness": 0,
        "hp": {
            "brokenThreshold": 0,
            "max": 0,
            "value": 0
        },
        "level": {
            "value": 6
        },
        "negateBulk": {
            "value": "0"
        },
        "preciousMaterial": {
            "value": ""
        },
        "preciousMaterialGrade": {
            "value": ""
        },
        "price": {
            "value": {
                "gp": 200
            }
        },
        "quantity": 1,
        "rules": [
            {
                "domain": "skill-check",
                "key": "RollOption",
                "option": "compass-in-possession",
                "requiresEquipped": false
            }
        ],
        "size": "med",
        "source": {
            "value": "Pathfinder Lost Omens: Pathfinder Society Guide"
        },
        "stackGroup": null,
        "traits": {
            "custom": "",
            "rarity": "uncommon",
            "value": []
        },
        "usage": {
            "value": "worn"
        },
        "weight": {
            "value": "-"
        }
    },
    "flags": {},
    "img": "systems/pf2e/icons/equipment/worn-items/other-worn-items/wayfinder.webp",
    "name": "Chronicler Wayfinder",
    "type": "equipment"
}
