{
    "_id": "KVXcrw446rzYRdpy",
    "data": {
        "description": {
            "value": "<div><strong>Armor</strong> studded leather armor</div>\n<div><strong>Weapons</strong> dagger, sling with 20 sling bullets</div>\n<div><strong>Gear</strong> adventurer's pack, alchemist's tools, basic</div>\n<div>crafter's book, 2 sets of caltrops</div>\n<div><strong>Options</strong> @Compendium[pf2e.equipment-srd.Repair Kit]{Repair Kit} (2 gp)</div>"
        },
        "items": {
            "1otf8": {
                "id": "4ftXXUCBHcf4b0MH",
                "img": "systems/pf2e/icons/equipment/adventuring-gear/alchemists-tools.webp",
                "isContainer": false,
                "items": {},
                "name": "Alchemist's Tools",
                "pack": "pf2e.equipment-srd",
                "quantity": 1
            },
            "d99lx": {
                "id": "ewQZ0VeL38v3qFnN",
                "img": "systems/pf2e/icons/equipment/armor/studded-leather-armor.webp",
                "isContainer": false,
                "items": {},
                "name": "Studded Leather Armor",
                "pack": "pf2e.equipment-srd",
                "quantity": 1
            },
            "fse9f": {
                "id": "rQWaJhI5Bko5x14Z",
                "img": "systems/pf2e/icons/equipment/weapons/dagger.webp",
                "isContainer": false,
                "items": {},
                "name": "Dagger",
                "pack": "pf2e.equipment-srd",
                "quantity": 1
            },
            "fwdph": {
                "id": "7fSnvJ2xoSfa6JXD",
                "img": "systems/pf2e/icons/equipment/adventuring-gear/caltrops.webp",
                "isContainer": false,
                "items": {},
                "name": "Caltrops",
                "pack": "pf2e.equipment-srd",
                "quantity": 2
            },
            "g7kr9": {
                "id": "2req0jGaxz8hScdB",
                "img": "systems/pf2e/icons/equipment/adventuring-gear/adventurers-pack.webp",
                "isContainer": true,
                "items": {},
                "name": "Adventurer's Pack",
                "pack": "pf2e.equipment-srd",
                "quantity": 1
            },
            "nn2p9": {
                "id": "Zycu6zaGvDsqLH5g",
                "img": "systems/pf2e/icons/equipment/adventuring-gear/sheath.webp",
                "isContainer": false,
                "items": {},
                "name": "Sheath",
                "pack": "pf2e.equipment-srd",
                "quantity": 1
            },
            "qsu8r": {
                "id": "MKSeXwUm56c15MZa",
                "img": "systems/pf2e/icons/equipment/weapons/sling-bullets.webp",
                "isContainer": false,
                "items": {},
                "name": "Sling Bullets",
                "pack": "pf2e.equipment-srd",
                "quantity": 20
            },
            "s62th": {
                "id": "UCH4myuFnokGv0vF",
                "img": "systems/pf2e/icons/equipment/weapons/sling.webp",
                "isContainer": false,
                "items": {},
                "name": "Sling",
                "pack": "pf2e.equipment-srd",
                "quantity": 1
            },
            "wgkjq": {
                "id": "w4Hd6nunVVqw3GWj",
                "img": "systems/pf2e/icons/equipment/adventuring-gear/basic-crafters-book.webp",
                "isContainer": false,
                "items": {},
                "name": "Basic Crafter's Book",
                "pack": "pf2e.equipment-srd",
                "quantity": 1
            }
        },
        "price": {
            "value": {
                "cp": 2,
                "gp": 8,
                "sp": 4
            }
        },
        "rules": [],
        "source": {
            "value": "Pathfinder Core Rulebook"
        },
        "traits": {
            "custom": "",
            "rarity": "common",
            "value": [
                "alchemist"
            ]
        }
    },
    "flags": {},
    "img": "systems/pf2e/icons/equipment/adventuring-gear/classkit-alchemist.webp",
    "name": "Class Kit (Alchemist)",
    "type": "kit"
}
