{
    "_id": "nPGrNslTdc6VBuCB",
    "data": {
        "description": {
            "value": "<div><strong>Armor</strong> leather armor</div>\n<div><strong>Weapons</strong> dagger, rapier</div>\n<div><strong>Gear</strong> adventurer's pack, climbing kit</div>\n<div><strong>Options</strong> @Compendium[pf2e.equipment-srd.Thieves' Tools]{thieves' tools} (3 gp)</div>"
        },
        "equippedBulk": {
            "value": ""
        },
        "items": {
            "5xujm": {
                "id": "4tIVTg9wj56RrveA",
                "img": "systems/pf2e/icons/equipment/armor/leather-armor.webp",
                "isContainer": false,
                "items": {},
                "name": "Leather Armor",
                "pack": "pf2e.equipment-srd",
                "quantity": 1
            },
            "fvcr2": {
                "id": "9UJbMaglf35GVzaZ",
                "img": "systems/pf2e/icons/equipment/adventuring-gear/climbing-kit.webp",
                "isContainer": false,
                "items": {},
                "name": "Climbing Kit",
                "pack": "pf2e.equipment-srd",
                "quantity": 1
            },
            "mkr9z": {
                "id": "2req0jGaxz8hScdB",
                "img": "systems/pf2e/icons/equipment/adventuring-gear/adventurers-pack.webp",
                "isContainer": true,
                "items": {},
                "name": "Adventurer's Pack",
                "pack": "pf2e.equipment-srd",
                "quantity": 1
            },
            "okxnd": {
                "id": "tH5GirEy7YB3ZgCk",
                "img": "systems/pf2e/icons/equipment/weapons/rapier.webp",
                "isContainer": false,
                "items": {},
                "name": "Rapier",
                "pack": "pf2e.equipment-srd",
                "quantity": 1
            },
            "r1unh": {
                "id": "rQWaJhI5Bko5x14Z",
                "img": "systems/pf2e/icons/equipment/weapons/dagger.webp",
                "isContainer": false,
                "items": {},
                "name": "Dagger",
                "pack": "pf2e.equipment-srd",
                "quantity": 1
            }
        },
        "price": {
            "value": {
                "gp": 6,
                "sp": 2
            }
        },
        "rules": [],
        "source": {
            "value": "Pathfinder Core Rulebook"
        },
        "traits": {
            "custom": "",
            "rarity": "common",
            "value": [
                "rogue"
            ]
        }
    },
    "flags": {},
    "img": "systems/pf2e/icons/equipment/adventuring-gear/classkit-rogue.webp",
    "name": "Class Kit (Rogue)",
    "type": "kit"
}
