{
    "_id": "xzN8mFG2Z70SaXLa",
    "data": {
        "baseItem": null,
        "containerId": null,
        "description": {
            "value": "<p>This gaudy and extravagant cloak is adorned with brilliant gems and a fur trim. While wearing the cloak, you gain instant fame and notoriety, granting you a +2 item bonus to Diplomacy checks to Make an Impression. Creatures attempting to learn about you gain the same bonus to Gather Information about you.</p>\n<p><strong>Activate</strong> <span class=\"pf2-icon\">D</span> command</p>\n<p><strong>Frequency</strong> twice per day</p>\n<p><strong>Effect</strong> You wield your great stature to make a Request of a creature. If you roll a success on the check, you get a critical success instead.</p>"
        },
        "equippedBulk": {
            "value": ""
        },
        "hardness": 0,
        "hp": {
            "brokenThreshold": 0,
            "max": 0,
            "value": 0
        },
        "level": {
            "value": 9
        },
        "negateBulk": {
            "value": "0"
        },
        "preciousMaterial": {
            "value": ""
        },
        "preciousMaterialGrade": {
            "value": ""
        },
        "price": {
            "value": {
                "gp": 1300
            }
        },
        "quantity": 1,
        "rules": [
            {
                "key": "FlatModifier",
                "label": "Cloak of Repute (Make an Impression)",
                "predicate": {
                    "any": [
                        "action:make-an-impression"
                    ]
                },
                "selector": "diplomacy",
                "type": "item",
                "value": 2
            }
        ],
        "size": "med",
        "source": {
            "value": "Pathfinder Lost Omens: Character Guide"
        },
        "stackGroup": null,
        "traits": {
            "custom": "",
            "rarity": "common",
            "value": [
                "enchantment",
                "invested",
                "magical"
            ]
        },
        "usage": {
            "value": "worncloak"
        },
        "weight": {
            "value": "1"
        }
    },
    "flags": {},
    "img": "systems/pf2e/icons/equipment/worn-items/other-worn-items/cloak-of-repute.webp",
    "name": "Cloak of Repute (Greater)",
    "type": "equipment"
}
