{
    "_id": "MNBnZn0b80Q7yHJM",
    "data": {
        "baseItem": null,
        "containerId": null,
        "description": {
            "value": "<p>This cloak is deep green with a voluminous hood, embroidered with gold trim and symbols significant in elven culture. The cloak allows you to cast the <em>@Compendium[pf2e.spells-srd.Ghost Sound]{Ghost Sound}</em> cantrip as an arcane innate spell.</p>\n<p>When you adjust the cloak's clasp (an Interact action), the cloak transforms to match the environment around you and muffles your sounds, granting you a +1 item bonus to Stealth checks.</p>\n<p>@Compendium[pf2e.equipment-effects.Effect: Cloak of Elvenkind]{Effect: Cloak of Elvenkind}</p>\n<hr />\n<p><strong>Activate</strong> <span class=\"pf2-icon\">D</span> Interact</p>\n<p><strong>Frequency</strong> once per day</p>\n<p><strong>Effect</strong> You draw the hood up and gain the effects of <em>@Compendium[pf2e.spells-srd.Invisibility]{Invisibility}</em>, with the spell's normal duration or until you pull the hood back down, whichever comes first. If you're also wearing @Compendium[pf2e.equipment-srd.Boots of Elvenkind]{Boots of Elvenkind} you can activate this ability twice per day.</p>"
        },
        "equippedBulk": {
            "value": ""
        },
        "hardness": 0,
        "hp": {
            "brokenThreshold": 0,
            "max": 0,
            "value": 0
        },
        "level": {
            "value": 7
        },
        "negateBulk": {
            "value": "0"
        },
        "preciousMaterial": {
            "value": ""
        },
        "preciousMaterialGrade": {
            "value": ""
        },
        "price": {
            "value": {
                "gp": 360
            }
        },
        "quantity": 1,
        "rules": [],
        "size": "med",
        "source": {
            "value": "Pathfinder Core Rulebook"
        },
        "stackGroup": null,
        "traits": {
            "custom": "",
            "rarity": "common",
            "value": [
                "illusion",
                "invested",
                "magical"
            ]
        },
        "usage": {
            "value": "worncloak"
        },
        "weight": {
            "value": "L"
        }
    },
    "flags": {},
    "img": "systems/pf2e/icons/equipment/worn-items/other-worn-items/cloak-of-elvenkind.webp",
    "name": "Cloak of Elvenkind",
    "type": "equipment"
}
