{
    "_id": "nRmGErgTLZYf6WMD",
    "data": {
        "armor": {
            "value": 2
        },
        "baseItem": null,
        "category": "shield",
        "check": {
            "value": 0
        },
        "containerId": null,
        "description": {
            "value": "<p>Cold iron shields don't typically have an additional effect, though when used for a shield bash, they are cold iron weapons.</p>\n<p>The shield has Hardness 10, HP 40, and BT 20.</p>\n<hr />\n<p><strong>Craft Requirements</strong> cold iron worth at least 2,750 gp</p>"
        },
        "dex": {
            "value": 0
        },
        "equippedBulk": {
            "value": ""
        },
        "group": null,
        "hardness": 10,
        "hp": {
            "brokenThreshold": 20,
            "max": 40,
            "value": 40
        },
        "level": {
            "value": 15
        },
        "negateBulk": {
            "value": "0"
        },
        "potencyRune": {
            "value": 0
        },
        "preciousMaterial": {
            "value": "coldIron"
        },
        "preciousMaterialGrade": {
            "value": "high"
        },
        "price": {
            "value": {
                "gp": 5500
            }
        },
        "propertyRune1": {
            "value": ""
        },
        "propertyRune2": {
            "value": ""
        },
        "propertyRune3": {
            "value": ""
        },
        "propertyRune4": {
            "value": ""
        },
        "quantity": 1,
        "resiliencyRune": {
            "value": ""
        },
        "rules": [],
        "size": "med",
        "source": {
            "value": "Pathfinder Core Rulebook"
        },
        "speed": {
            "value": 0
        },
        "stackGroup": null,
        "strength": {
            "value": 0
        },
        "traits": {
            "custom": "",
            "rarity": "common",
            "value": []
        },
        "usage": {
            "value": "held-in-one-hand"
        },
        "weight": {
            "value": "1"
        }
    },
    "flags": {},
    "img": "systems/pf2e/icons/equipment/shields/precious-material-shields/cold-Iron-shield.webp",
    "name": "Cold Iron Shield (High-Grade)",
    "type": "armor"
}
