{
    "_id": "p1uYtIUYXXoNdVKg",
    "data": {
        "armor": {
            "value": 2
        },
        "baseItem": null,
        "category": "shield",
        "check": {
            "value": 0
        },
        "containerId": null,
        "description": {
            "value": "<p>Cold iron shields don't typically have an additional effect, though when used for a shield bash, they are cold iron weapons.</p>\n<p>The shield has Hardness 7, HP 28, and BT 14.</p>\n<p><strong>Craft Requirements</strong> cold iron worth at least 425 sp</p>"
        },
        "dex": {
            "value": 0
        },
        "equippedBulk": {
            "value": ""
        },
        "group": null,
        "hardness": 7,
        "hp": {
            "brokenThreshold": 14,
            "max": 28,
            "value": 28
        },
        "level": {
            "value": 7
        },
        "negateBulk": {
            "value": "0"
        },
        "potencyRune": {
            "value": 0
        },
        "preciousMaterial": {
            "value": "coldIron"
        },
        "preciousMaterialGrade": {
            "value": "standard"
        },
        "price": {
            "value": {
                "gp": 340
            }
        },
        "propertyRune1": {
            "value": ""
        },
        "propertyRune2": {
            "value": ""
        },
        "propertyRune3": {
            "value": ""
        },
        "propertyRune4": {
            "value": ""
        },
        "quantity": 1,
        "resiliencyRune": {
            "value": ""
        },
        "rules": [],
        "size": "med",
        "source": {
            "value": "Pathfinder Core Rulebook"
        },
        "speed": {
            "value": 0
        },
        "stackGroup": null,
        "strength": {
            "value": 0
        },
        "traits": {
            "custom": "",
            "rarity": "common",
            "value": []
        },
        "usage": {
            "value": "held-in-one-hand"
        },
        "weight": {
            "value": "1"
        }
    },
    "flags": {},
    "img": "systems/pf2e/icons/equipment/shields/precious-material-shields/cold-Iron-shield.webp",
    "name": "Cold Iron Shield (Standard-Grade)",
    "type": "armor"
}
