{
    "_id": "sVTg7RMv8qFuQD3y",
    "data": {
        "activation": {
            "condition": "",
            "cost": 0,
            "type": ""
        },
        "autoDestroy": {
            "_deprecated": true,
            "value": true
        },
        "autoUse": {
            "_deprecated": true,
            "value": true
        },
        "baseItem": null,
        "charges": {
            "_deprecated": true,
            "max": 0,
            "value": 0
        },
        "consumableType": {
            "value": "other"
        },
        "consume": {
            "_deprecated": true,
            "value": ""
        },
        "containerId": "null",
        "description": {
            "value": "<p><strong>Activate</strong> <span class=\"pf2-icon\">1</span> Interact</p>\n<p><strong>Duration</strong> Ice created by the pellets lasts for 3 hours or until broken.</p>\n<hr />\n<p>The contraption called cold comfort is a watertight pouch filled with a handful of small, heavy, silvery pellets. When emptied into an adjacent body of water, the pellets freeze the water's surface almost instantly, creating an ice block in a 20-foot square to a depth of 1 foot. Any creatures inside this space must attempt a @Check[type:reflex|dc:34|name:Avoid Being Frozen in Ice|traits:damaging-effect|showDC:all] save. On a failure, the creature takes [[/r {4d6}[cold]]]{4d6 cold damage} and is @Compendium[pf2e.conditionitems.Immobilized]{Immobilized} for 1 minute or until it Escapes (DC 31) or the ice is broken. The entire ice block has AC 10, Hardness 10, and 40 Hit Points, and it's immune to critical hits, cold damage, and precision damage. The ice is strong enough to support one Huge Creature, up to two Large creatures or up to eight Medium or Small creatures. Traversing the slippery ice requires a successful @Check[type:acrobatics|dc:20|name:Balance on Ice|traits:alchemical,action:balance|showDC:all] check to Balance.</p>"
        },
        "duration": {
            "units": "",
            "value": null
        },
        "equippedBulk": {
            "value": ""
        },
        "hardness": 0,
        "hp": {
            "brokenThreshold": 0,
            "max": 0,
            "value": 0
        },
        "level": {
            "value": 15
        },
        "negateBulk": {
            "value": "0"
        },
        "preciousMaterial": {
            "value": null
        },
        "preciousMaterialGrade": {
            "value": null
        },
        "price": {
            "value": {
                "gp": 1300
            }
        },
        "quantity": 1,
        "range": {
            "long": null,
            "units": "",
            "value": null
        },
        "rules": [],
        "size": "med",
        "source": {
            "value": "Pathfinder Lost Omens: The Grand Bazaar"
        },
        "spell": {
            "data": null,
            "heightenedLevel": null
        },
        "stackGroup": null,
        "target": {
            "type": "",
            "units": "",
            "value": null
        },
        "traits": {
            "custom": "",
            "rarity": "uncommon",
            "value": [
                "alchemical",
                "cold",
                "consumable"
            ]
        },
        "usage": {
            "value": "held-in-one-hand"
        },
        "uses": {
            "autoDestroy": true,
            "autoUse": true,
            "max": 0,
            "per": null,
            "value": 0
        },
        "weight": {
            "value": "L"
        }
    },
    "flags": {},
    "img": "systems/pf2e/icons/default-icons/consumable.svg",
    "name": "Cold Comfort (Greater)",
    "type": "consumable"
}
