{
    "_id": "wob6DB1FFdWs0mbp",
    "data": {
        "baseItem": null,
        "containerId": null,
        "description": {
            "value": "<p>A compass helps you Sense Direction or navigate, provided you're in a location with uniform magnetic fields. Without a compass, you take a -2 item penalty to these checks (similar to using a shoddy item).</p>"
        },
        "equippedBulk": {
            "value": ""
        },
        "hardness": 0,
        "hp": {
            "brokenThreshold": 0,
            "max": 0,
            "value": 0
        },
        "level": {
            "value": 0
        },
        "negateBulk": {
            "value": ""
        },
        "preciousMaterial": {
            "value": ""
        },
        "preciousMaterialGrade": {
            "value": ""
        },
        "price": {
            "value": {
                "gp": 1
            }
        },
        "quantity": 1,
        "rules": [
            {
                "domain": "skill-check",
                "key": "RollOption",
                "option": "compass-in-possession",
                "requiresEquipped": false
            }
        ],
        "size": "med",
        "source": {
            "value": "Pathfinder Core Rulebook"
        },
        "stackGroup": null,
        "traits": {
            "custom": "",
            "rarity": "common",
            "value": []
        },
        "usage": {
            "value": "held-in-one-hand"
        },
        "weight": {
            "value": "L"
        }
    },
    "flags": {},
    "img": "systems/pf2e/icons/equipment/adventuring-gear/compass.webp",
    "name": "Compass",
    "type": "equipment"
}
