{
    "_id": "mvMeloQxSiEGIlhL",
    "data": {
        "baseItem": null,
        "containerId": null,
        "description": {
            "value": "<p>This dusty coat is made of mangy brown-and-gray coyote fur. You gain a +1 item bonus to Survival checks. If you critically succeed at your Survival check to Subsist, you can feed twice as many additional creatures.</p>"
        },
        "equippedBulk": {
            "value": ""
        },
        "hardness": 0,
        "hp": {
            "brokenThreshold": 0,
            "max": 0,
            "value": 0
        },
        "level": {
            "value": 3
        },
        "negateBulk": {
            "value": "0"
        },
        "preciousMaterial": {
            "value": ""
        },
        "preciousMaterialGrade": {
            "value": ""
        },
        "price": {
            "value": {
                "gp": 60
            }
        },
        "quantity": 1,
        "rules": [
            {
                "key": "FlatModifier",
                "selector": "survival",
                "type": "item",
                "value": 1
            }
        ],
        "size": "med",
        "source": {
            "value": "Pathfinder Core Rulebook"
        },
        "stackGroup": null,
        "traits": {
            "custom": "",
            "rarity": "common",
            "value": [
                "divination",
                "invested",
                "magical"
            ]
        },
        "usage": {
            "value": "worncloak"
        },
        "weight": {
            "value": "-"
        }
    },
    "flags": {},
    "img": "systems/pf2e/icons/equipment/worn-items/other-worn-items/coyote-cloak.webp",
    "name": "Coyote Cloak",
    "type": "equipment"
}
