{
    "_id": "vfVpgUuieLdPoqY7",
    "data": {
        "baseItem": null,
        "containerId": "null",
        "description": {
            "value": "<p>A wreath of flames dances around the rim of this golden crown. You gain resistance 15 to fire.</p>\n<hr />\n<p><strong>Activate</strong> <span class=\"pf2-icon\">r</span> command</p>\n<p><strong>Frequency</strong> once per day</p>\n<p><strong>Trigger</strong> You take fire damage</p>\n<p><strong>Effect</strong> You absorb some of the flame that would harm you. Increase your fire resistance from the crown from 15 to 35. Just after taking any remaining fire damage, you regain a number of Hit Points equal to 35 or the fire damage dealt by the triggering attack before damage resistance, whichever is less.</p>"
        },
        "equippedBulk": {
            "value": ""
        },
        "hardness": 0,
        "hp": {
            "brokenThreshold": 0,
            "max": 0,
            "value": 0
        },
        "level": {
            "value": 16
        },
        "negateBulk": {
            "value": "0"
        },
        "preciousMaterial": {
            "value": null
        },
        "preciousMaterialGrade": {
            "value": null
        },
        "price": {
            "value": {
                "gp": 10000
            }
        },
        "quantity": 1,
        "rules": [
            {
                "key": "Resistance",
                "type": "fire",
                "value": 15
            }
        ],
        "size": "med",
        "source": {
            "value": "Pathfinder Lost Omens: The Grand Bazaar"
        },
        "stackGroup": null,
        "traits": {
            "custom": "",
            "rarity": "uncommon",
            "value": [
                "evocation",
                "invested",
                "magical"
            ]
        },
        "usage": {
            "value": "worn"
        },
        "weight": {
            "value": "-"
        }
    },
    "flags": {},
    "img": "systems/pf2e/icons/default-icons/equipment.svg",
    "name": "Crown of the Fire Eater (Major)",
    "type": "equipment"
}
