{
    "_id": "BPQRgrJwr5GuT00g",
    "data": {
        "MAP": {
            "value": ""
        },
        "baseItem": "dagger-pistol",
        "bonus": {
            "value": 0
        },
        "bonusDamage": {
            "value": 0
        },
        "category": "martial",
        "containerId": "null",
        "damage": {
            "damageType": "piercing",
            "dice": 1,
            "die": "d4",
            "value": ""
        },
        "description": {
            "value": "<p>This weapon, favored by rangers and other wilderness wanderers, takes the form of a stoutly built pistol with a dagger blade attached beneath the barrel and extending out past the muzzle.</p>"
        },
        "equippedBulk": {
            "value": ""
        },
        "group": "firearm",
        "hardness": 0,
        "hp": {
            "brokenThreshold": 0,
            "max": 0,
            "value": 0
        },
        "level": {
            "value": 0
        },
        "meleeUsage": {
            "damage": {
                "die": "d4",
                "type": "piercing"
            },
            "group": "knife",
            "traits": [
                "agile",
                "critical-fusion",
                "finesse",
                "thrown-10",
                "versatile-p"
            ]
        },
        "negateBulk": {
            "value": "0"
        },
        "potencyRune": {
            "value": 0
        },
        "preciousMaterial": {
            "value": null
        },
        "preciousMaterialGrade": {
            "value": null
        },
        "price": {
            "value": {
                "gp": 8
            }
        },
        "property1": {
            "critDamage": "",
            "critDamageType": "",
            "critDice": 0,
            "critDie": "",
            "criticalConditionType": "",
            "criticalConditionValue": null,
            "damageType": "",
            "dice": 0,
            "die": "",
            "strikeConditionType": "",
            "strikeConditionValue": null,
            "value": ""
        },
        "propertyRune1": {
            "value": null
        },
        "propertyRune2": {
            "value": null
        },
        "propertyRune3": {
            "value": null
        },
        "propertyRune4": {
            "value": null
        },
        "quantity": 1,
        "range": 30,
        "reload": {
            "value": "1"
        },
        "rules": [],
        "size": "med",
        "source": {
            "value": "Pathfinder Guns & Gears"
        },
        "specific": {
            "value": false
        },
        "splashDamage": {
            "value": 0
        },
        "stackGroup": null,
        "strikingRune": {
            "value": ""
        },
        "traits": {
            "custom": "",
            "rarity": "uncommon",
            "value": [
                "combination",
                "concussive",
                "fatal-d8"
            ]
        },
        "usage": {
            "value": "held-in-one-hand"
        },
        "weight": {
            "value": "L"
        }
    },
    "flags": {},
    "img": "systems/pf2e/icons/equipment/weapons/dagger-pistol.webp",
    "name": "Dagger Pistol",
    "type": "weapon"
}
