{
    "_id": "BUHV5rev5HVgCrUB",
    "data": {
        "armor": {
            "value": 1
        },
        "baseItem": null,
        "category": "shield",
        "check": {
            "value": 0
        },
        "containerId": null,
        "description": {
            "value": "<p>Darkwood shields are 1 Bulk lighter than normal (or light Bulk if their normal Bulk is 1, with no effect on a shield that normally has light Bulk).</p>\n<p>The shield has Hardness 3, HP 12, and BT 6.</p>\n<hr />\n<p><strong>Craft Requirements</strong> darkwood worth at least 50 gp</p>"
        },
        "dex": {
            "value": 0
        },
        "equippedBulk": {
            "value": ""
        },
        "group": null,
        "hardness": 3,
        "hp": {
            "brokenThreshold": 6,
            "max": 12,
            "value": 12
        },
        "level": {
            "value": 8
        },
        "negateBulk": {
            "value": "0"
        },
        "potencyRune": {
            "value": 0
        },
        "preciousMaterial": {
            "value": "darkwood"
        },
        "preciousMaterialGrade": {
            "value": "standard"
        },
        "price": {
            "value": {
                "gp": 400
            }
        },
        "propertyRune1": {
            "value": ""
        },
        "propertyRune2": {
            "value": ""
        },
        "propertyRune3": {
            "value": ""
        },
        "propertyRune4": {
            "value": ""
        },
        "quantity": 1,
        "resiliencyRune": {
            "value": ""
        },
        "rules": [],
        "size": "med",
        "source": {
            "value": "Pathfinder Core Rulebook"
        },
        "speed": {
            "value": 0
        },
        "stackGroup": null,
        "strength": {
            "value": 0
        },
        "traits": {
            "custom": "",
            "rarity": "uncommon",
            "value": []
        },
        "usage": {
            "value": "held-in-one-hand"
        },
        "weight": {
            "value": "L"
        }
    },
    "flags": {},
    "img": "systems/pf2e/icons/equipment/shields/precious-material-shields/darkwood-buckler.webp",
    "name": "Darkwood Buckler (Standard-Grade)",
    "type": "armor"
}
