{
    "_id": "0zTY4ogkffTxmJUj",
    "data": {
        "baseItem": null,
        "containerId": "null",
        "description": {
            "value": "<p>This set of 34 parchment cards usually comes in a velvet bag or simple leather wrap. Each card depicts a different creature, monster, or other being that, when the deck is activated, immediately appears as a believable, life-size illusion. You can look at the card's artwork, but no magical effect takes place until you Activate the deck, shuffling and drawing randomly.</p>\n<p>@Compendium[pf2e.rollable-tables.Deck of Illusions Cards]{Deck of Illusions Cards}</p>\n<hr />\n<p><strong>Activate</strong> 1 envision, Interact</p>\n<p><strong>Effect</strong> You draw a card, chosen randomly from the remaining cards in the deck, and throw it to the ground to create an illusion of the creature depicted. The image is an illusory creature, except it has a range of only 30 feet from where the card was thrown and the illusion lasts until destroyed or until anyone moves or damages the card. The creature takes its actions once on your turn if you're within 60 feet of the card and Sustain the Activation. The illusion ends if you don't Sustain it, or if you activate a new card from the deck.</p>"
        },
        "equippedBulk": {
            "value": ""
        },
        "hardness": 0,
        "hp": {
            "brokenThreshold": 0,
            "max": 0,
            "value": 0
        },
        "level": {
            "value": 6
        },
        "negateBulk": {
            "value": "0"
        },
        "preciousMaterial": {
            "value": null
        },
        "preciousMaterialGrade": {
            "value": null
        },
        "price": {
            "value": {
                "gp": 200
            }
        },
        "quantity": 1,
        "rules": [],
        "size": "med",
        "source": {
            "value": "Pathfinder Secrets of Magic"
        },
        "stackGroup": null,
        "traits": {
            "custom": "",
            "rarity": "uncommon",
            "value": [
                "illusion",
                "magical"
            ]
        },
        "usage": {
            "value": "held-in-two-hands"
        },
        "weight": {
            "value": "-"
        }
    },
    "flags": {},
    "img": "systems/pf2e/icons/default-icons/equipment.svg",
    "name": "Deck of illusions",
    "type": "equipment"
}
