{
    "_id": "NocVi59Vtbi3kvsJ",
    "data": {
        "baseItem": null,
        "containerId": "null",
        "description": {
            "value": "<p>This thick mat of canvas, foliage, and wood is mounted on a tripod of flexible metal struts, folded into a baton- like shape, and clamped shut. You can rapidly deploy it on the ground with an Interact action to create cover. Deployable cover is large enough to @Compendium[pf2e.actionspf2e.Take Cover]{Take Cover} behind, allowing you (and others) to gain standard cover when you use the Take Cover action. Before it can be used again, deployable cover must be carefully folded and clamped shut, which takes 1 minute.</p>"
        },
        "equippedBulk": {
            "value": ""
        },
        "hardness": 0,
        "hp": {
            "brokenThreshold": 0,
            "max": 0,
            "value": 0
        },
        "level": {
            "value": 1
        },
        "negateBulk": {
            "value": "0"
        },
        "preciousMaterial": {
            "value": null
        },
        "preciousMaterialGrade": {
            "value": null
        },
        "price": {
            "value": {
                "gp": 15
            }
        },
        "quantity": 1,
        "rules": [],
        "size": "med",
        "source": {
            "value": "Pathfinder Guns & Gears"
        },
        "stackGroup": null,
        "traits": {
            "custom": "",
            "rarity": "uncommon",
            "value": []
        },
        "usage": {
            "value": "held-in-two-hands"
        },
        "weight": {
            "value": "1"
        }
    },
    "flags": {},
    "img": "systems/pf2e/icons/default-icons/equipment.svg",
    "name": "Deployable Cover",
    "type": "equipment"
}
