{
    "_id": "JJZgRx6naNJmDa81",
    "data": {
        "baseItem": null,
        "containerId": null,
        "description": {
            "value": "<p>When displayed prominently, this brass badge makes creatures find you more agreeable. You gain a +1 item bonus to Diplomacy checks.</p>\n<hr />\n<p><strong>Activate</strong> <span class=\"pf2-icon\">A</span> Recall Knowledge</p>\n<p><strong>Frequency</strong> once per day</p>\n<p><strong>Effect</strong> Attempt a DC 20 check to Recall Knowledge about people of a human ethnicity, a non-human ancestry, or some other type of creature. (The GM determines what your options are.) If you succeed, the badge's bonus increases to +2 for Diplomacy checks with creatures of that group for the rest of the day.</p>\n<p>@Compendium[pf2e.equipment-effects.Effect: Diplomat's Badge]{Effect: Diplomat's Badge}</p>"
        },
        "equippedBulk": {
            "value": ""
        },
        "hardness": 0,
        "hp": {
            "brokenThreshold": 0,
            "max": 0,
            "value": 0
        },
        "level": {
            "value": 5
        },
        "negateBulk": {
            "value": "0"
        },
        "preciousMaterial": {
            "value": ""
        },
        "preciousMaterialGrade": {
            "value": ""
        },
        "price": {
            "value": {
                "gp": 125
            }
        },
        "quantity": 1,
        "rules": [
            {
                "key": "FlatModifier",
                "selector": "diplomacy",
                "type": "item",
                "value": 1
            }
        ],
        "size": "med",
        "source": {
            "value": "Pathfinder Core Rulebook"
        },
        "stackGroup": null,
        "traits": {
            "custom": "",
            "rarity": "common",
            "value": [
                "enchantment",
                "invested",
                "magical"
            ]
        },
        "usage": {
            "value": "worn"
        },
        "weight": {
            "value": "-"
        }
    },
    "flags": {},
    "img": "systems/pf2e/icons/equipment/worn-items/other-worn-items/diplomats-badge.webp",
    "name": "Diplomat's Badge",
    "type": "equipment"
}
