{
    "_id": "8iGmSwTTUdj6gqN5",
    "data": {
        "activation": {
            "condition": "",
            "cost": 0,
            "type": ""
        },
        "autoDestroy": {
            "_deprecated": true,
            "value": true
        },
        "autoUse": {
            "_deprecated": true,
            "value": true
        },
        "baseItem": null,
        "charges": {
            "_deprecated": true,
            "max": "1",
            "value": "1"
        },
        "consumableType": {
            "value": "other"
        },
        "consume": {
            "_deprecated": true,
            "value": ""
        },
        "containerId": null,
        "description": {
            "value": "<p>Stored in a small reed, this powder looks like a fine metallic dust. When you fling it in the air, it coats all creatures in a @Template[type:burst|distance:10] centered on a point within 5 feet of you. For 1 minute, the coated creatures can't be concealed or invisible, nor can they benefit from <em>@Compendium[pf2e.spells-srd.Mirror Image]{Mirror Image}</em> or similar abilities that create illusory duplicates. Any illusions in the area of 3rd level or lower are revealed as such, although this does not end their effect.</p>\n<p><strong>Activate</strong> <span class=\"pf2-icon\">A</span> Interact</p>"
        },
        "duration": {
            "units": "",
            "value": ""
        },
        "equippedBulk": {
            "value": ""
        },
        "hardness": 0,
        "hp": {
            "brokenThreshold": 0,
            "max": 0,
            "value": 0
        },
        "level": {
            "value": 6
        },
        "negateBulk": {
            "value": "0"
        },
        "preciousMaterial": {
            "value": ""
        },
        "preciousMaterialGrade": {
            "value": ""
        },
        "price": {
            "value": {
                "gp": 50
            }
        },
        "quantity": 1,
        "range": {
            "long": "",
            "units": "",
            "value": ""
        },
        "rules": [],
        "size": "med",
        "source": {
            "value": "Pathfinder Core Rulebook"
        },
        "spell": {
            "data": null,
            "heightenedLevel": null
        },
        "stackGroup": null,
        "target": {
            "type": "",
            "units": "",
            "value": ""
        },
        "traits": {
            "custom": "",
            "rarity": "common",
            "value": [
                "consumable",
                "divination",
                "magical"
            ]
        },
        "usage": {
            "value": "held-in-one-hand"
        },
        "uses": {
            "autoDestroy": true,
            "autoUse": true,
            "max": 0,
            "per": "",
            "value": 0
        },
        "weight": {
            "value": "-"
        }
    },
    "flags": {},
    "img": "systems/pf2e/icons/equipment/consumables/other-consumables/dust-of-apperance.webp",
    "name": "Dust of Appearance",
    "type": "consumable"
}
