{
    "_id": "P6v2AtJw7AUwaDzf",
    "data": {
        "baseItem": null,
        "containerId": null,
        "description": {
            "value": "<p>When you critically hit, the target becomes <em>frightened</em> 1.</p>"
        },
        "equippedBulk": {
            "value": ""
        },
        "hardness": 0,
        "hp": {
            "brokenThreshold": 0,
            "max": 0,
            "value": 0
        },
        "level": {
            "value": 5
        },
        "negateBulk": {
            "value": "0"
        },
        "preciousMaterial": {
            "value": ""
        },
        "preciousMaterialGrade": {
            "value": ""
        },
        "price": {
            "value": {
                "gp": 160
            }
        },
        "quantity": 1,
        "rules": [],
        "size": "med",
        "source": {
            "value": "Pathfinder Advanced Player's Guide"
        },
        "stackGroup": null,
        "traits": {
            "custom": "",
            "rarity": "common",
            "value": [
                "emotion",
                "enchantment",
                "fear",
                "magical",
                "mental"
            ]
        },
        "usage": {
            "value": "etched-onto-a-weapon"
        },
        "weight": {
            "value": "-"
        }
    },
    "flags": {},
    "img": "systems/pf2e/icons/equipment/runes/weapon-property-runes/weapon-property-runes.webp",
    "name": "Fearsome",
    "type": "equipment"
}
