{
    "_id": "nz1v5aetUZVLBlvg",
    "data": {
        "MAP": {
            "value": ""
        },
        "baseItem": "longsword",
        "bonus": {
            "value": 0
        },
        "bonusDamage": {
            "value": 0
        },
        "category": "martial",
        "containerId": null,
        "damage": {
            "damageType": "slashing",
            "dice": 1,
            "die": "d8",
            "value": ""
        },
        "description": {
            "value": "<p>This <em>+3 @Compendium[pf2e.equipment-srd.Disrupting (Greater)]{Disrupting (Greater)} greater striking silver longsword</em> is made from the purest silver. The blade is carefully etched to depict a vast and sprawling necropolis, a place where the dead are laid to rest. Whenever you critically hit an undead creature with <em>final rest</em>, the undead creature takes 3d6 persistent good damage, with a @Check[type:reflex|dc:36].</p>\n<p><strong>Critical Success</strong> No effect.</p>\n<p><strong>Success</strong> The creature takes half the persistent good damage.</p>\n<p><strong>Failure</strong> The creature is stunned 1 and takes the full persistent good damage.</p>\n<p><strong>Critical Failure</strong> The creature is stunned 3 and takes double the persistent good damage.</p>\n<hr />\n<p><strong>Activate</strong> <span class=\"pf2-icon\">2</span>command, envision</p>\n<p><strong>Frequency</strong> once per day</p>\n<p><strong>Effect</strong> You hold the sword aloft, making it cast <em>@Compendium[pf2e.spells-srd.Sunburst]{Sunburst}</em> @Check[type:reflex|dc:38].</p>"
        },
        "equippedBulk": {
            "value": ""
        },
        "group": "sword",
        "hardness": 0,
        "hp": {
            "brokenThreshold": 0,
            "max": 0,
            "value": 0
        },
        "level": {
            "value": 18
        },
        "negateBulk": {
            "value": "0"
        },
        "potencyRune": {
            "value": 3
        },
        "preciousMaterial": {
            "value": "silver"
        },
        "preciousMaterialGrade": {
            "value": "standard"
        },
        "price": {
            "value": {
                "gp": 24000
            }
        },
        "property1": {
            "critDamage": "",
            "critDamageType": "",
            "critDice": 0,
            "critDie": "",
            "criticalConditionType": "",
            "criticalConditionValue": null,
            "damageType": "",
            "dice": 0,
            "die": "",
            "strikeConditionType": "",
            "strikeConditionValue": null,
            "value": ""
        },
        "propertyRune1": {
            "value": "greaterDisrupting"
        },
        "propertyRune2": {
            "value": null
        },
        "propertyRune3": {
            "value": null
        },
        "propertyRune4": {
            "value": null
        },
        "quantity": 1,
        "range": null,
        "reload": {
            "value": ""
        },
        "rules": [],
        "size": "med",
        "source": {
            "value": "Pathfinder Book of the Dead"
        },
        "specific": {
            "material": {
                "grade": "standard",
                "type": "silver"
            },
            "runes": {
                "potency": 3,
                "striking": "greaterStriking"
            },
            "value": true
        },
        "splashDamage": {
            "value": 0
        },
        "stackGroup": null,
        "strikingRune": {
            "value": "greaterStriking"
        },
        "traits": {
            "custom": "",
            "rarity": "common",
            "value": [
                "magical",
                "necromancy",
                "versatile-p"
            ]
        },
        "usage": {
            "value": "held-in-one-hand"
        },
        "weight": {
            "value": "1"
        }
    },
    "flags": {},
    "img": "systems/pf2e/icons/default-icons/weapon.svg",
    "name": "Final Rest",
    "type": "weapon"
}
