{
    "_id": "rfP9e1fnwjnIQSJK",
    "data": {
        "MAP": {
            "value": ""
        },
        "baseItem": "fire-poi",
        "bonus": {
            "value": 0
        },
        "bonusDamage": {
            "value": 0
        },
        "category": "advanced",
        "containerId": null,
        "damage": {
            "damageType": "bludgeoning",
            "dice": 1,
            "die": "d4",
            "value": ""
        },
        "description": {
            "value": "<p>These special poi are made from a rare, light metal or from fire-retardant fibers and can be ignited before being wielded. Igniting a pair of fire poi is an Interact action and requires 1 pint of @Compendium[pf2e.equipment-srd.Oil (1 pint)]{Oil} for every 10 minutes the poi remain ignited.</p>\n<p>While lit, fire poi cast dim light in a 10-foot radius; in combat, they deal 1d4 bludgeoning plus 1d4 fire damage. On a critical hit with a lit fire poi, the target takes 1 @Compendium[pf2e.conditionitems.Persistent Damage]{Persistent} fire damage. The fire can be extinguished using the Interact action.</p>\n<p>When unlit, the poi deal only the listed bludgeoning damage. Regardless of whether it is lit, the poi's 1d4 bludgeoning damage is the weapon damage dice, so <em>striking</em> runes and other effects don't affect the fire damage.</p>"
        },
        "equippedBulk": {
            "value": ""
        },
        "group": "flail",
        "hardness": 0,
        "hp": {
            "brokenThreshold": 0,
            "max": 0,
            "value": 0
        },
        "level": {
            "value": 0
        },
        "negateBulk": {
            "value": "0"
        },
        "potencyRune": {
            "value": null
        },
        "preciousMaterial": {
            "value": ""
        },
        "preciousMaterialGrade": {
            "value": ""
        },
        "price": {
            "value": {
                "gp": 5
            }
        },
        "property1": {
            "critDamage": "",
            "critDamageType": "",
            "critDice": null,
            "critDie": "",
            "criticalConditionType": "",
            "criticalConditionValue": null,
            "damageType": "",
            "dice": null,
            "die": "",
            "strikeConditionType": "",
            "strikeConditionValue": null,
            "value": ""
        },
        "propertyRune1": {
            "value": ""
        },
        "propertyRune2": {
            "value": ""
        },
        "propertyRune3": {
            "value": ""
        },
        "propertyRune4": {
            "value": ""
        },
        "quantity": 1,
        "range": null,
        "reload": {
            "value": ""
        },
        "rules": [
            {
                "key": "Note",
                "outcome": "criticalSuccess",
                "selector": "{item|_id}-damage",
                "text": "<p class='compact-text'><strong>Effect</strong> The poi also deals [[/r {1}[persistent,fire]]] @Compendium[pf2e.conditionitems.Persistent Damage]{Persistent Fire Damage} on a crit</p>"
            }
        ],
        "size": "med",
        "source": {
            "value": "Pathfinder #151: The Show Must Go On"
        },
        "splashDamage": {
            "value": null
        },
        "stackGroup": null,
        "strikingRune": {
            "value": ""
        },
        "traits": {
            "custom": "",
            "rarity": "uncommon",
            "value": [
                "agile",
                "backswing",
                "finesse",
                "twin"
            ]
        },
        "usage": {
            "value": "held-in-one-hand"
        },
        "weight": {
            "value": "L"
        }
    },
    "flags": {},
    "img": "systems/pf2e/icons/equipment/weapons/fire-poi.webp",
    "name": "Fire Poi",
    "type": "weapon"
}
