{
    "_id": "UcLqR32mNaGdNkUk",
    "data": {
        "MAP": {
            "value": ""
        },
        "baseItem": "fist",
        "bonus": {
            "value": 0
        },
        "bonusDamage": {
            "value": 0
        },
        "category": "unarmed",
        "containerId": null,
        "damage": {
            "damageType": "bludgeoning",
            "dice": 1,
            "die": "d4",
            "value": ""
        },
        "description": {
            "value": ""
        },
        "equippedBulk": {
            "value": ""
        },
        "group": "brawling",
        "hardness": 0,
        "hp": {
            "brokenThreshold": 0,
            "max": 0,
            "value": 0
        },
        "level": {
            "value": 0
        },
        "negateBulk": {
            "value": "0"
        },
        "potencyRune": {
            "value": null
        },
        "preciousMaterial": {
            "value": ""
        },
        "preciousMaterialGrade": {
            "value": ""
        },
        "price": {
            "value": {}
        },
        "property1": {
            "critDamage": "",
            "critDamageType": "",
            "critDice": null,
            "critDie": "",
            "criticalConditionType": "",
            "criticalConditionValue": null,
            "damageType": "",
            "dice": null,
            "die": "",
            "strikeConditionType": "",
            "strikeConditionValue": null,
            "value": ""
        },
        "propertyRune1": {
            "value": ""
        },
        "propertyRune2": {
            "value": ""
        },
        "propertyRune3": {
            "value": ""
        },
        "propertyRune4": {
            "value": ""
        },
        "quantity": 1,
        "range": null,
        "reload": {
            "value": ""
        },
        "rules": [],
        "size": "med",
        "source": {
            "value": "Pathfinder Core Rulebook"
        },
        "splashDamage": {
            "value": 0
        },
        "stackGroup": null,
        "strikingRune": {
            "value": ""
        },
        "traits": {
            "custom": "",
            "rarity": "common",
            "value": [
                "agile",
                "finesse",
                "nonlethal",
                "unarmed"
            ]
        },
        "usage": {
            "value": "held-in-one-hand"
        },
        "weight": {
            "value": "-"
        }
    },
    "flags": {},
    "img": "systems/pf2e/icons/equipment/weapons/fist.webp",
    "name": "Fist",
    "type": "weapon"
}
