{
    "_id": "98JIeYGEuE6pPV05",
    "data": {
        "baseItem": null,
        "containerId": null,
        "description": {
            "value": "<p>This surprisingly sturdy 3-foot-by-3-foot clay tile resembles a thick pressure plate. It can support up to 500 pounds of weight atop it before it is destroyed. The<em>floorbell's</em>nature is obvious at a glance, but mundane or magical means can obscure or camouflage the tile (such as by covering it in scattered leaves or by casting an <em>@Compendium[pf2e.spells-srd.Illusory Object]{Illusory Object}</em> spell) to make it harder to detect.</p>\n<p><strong>Activate</strong><span class=\"pf2-icon\">2</span>command, Interact;<strong>Effect</strong> The<em>floorbell</em>must be activated on level ground. When you do, specify the amount of weight that triggers the<em>floorbell's</em>alarm system. When the amount of weight you specify (or more) is placed on the<em>floorbell</em>, it emits an ear-piercing wail clearly audible to a range of 150 feet. A<em>floorbell</em>can also ring an alarm if a weight you specify is removed from the<em>floorbell</em>, such as if you activated it while a heavy sack was on it.</p>"
        },
        "equippedBulk": {
            "value": ""
        },
        "hardness": 0,
        "hp": {
            "brokenThreshold": 0,
            "max": 0,
            "value": 0
        },
        "level": {
            "value": 5
        },
        "negateBulk": {
            "value": "0"
        },
        "preciousMaterial": {
            "value": ""
        },
        "preciousMaterialGrade": {
            "value": ""
        },
        "price": {
            "value": {
                "gp": 120
            }
        },
        "quantity": 1,
        "rules": [],
        "size": "med",
        "source": {
            "value": "Pathfinder #158: Sixty Feet Under"
        },
        "stackGroup": null,
        "traits": {
            "custom": "",
            "rarity": "uncommon",
            "value": [
                "abjuration",
                "magical"
            ]
        },
        "usage": {
            "value": "held-in-one-hand"
        },
        "weight": {
            "value": "1"
        }
    },
    "flags": {},
    "img": "systems/pf2e/icons/equipment/held-items/floorbell.webp",
    "name": "Floorbell",
    "type": "equipment"
}
