{
    "_id": "zDzs24ZMlzQgmTUd",
    "data": {
        "baseItem": null,
        "containerId": "null",
        "description": {
            "value": "<p><strong>Bulk</strong> 1 (3 unfolded)</p>\n<hr />\n<p>This multi-hinged, 10-foot ladder is useful for climbing upward or across dangerous pits. You can fold or unfold the ladder with two total Interact actions, which don't need to consecutive.</p>"
        },
        "equippedBulk": {
            "value": ""
        },
        "hardness": 0,
        "hp": {
            "brokenThreshold": 0,
            "max": 0,
            "value": 0
        },
        "level": {
            "value": 0
        },
        "negateBulk": {
            "value": "0"
        },
        "preciousMaterial": {
            "value": null
        },
        "preciousMaterialGrade": {
            "value": null
        },
        "price": {
            "value": {
                "gp": 3
            }
        },
        "quantity": 1,
        "rules": [],
        "size": "med",
        "source": {
            "value": "Pathfinder Lost Omens: The Grand Bazaar"
        },
        "stackGroup": null,
        "traits": {
            "custom": "",
            "rarity": "common",
            "value": []
        },
        "usage": {
            "value": "held-in-two-hands"
        },
        "weight": {
            "value": "1"
        }
    },
    "flags": {},
    "img": "systems/pf2e/icons/default-icons/equipment.svg",
    "name": "Folding Ladder",
    "type": "equipment"
}
