{
    "_id": "8buhFcGwuaJRrp0y",
    "data": {
        "baseItem": null,
        "containerId": null,
        "description": {
            "value": "<p>A <em>fortification</em> rune wards against the most deadly attacks. Each time you're critically hit while wearing the etched armor, attempt a DC 17 flat check. On a success, it becomes a normal hit. This property thickens the armor, increasing its Bulk by 1 and the Strength required to reduce its penalties by 2.</p>"
        },
        "equippedBulk": {
            "value": ""
        },
        "hardness": 0,
        "hp": {
            "brokenThreshold": 0,
            "max": 0,
            "value": 0
        },
        "level": {
            "value": 12
        },
        "negateBulk": {
            "value": ""
        },
        "preciousMaterial": {
            "value": ""
        },
        "preciousMaterialGrade": {
            "value": ""
        },
        "price": {
            "value": {
                "gp": 2000
            }
        },
        "quantity": 1,
        "rules": [],
        "size": "med",
        "source": {
            "value": "Pathfinder Core Rulebook"
        },
        "stackGroup": null,
        "traits": {
            "custom": "",
            "rarity": "common",
            "value": [
                "abjuration",
                "magical"
            ]
        },
        "usage": {
            "value": "etched-onto-med-heavy-armor"
        },
        "weight": {
            "value": "-"
        }
    },
    "flags": {},
    "img": "systems/pf2e/icons/equipment/runes/armor-property-runes/armor-property-runes.webp",
    "name": "Fortification",
    "type": "equipment"
}
