{
    "_id": "yYkxdzogiH7FPWVP",
    "data": {
        "activation": {
            "condition": "",
            "cost": 0,
            "type": ""
        },
        "autoDestroy": {
            "_deprecated": true,
            "value": true
        },
        "autoUse": {
            "_deprecated": true,
            "value": true
        },
        "baseItem": null,
        "charges": {
            "_deprecated": true,
            "max": 0,
            "value": 0
        },
        "consumableType": {
            "value": "fulu"
        },
        "consume": {
            "_deprecated": true,
            "value": ""
        },
        "containerId": "null",
        "description": {
            "value": "<p><strong>Usage</strong> affixed to the ground in four spaces along a 10-foot radius circle</p>\n<p><strong>Duration</strong> 1 hour</p>\n<hr />\n<p>This fulu comes in four pieces, one placed in each cardinal direction. Choose one of the following traits when Activating the fulus: animal, beast, celestial, fey, fiend, humanoid, monitor, plant, or undead. Those within the fulus' circle upon activation (including the fulus themselves) gain the effect of <em>@Compendium[pf2e.spells-srd.Invisibility Sphere]{Invisibility Sphere}</em>, but only against creatures with the chosen trait. If any of the fulus are moved or destroyed after activation, the effect ends.</p>"
        },
        "duration": {
            "units": "",
            "value": null
        },
        "equippedBulk": {
            "value": ""
        },
        "hardness": 0,
        "hp": {
            "brokenThreshold": 0,
            "max": 0,
            "value": 0
        },
        "level": {
            "value": 6
        },
        "negateBulk": {
            "value": "0"
        },
        "preciousMaterial": {
            "value": null
        },
        "preciousMaterialGrade": {
            "value": null
        },
        "price": {
            "value": {
                "gp": 40
            }
        },
        "quantity": 1,
        "range": {
            "long": null,
            "units": "",
            "value": null
        },
        "rules": [],
        "size": "med",
        "source": {
            "value": "Pathfinder Secrets of Magic"
        },
        "spell": {
            "data": null,
            "heightenedLevel": null
        },
        "stackGroup": null,
        "target": {
            "type": "",
            "units": "",
            "value": null
        },
        "traits": {
            "custom": "",
            "rarity": "common",
            "value": [
                "consumable",
                "fulu",
                "illusion",
                "magical"
            ]
        },
        "usage": {
            "value": "held-in-one-hand"
        },
        "uses": {
            "autoDestroy": true,
            "autoUse": true,
            "max": 0,
            "per": null,
            "value": 0
        },
        "weight": {
            "value": "-"
        }
    },
    "flags": {},
    "img": "systems/pf2e/icons/equipment/consumables/fulus/fulu-modest.webp",
    "name": "Fulu of Concealment",
    "type": "consumable"
}
