{
    "_id": "yvS4UatIZAGH4tng",
    "data": {
        "baseItem": null,
        "containerId": null,
        "description": {
            "value": "<p>This item is a formula book, religious text, or spellbook that has been creased-possibly by Princess Ganjay herself-to fold up into an impossibly small shape. When folded up, the book can't be read or used, but its Bulk is reduced by 1 (a book that is 1 Bulk becomes light Bulk, and a book that is light Bulk becomes negligible in weight).</p>\n<hr />\n<p><strong>Activate</strong> 1 minute (Interact) You fold or unfold the Ganjay book, manipulating the cunning creases.</p>"
        },
        "equippedBulk": {
            "value": ""
        },
        "hardness": 0,
        "hp": {
            "brokenThreshold": 0,
            "max": 0,
            "value": 0
        },
        "level": {
            "value": 1
        },
        "negateBulk": {
            "value": "0"
        },
        "preciousMaterial": {
            "value": ""
        },
        "preciousMaterialGrade": {
            "value": ""
        },
        "price": {
            "value": {
                "gp": 10
            }
        },
        "quantity": 1,
        "rules": [],
        "size": "med",
        "source": {
            "value": "Pathfinder Lost Omens: Pathfinder Society Guide"
        },
        "stackGroup": null,
        "traits": {
            "custom": "",
            "rarity": "uncommon",
            "value": []
        },
        "usage": {
            "value": "held-in-one-hand"
        },
        "weight": {
            "value": "-"
        }
    },
    "flags": {},
    "img": "systems/pf2e/icons/equipment/held-items/ganjay-book.webp",
    "name": "Ganjay Book (Light bulk book)",
    "type": "equipment"
}
