{
    "_id": "qnvq3PSTiejQTSi9",
    "data": {
        "activation": {
            "condition": "",
            "cost": 0,
            "type": ""
        },
        "autoDestroy": {
            "_deprecated": true,
            "value": true
        },
        "autoUse": {
            "_deprecated": true,
            "value": true
        },
        "baseItem": null,
        "charges": {
            "_deprecated": true,
            "max": 1,
            "value": 1
        },
        "consumableType": {
            "value": "other"
        },
        "consume": {
            "_deprecated": true,
            "value": ""
        },
        "containerId": null,
        "description": {
            "value": "<p><strong>Activate</strong> 10 minutes (Interact)</p>\n<p>This pale-blue ink dries rapidly, becoming fully transparent 1 minute after application. The ink glows red when exposed to heat, such as that from a torch or other open flame. This glow lasts only as long as the ink is exposed to heat, after which the ink becomes invisible again. The crafter of the ghost ink can alter the formula slightly to instead make the ink sensitive to sunlight, starlight, magical light, or heatless light created by an alchemical effect such as a sunrod.</p>\n<p>While the text isn't glowing, a creature closely examining a surface marked with ghost ink can detect the presence of the ink with a successful DC 25 Perception check. On a critical success, they can make out the ink well enough to use Society to @Compendium[pf2e.actionspf2e.Decipher Writing]{Decipher Writing}. One vial of ghost ink is sufficient to write a page worth of text.</p>"
        },
        "duration": {
            "units": "",
            "value": null
        },
        "equippedBulk": {
            "value": ""
        },
        "hardness": 0,
        "hp": {
            "brokenThreshold": 0,
            "max": 0,
            "value": 0
        },
        "level": {
            "value": 1
        },
        "negateBulk": {
            "value": "0"
        },
        "preciousMaterial": {
            "value": ""
        },
        "preciousMaterialGrade": {
            "value": ""
        },
        "price": {
            "value": {
                "gp": 3
            }
        },
        "quantity": 1,
        "range": {
            "long": null,
            "units": "",
            "value": null
        },
        "rules": [],
        "size": "med",
        "source": {
            "value": "Pathfinder Advanced Player's Guide"
        },
        "spell": {
            "data": null,
            "heightenedLevel": null
        },
        "stackGroup": null,
        "target": {
            "type": "",
            "units": "",
            "value": null
        },
        "traits": {
            "custom": "",
            "rarity": "common",
            "value": [
                "alchemical",
                "consumable"
            ]
        },
        "usage": {
            "value": "held-in-one-hand"
        },
        "uses": {
            "autoDestroy": true,
            "autoUse": true,
            "max": 0,
            "per": null,
            "value": 0
        },
        "weight": {
            "value": "L"
        }
    },
    "flags": {},
    "img": "systems/pf2e/icons/equipment/alchemical-items/alchemical-tools/ghost-ink.webp",
    "name": "Ghost Ink",
    "type": "consumable"
}
