{
    "_id": "wewWxypLaXcHjJ5P",
    "data": {
        "baseItem": null,
        "containerId": null,
        "description": {
            "value": "<p>This small rod has a tiny, sharp cutting wheel made of steel on one end and a thick bulb on the other. You can use the glass cutter's wheel to score ordinary glass and use the bulb to break the piece along your scoring. It typically takes 1 minute of work to cut a hole large enough to fit your hand. If you are attempting to break the glass quietly, you must attempt a Thievery check against the Perception DC of nearby creatures to go unnoticed.</p>"
        },
        "equippedBulk": {
            "value": ""
        },
        "hardness": 0,
        "hp": {
            "brokenThreshold": 0,
            "max": 0,
            "value": 0
        },
        "level": {
            "value": 0
        },
        "negateBulk": {
            "value": "0"
        },
        "preciousMaterial": {
            "value": ""
        },
        "preciousMaterialGrade": {
            "value": ""
        },
        "price": {
            "value": {
                "gp": 5
            }
        },
        "quantity": 1,
        "rules": [],
        "size": "med",
        "source": {
            "value": "Pathfinder Lost Omens: Pathfinder Society Guide"
        },
        "stackGroup": null,
        "traits": {
            "custom": "",
            "rarity": "uncommon",
            "value": []
        },
        "usage": {
            "value": "held-in-two-hands"
        },
        "weight": {
            "value": "L"
        }
    },
    "flags": {},
    "img": "systems/pf2e/icons/equipment/adventuring-gear/glass-cutter.webp",
    "name": "Glass Cutter",
    "type": "equipment"
}
