{
    "_id": "5ucWbzvEQhd2eSJk",
    "data": {
        "activation": {
            "condition": "",
            "cost": 0,
            "type": ""
        },
        "autoDestroy": {
            "_deprecated": true,
            "value": true
        },
        "autoUse": {
            "_deprecated": true,
            "value": true
        },
        "baseItem": null,
        "charges": {
            "_deprecated": true,
            "max": 0,
            "value": 0
        },
        "consumableType": {
            "value": "ammo"
        },
        "consume": {
            "_deprecated": true,
            "value": ""
        },
        "containerId": null,
        "description": {
            "value": "<p><strong>Ammunition</strong> round</p>\n<p><strong>Activate</strong> <span class=\"pf2-icon\">1</span> envision</p>\n<hr />\n<p>The magic-infused metal of this bullet's golden casing allows it to curve just a bit in flight once the bullet has been fired, allowing you to ignore the bonus to AC granted to a target in standard or lesser cover.</p>"
        },
        "duration": {
            "units": "",
            "value": null
        },
        "equippedBulk": {
            "value": ""
        },
        "hardness": 0,
        "hp": {
            "brokenThreshold": 0,
            "max": 0,
            "value": 0
        },
        "level": {
            "value": 10
        },
        "negateBulk": {
            "value": "0"
        },
        "preciousMaterial": {
            "value": null
        },
        "preciousMaterialGrade": {
            "value": null
        },
        "price": {
            "value": {
                "gp": 200
            }
        },
        "quantity": 1,
        "range": {
            "long": null,
            "units": "",
            "value": null
        },
        "rules": [],
        "size": "med",
        "source": {
            "value": "Pathfinder #179: Cradle of Quartz"
        },
        "spell": {
            "data": null,
            "heightenedLevel": null
        },
        "stackGroup": "",
        "target": {
            "type": "",
            "units": "",
            "value": null
        },
        "traits": {
            "custom": "",
            "rarity": "uncommon",
            "value": [
                "consumable",
                "divination",
                "magical"
            ]
        },
        "usage": {
            "value": "other"
        },
        "uses": {
            "autoDestroy": true,
            "autoUse": true,
            "max": 0,
            "per": null,
            "value": 0
        },
        "weight": {
            "value": "-"
        }
    },
    "flags": {},
    "img": "systems/pf2e/icons/default-icons/consumable.svg",
    "name": "Golden-Cased Bullet (Greater)",
    "type": "consumable"
}
