{
    "_id": "oqZszBqqanONR0ng",
    "data": {
        "baseItem": null,
        "containerId": "null",
        "description": {
            "value": "<p>The cover of this grimoire is bound in a strange crimson, pebbly leather that a @Check[type:occultism|dc:40] check to Recall Knowledge identifies as the hide of a rare monster from the distant plane of Leng. The grimoire's spine is bound in copper and a spiral of shifting runes slowly swirls across its surface.</p>\n<hr />\n<p><strong>Activate</strong> <span class=\"pf2-icon\">1</span> envision (arcane, divination)</p>\n<p><strong>Frequency</strong> once per day</p>\n<p><strong>Requirement</strong> You're an arcane prepared spellcaster and you have rested but not yet prepared your spells for the day</p>\n<p><strong>Effect</strong> The grimoire provides you with temporary knowledge of a single spell of the highest level you're capable of casting that you don't already have recorded in it or any of your other spellbooks, chosen by the GM based on their knowledge of the adventure to be particularly useful to you during the upcoming day.</p>\n<p>A strange quirk of the tome prevents the spell's knowledge from ever traveling further than your own mind. The granted spell is not only removed from the tome's pages at the start of the next day, but is also removed from any other scroll, spellbook, or grimoire the granted spell is copied into, as well as any other way it might have been learned or copied.</p>"
        },
        "equippedBulk": {
            "value": ""
        },
        "hardness": 0,
        "hp": {
            "brokenThreshold": 0,
            "max": 0,
            "value": 0
        },
        "level": {
            "value": 16
        },
        "negateBulk": {
            "value": "0"
        },
        "preciousMaterial": {
            "value": null
        },
        "preciousMaterialGrade": {
            "value": null
        },
        "price": {
            "value": {
                "gp": 8000
            }
        },
        "quantity": 1,
        "rules": [],
        "size": "med",
        "source": {
            "value": "Pathfinder #173: Doorway to the Red Star"
        },
        "stackGroup": null,
        "traits": {
            "custom": "",
            "rarity": "unique",
            "value": [
                "divination",
                "grimoire",
                "invested",
                "magical"
            ]
        },
        "usage": {
            "value": "held-in-one-hand"
        },
        "weight": {
            "value": "L"
        }
    },
    "flags": {},
    "img": "systems/pf2e/icons/default-icons/equipment.svg",
    "name": "Grimoire of Unknown Necessities",
    "type": "equipment"
}
