{
    "_id": "pRoikbRo5HFW6YUB",
    "data": {
        "armor": {
            "value": 5
        },
        "baseItem": "half-plate",
        "category": "heavy",
        "check": {
            "value": -3
        },
        "containerId": null,
        "description": {
            "value": "<p>Half plate consists of most of the upper body plates used in full plate, with lighter or sparser steel plate protection for the arms and legs. This provides some of the protection of full plate with greater flexibility and speed. A suit of this armor comes with an undercoat of padded armor and a pair of gauntlets.</p>"
        },
        "dex": {
            "value": 1
        },
        "equippedBulk": {
            "value": "3"
        },
        "group": "plate",
        "hardness": 0,
        "hp": {
            "brokenThreshold": 0,
            "max": 0,
            "value": 0
        },
        "level": {
            "value": 1
        },
        "negateBulk": {
            "value": "0"
        },
        "potency": {},
        "potencyRune": {
            "value": 0
        },
        "preciousMaterial": {
            "value": ""
        },
        "preciousMaterialGrade": {
            "value": ""
        },
        "price": {
            "value": {
                "gp": 18
            }
        },
        "propertyRune1": {
            "value": ""
        },
        "propertyRune2": {
            "value": ""
        },
        "propertyRune3": {
            "value": ""
        },
        "propertyRune4": {
            "value": ""
        },
        "quantity": 1,
        "resiliencyRune": {
            "value": ""
        },
        "rules": [],
        "size": "med",
        "source": {
            "value": "Pathfinder Core Rulebook"
        },
        "speed": {
            "value": -10
        },
        "stackGroup": null,
        "strength": {
            "value": 16
        },
        "traits": {
            "custom": "",
            "rarity": "common",
            "value": []
        },
        "usage": {
            "value": "wornarmor"
        },
        "weight": {
            "value": "4"
        }
    },
    "flags": {},
    "img": "systems/pf2e/icons/equipment/armor/halfplate.webp",
    "name": "Half Plate",
    "type": "armor"
}
