{
    "_id": "C1j0Zs26TPVjplbs",
    "data": {
        "baseItem": null,
        "containerId": null,
        "description": {
            "value": "<p>Used by gamblers and seers alike, this deck of cards comes in several varieties.</p>\n<hr />\n<p>Simple harrow decks are made from low-quality paper and typically have only an icon and a number to signify the suit and alignment. These simple decks are mostly used for games of chance, as the actual image and significance of the cards are irrelevant for such games.</p>"
        },
        "equippedBulk": {
            "value": ""
        },
        "hardness": 0,
        "hp": {
            "brokenThreshold": 0,
            "max": 0,
            "value": 0
        },
        "level": {
            "value": 0
        },
        "negateBulk": {
            "value": "0"
        },
        "preciousMaterial": {
            "value": ""
        },
        "preciousMaterialGrade": {
            "value": ""
        },
        "price": {
            "value": {
                "gp": 1
            }
        },
        "quantity": 1,
        "rules": [],
        "size": "med",
        "source": {
            "value": "Pathfinder #160: Assault on Hunting Lodge Seven"
        },
        "stackGroup": null,
        "traits": {
            "custom": "",
            "rarity": "common",
            "value": []
        },
        "usage": {
            "value": "held-in-two-hands"
        },
        "weight": {
            "value": "L"
        }
    },
    "flags": {},
    "img": "systems/pf2e/icons/equipment/adventuring-gear/harrow-deck-simple.webp",
    "name": "Harrow Deck (Simple)",
    "type": "equipment"
}
