{
    "_id": "2ovu1AioLLff9p8w",
    "data": {
        "baseItem": null,
        "containerId": "null",
        "description": {
            "value": "<p>Hauling weapons are adept at moving creatures around the battlefield after a successful attack.</p>\n<p><strong>Activate</strong> <span class=\"pf2-icon\">R</span> Command</p>\n<p><strong>Frequency</strong> once per hour</p>\n<p><strong>Trigger</strong> You succeed at an attack roll to Strike with a weapon with the hauling rune</p>\n<p><strong>Effect</strong> The target must succeed at a @Check[type:reflex|dc:20|name:Hauling Rune] save or be moved 5 feet in a direction you choose. This is forced movement.</p>"
        },
        "equippedBulk": {
            "value": ""
        },
        "hardness": 0,
        "hp": {
            "brokenThreshold": 0,
            "max": 0,
            "value": 0
        },
        "level": {
            "value": 6
        },
        "negateBulk": {
            "value": "0"
        },
        "preciousMaterial": {
            "value": null
        },
        "preciousMaterialGrade": {
            "value": null
        },
        "price": {
            "value": {
                "gp": 225
            }
        },
        "quantity": 1,
        "rules": [],
        "size": "med",
        "source": {
            "value": "Pathfinder Lost Omens: The Grand Bazaar"
        },
        "stackGroup": null,
        "traits": {
            "custom": "",
            "rarity": "uncommon",
            "value": [
                "evocation",
                "magical"
            ]
        },
        "usage": {
            "value": "etched-onto-a-weapon"
        },
        "weight": {
            "value": "-"
        }
    },
    "flags": {},
    "img": "systems/pf2e/icons/equipment/runes/weapon-property-runes/weapon-property-runes.webp",
    "name": "Hauling",
    "type": "equipment"
}
