{
    "_id": "SGkOHFyBbzWdBk8D",
    "data": {
        "baseItem": null,
        "containerId": null,
        "description": {
            "value": "<p>This kit of bandages, herbs, and suturing tools is necessary for Medicine checks to Administer First Aid, Treat Disease, Treat Poison, or Treat Wounds. Expanded healer's tools provide a +1 item bonus to such checks. When you carry the tools from place to place, you keep many of the components handy on your person, in pockets or bandoliers.</p>"
        },
        "equippedBulk": {
            "value": ""
        },
        "hardness": 0,
        "hp": {
            "brokenThreshold": 0,
            "max": 0,
            "value": 0
        },
        "level": {
            "value": 3
        },
        "negateBulk": {
            "value": "0"
        },
        "preciousMaterial": {
            "value": ""
        },
        "preciousMaterialGrade": {
            "value": ""
        },
        "price": {
            "value": {
                "gp": 50
            }
        },
        "quantity": 1,
        "rules": [
            {
                "key": "FlatModifier",
                "label": "Expanded Healer's Tools (1st aid, treat disease, poison or wounds",
                "predicate": {
                    "any": [
                        "action:administer-first-aid",
                        "action:treat-disease",
                        "action:treat-poison",
                        "action:treat-wounds"
                    ]
                },
                "selector": "medicine",
                "type": "item",
                "value": 1
            }
        ],
        "size": "med",
        "source": {
            "value": "Pathfinder Core Rulebook"
        },
        "stackGroup": null,
        "traits": {
            "custom": "",
            "rarity": "common",
            "value": []
        },
        "usage": {
            "value": "held-in-two-hands"
        },
        "weight": {
            "value": "1"
        }
    },
    "flags": {},
    "img": "systems/pf2e/icons/equipment/adventuring-gear/healers-kit.webp",
    "name": "Healer's Tools (Expanded)",
    "type": "equipment"
}
