{
    "_id": "hcGvN03ieNWlSQYa",
    "data": {
        "baseItem": null,
        "containerId": null,
        "description": {
            "value": "<p>This large ram's horn perpetually glistens with tiny droplets of water, much like condensation.</p>\n<p><strong>Activate</strong> <span class=\"pf2-icon\">D</span> Interact</p>\n<p><strong>Frequency</strong> once per hour</p>\n<p><strong>Effect</strong> You activate the horn by blowing deeply into it, causing it to issue forth a low blast and cast a 2nd-level <em>@Compendium[pf2e.spells-srd.Obscuring Mist]{Obscuring Mist}</em> spell. You can Dismiss the mist at any time by blowing a second note on the horn using an Interact action.</p>"
        },
        "equippedBulk": {
            "value": ""
        },
        "hardness": 0,
        "hp": {
            "brokenThreshold": 0,
            "max": 0,
            "value": 0
        },
        "level": {
            "value": 6
        },
        "negateBulk": {
            "value": "0"
        },
        "preciousMaterial": {
            "value": ""
        },
        "preciousMaterialGrade": {
            "value": ""
        },
        "price": {
            "value": {
                "gp": 230
            }
        },
        "quantity": 1,
        "rules": [],
        "size": "med",
        "source": {
            "value": "Pathfinder Core Rulebook"
        },
        "stackGroup": null,
        "traits": {
            "custom": "",
            "rarity": "common",
            "value": [
                "conjuration",
                "magical",
                "water"
            ]
        },
        "usage": {
            "value": "held-in-one-hand"
        },
        "weight": {
            "value": "1"
        }
    },
    "flags": {},
    "img": "systems/pf2e/icons/equipment/held-items/horn-of-fog.webp",
    "name": "Horn of Fog",
    "type": "equipment"
}
