{
    "_id": "peoheZMxdPHUNo93",
    "data": {
        "baseItem": null,
        "containerId": null,
        "description": {
            "value": "<p>When you affix these simple iron horseshoes to the hooves of an ordinary horse or a quadrupedal animal companion and the animal companion invests them, that creature gains a +5-foot item bonus to its land Speed and a +2 item bonus to Athletics checks to High Jump and Long Jump.</p>\n<p>In addition, when it Leaps, it can move 5 feet farther if jumping horizontally or 3 feet higher if jumping vertically.</p>"
        },
        "equippedBulk": {
            "value": ""
        },
        "hardness": 0,
        "hp": {
            "brokenThreshold": 0,
            "max": 0,
            "value": 0
        },
        "level": {
            "value": 7
        },
        "negateBulk": {
            "value": "0"
        },
        "preciousMaterial": {
            "value": ""
        },
        "preciousMaterialGrade": {
            "value": ""
        },
        "price": {
            "value": {
                "gp": 340
            }
        },
        "quantity": 1,
        "rules": [
            {
                "key": "FlatModifier",
                "label": "Horseshoes of Speed (long & high jumps)",
                "predicate": {
                    "any": [
                        "action:high-jump",
                        "action:long-jump"
                    ]
                },
                "selector": "athletics",
                "type": "item",
                "value": 2
            },
            {
                "key": "FlatModifier",
                "selector": "land-speed",
                "type": "item",
                "value": 5
            }
        ],
        "size": "med",
        "source": {
            "value": "Pathfinder Core Rulebook"
        },
        "stackGroup": null,
        "traits": {
            "custom": "",
            "rarity": "common",
            "value": [
                "companion",
                "invested",
                "primal",
                "transmutation"
            ]
        },
        "usage": {
            "value": "wornhorseshoes"
        },
        "weight": {
            "value": "1"
        }
    },
    "flags": {},
    "img": "systems/pf2e/icons/equipment/worn-items/companion-items/horseshoes-of-speed.webp",
    "name": "Horseshoes of Speed",
    "type": "equipment"
}
