{
    "_id": "m4U2P5A1Dk1C1wr1",
    "data": {
        "baseItem": null,
        "containerId": "null",
        "description": {
            "value": "<p>An ignitor uses interlocking clockwork to create a small spark in order to ignite flammable materials. While holding the ignitor, you can Interact with it to ignite a flammable object within reach.</p>"
        },
        "equippedBulk": {
            "value": ""
        },
        "hardness": 0,
        "hp": {
            "brokenThreshold": 0,
            "max": 0,
            "value": 0
        },
        "level": {
            "value": 1
        },
        "negateBulk": {
            "value": "0"
        },
        "preciousMaterial": {
            "value": null
        },
        "preciousMaterialGrade": {
            "value": null
        },
        "price": {
            "value": {
                "gp": 5
            }
        },
        "quantity": 1,
        "rules": [],
        "size": "med",
        "source": {
            "value": "Pathfinder Guns & Gears"
        },
        "stackGroup": null,
        "traits": {
            "custom": "",
            "rarity": "common",
            "value": [
                "clockwork"
            ]
        },
        "usage": {
            "value": "held-in-one-hand"
        },
        "weight": {
            "value": "-"
        }
    },
    "flags": {},
    "img": "systems/pf2e/icons/default-icons/equipment.svg",
    "name": "Ignitor",
    "type": "equipment"
}
