{
    "_id": "BK1AKKi1gDMn5uBs",
    "data": {
        "armor": {
            "value": 2
        },
        "baseItem": "chain-shirt",
        "category": "light",
        "check": {
            "value": -1
        },
        "containerId": "null",
        "description": {
            "value": "<p>This <em>+2 resilient @Compendium[pf2e.equipment-srd.Invisibility]{Invisibility} chain shirt</em> is itself invisible. Other creatures can't see it at all, allowing you to wear it surreptitiously. Additionally, the armor's invisible composition is quieter and more comfortable than a normal chain shirt. It loses the noisy trait and gains the comfort trait.</p>\n<hr />\n<p><strong>Activate</strong> <span class=\"pf2-icon\">2</span> envision</p>\n<p><strong>Frequency</strong> once per minute</p>\n<p><strong>Effect</strong> You Stride and turn partially invisible, becoming @Compendium[pf2e.conditionitems.Concealed]{Concealed} until the end of your next turn or until you use a hostile action, whichever comes first. As normal, you can use the concealment from this activation to @Compendium[pf2e.actionspf2e.Hide]{Hide}.</p>"
        },
        "dex": {
            "value": 3
        },
        "equippedBulk": {
            "value": "1"
        },
        "group": "chain",
        "hardness": 0,
        "hp": {
            "brokenThreshold": 0,
            "max": 0,
            "value": 0
        },
        "level": {
            "value": 13
        },
        "negateBulk": {
            "value": "0"
        },
        "potencyRune": {
            "value": 2
        },
        "preciousMaterial": {
            "value": null
        },
        "preciousMaterialGrade": {
            "value": null
        },
        "price": {
            "value": {
                "gp": 2750
            }
        },
        "propertyRune1": {
            "value": "invisibility"
        },
        "propertyRune2": {
            "value": ""
        },
        "propertyRune3": {
            "value": ""
        },
        "propertyRune4": {
            "value": ""
        },
        "quantity": 1,
        "resiliencyRune": {
            "value": "resilient"
        },
        "rules": [],
        "size": "med",
        "source": {
            "value": "Pathfinder Secrets of Magic"
        },
        "speed": {
            "value": 0
        },
        "stackGroup": null,
        "strength": {
            "value": 12
        },
        "traits": {
            "custom": "",
            "rarity": "common",
            "value": [
                "comfort",
                "evocation",
                "flexible",
                "magical"
            ]
        },
        "usage": {
            "value": "wornarmor"
        },
        "weight": {
            "value": "2"
        }
    },
    "flags": {},
    "img": "systems/pf2e/icons/default-icons/armor.svg",
    "name": "Invisible Chain Shirt",
    "type": "armor"
}
