{
    "_id": "zo0ophqfKunJFxZN",
    "data": {
        "activation": {
            "condition": "",
            "cost": 0,
            "type": ""
        },
        "autoDestroy": {
            "_deprecated": true,
            "value": true
        },
        "autoUse": {
            "_deprecated": true,
            "value": true
        },
        "baseItem": null,
        "charges": {
            "_deprecated": true,
            "max": 1,
            "value": 1
        },
        "consumableType": {
            "value": "poison"
        },
        "consume": {
            "_deprecated": true,
            "value": ""
        },
        "containerId": null,
        "description": {
            "value": "<p>Lethargy poison is commonly used in hit-and-run tactics by drow and others who want their victims alive; the ambusher retreats until the poison sets in and the victim falls unconscious. Further exposure to lethargy poison does not require the target to attempt additional saving throws; only failing an saving throw against an ongoing exposure can progress its stage.</p>\n<hr />\n<p><strong>Activate</strong> <span class=\"pf2-icon\">D</span> Interact (Injury)</p>\n<p><strong>Saving Throw</strong> @Check[type:fortitude|dc:18]</p>\n<p><strong>Maximum Duration</strong> 4 hours</p>\n<p><strong>Stage 1</strong> @Compendium[pf2e.conditionitems.Slowed]{Slowed 1} (1 round)</p>\n<p><strong>Stage 2</strong> slowed 1 (1 minute)</p>\n<p><strong>Stage 3</strong> @Compendium[pf2e.conditionitems.Unconscious]{Unconscious} with no Perception check to wake up (1 round)</p>\n<p><strong>Stage 4</strong> unconscious with no Perception check to wake up ([[/br 1d4 #hours]]{1d4 hours}).</p>"
        },
        "duration": {
            "units": "",
            "value": null
        },
        "equippedBulk": {
            "value": ""
        },
        "hardness": 0,
        "hp": {
            "brokenThreshold": 0,
            "max": 0,
            "value": 0
        },
        "level": {
            "value": 2
        },
        "negateBulk": {
            "value": "0"
        },
        "preciousMaterial": {
            "value": ""
        },
        "preciousMaterialGrade": {
            "value": ""
        },
        "price": {
            "value": {
                "gp": 7
            }
        },
        "quantity": 1,
        "range": {
            "long": null,
            "units": "",
            "value": null
        },
        "rules": [],
        "size": "med",
        "source": {
            "value": "Pathfinder Core Rulebook"
        },
        "spell": {
            "data": null,
            "heightenedLevel": null
        },
        "stackGroup": null,
        "target": {
            "type": "",
            "units": "",
            "value": null
        },
        "traits": {
            "custom": "",
            "rarity": "uncommon",
            "value": [
                "alchemical",
                "conjuration",
                "incapacitation",
                "injury",
                "poison",
                "sleep"
            ]
        },
        "usage": {
            "value": "held-in-one-hand"
        },
        "uses": {
            "autoDestroy": true,
            "autoUse": true,
            "max": 0,
            "per": null,
            "value": 0
        },
        "weight": {
            "value": "L"
        }
    },
    "flags": {},
    "img": "systems/pf2e/icons/equipment/alchemical-items/alchemical-poisons/lethargy-poison.webp",
    "name": "Lethargy Poison",
    "type": "consumable"
}
