{
    "_id": "ba7Yba3Qexj4DpnD",
    "data": {
        "baseItem": null,
        "containerId": "null",
        "description": {
            "value": "<p>These curved hearing aids hook over the top and sit behind your ear, with a receiver that fits into the ear opening. The external part of the device detects sound waves and, using divination magic, transfers them down the receiver and into your ear. You can wear one or two depending on your hearing loss, and you can turn your hearing aids on or off using an Interact action.</p>"
        },
        "equippedBulk": {
            "value": ""
        },
        "hardness": 0,
        "hp": {
            "brokenThreshold": 0,
            "max": 0,
            "value": 0
        },
        "level": {
            "value": 1
        },
        "negateBulk": {
            "value": "0"
        },
        "preciousMaterial": {
            "value": null
        },
        "preciousMaterialGrade": {
            "value": null
        },
        "price": {
            "value": {
                "gp": 5
            }
        },
        "quantity": 1,
        "rules": [],
        "size": "med",
        "source": {
            "value": "Pathfinder Lost Omens: The Grand Bazaar"
        },
        "stackGroup": null,
        "traits": {
            "custom": "",
            "rarity": "common",
            "value": []
        },
        "usage": {
            "value": "worn"
        },
        "weight": {
            "value": "-"
        }
    },
    "flags": {},
    "img": "systems/pf2e/icons/equipment/worn-items/other-worn-items/hearing-aid.webp",
    "name": "Magical Hearing Aids",
    "type": "equipment"
}
