{
    "_id": "8SZ9FRW4rBhjyW3j",
    "data": {
        "baseItem": null,
        "containerId": "null",
        "description": {
            "value": "<p>A mask helps you use the @Compendium[pf2e.actionspf2e.Impersonate]{Impersonate} action to pass yourself off as someone you aren't.</p>\n<p>This stylized bird mask is equipped with a basic filter. The plague mask attempts to counteract any inhaled poisons or airborne diseases each round you breathe. The same replacement filters used in @Compendium[pf2e.equipment-srd.Water Purifier]{Water Purifiers} can be used with a plague mask, granting you the counteract modifier and effects of the filter for 20 minutes.</p>\n<p>Plague masks are uncommon items because the filters they use to protect from inhaled poisons and diseases are themselves uncommon. As such, you can buy a plague mask without a filter as a common item, though it's usually more cost-effective to buy a fine mask in the shape of a plague mask in that case.</p>"
        },
        "equippedBulk": {
            "value": ""
        },
        "hardness": 0,
        "hp": {
            "brokenThreshold": 0,
            "max": 0,
            "value": 0
        },
        "level": {
            "value": 1
        },
        "negateBulk": {
            "value": "0"
        },
        "preciousMaterial": {
            "value": null
        },
        "preciousMaterialGrade": {
            "value": null
        },
        "price": {
            "value": {
                "gp": 10
            }
        },
        "quantity": 1,
        "rules": [],
        "size": "med",
        "source": {
            "value": "Pathfinder Lost Omens: The Grand Bazaar"
        },
        "stackGroup": null,
        "traits": {
            "custom": "",
            "rarity": "uncommon",
            "value": []
        },
        "usage": {
            "value": "wornmask"
        },
        "weight": {
            "value": "-"
        }
    },
    "flags": {},
    "img": "systems/pf2e/icons/default-icons/equipment.svg",
    "name": "Mask (Plague)",
    "type": "equipment"
}
