{
    "_id": "TyW1XOWYMM2xHGaI",
    "data": {
        "armor": {
            "value": 2
        },
        "baseItem": null,
        "category": "shield",
        "check": {
            "value": 5
        },
        "containerId": null,
        "description": {
            "value": "<p>The ghastly visage of a slain <em>medusa's </em>head stares out from this <em>steel shield</em> (Hardness 15, HP 60, BT 30). The shield comes with a thick leather cover to conceal the head.</p>\n<p><strong>Activate</strong> <span class=\"pf2-icon\">2</span> Interact (visual)</p>\n<p><strong>Frequency</strong> once per hour</p>\n<p><strong>Effect</strong> You reveal the medusa's face, focusing its gaze on one creature within 30 feet. The shield casts<em> flesh to stone</em> with a range of 30 feet and a DC of 35.</p>\n<p><strong>Craft Requirements</strong> The initial raw materials must include the head of a medusa.</p>\n<table class=\"pf2-table\">\n<thead>\n<tr>\n<th>Hardness</th>\n<th>HP</th>\n<th>BT</th>\n</tr>\n</thead>\n<tbody>\n<tr>\n<td>15</td>\n<td>60</td>\n<td>30</td>\n</tr>\n</tbody>\n</table>"
        },
        "dex": {
            "value": 0
        },
        "equippedBulk": {
            "value": ""
        },
        "group": null,
        "hardness": 15,
        "hp": {
            "brokenThreshold": 30,
            "max": 60,
            "value": 60
        },
        "level": {
            "value": 16
        },
        "negateBulk": {
            "value": "0"
        },
        "potency": {},
        "potencyRune": {
            "value": 0
        },
        "preciousMaterial": {
            "value": null
        },
        "preciousMaterialGrade": {
            "value": null
        },
        "price": {
            "value": {
                "gp": 9000
            }
        },
        "propertyRune1": {
            "value": ""
        },
        "propertyRune2": {
            "value": ""
        },
        "propertyRune3": {
            "value": ""
        },
        "propertyRune4": {
            "value": ""
        },
        "quantity": 1,
        "resiliencyRune": {
            "value": ""
        },
        "rules": [],
        "size": "med",
        "source": {
            "value": "Pathfinder Advanced Player's Guide"
        },
        "speed": {
            "value": 0
        },
        "stackGroup": null,
        "strength": {
            "value": 0
        },
        "traits": {
            "custom": "",
            "rarity": "common",
            "value": [
                "magical",
                "transmutation"
            ]
        },
        "usage": {
            "value": "held-in-one-hand"
        },
        "weight": {
            "value": "1"
        }
    },
    "flags": {},
    "img": "systems/pf2e/icons/equipment/shields/specific-shields/medusas-scream.webp",
    "name": "Medusa's Scream (Greater)",
    "type": "armor"
}
