{
    "_id": "8x8zqH4pJKJRlyAj",
    "data": {
        "baseItem": null,
        "containerId": null,
        "description": {
            "value": "<p>This delicate and elegant diadem is woven of intricate silver wires set with three tear-shaped pearlescent moonstones. You gain a +1 item bonus to Religion checks.</p>\n<p><strong>Activate</strong> <span class=\"pf2-icon\">T</span> focus</p>\n<p><strong>Frequency</strong> once per hour</p>\n<p><strong>Requirements</strong> You are within 10 feet of a <em>moonstone pool</em></p>\n<p><strong>Effect</strong> You peer into the <em>moonstone pool</em> and gain access to all the visual history recorded within the receptacle by concentrating on the specific subject you wish to see. Conversely, you can choose to deposit your own memories into the pool by concentrating for 1 hour on the information you wish to impart.</p>"
        },
        "equippedBulk": {
            "value": ""
        },
        "hardness": 0,
        "hp": {
            "brokenThreshold": 0,
            "max": 0,
            "value": 0
        },
        "level": {
            "value": 8
        },
        "negateBulk": {
            "value": ""
        },
        "preciousMaterial": {
            "value": ""
        },
        "preciousMaterialGrade": {
            "value": ""
        },
        "price": {
            "value": {
                "gp": 500
            }
        },
        "quantity": 1,
        "rules": [
            {
                "key": "FlatModifier",
                "selector": "religion",
                "type": "item",
                "value": 1
            }
        ],
        "size": "med",
        "source": {
            "value": "Pathfinder #152: Legacy of the Lost God"
        },
        "stackGroup": null,
        "traits": {
            "custom": "",
            "rarity": "rare",
            "value": [
                "divination",
                "invested",
                "magical"
            ]
        },
        "usage": {
            "value": "worncirclet"
        },
        "weight": {
            "value": "L"
        }
    },
    "flags": {},
    "img": "systems/pf2e/icons/equipment/worn-items/other-worn-items/moonstone-diadem.webp",
    "name": "Moonstone Diadem",
    "type": "equipment"
}
