{
    "_id": "IHybXd0JGwhMrOlr",
    "data": {
        "baseItem": null,
        "containerId": null,
        "description": {
            "value": "<p>Granted by Katapesh's Pactmasters to influential merchants, exceptional Zephyr Guards, and favorite retainers, these blue crystal-studded platinum rings sharpen their wearers' urban instincts.</p>\n<p>You gain a +3 item bonus to Mercantile Lore checks while wearing the ring, and you can attempt checks that require a proficiency rank of master in Society.</p>\n<p>While invested, the ring grants a +2 item bonus to saving throws while you are in an urban setting, and this increases to a +3 item bonus if you have legendary proficiency in Guild Lore, Katapesh Lore, Mercantile Lore, or Society.</p>"
        },
        "equippedBulk": {
            "value": ""
        },
        "hardness": 0,
        "hp": {
            "brokenThreshold": 0,
            "max": 0,
            "value": 0
        },
        "level": {
            "value": 14
        },
        "negateBulk": {
            "value": ""
        },
        "preciousMaterial": {
            "value": ""
        },
        "preciousMaterialGrade": {
            "value": ""
        },
        "price": {
            "value": {
                "gp": 4000
            }
        },
        "quantity": 1,
        "rules": [
            {
                "key": "FlatModifier",
                "label": "Pactmaster's Grace (urban environments)",
                "predicate": {
                    "all": [
                        "urban"
                    ]
                },
                "selector": "saving-throw",
                "type": "item",
                "value": 2
            },
            {
                "key": "FlatModifier",
                "label": "Pactmaster's Grace (urban environments with Legendary skill)",
                "predicate": {
                    "all": [
                        "urban",
                        "legendary"
                    ]
                },
                "selector": "saving-throw",
                "type": "item",
                "value": 3
            },
            {
                "domain": "saving-throw",
                "key": "RollOption",
                "label": "You are in an urban environment",
                "option": "urban",
                "toggleable": true
            }
        ],
        "size": "med",
        "source": {
            "value": "Pathfinder #149: Against the Scarlet Triad"
        },
        "stackGroup": null,
        "traits": {
            "custom": "",
            "rarity": "uncommon",
            "value": [
                "divination",
                "invested",
                "magical"
            ]
        },
        "usage": {
            "value": "worn"
        },
        "weight": {
            "value": "-"
        }
    },
    "flags": {},
    "img": "systems/pf2e/icons/equipment/worn-items/other-worn-items/pactmasters-grace.webp",
    "name": "Pactmaster's Grace",
    "type": "equipment"
}
