{
    "_id": "ZZnh7BkwApPyNyqc",
    "data": {
        "baseItem": null,
        "containerId": null,
        "description": {
            "value": "<p>This is a 2-foot-long tube with two angled mirrors, one at each end. When the mirrors are aligned correctly, you can look around obstacles while remaining behind cover. This doesn't provide a sufficient line of effect to target creatures around corners.</p>"
        },
        "equippedBulk": {
            "value": ""
        },
        "hardness": 0,
        "hp": {
            "brokenThreshold": 0,
            "max": 0,
            "value": 0
        },
        "level": {
            "value": 2
        },
        "negateBulk": {
            "value": "0"
        },
        "preciousMaterial": {
            "value": ""
        },
        "preciousMaterialGrade": {
            "value": ""
        },
        "price": {
            "value": {
                "gp": 25
            }
        },
        "quantity": 1,
        "rules": [],
        "size": "med",
        "source": {
            "value": "Pathfinder Advanced Player's Guide"
        },
        "stackGroup": null,
        "traits": {
            "custom": "",
            "rarity": "common",
            "value": []
        },
        "usage": {
            "value": "held-in-two-hands"
        },
        "weight": {
            "value": "L"
        }
    },
    "flags": {},
    "img": "systems/pf2e/icons/equipment/adventuring-gear/periscope.webp",
    "name": "Periscope",
    "type": "equipment"
}
