{
    "_id": "0PPQl3TEr1yNhhN6",
    "data": {
        "baseItem": null,
        "containerId": null,
        "description": {
            "value": "<p>Despite covering the entire face, this alabaster mask does not hinder vision or other senses. Wearing the mask grants a +2 item bonus to Performance checks while acting, orating, performing comedy, or singing.</p>\n<p>The mask can be activated.</p>\n<p><strong>Activate</strong> <span class=\"pf2-icon\">R</span> envision (fortune)</p>\n<p><strong>Frequency</strong> once per day</p>\n<p><strong>Trigger</strong> You fail a Performance check that benefits from the mask's bonus</p>\n<p><strong>Effect</strong> You change the mask's character and reroll the Performance check, using the second result.</p>"
        },
        "equippedBulk": {
            "value": ""
        },
        "hardness": 0,
        "hp": {
            "brokenThreshold": 0,
            "max": 0,
            "value": 0
        },
        "level": {
            "value": 9
        },
        "negateBulk": {
            "value": "0"
        },
        "preciousMaterial": {
            "value": ""
        },
        "preciousMaterialGrade": {
            "value": ""
        },
        "price": {
            "value": {
                "gp": 650
            }
        },
        "quantity": 1,
        "rules": [
            {
                "key": "FlatModifier",
                "label": "Persona Mask (acting, orating, comedy, singing)",
                "predicate": {
                    "any": [
                        "acting",
                        "orating",
                        "performing-comedy",
                        "singing"
                    ]
                },
                "selector": "performance",
                "type": "item",
                "value": 2
            }
        ],
        "size": "med",
        "source": {
            "value": "Pathfinder Core Rulebook"
        },
        "stackGroup": null,
        "traits": {
            "custom": "",
            "rarity": "common",
            "value": [
                "fortune",
                "illusion",
                "invested",
                "magical"
            ]
        },
        "usage": {
            "value": "wornmask"
        },
        "weight": {
            "value": "-"
        }
    },
    "flags": {},
    "img": "systems/pf2e/icons/equipment/worn-items/other-worn-items/persona-mask.webp",
    "name": "Persona Mask (Greater)",
    "type": "equipment"
}
