{
    "_id": "rJcynWlGp05cLsrG",
    "data": {
        "baseItem": null,
        "containerId": "null",
        "description": {
            "value": "<p>A <em>portable gaming hall</em> resembles a miniature roulette wheel, except it's marked with indecipherable runes, not numbers.</p>\n<hr />\n<p><strong>Activate</strong> (1 minute) command, envision, Interact</p>\n<p><strong>Effect</strong> The wheel grows into a circular room 30 feet in diameter, with a door on one side. Six chairs surround a circular table, 10 feet in diameter. The underside of the table contains retractable drawers full of dice, harrow cards, game pieces, and other gambling accouterments. A gallon of ale or a similar drink with a spigot near the bottom hangs on the door, replenishing to a full gallon each day; you can also bring in your own drinks if you require more than the gaming hall provides.</p>\n<p>You can flip the central table over as a 3-action activity, which has the manipulate trait, to revert the gaming hall to its original form.</p>"
        },
        "equippedBulk": {
            "value": ""
        },
        "hardness": 0,
        "hp": {
            "brokenThreshold": 0,
            "max": 0,
            "value": 0
        },
        "level": {
            "value": 8
        },
        "negateBulk": {
            "value": "0"
        },
        "preciousMaterial": {
            "value": null
        },
        "preciousMaterialGrade": {
            "value": null
        },
        "price": {
            "value": {
                "gp": 500
            }
        },
        "quantity": 1,
        "rules": [],
        "size": "med",
        "source": {
            "value": "Pathfinder Lost Omens: The Grand Bazaar"
        },
        "stackGroup": null,
        "traits": {
            "custom": "",
            "rarity": "uncommon",
            "value": []
        },
        "usage": {
            "value": "held-in-one-hand"
        },
        "weight": {
            "value": "L"
        }
    },
    "flags": {},
    "img": "systems/pf2e/icons/default-icons/equipment.svg",
    "name": "Portable Gaming Hall",
    "type": "equipment"
}
