{
    "_id": "Mwwgn9WVH9WbrAT0",
    "data": {
        "baseItem": null,
        "containerId": "null",
        "description": {
            "value": "<p>A garment with this rune is always clean, as though it had just been affected by <em>@Compendium[pf2e.spells-srd.Prestidigitation]{Prestidigitation}</em>. You gain a +2 item bonus to @Compendium[pf2e.actionspf2e.Make an Impression]{Make an Impression} on those who would be impressed by a particular <em>presentable</em> outfit while wearing this garment.</p>\n<hr />\n<p><strong>Activate</strong> <span class=\"pf2-icon\">2</span> envision, Interact</p>\n<p><strong>Frequency</strong> once per day</p>\n<p><strong>Effect</strong> You cast <em>@Compendium[pf2e.spells-srd.Suggestion]{Suggestion}</em>.</p>"
        },
        "equippedBulk": {
            "value": ""
        },
        "hardness": 0,
        "hp": {
            "brokenThreshold": 0,
            "max": 0,
            "value": 0
        },
        "level": {
            "value": 10
        },
        "negateBulk": {
            "value": "0"
        },
        "preciousMaterial": {
            "value": null
        },
        "preciousMaterialGrade": {
            "value": null
        },
        "price": {
            "value": {
                "gp": 900
            }
        },
        "quantity": 1,
        "rules": [
            {
                "key": "FlatModifier",
                "predicate": {
                    "any": [
                        "action:make-an-impression"
                    ]
                },
                "selector": "diplomacy",
                "type": "item",
                "value": 2
            }
        ],
        "size": "med",
        "source": {
            "value": "Pathfinder Lost Omens: The Grand Bazaar"
        },
        "stackGroup": null,
        "traits": {
            "custom": "",
            "rarity": "uncommon",
            "value": [
                "enchantment",
                "magical"
            ]
        },
        "usage": {
            "value": "applied-to-any-visible-article-of-clothing"
        },
        "weight": {
            "value": "-"
        }
    },
    "flags": {},
    "img": "systems/pf2e/icons/equipment/consumables/other-consumables/runestone.webp",
    "name": "Presentable (Greater)",
    "type": "equipment"
}
