{
    "_id": "8D71bv2HsX29ZtwC",
    "data": {
        "activation": {
            "condition": "",
            "cost": 0,
            "type": ""
        },
        "autoDestroy": {
            "_deprecated": true,
            "value": true
        },
        "autoUse": {
            "_deprecated": true,
            "value": true
        },
        "baseItem": null,
        "charges": {
            "_deprecated": true,
            "max": 0,
            "value": 0
        },
        "consumableType": {
            "value": "other"
        },
        "consume": {
            "_deprecated": true,
            "value": ""
        },
        "containerId": "null",
        "description": {
            "value": "<p>This clay jar is filled with a warm fluid composed primarily of lagofir oil and natural fire retardants. You can pour the fluid in an empty area adjacent to you, or over an adjacent frozen object, with an Interact action. The fluid instantly melts non-magical ice and snow in the area and harmlessly vaporizes the resulting meltwater. When used to melt magical ice and snow, quickmelt slick attempts a counteract check with the listed counteract modifier to melt the ice and snow, using the source of that ice and snow to determine the counteract level and DC.</p>\n<p>Moderate quickmelt slick melts ice and snow up to 2 feet in depth in two adjacent 5-foot squares, or melts the ice covering a Medium or smaller object. The slick has a [[/r 1d20+8 #Counteract]]{+8} modifier for the counteract check and a counteract level of 2.</p>"
        },
        "duration": {
            "units": "",
            "value": null
        },
        "equippedBulk": {
            "value": ""
        },
        "hardness": 0,
        "hp": {
            "brokenThreshold": 0,
            "max": 0,
            "value": 0
        },
        "level": {
            "value": 4
        },
        "negateBulk": {
            "value": "0"
        },
        "preciousMaterial": {
            "value": null
        },
        "preciousMaterialGrade": {
            "value": null
        },
        "price": {
            "value": {
                "gp": 13
            }
        },
        "quantity": 1,
        "range": {
            "long": null,
            "units": "",
            "value": null
        },
        "rules": [],
        "size": "med",
        "source": {
            "value": "Pathfinder #176: Lost Mammoth Valley"
        },
        "spell": {
            "data": null,
            "heightenedLevel": null
        },
        "stackGroup": null,
        "target": {
            "type": "",
            "units": "",
            "value": null
        },
        "traits": {
            "custom": "",
            "rarity": "uncommon",
            "value": [
                "alchemical",
                "consumable"
            ]
        },
        "usage": {
            "value": "held-in-two-hands"
        },
        "uses": {
            "autoDestroy": true,
            "autoUse": true,
            "max": 0,
            "per": null,
            "value": 0
        },
        "weight": {
            "value": "L"
        }
    },
    "flags": {},
    "img": "systems/pf2e/icons/default-icons/consumable.svg",
    "name": "Quickmelt Slick (Moderate)",
    "type": "consumable"
}
