{
    "_id": "D836jcTlNR4PHgXS",
    "data": {
        "baseItem": null,
        "containerId": null,
        "description": {
            "value": "<p>This shining prism is bound within a golden frame. The bright glow within the artifact is the gleaming essence of celestials bound within it in ancient times. Each activation consumes a bit of this celestial energy, projecting the screams of the celestials into your mind.</p>\n<p>While holding the Radiant Spark, you gain a +2 item bonus to saving throws against divine spells and effects and you are aware of its powers.</p>\n<p>If you are good, while holding the Radiant Spark, you are @Compendium[pf2e.conditionitems.Sickened]{Sickened 3} and can't recover from this condition.</p>\n<hr />\n<p><strong>Activate</strong><span class=\"pf2-icon\">2</span> envision, Interact</p>\n<p><strong>Effect</strong> The Radiant Spark casts a 10th-level <em>@Compendium[pf2e.spells-srd.Dominate]{Dominate}</em> spell (@Check[type:will|dc:49|name:Dominate|traits:enchantment,incapacitation,mental]) on a creature that isn't from the Material Plane. Celestials get an outcome one degree of success worse than the result of their save.</p>\n<hr />\n<p><strong>Activate</strong><span class=\"pf2-icon\">f</span> envision</p>\n<p><strong>Trigger</strong> You begin casting a <em>@Compendium[pf2e.spells-srd.Planar Binding]{Planar Binding}</em> ritual</p>\n<p><strong>Effect</strong> The Radiant Spark reduces the casting time of the ritual to 1 hour, and you don't need secondary casters for this ritual.</p>\n<hr />\n<p><strong>Activate</strong><span class=\"pf2-icon\">r</span> envision, Interact</p>\n<p><strong>Trigger</strong> The target critically fails their save against the Radiant Spark's dominate spell or you critically succeed at binding the target with the planar binding ritual using the artifact</p>\n<p><strong>Effect</strong> The target must attempt a @Check[type:will|dc:49] save and is immune to further attempts for 24 hours.</p>\n<hr />\n<p><strong>Critical Success</strong> The target is unaffected.</p>\n<p><strong>Success</strong> The target is @Compendium[pf2e.conditionitems.Drained]{Drained 2}.</p>\n<p><strong>Failure</strong> The target dies and its essence is trapped within the Radiant Spark. It can be brought back to life only with powerful magic such as <em>@Compendium[pf2e.spells-srd.Wish]{Wish}</em> or <em>@Compendium[pf2e.spells-srd.Miracle]{Miracle}</em>.</p>\n<p><strong>Critical Failure</strong> As failure, and the target can't be brought back to life until the Radiant Spark is destroyed.</p>\n<hr />\n<p><strong>Destruction</strong> An archfiend or evil demigod must willingly swap their essence with that of a celestial dominated or bound by the artifact, then critically fail the saving throw against having their essence consumed. This permanently destroys both the artifact and the fiend or demigod.</p>"
        },
        "equippedBulk": {
            "value": ""
        },
        "hardness": 0,
        "hp": {
            "brokenThreshold": 0,
            "max": 0,
            "value": 0
        },
        "level": {
            "value": 25
        },
        "negateBulk": {
            "value": "0"
        },
        "preciousMaterial": {
            "value": ""
        },
        "preciousMaterialGrade": {
            "value": ""
        },
        "price": {
            "value": {}
        },
        "quantity": 1,
        "rules": [
            {
                "key": "FlatModifier",
                "predicate": {
                    "all": [
                        "divine"
                    ]
                },
                "selector": "saving-throw",
                "type": "item",
                "value": 2
            }
        ],
        "size": "med",
        "source": {
            "value": "Pathfinder #162: Ruins of the Radiant Siege"
        },
        "stackGroup": null,
        "traits": {
            "custom": "",
            "rarity": "unique",
            "value": [
                "artifact",
                "conjuration",
                "occult"
            ]
        },
        "usage": {
            "value": "held-in-one-hand"
        },
        "weight": {
            "value": "L"
        }
    },
    "flags": {},
    "img": "systems/pf2e/icons/equipment/held-items/radiant-spark.webp",
    "name": "Radiant Spark",
    "type": "equipment"
}
