{
    "_id": "maHPPEwKK2NxbMoV",
    "data": {
        "baseItem": null,
        "containerId": "null",
        "description": {
            "value": "<p>This armband is woven from overlapping raven feathers, including one large feather from a kadlaka. As long as you wear it, you understand what ravens are saying, but you can't speak to ravens unless you activate the <em>raven band</em>.</p>\n<hr />\n<p><strong>Activate</strong> <span class=\"pf2-icon\">1</span> Interact;</p>\n<p><strong>Frequency</strong> once per day;</p>\n<p><strong>Effect</strong> When you stroke the kadlaka feather, the raven band gives you the effects of <em>@Compendium[pf2e.spells-srd.Speak with Animals]{Speak with Animals}</em>, except that you can speak with and understand only birds, not other animals.</p>"
        },
        "equippedBulk": {
            "value": ""
        },
        "hardness": 0,
        "hp": {
            "brokenThreshold": 0,
            "max": 0,
            "value": 0
        },
        "level": {
            "value": 3
        },
        "negateBulk": {
            "value": "0"
        },
        "preciousMaterial": {
            "value": null
        },
        "preciousMaterialGrade": {
            "value": null
        },
        "price": {
            "value": {
                "gp": 60
            }
        },
        "quantity": 1,
        "rules": [],
        "size": "med",
        "source": {
            "value": "Pathfinder #175: Broken Tusk Moon"
        },
        "stackGroup": null,
        "traits": {
            "custom": "",
            "rarity": "uncommon",
            "value": [
                "divination",
                "invested",
                "primal"
            ]
        },
        "usage": {
            "value": "wornarmbands"
        },
        "weight": {
            "value": "-"
        }
    },
    "flags": {},
    "img": "systems/pf2e/icons/default-icons/equipment.svg",
    "name": "Raven Band",
    "type": "equipment"
}
