{
    "_id": "fuDYKpDN9RmCX7do",
    "data": {
        "baseItem": null,
        "containerId": null,
        "description": {
            "value": "<p>Worn on a chain around the neck, a Razmiri wayfinder functions as a compass and provides its wearer a +1 item bonus to Deception checks to Lie or Impersonate. Razmiri wayfinders can also be used to grant temporary healing, making it easier for the wearer to impersonate a divine spellcaster.</p>\n<hr />\n<p><strong>Activate</strong> <span class=\"pf2-icon\">1</span> envision</p>\n<p><strong>Frequency</strong> three times per day</p>\n<p><strong>Effect</strong> You touch an adjacent creature, granting them [[/r 3d8 #Temporary Hit Points]]{3d8 temporary Hit Points} for 1 hour.</p>\n<hr />\n<p><strong>Activate</strong> <span class=\"pf2-icon\">1</span> manipulate</p>\n<p><strong>Frequency</strong> once per day</p>\n<p><strong>Effect</strong> You touch an adjacent creature and attempt a counteract check against one poison or disease afflicting the creature. On a success, you halt the effects of the poison or disease for 1 day, rather than removing it. This temporarily relieves any penalties imposed by the affliction but doesn't cure the effect or count against its duration; the poison or disease is merely halted for a time, and it resumes where it left off once this effect ends.</p>"
        },
        "equippedBulk": {
            "value": ""
        },
        "hardness": 0,
        "hp": {
            "brokenThreshold": 0,
            "max": 0,
            "value": 0
        },
        "level": {
            "value": 10
        },
        "negateBulk": {
            "value": "0"
        },
        "preciousMaterial": {
            "value": ""
        },
        "preciousMaterialGrade": {
            "value": ""
        },
        "price": {
            "value": {
                "gp": 900
            }
        },
        "quantity": 1,
        "rules": [
            {
                "domain": "skill-check",
                "key": "RollOption",
                "option": "compass-in-possession",
                "requiresEquipped": false
            },
            {
                "key": "FlatModifier",
                "label": "Razmiri Wayfinder (Lie or Impersonate)",
                "predicate": {
                    "any": [
                        "action:lie",
                        "action:impersonate"
                    ]
                },
                "selector": "deception",
                "type": "item",
                "value": 1
            }
        ],
        "size": "med",
        "source": {
            "value": "Pathfinder Lost Omens: Pathfinder Society Guide"
        },
        "stackGroup": null,
        "traits": {
            "custom": "",
            "rarity": "uncommon",
            "value": [
                "illusion",
                "magical",
                "necromancy"
            ]
        },
        "usage": {
            "value": "worn"
        },
        "weight": {
            "value": "-"
        }
    },
    "flags": {},
    "img": "systems/pf2e/icons/equipment/worn-items/other-worn-items/wayfinder.webp",
    "name": "Razmiri Wayfinder",
    "type": "equipment"
}
