{
    "_id": "FKNgrFDIRBumr6P5",
    "data": {
        "armor": {
            "value": 4
        },
        "baseItem": "breastplate",
        "category": "medium",
        "check": {
            "value": -2
        },
        "containerId": "null",
        "description": {
            "value": "<p>This <em>+3 greater resilient greater fortification breastplate</em> absorbs impacts for later release. While wearing the armor, you gain resistance 5 to bludgeoning, piercing, and slashing damage and resistance 10 to force damage. Keep track of how much damage the armor prevents from enemy attacks, as the armor absorbs that damage.</p>\n<p>After 1 minute, the absorbed damage disperses harmlessly and resets to 0. Only damage caused by foes or hazards powers the armor, not damage you take from yourself, allies, or the environment.</p>\n<hr />\n<p><strong>Activate</strong> <span class=\"pf2-icon\">1</span> Interact</p>\n<p><strong>Requirements</strong> Your armor has absorbed at least 30 damage</p>\n<p><strong>Effect</strong> The absorbed energy explodes from your armor in a pulse of force. Creatures in a @Template[type:emanation|distance:30] take [[/r {10d6}[force]]]{10d6 force damage} with a @Check[type:fortitude|dc:43|basic:true|name:Rebounding Breastplaye Force Damage|showDC:all] save. On a failure, they're pushed 10 feet away from you, and on a critical failure, they're pushed 20 feet away from you and fall @Compendium[pf2e.conditionitems.Prone]{Prone}. The armor's absorbed damage resets to 0.</p>"
        },
        "dex": {
            "value": 1
        },
        "equippedBulk": {
            "value": "2"
        },
        "group": "plate",
        "hardness": 0,
        "hp": {
            "brokenThreshold": 0,
            "max": 0,
            "value": 0
        },
        "level": {
            "value": 20
        },
        "negateBulk": {
            "value": "0"
        },
        "potencyRune": {
            "value": 3
        },
        "preciousMaterial": {
            "value": null
        },
        "preciousMaterialGrade": {
            "value": null
        },
        "price": {
            "value": {
                "gp": 70000
            }
        },
        "propertyRune1": {
            "value": "greaterFortification"
        },
        "propertyRune2": {
            "value": ""
        },
        "propertyRune3": {
            "value": ""
        },
        "propertyRune4": {
            "value": ""
        },
        "quantity": 1,
        "resiliencyRune": {
            "value": "greaterResilient"
        },
        "rules": [],
        "size": "med",
        "source": {
            "value": "Pathfinder Secrets of Magic"
        },
        "speed": {
            "value": -5
        },
        "stackGroup": null,
        "strength": {
            "value": 16
        },
        "traits": {
            "custom": "",
            "rarity": "common",
            "value": [
                "evocation",
                "force",
                "magical"
            ]
        },
        "usage": {
            "value": "wornarmor"
        },
        "weight": {
            "value": "3"
        }
    },
    "flags": {},
    "img": "systems/pf2e/icons/default-icons/armor.svg",
    "name": "Rebounding Breastplate",
    "type": "armor"
}
