{
    "_id": "k8V3wTG1gMU5ksUr",
    "data": {
        "MAP": {
            "value": ""
        },
        "baseItem": "rhoka-sword",
        "bonus": {
            "value": 0
        },
        "bonusDamage": {
            "value": 0
        },
        "category": "advanced",
        "containerId": null,
        "damage": {
            "damageType": "slashing",
            "dice": 0,
            "die": "d8",
            "value": ""
        },
        "description": {
            "value": "<p>The rhoka sword is the preferred weapon of urdefhan soldiers, though all urdefhans know how to wield these instruments of war.</p>"
        },
        "equippedBulk": {
            "value": ""
        },
        "group": "sword",
        "hardness": 0,
        "hp": {
            "brokenThreshold": 0,
            "max": 0,
            "value": 0
        },
        "level": {
            "value": 0
        },
        "negateBulk": {
            "value": "0"
        },
        "potencyRune": {
            "value": null
        },
        "preciousMaterial": {
            "value": ""
        },
        "preciousMaterialGrade": {
            "value": ""
        },
        "price": {
            "value": {
                "gp": 4
            }
        },
        "property1": {
            "critDamage": "",
            "critDamageType": "",
            "critDice": null,
            "critDie": "",
            "criticalConditionType": "",
            "criticalConditionValue": null,
            "damageType": "",
            "dice": null,
            "die": "",
            "strikeConditionType": "",
            "strikeConditionValue": null,
            "value": ""
        },
        "propertyRune1": {
            "value": ""
        },
        "propertyRune2": {
            "value": ""
        },
        "propertyRune3": {
            "value": ""
        },
        "propertyRune4": {
            "value": ""
        },
        "quantity": 1,
        "range": null,
        "reload": {
            "value": ""
        },
        "rules": [],
        "size": "med",
        "source": {
            "value": "Pathfinder #165: Eyes of Empty Death"
        },
        "splashDamage": {
            "value": null
        },
        "stackGroup": null,
        "strikingRune": {
            "value": ""
        },
        "traits": {
            "custom": "",
            "rarity": "uncommon",
            "value": [
                "deadly-d8",
                "two-hand-d10"
            ]
        },
        "usage": {
            "value": "held-in-one-hand"
        },
        "weight": {
            "value": "2"
        }
    },
    "flags": {},
    "img": "systems/pf2e/icons/equipment/weapons/rhoka-sword.webp",
    "name": "Rhoka Sword",
    "type": "weapon"
}
