{
    "_id": "geAAUwfmOc5U0qOE",
    "data": {
        "baseItem": null,
        "containerId": "null",
        "description": {
            "value": "<p>This small, enchanted bone (most often a jaw) is usually capped with metal at its ends. It's activated by striking it against a hard surface.</p>\n<hr />\n<p><strong>Activate</strong> <span class=\"pf2-icon\">1</span> Interact</p>\n<p><strong>Effect</strong> The bone begins recording the next 1 minute of ambient sounds (including speech) that require a DC 15 or lower Perception check to hear. The bone's recording doesn't copy magical auditory effects, such as those of spellcasting, a harpy's song, or a banshee's wail. Once the rhythm bone has been activated in this way, it retains the recorded sound for the rest of its existence and can't be activated this way again.</p>\n<hr />\n<p><strong>Activate</strong> <span class=\"pf2-icon\">1</span> Interact</p>\n<p><strong>Effect</strong> The bone replays its recorded sounds.</p>\n<hr />\n<p><strong>Craft Requirements</strong> Supply a casting of <em>@Compendium[pf2e.spells-srd.Ghost Sound]{Ghost Sound}</em>.</p>"
        },
        "equippedBulk": {
            "value": ""
        },
        "hardness": 0,
        "hp": {
            "brokenThreshold": 0,
            "max": 0,
            "value": 0
        },
        "level": {
            "value": 1
        },
        "negateBulk": {
            "value": "0"
        },
        "preciousMaterial": {
            "value": null
        },
        "preciousMaterialGrade": {
            "value": null
        },
        "price": {
            "value": {
                "gp": 8
            }
        },
        "quantity": 1,
        "rules": [],
        "size": "med",
        "source": {
            "value": "Pathfinder #169: Kindled Magic"
        },
        "stackGroup": null,
        "traits": {
            "custom": "",
            "rarity": "uncommon",
            "value": [
                "auditory",
                "magical"
            ]
        },
        "usage": {
            "value": "held-in-one-hand"
        },
        "weight": {
            "value": "L"
        }
    },
    "flags": {},
    "img": "systems/pf2e/icons/default-icons/equipment.svg",
    "name": "Rhythm Bone",
    "type": "equipment"
}
