{
    "_id": "VJbZuJFTooFckp26",
    "data": {
        "MAP": {
            "value": ""
        },
        "baseItem": "greatsword",
        "bonus": {
            "value": 0
        },
        "bonusDamage": {
            "value": 0
        },
        "category": "martial",
        "containerId": null,
        "damage": {
            "damageType": "slashing",
            "dice": 1,
            "die": "d12",
            "value": ""
        },
        "description": {
            "value": "<p>This 12-foot sword was made by a cyclops in the ancient past. It might be the greatest dragon-killing weapon ever made, and Fafnheir justly fears it, which is why he keeps it hidden in his hoard. Runes of dragon slaying are written down its blade. <em>Ridill</em> is a <em>+3 major striking dragon bane speed adamantine greatsword</em>. While wielding <em>Ridill</em>, you gain a +2 circumstance bonus to saves against fear. This increases to +4 if the effect is from a dragon. If you have an ability that depends on Large weapons (such as barbarian giant instinct), it works with <em>Ridill</em>.</p>\n<p><em>Ridill</em> is always considered to have the appropriate material or damage type necessary to deactivate a dragon's regeneration or cause the dragon's weakness to apply. For example, <em>Ridill</em> is considered to be cold iron when attacking a linnorm, while it would be treated as having dealt cold damage when attacking a red dragon. If the dragon has more than one weakness, only the highest value applies.</p>\n<p><strong>Destruction</strong> If you boil <em>Ridill</em> in the blood of 10 different types of dragon (blue dragon, red dragon, etc.) and drop the eye of a cyclops seer into the brew, <em>Ridill</em> melts away into nothingness.</p>"
        },
        "equippedBulk": {
            "value": ""
        },
        "group": "sword",
        "hardness": 0,
        "hp": {
            "brokenThreshold": 0,
            "max": 0,
            "value": 0
        },
        "level": {
            "value": 20
        },
        "negateBulk": {
            "value": "0"
        },
        "potencyRune": {
            "value": 3
        },
        "preciousMaterial": {
            "value": "adamantine"
        },
        "preciousMaterialGrade": {
            "value": "high"
        },
        "price": {
            "value": {}
        },
        "property1": {
            "critDamage": "",
            "critDamageType": "",
            "critDice": null,
            "critDie": "",
            "criticalConditionType": "",
            "criticalConditionValue": null,
            "damageType": "",
            "dice": null,
            "die": "",
            "strikeConditionType": "",
            "strikeConditionValue": null,
            "value": ""
        },
        "propertyRune1": {
            "value": "bane"
        },
        "propertyRune2": {
            "value": "speed"
        },
        "propertyRune3": {
            "value": null
        },
        "propertyRune4": {
            "value": null
        },
        "quantity": 1,
        "range": null,
        "reload": {
            "value": ""
        },
        "rules": [
            {
                "key": "FlatModifier",
                "predicate": {
                    "all": [
                        "fear"
                    ]
                },
                "selector": "saving-throw",
                "slug": "ridill-non-dragon",
                "type": "status",
                "value": 2
            },
            {
                "key": "FlatModifier",
                "predicate": {
                    "all": [
                        "fear",
                        "origin:dragon"
                    ]
                },
                "selector": "saving-throw",
                "slug": "ridill-dragon",
                "type": "status",
                "value": 4
            }
        ],
        "size": "lg",
        "source": {
            "value": "Pathfinder Lost Omens: Monsters of Myth"
        },
        "specific": {
            "material": {
                "grade": "high",
                "type": "adamantine"
            },
            "runes": {
                "potency": 3,
                "striking": "majorStriking"
            },
            "value": true
        },
        "splashDamage": {
            "value": 0
        },
        "stackGroup": null,
        "strikingRune": {
            "value": "majorStriking"
        },
        "traits": {
            "custom": "",
            "rarity": "unique",
            "value": [
                "artifact",
                "versatile-p"
            ]
        },
        "usage": {
            "value": "held-in-two-hands"
        },
        "weight": {
            "value": "4"
        }
    },
    "flags": {},
    "img": "systems/pf2e/icons/equipment/weapons/greatsword.webp",
    "name": "Ridill",
    "type": "weapon"
}
