{
    "_id": "tpKD2TZEzAToow1O",
    "data": {
        "MAP": {
            "value": ""
        },
        "baseItem": "staff",
        "bonus": {
            "value": 0
        },
        "bonusDamage": {
            "value": 0
        },
        "category": "simple",
        "containerId": null,
        "damage": {
            "damageType": "bludgeoning",
            "dice": 1,
            "die": "d4",
            "value": ""
        },
        "description": {
            "value": "<p>This highly polished black wooden staff resembles an aristocrat's oversized walking cane, complete with a silver head shaped like a large circus animal such as a horse or elephant. Ringmasters or announcers use <em>ringmaster's staves</em> to draw attention from their audiences or to salvage acts that fall flat mid-performance.</p>\n<p>While wielding a <em>ringmaster's staff</em>, your normal voice can be clearly heard by all creatures within 300 feet regardless of intervening barriers or ambient noise, although your voice can't penetrate magical silence and you can't use this to extend an auditory or sonic effect through barriers that would otherwise block it.</p>\n<p><strong>Activate</strong> Cast a Spell</p>\n<p><strong>Effect</strong> You expend a number of charges from the staff to cast a spell from its list.</p>\n<p><strong>Craft Requirements</strong> Supply one casting of all listed levels of all listed spells.</p>\n<ul>\n<li><strong>Cantrip</strong> s <em>@Compendium[pf2e.spells-srd.Dancing Lights]{Dancing Lights}</em></li>\n<li><strong>1st</strong> <em>@Compendium[pf2e.spells-srd.Feather Fall]{Feather Fall}</em>, <em>@Compendium[pf2e.spells-srd.Floating Disk]{Floating Disk}</em></li>\n<li><strong>2nd</strong> <em>@Compendium[pf2e.spells-srd.Glitterdust]{Glitterdust}</em>, <em>@Compendium[pf2e.spells-srd.Illusory Creature]{Illusory Creature}</em>, <em>@Compendium[pf2e.spells-srd.Obscuring Mist]{Obscuring Mist}</em></li>\n</ul>"
        },
        "equippedBulk": {
            "value": ""
        },
        "group": "club",
        "hardness": 0,
        "hp": {
            "brokenThreshold": 0,
            "max": 0,
            "value": 0
        },
        "level": {
            "value": 6
        },
        "negateBulk": {
            "value": "0"
        },
        "potencyRune": {
            "value": null
        },
        "preciousMaterial": {
            "value": ""
        },
        "preciousMaterialGrade": {
            "value": ""
        },
        "price": {
            "value": {
                "gp": 230
            }
        },
        "property1": {
            "critDamage": "",
            "critDamageType": "",
            "critDice": null,
            "critDie": "",
            "criticalConditionType": "",
            "criticalConditionValue": null,
            "damageType": "",
            "dice": null,
            "die": "",
            "strikeConditionType": "",
            "strikeConditionValue": null,
            "value": ""
        },
        "propertyRune1": {
            "value": ""
        },
        "propertyRune2": {
            "value": ""
        },
        "propertyRune3": {
            "value": ""
        },
        "propertyRune4": {
            "value": ""
        },
        "quantity": 1,
        "range": null,
        "reload": {
            "value": ""
        },
        "rules": [],
        "size": "med",
        "source": {
            "value": "Pathfinder #152: Legacy of the Lost God"
        },
        "splashDamage": {
            "value": null
        },
        "stackGroup": null,
        "strikingRune": {
            "value": ""
        },
        "traits": {
            "custom": "",
            "rarity": "uncommon",
            "value": [
                "illusion",
                "magical",
                "staff",
                "two-hand-d8"
            ]
        },
        "usage": {
            "value": "held-in-one-hand"
        },
        "weight": {
            "value": "1"
        }
    },
    "flags": {},
    "img": "systems/pf2e/icons/equipment/staves/ringmasters-staff.webp",
    "name": "Ringmaster's Staff",
    "type": "weapon"
}
