{
    "_id": "EkZVXMdtqTTgahiJ",
    "data": {
        "baseItem": null,
        "containerId": null,
        "description": {
            "value": "<p>This ring grants you resistance 5 against one type of energy damage: acid, cold, electricity, fire, or sonic. Each ring is crafted to protect against a particular type of energy damage, and its design usually embodies the type of energy it protects the wearer from in some way. For instance, a <em>ring of fire resistance</em> might be capped with a ruby, whereas a <em>ring of cold resistance</em> features a sapphire instead.</p>"
        },
        "equippedBulk": {
            "value": ""
        },
        "hardness": 0,
        "hp": {
            "brokenThreshold": 0,
            "max": 0,
            "value": 0
        },
        "level": {
            "value": 6
        },
        "negateBulk": {
            "value": "0"
        },
        "preciousMaterial": {
            "value": ""
        },
        "preciousMaterialGrade": {
            "value": ""
        },
        "price": {
            "value": {
                "gp": 245
            }
        },
        "quantity": 1,
        "rules": [
            {
                "choices": [
                    {
                        "label": "PF2E.TraitAcid",
                        "value": "acid"
                    },
                    {
                        "label": "PF2E.TraitCold",
                        "value": "cold"
                    },
                    {
                        "label": "PF2E.TraitElectricity",
                        "value": "electricity"
                    },
                    {
                        "label": "PF2E.TraitFire",
                        "value": "fire"
                    },
                    {
                        "label": "PF2E.TraitSonic",
                        "value": "sonic"
                    }
                ],
                "flag": "ringOfEnergyResistance",
                "key": "ChoiceSet",
                "prompt": "Choose an energy type"
            },
            {
                "key": "Resistance",
                "type": "{item|flags.pf2e.rulesSelections.ringOfEnergyResistance}",
                "value": 5
            }
        ],
        "size": "med",
        "source": {
            "value": "Pathfinder Core Rulebook"
        },
        "stackGroup": null,
        "traits": {
            "custom": "",
            "rarity": "common",
            "value": [
                "abjuration",
                "invested",
                "magical"
            ]
        },
        "usage": {
            "value": "worn"
        },
        "weight": {
            "value": "-"
        }
    },
    "flags": {},
    "img": "systems/pf2e/icons/equipment/worn-items/other-worn-items/ring-of-energy-resistance.webp",
    "name": "Ring of Energy Resistance",
    "type": "equipment"
}
