{
    "_id": "FSo4D0bnDeRAURip",
    "data": {
        "baseItem": null,
        "containerId": null,
        "description": {
            "value": "<p>This simple iron ring is faceted with a bulbous geode lined with bright purple crystals. A <em>ring of stoneshifting</em> grants you the ability to ignore difficult terrain caused by rubble or uneven ground made of stone and earth.</p>\n<p><strong>Activate</strong> 1 minute</p>\n<p><strong>Frequency</strong> three times per day</p>\n<p><strong>Requirements</strong> You are standing on at least 5 feet of earthen material (such as stone, soil, clay, or sand)</p>\n<p><strong>Effect</strong> You sink into the ground and emerge at another location within 100 miles. This location must have an earthen surface at least 5 feet deep and you must be able to identify the location precisely by both its position relative to your starting position and its appearance or other identifying features. You can't carry extradimensional spaces with you to the destination, and if you attempt to do so, the activation fails.</p>"
        },
        "equippedBulk": {
            "value": ""
        },
        "hardness": 0,
        "hp": {
            "brokenThreshold": 0,
            "max": 0,
            "value": 0
        },
        "level": {
            "value": 12
        },
        "negateBulk": {
            "value": ""
        },
        "preciousMaterial": {
            "value": ""
        },
        "preciousMaterialGrade": {
            "value": ""
        },
        "price": {
            "value": {
                "gp": 1800
            }
        },
        "quantity": 1,
        "rules": [],
        "size": "med",
        "source": {
            "value": "Pathfinder #153: Life's Long Shadows"
        },
        "stackGroup": null,
        "traits": {
            "custom": "",
            "rarity": "uncommon",
            "value": [
                "conjuration",
                "earth",
                "invested",
                "magical",
                "teleportation"
            ]
        },
        "usage": {
            "value": "worn"
        },
        "weight": {
            "value": "L"
        }
    },
    "flags": {},
    "img": "systems/pf2e/icons/equipment/worn-items/other-worn-items/ring-of-stoneshifting.webp",
    "name": "Ring of Stoneshifting",
    "type": "equipment"
}
