{
    "_id": "tYBW8TBF8WOAp3x0",
    "data": {
        "baseItem": null,
        "bulkCapacity": {
            "value": "2"
        },
        "collapsed": false,
        "containerId": null,
        "description": {
            "value": ""
        },
        "equippedBulk": {
            "value": "0"
        },
        "hardness": 0,
        "hp": {
            "brokenThreshold": 0,
            "max": 0,
            "value": 0
        },
        "level": {
            "value": 0
        },
        "negateBulk": {
            "value": "0"
        },
        "preciousMaterial": {
            "value": ""
        },
        "preciousMaterialGrade": {
            "value": ""
        },
        "price": {
            "value": {}
        },
        "quantity": 1,
        "rules": [],
        "size": "med",
        "source": {
            "value": ""
        },
        "stackGroup": null,
        "stowing": false,
        "traits": {
            "custom": "",
            "rarity": "common",
            "value": []
        },
        "usage": {
            "value": "worn"
        },
        "weight": {
            "value": "L"
        }
    },
    "flags": {},
    "img": "systems/pf2e/icons/equipment/adventuring-gear/satchel.webp",
    "name": "Satchel",
    "type": "backpack"
}
