{
    "_id": "ye7cYmornhgnnOlu",
    "data": {
        "MAP": {
            "value": ""
        },
        "baseItem": "sickle-saber",
        "bonus": {
            "value": 0
        },
        "bonusDamage": {
            "value": 0
        },
        "category": "advanced",
        "containerId": "null",
        "damage": {
            "damageType": "slashing",
            "dice": 1,
            "die": "d6",
            "value": ""
        },
        "description": {
            "value": "<p>A classical weapon of Irrisenis who lacked magical talent, the sickle-saber has seen a resurgence since the coronation of Queen Anastasia. The queen was fascinated with the sickle-sabers in the palace treasury, and now the unusual blades are carried by her honor guard and Irriseni diplomats alike. The sickle‑saber's blade curves multiple times along its 4‑foot length, and its hilt is similarly curved. A small, secondary grip on the blade lets the wielder rapidly and unpredictably twist the cutting edges. Characters from Irrisen have access to the sickle-saber.</p>"
        },
        "equippedBulk": {
            "value": ""
        },
        "group": "sword",
        "hardness": 0,
        "hp": {
            "brokenThreshold": 0,
            "max": 0,
            "value": 0
        },
        "level": {
            "value": 0
        },
        "negateBulk": {
            "value": "0"
        },
        "potencyRune": {
            "value": 0
        },
        "preciousMaterial": {
            "value": null
        },
        "preciousMaterialGrade": {
            "value": null
        },
        "price": {
            "value": {
                "gp": 5
            }
        },
        "property1": {
            "critDamage": "",
            "critDamageType": "",
            "critDice": 0,
            "critDie": "",
            "criticalConditionType": "",
            "criticalConditionValue": null,
            "damageType": "",
            "dice": 0,
            "die": "",
            "strikeConditionType": "",
            "strikeConditionValue": null,
            "value": ""
        },
        "propertyRune1": {
            "value": null
        },
        "propertyRune2": {
            "value": null
        },
        "propertyRune3": {
            "value": null
        },
        "propertyRune4": {
            "value": null
        },
        "quantity": 1,
        "range": null,
        "reload": {
            "value": ""
        },
        "rules": [],
        "size": "med",
        "source": {
            "value": "Pathfinder Lost Omens: The Grand Bazaar"
        },
        "specific": {
            "value": false
        },
        "splashDamage": {
            "value": 0
        },
        "stackGroup": null,
        "strikingRune": {
            "value": ""
        },
        "traits": {
            "custom": "",
            "rarity": "uncommon",
            "value": [
                "backswing",
                "forceful"
            ]
        },
        "usage": {
            "value": "held-in-one-hand"
        },
        "weight": {
            "value": "1"
        }
    },
    "flags": {},
    "img": "systems/pf2e/icons/default-icons/weapon.svg",
    "name": "Sickle-saber",
    "type": "weapon"
}
