{
    "_id": "8DNpWWeL7X9MDG0i",
    "data": {
        "armor": {
            "value": 1
        },
        "baseItem": null,
        "category": "shield",
        "check": {
            "value": 0
        },
        "containerId": null,
        "description": {
            "value": "<p>Silver shields don't typically have an additional effect, though when used for a shield bash, they are silver weapons.</p>\n<hr />\n<p>The shield has Hardness 3, HP 12, BT 6.</p>\n<p><strong>Craft Requirements</strong> silver worth at least 375 sp</p>"
        },
        "dex": {
            "value": 0
        },
        "equippedBulk": {
            "value": ""
        },
        "group": null,
        "hardness": 3,
        "hp": {
            "brokenThreshold": 6,
            "max": 12,
            "value": 12
        },
        "level": {
            "value": 7
        },
        "negateBulk": {
            "value": "0"
        },
        "potencyRune": {
            "value": 0
        },
        "preciousMaterial": {
            "value": "silver"
        },
        "preciousMaterialGrade": {
            "value": "standard"
        },
        "price": {
            "value": {
                "gp": 300
            }
        },
        "propertyRune1": {
            "value": ""
        },
        "propertyRune2": {
            "value": ""
        },
        "propertyRune3": {
            "value": ""
        },
        "propertyRune4": {
            "value": ""
        },
        "quantity": 1,
        "resiliencyRune": {
            "value": ""
        },
        "rules": [],
        "size": "med",
        "source": {
            "value": "Pathfinder Core Rulebook"
        },
        "speed": {
            "value": 0
        },
        "stackGroup": null,
        "strength": {
            "value": 0
        },
        "traits": {
            "custom": "",
            "rarity": "common",
            "value": []
        },
        "usage": {
            "value": "held-in-one-hand"
        },
        "weight": {
            "value": "L"
        }
    },
    "flags": {},
    "img": "systems/pf2e/icons/equipment/shields/precious-material-shields/silver-buckler.webp",
    "name": "Silver Buckler (Standard-Grade)",
    "type": "armor"
}
