{
    "_id": "A7TCZXIwyxdqYSas",
    "data": {
        "baseItem": null,
        "containerId": null,
        "description": {
            "value": "<p>In true Iroran form, the simplicity of this small, inverted copper bell belies its flawlessness. When struck with a mallet (included with the singing bowl), it emits a harmonious tone that inspires bodily perfection in those who know how to hear it.</p>\n<p><strong>Activate</strong> <span class=\"pf2-icon\">A</span> Interact (auditory)</p>\n<p><strong>Effect</strong> While holding the <em>singing bowl of the versatile stance</em> with one hand, you strike the lip of it with a mallet held in the other. Anyone within 60 feet currently in a stance can spend a reaction to use one of their stance actions in order to change to a different stance.</p>"
        },
        "equippedBulk": {
            "value": ""
        },
        "hardness": 0,
        "hp": {
            "brokenThreshold": 0,
            "max": 0,
            "value": 0
        },
        "level": {
            "value": 11
        },
        "negateBulk": {
            "value": ""
        },
        "preciousMaterial": {
            "value": ""
        },
        "preciousMaterialGrade": {
            "value": ""
        },
        "price": {
            "value": {
                "gp": 1175
            }
        },
        "quantity": 1,
        "rules": [],
        "size": "med",
        "source": {
            "value": "Pathfinder Lost Omens: Gods & Magic"
        },
        "stackGroup": null,
        "traits": {
            "custom": "",
            "rarity": "uncommon",
            "value": [
                "enchantment",
                "magical"
            ]
        },
        "usage": {
            "value": "held-in-one-hand"
        },
        "weight": {
            "value": "L"
        }
    },
    "flags": {},
    "img": "systems/pf2e/icons/equipment/held-items/singing-bowl-of-the-versatile-stance.webp",
    "name": "Singing Bowl of the Versatile Stance",
    "type": "equipment"
}
