{
    "_id": "OKAR7GIyJac8dmsi",
    "data": {
        "MAP": {
            "value": ""
        },
        "baseItem": "longsword",
        "bonus": {
            "value": 1
        },
        "bonusDamage": {
            "value": 0
        },
        "category": "martial",
        "containerId": null,
        "damage": {
            "damageType": "slashing",
            "dice": 1,
            "die": "d8",
            "value": ""
        },
        "description": {
            "value": "<p><strong>Perception</strong> +11; precise vision 30 feet, imprecise hearing 30 feet</p>\n<p><strong>Communication</strong> speech (Common and four other common languages)</p>\n<p><strong>Skills</strong> Performance +15</p>\n<p><strong>Int</strong> +2, <strong>Wis</strong> +2, <strong>Cha</strong> +4</p>\n<p><strong>Will</strong> +13 (+17 against attempts to quiet its singing)</p>\n<hr />\n<p>A <em>singing sword</em> is a <em>+1 striking </em>longsword imbued with the consciousness of a boisterous bard, and therefore constantly sings at all times. A singing sword can't stop singing and in fact communicates in no way other than by singing. A successful Diplomacy or Intimidation check against its Will DC can convince it to quiet its singing to a whisper for 10 minutes, or 20 minutes on a critical success, though it quickly grows displeased at anyone who attempts this repeatedly. The singing sword can spend its actions to attack on its own, with the effects of a dancing weapon's activation, except that its attack modifier is +12. Additionally, it can perform the following activations; each casts a composition spell and follows all the usual rules for compositions.</p>\n<p><strong>Activate</strong> <span class=\"pf2-icon\">A</span> command</p>\n<p><strong>Frequency</strong> once per minute</p>\n<p><strong>Effect</strong> The <em>singing sword</em> casts inspire courage.</p>\n<p><strong>Activate</strong> <span class=\"pf2-icon\">A</span> command</p>\n<p><strong>Frequency</strong> once per minute</p>\n<p><strong>Effect</strong> The <em>singing sword</em> casts inspire defense.</p>\n<p><strong>Activate</strong> <span class=\"pf2-icon\">R</span> command</p>\n<p><strong>Frequency</strong> once per hour</p>\n<p><strong>Trigger</strong> You or an ally within 60 feet rolls a saving throw against an auditory effect</p>\n<p><strong>Effect</strong> The <em>singing sword</em> casts counter performance.</p>"
        },
        "equippedBulk": {
            "value": ""
        },
        "group": "sword",
        "hardness": 0,
        "hp": {
            "brokenThreshold": 0,
            "max": 0,
            "value": 0
        },
        "level": {
            "value": 5
        },
        "negateBulk": {
            "value": "0"
        },
        "potencyRune": {
            "value": 1
        },
        "preciousMaterial": {
            "value": null
        },
        "preciousMaterialGrade": {
            "value": null
        },
        "price": {
            "value": {}
        },
        "property1": {
            "critDamage": "",
            "critDamageType": "",
            "critDice": null,
            "critDie": "",
            "criticalConditionType": "",
            "criticalConditionValue": null,
            "damageType": "",
            "dice": null,
            "die": "",
            "strikeConditionType": "",
            "strikeConditionValue": null,
            "value": ""
        },
        "propertyRune1": {
            "value": null
        },
        "propertyRune2": {
            "value": null
        },
        "propertyRune3": {
            "value": null
        },
        "propertyRune4": {
            "value": null
        },
        "quantity": 1,
        "range": null,
        "reload": {
            "value": ""
        },
        "rules": [],
        "size": "med",
        "source": {
            "value": "Pathfinder Gamemastery Guide"
        },
        "specific": {
            "material": null,
            "runes": {
                "potency": 1,
                "striking": "striking"
            },
            "value": true
        },
        "splashDamage": {
            "value": null
        },
        "stackGroup": null,
        "strikingRune": {
            "value": "striking"
        },
        "traits": {
            "custom": "",
            "rarity": "rare",
            "value": [
                "enchantment",
                "intelligent",
                "occult",
                "versatile-p"
            ]
        },
        "usage": {
            "value": "held-in-one-hand"
        },
        "weight": {
            "value": "1"
        }
    },
    "flags": {},
    "img": "systems/pf2e/icons/equipment/weapons/specific-magic-weapons/singing-sword.webp",
    "name": "Singing Sword",
    "type": "weapon"
}
