{
    "_id": "FgAPV0iLE6R1QMJ5",
    "data": {
        "activation": {
            "condition": "",
            "cost": 0,
            "type": ""
        },
        "autoDestroy": {
            "_deprecated": true,
            "value": true
        },
        "autoUse": {
            "_deprecated": true,
            "value": true
        },
        "baseItem": null,
        "charges": {
            "_deprecated": true,
            "max": "1",
            "value": "1"
        },
        "consumableType": {
            "value": "potion"
        },
        "consume": {
            "_deprecated": true,
            "value": null
        },
        "containerId": null,
        "description": {
            "value": "<p>This sticky salve stubbornly holds wounds closed and encourages swift natural healing. You can activate the salve in either of the following ways.</p>\n<p><strong>Activate</strong> <span class=\"pf2-icon\">1</span> Interact</p>\n<p><strong>Effect</strong> You @Compendium[pf2e.actionspf2e.Administer First Aid]{Administer First Aid} without requiring @Compendium[pf2e.equipment-srd.Healer's Tools]{Healer's Tools}. You either gain a +2 item bonus to the Medicine check, or you can use the skinstitch salve's Medicine modifier of [[/r 1d20+13]] instead of your own.</p>\n<hr />\n<p><strong>Activate</strong> <span class=\"pf2-icon\">F</span> Interact</p>\n<p><strong>Trigger</strong> You @Compendium[pf2e.actionspf2e.Treat Wounds]{Treat Wounds} or use @Compendium[pf2e.feats-srd.Battle Medicine]{Battle Medicine}</p>\n<p><strong>Effect</strong> You gain a +2 item bonus to the triggering Medicine check. If you roll a success on the Medicine check, you get a critical success instead.</p>\n<hr />\n<p>@Compendium[pf2e.consumable-effects.Effect: Skinstitch Salve]{Effect: Skinstitch Salve}</p>"
        },
        "duration": {
            "units": "",
            "value": null
        },
        "equippedBulk": {
            "value": ""
        },
        "hardness": 0,
        "hp": {
            "brokenThreshold": 0,
            "max": 0,
            "value": 0
        },
        "level": {
            "value": 7
        },
        "negateBulk": {
            "value": "0"
        },
        "preciousMaterial": {
            "value": ""
        },
        "preciousMaterialGrade": {
            "value": ""
        },
        "price": {
            "value": {
                "gp": 55
            }
        },
        "quantity": 1,
        "range": {
            "long": null,
            "units": "",
            "value": null
        },
        "rules": [],
        "size": "med",
        "source": {
            "value": "Pathfinder Advanced Player's Guide"
        },
        "spell": {
            "data": null,
            "heightenedLevel": null
        },
        "stackGroup": null,
        "target": {
            "type": "",
            "units": "",
            "value": null
        },
        "traits": {
            "custom": "",
            "rarity": "common",
            "value": [
                "alchemical",
                "consumable",
                "healing"
            ]
        },
        "usage": {
            "value": "held-in-one-hand"
        },
        "uses": {
            "autoDestroy": true,
            "autoUse": true,
            "max": 0,
            "per": null,
            "value": 0
        },
        "weight": {
            "value": "L"
        }
    },
    "flags": {},
    "img": "systems/pf2e/icons/equipment/alchemical-items/alchemical-tools/skinitch-salve.webp",
    "name": "Skinstitch Salve",
    "type": "consumable"
}
