{
    "_id": "599vQVSFAKMzvVEt",
    "data": {
        "baseItem": null,
        "containerId": "null",
        "description": {
            "value": "<p>This carved wooden full-head mask sports several holes along each side of the face. The first time each day that you begin your turn unconscious and within 25 feet of an enemy, metallic insect legs emerge from the holes in the mask and Step 5 feet away from the nearest enemy, dragging your body along with the mask.</p>\n<p>If more than one enemy is equidistant, the mask Steps away from one of them at random. The mask possesses no special senses and does not react to @Compendium[pf2e.conditionitems.Hidden]{Hidden} or @Compendium[pf2e.conditionitems.Undetected]{Undetected} enemies, nor can it distinguish that a creature not acting openly hostile is an enemy.</p>"
        },
        "equippedBulk": {
            "value": ""
        },
        "hardness": 0,
        "hp": {
            "brokenThreshold": 0,
            "max": 0,
            "value": 0
        },
        "level": {
            "value": 2
        },
        "negateBulk": {
            "value": "0"
        },
        "preciousMaterial": {
            "value": null
        },
        "preciousMaterialGrade": {
            "value": null
        },
        "price": {
            "value": {
                "gp": 30
            }
        },
        "quantity": 1,
        "rules": [],
        "size": "med",
        "source": {
            "value": "Pathfinder #169: Kindled Magic"
        },
        "stackGroup": null,
        "traits": {
            "custom": "",
            "rarity": "uncommon",
            "value": [
                "invested",
                "magical",
                "transmutation"
            ]
        },
        "usage": {
            "value": "wornmask"
        },
        "weight": {
            "value": "1"
        }
    },
    "flags": {},
    "img": "systems/pf2e/icons/default-icons/equipment.svg",
    "name": "Skittering Mask",
    "type": "equipment"
}
