{
    "_id": "Blp9Ha1YeIJOeFls",
    "data": {
        "armor": {
            "value": 2
        },
        "baseItem": "studded-leather-armor",
        "category": "light",
        "check": {
            "value": -1
        },
        "containerId": null,
        "description": {
            "value": "<p>This <em>+1 resilient </em>studded leather is adorned with colorful sequins that sparkle in even the faintest light.</p>\n<p>While wearing the spangled rider's suit, you gain a +2 item bonus to Command an Animal you are riding.</p>\n<p>Any animal you ride automatically knows the Drop Prone and Step basic actions, in addition to any other basic actions it knows (normally only Leap, Seek, Stand, Stride, and Strike).</p>\n<p><strong>Activate</strong> <span class=\"pf2-icon\">R</span> (move)</p>\n<p><strong>Trigger</strong> You take damage while mounted or your mount Drops Prone</p>\n<p><strong>Effect</strong> You dismount, moving off your mount into a space adjacent to it.</p>"
        },
        "dex": {
            "value": 3
        },
        "equippedBulk": {
            "value": "1"
        },
        "group": "leather",
        "hardness": 0,
        "hp": {
            "brokenThreshold": 0,
            "max": 0,
            "value": 0
        },
        "level": {
            "value": 9
        },
        "negateBulk": {
            "value": "0"
        },
        "potency": {},
        "potencyRune": {
            "value": 1
        },
        "preciousMaterial": {
            "value": ""
        },
        "preciousMaterialGrade": {
            "value": ""
        },
        "price": {
            "value": {
                "gp": 700
            }
        },
        "propertyRune1": {
            "value": ""
        },
        "propertyRune2": {
            "value": ""
        },
        "propertyRune3": {
            "value": ""
        },
        "propertyRune4": {
            "value": ""
        },
        "quantity": 1,
        "resiliencyRune": {
            "value": "resilient"
        },
        "rules": [
            {
                "key": "FlatModifier",
                "label": "Spangled Rider's Suit (command your mount)",
                "predicate": {
                    "all": [
                        "action:command-an-animal",
                        "target:mount"
                    ]
                },
                "selector": "nature",
                "type": "item",
                "value": 2
            }
        ],
        "size": "med",
        "source": {
            "value": "Pathfinder #152: Legacy of the Lost God"
        },
        "speed": {
            "value": 0
        },
        "stackGroup": null,
        "strength": {
            "value": 12
        },
        "traits": {
            "custom": "",
            "rarity": "uncommon",
            "value": [
                "divination",
                "invested",
                "magical"
            ]
        },
        "usage": {
            "value": "wornarmor"
        },
        "weight": {
            "value": "2"
        }
    },
    "flags": {},
    "img": "systems/pf2e/icons/equipment/armor/specific-magic-armor/spangled-riders-suit.webp",
    "name": "Spangled Rider's Suit",
    "type": "armor"
}
