{
    "_id": "Z5xNCrAN3TgdFTOV",
    "data": {
        "baseItem": null,
        "containerId": null,
        "description": {
            "value": ""
        },
        "equippedBulk": {
            "value": ""
        },
        "hardness": 0,
        "hp": {
            "brokenThreshold": 0,
            "max": 0,
            "value": 0
        },
        "level": {
            "value": 0
        },
        "negateBulk": {
            "value": "0"
        },
        "preciousMaterial": {
            "value": null
        },
        "preciousMaterialGrade": {
            "value": null
        },
        "price": {
            "value": {
                "gp": 50
            }
        },
        "quantity": 1,
        "rules": [
            {
                "key": "FlatModifier",
                "selector": "intimidation",
                "type": "item",
                "value": 1
            }
        ],
        "size": "med",
        "source": {
            "value": ""
        },
        "stackGroup": "",
        "traits": {
            "custom": "",
            "rarity": "common",
            "value": []
        },
        "usage": {
            "value": "wornmask"
        },
        "weight": {
            "value": "-"
        }
    },
    "flags": {},
    "img": "systems/pf2e/icons/equipment/worn-items/other-worn-items/persona-mask.webp",
    "name": "Splendid Pyschopomp Mask",
    "type": "equipment"
}
