{
    "_id": "ZSt2PxZVik7UHGG3",
    "data": {
        "MAP": {
            "value": ""
        },
        "baseItem": "staff",
        "bonus": {
            "value": 0
        },
        "bonusDamage": {
            "value": 0
        },
        "category": "simple",
        "containerId": null,
        "damage": {
            "damageType": "bludgeoning",
            "dice": 1,
            "die": "d4",
            "value": ""
        },
        "description": {
            "value": "<p>This intricately carved wooden staff is warm to the touch and thrums with inner energy. While wielding the staff, you gain a +2 circumstance bonus to checks to identify abjuration magic.</p>\n<p><strong>Activate</strong> Cast a Spell</p>\n<p><strong>Effect</strong> You expend a number of charges from the staff to cast a spell from its list.</p>\n<ul>\n<li><strong>Cantrip</strong> <em>@Compendium[pf2e.spells-srd.Shield]{Shield}</em></li>\n<li><strong>1st</strong> <em>@Compendium[pf2e.spells-srd.Alarm]{Alarm}</em>, <em>@Compendium[pf2e.spells-srd.Feather Fall]{Feather Fall}</em></li>\n<li><strong>2nd</strong> <em>@Compendium[pf2e.spells-srd.Dispel Magic]{Dispel Magic}</em>, <em>@Compendium[pf2e.spells-srd.Endure Elements]{Endure Elements}</em>, <em>@Compendium[pf2e.spells-srd.Resist Energy]{Resist Energy}</em></li>\n<li><strong>3rd</strong> <em>@Compendium[pf2e.spells-srd.Alarm]{Alarm}</em>, <em>@Compendium[pf2e.spells-srd.Glyph of Warding]{Glyph of Warding}</em></li>\n<li><strong>4th</strong> <em>@Compendium[pf2e.spells-srd.Dimensional Anchor]{Dimensional Anchor}</em>, <em>@Compendium[pf2e.spells-srd.Dispel Magic]{Dispel Magic}</em>, <em>@Compendium[pf2e.spells-srd.Resist Energy]{Resist Energy}</em></li>\n<li><strong>5th</strong> <em>@Compendium[pf2e.spells-srd.Banishment]{Banishment}</em>, <em>@Compendium[pf2e.spells-srd.Endure Elements]{Endure Elements}</em></li>\n<li><strong>6th</strong> <em>@Compendium[pf2e.spells-srd.Dispel Magic]{Dispel Magic}</em>, <em>@Compendium[pf2e.spells-srd.Repulsion]{Repulsion}</em></li>\n</ul>\n<p><strong>Craft Requirements</strong> Supply one casting of all listed levels of all listed spells.</p>"
        },
        "equippedBulk": {
            "value": ""
        },
        "group": "club",
        "hardness": 0,
        "hp": {
            "brokenThreshold": 0,
            "max": 0,
            "value": 0
        },
        "level": {
            "value": 14
        },
        "negateBulk": {
            "value": "0"
        },
        "potencyRune": {
            "value": null
        },
        "preciousMaterial": {
            "value": ""
        },
        "preciousMaterialGrade": {
            "value": ""
        },
        "price": {
            "value": {
                "gp": 4000
            }
        },
        "property1": {
            "critDamage": "",
            "critDamageType": "",
            "critDice": null,
            "critDie": "",
            "criticalConditionType": "",
            "criticalConditionValue": null,
            "damageType": "",
            "dice": null,
            "die": "",
            "strikeConditionType": "",
            "strikeConditionValue": null,
            "value": ""
        },
        "propertyRune1": {
            "value": ""
        },
        "propertyRune2": {
            "value": ""
        },
        "propertyRune3": {
            "value": ""
        },
        "propertyRune4": {
            "value": ""
        },
        "quantity": 1,
        "range": null,
        "reload": {
            "value": ""
        },
        "rules": [
            {
                "key": "FlatModifier",
                "label": "Staff of Abjuration (identify abjuration magic)",
                "predicate": {
                    "all": [
                        "action:identify-magic",
                        "abjuration"
                    ]
                },
                "selector": "skill-check",
                "type": "circumstance",
                "value": 2
            }
        ],
        "size": "med",
        "source": {
            "value": "Pathfinder Core Rulebook"
        },
        "splashDamage": {
            "value": 0
        },
        "stackGroup": null,
        "strikingRune": {
            "value": ""
        },
        "traits": {
            "custom": "",
            "rarity": "common",
            "value": [
                "abjuration",
                "magical",
                "staff",
                "two-hand-d8"
            ]
        },
        "usage": {
            "value": "held-in-one-hand"
        },
        "weight": {
            "value": "1"
        }
    },
    "flags": {},
    "img": "systems/pf2e/icons/equipment/staves/staff-of-abjuration.webp",
    "name": "Staff of Abjuration (Major)",
    "type": "weapon"
}
