{
    "_id": "xAOVPVH6cX3iVFlk",
    "data": {
        "armor": {
            "value": 2
        },
        "baseItem": null,
        "category": "shield",
        "check": {
            "value": 0
        },
        "containerId": "null",
        "description": {
            "value": "<p>This magically <em>reinforced wooden shield</em> normally has a blank face. It can absorb a staff and transform between a shield and staff. When you prepare a staff, you can hold it up to the shield, at which point the items will merge, and the shield's face becomes an image corresponding to the type of magic, such as a skull for a staff of necromancy.</p>\n<hr />\n<p><strong>Activate</strong> <span class=\"pf2-icon\">1</span> Interact</p>\n<p><strong>Effect</strong> You change the staff-storing shield from its shield form into the stored staff, which has an image of the shield on it, or change it from the stored staff back into a shield.</p>\n<hr />\n<table class=\"pf2-table\">\n<thead>\n<tr>\n<th>Hardness</th>\n<th>HP</th>\n<th>BT</th>\n</tr>\n</thead>\n<tbody>\n<tr>\n<td>16</td>\n<td>96</td>\n<td>48</td>\n</tr>\n</tbody>\n</table>"
        },
        "dex": {
            "value": 0
        },
        "equippedBulk": {
            "value": ""
        },
        "group": null,
        "hardness": 16,
        "hp": {
            "brokenThreshold": 48,
            "max": 96,
            "value": 96
        },
        "level": {
            "value": 20
        },
        "negateBulk": {
            "value": "0"
        },
        "potencyRune": {
            "value": 0
        },
        "preciousMaterial": {
            "value": null
        },
        "preciousMaterialGrade": {
            "value": null
        },
        "price": {
            "value": {
                "gp": 55000
            }
        },
        "propertyRune1": {
            "value": ""
        },
        "propertyRune2": {
            "value": ""
        },
        "propertyRune3": {
            "value": ""
        },
        "propertyRune4": {
            "value": ""
        },
        "quantity": 1,
        "resiliencyRune": {
            "value": ""
        },
        "rules": [],
        "size": "med",
        "source": {
            "value": "Pathfinder Secrets of Magic"
        },
        "speed": {
            "value": 0
        },
        "stackGroup": null,
        "strength": {
            "value": 0
        },
        "traits": {
            "custom": "",
            "rarity": "common",
            "value": [
                "extradimensional",
                "invested",
                "magical",
                "transmutation"
            ]
        },
        "usage": {
            "value": "held-in-one-hand"
        },
        "weight": {
            "value": "-"
        }
    },
    "flags": {},
    "img": "systems/pf2e/icons/default-icons/armor.svg",
    "name": "Staff-Storing Shield (True)",
    "type": "armor"
}
