{
    "_id": "jMvkWfsXsjPis6RA",
    "data": {
        "baseItem": null,
        "containerId": "null",
        "description": {
            "value": "<p>Moss and winding vines give this gnarled staff of wild wood a vibrant green tinge. You created this staff to aid you in speaking to the plants you met on your adventure and beseeching them to come to your aid.</p>\n<hr />\n<p><strong>Activate</strong> Cast a Spell</p>\n<p><strong>Effect</strong> You expend a number of charges from the staff to cast a spell from its list.</p>\n<ul>\n<li><strong>Cantrip</strong> <em>@Compendium[pf2e.spells-srd.Tanglefoot]{Tanglefoot}</em></li>\n<li><strong>1st</strong> protector tree , <em>@Compendium[pf2e.spells-srd.Shillelagh]{Shillelagh}</em></li>\n<li><strong>2nd</strong> <em>@Compendium[pf2e.spells-srd.Entangle]{Entangle}</em>, <em>@Compendium[pf2e.spells-srd.Shape Wood]{Shape Wood}</em></li>\n<li><strong>3rd</strong> <em>@Compendium[pf2e.spells-srd.Tree Shape]{Tree Shape}</em>, <em>@Compendium[pf2e.spells-srd.Wall of Thorns]{Wall of Thorns}</em></li>\n<li><strong>4th</strong> <em>@Compendium[pf2e.spells-srd.Barkskin]{Barkskin}</em>, <em>@Compendium[pf2e.spells-srd.Speak with Plants]{Speak with Plants}</em></li>\n<li><strong>5th</strong> <em>@Compendium[pf2e.spells-srd.Plant Form]{Plant Form}</em>, <em>@Compendium[pf2e.spells-srd.Wall of Thorns]{Wall of Thorns}</em></li>\n<li><strong>6th</strong> <em>@Compendium[pf2e.spells-srd.Nature's Reprisal]{Nature's Reprisal}</em>, <em>@Compendium[pf2e.spells-srd.Plant Form]{Plant Form}</em><hr /></li>\n</ul>\n<p><strong>Craft Requirements</strong> Supply one casting of all listed levels of all listed spells.</p>"
        },
        "equippedBulk": {
            "value": ""
        },
        "hardness": 0,
        "hp": {
            "brokenThreshold": 0,
            "max": 0,
            "value": 0
        },
        "level": {
            "value": 15
        },
        "negateBulk": {
            "value": "0"
        },
        "preciousMaterial": {
            "value": null
        },
        "preciousMaterialGrade": {
            "value": null
        },
        "price": {
            "value": {
                "gp": 6500
            }
        },
        "quantity": 1,
        "rules": [],
        "size": "med",
        "source": {
            "value": "Pathfinder Secrets of Magic"
        },
        "stackGroup": null,
        "traits": {
            "custom": "",
            "rarity": "common",
            "value": [
                "magical",
                "plant",
                "staff",
                "transmutation"
            ]
        },
        "usage": {
            "value": "held-in-one-hand"
        },
        "weight": {
            "value": "1"
        }
    },
    "flags": {},
    "img": "systems/pf2e/icons/default-icons/equipment.svg",
    "name": "Staff of Nature's Cunning (Major)",
    "type": "equipment"
}
