{
    "_id": "dRVDcmkaB2p8zPcs",
    "data": {
        "baseItem": null,
        "containerId": null,
        "description": {
            "value": "<p>Woven from swaths of rich brocade silk and embroidered with ancient Azlanti script in golden thread, this stole imparts a noble appearance to even the homeliest of individuals when draped over the shoulders.</p>\n<p>While wearing a stole of civility, you receive a +2 item bonus to Diplomacy checks to Make an Impression with humans or Make a Request of humans, and a +2 item bonus to Intimidation checks against humans.</p>\n<p>The stole also grants you full understanding of the Azlanti language.</p>\n<hr />\n<p><strong>Activate</strong> <span class=\"pf2-icon\">A</span> envision</p>\n<p><strong>Frequency</strong> once per day</p>\n<p><strong>Requirements</strong> you are a human</p>\n<p><strong>Effect</strong> You gain 10 temporary Hit Points, which last for 10 minutes.</p>\n<p>@Compendium[pf2e.equipment-effects.Effect: Stole of Civility]{Effect: Stole of Civility}</p>"
        },
        "equippedBulk": {
            "value": ""
        },
        "hardness": 0,
        "hp": {
            "brokenThreshold": 0,
            "max": 0,
            "value": 0
        },
        "level": {
            "value": 9
        },
        "negateBulk": {
            "value": ""
        },
        "preciousMaterial": {
            "value": ""
        },
        "preciousMaterialGrade": {
            "value": ""
        },
        "price": {
            "value": {
                "gp": 700
            }
        },
        "quantity": 1,
        "rules": [
            {
                "domain": "skill-check",
                "key": "RollOption",
                "label": "Target is human (Stole of Civility)",
                "option": "target:human",
                "toggleable": true
            },
            {
                "key": "FlatModifier",
                "label": "Stole of Civility (humans)",
                "predicate": {
                    "all": [
                        "target:human"
                    ]
                },
                "selector": "intimidation",
                "type": "item",
                "value": 2
            },
            {
                "key": "FlatModifier",
                "label": "Stole of Civility (Impress or Request humans)",
                "predicate": {
                    "all": [
                        "target:human"
                    ],
                    "any": [
                        "action:make-a-request",
                        "action:make-an-impression"
                    ]
                },
                "selector": "diplomacy",
                "type": "item",
                "value": 2
            }
        ],
        "size": "med",
        "source": {
            "value": "Pathfinder #152: Legacy of the Lost God"
        },
        "stackGroup": null,
        "traits": {
            "custom": "",
            "rarity": "uncommon",
            "value": [
                "enchantment",
                "invested",
                "magical"
            ]
        },
        "usage": {
            "value": "worncloak"
        },
        "weight": {
            "value": "L"
        }
    },
    "flags": {},
    "img": "systems/pf2e/icons/equipment/worn-items/other-worn-items/stole-of-civility.webp",
    "name": "Stole of Civility",
    "type": "equipment"
}
