{
    "_id": "KxUJu1IHY9FxxAGV",
    "data": {
        "baseItem": null,
        "bulkCapacity": {
            "value": "4"
        },
        "collapsed": false,
        "containerId": "null",
        "description": {
            "value": "<p>This heavy backpack of alchemically treated cloth layered over a metal mesh protects its contents from water damage and other harmful effects.</p>\n<p>It holds up to 4 Bulk of items, and the first 2 Bulk contained within the sturdy satchel do not count against your Bulk limits.</p>\n<p>The bag has Hardness 5 and 20 Hit Points. As long as the bag remains closed and is not broken, water and other liquids can't seep into it.</p>"
        },
        "equippedBulk": {
            "value": ""
        },
        "hardness": 0,
        "hp": {
            "brokenThreshold": 0,
            "max": 0,
            "value": 0
        },
        "level": {
            "value": 2
        },
        "negateBulk": {
            "value": "2"
        },
        "preciousMaterial": {
            "value": null
        },
        "preciousMaterialGrade": {
            "value": null
        },
        "price": {
            "value": {
                "gp": 30
            }
        },
        "quantity": 1,
        "rules": [],
        "size": "med",
        "source": {
            "value": "Pathfinder Lost Omens: Pathfinder Society Guide"
        },
        "stackGroup": null,
        "stowing": true,
        "traits": {
            "custom": "",
            "rarity": "uncommon",
            "value": []
        },
        "usage": {
            "value": "wornbackpack"
        },
        "weight": {
            "value": "1"
        }
    },
    "flags": {},
    "img": "systems/pf2e/icons/equipment/adventuring-gear/sturdy-satchel.webp",
    "name": "Sturdy Satchel",
    "type": "backpack"
}
