{
    "_id": "OlGFuOcqy0bSdtTl",
    "data": {
        "armor": {
            "value": 6
        },
        "baseItem": "full-plate",
        "category": "heavy",
        "check": {
            "value": -3
        },
        "containerId": null,
        "description": {
            "value": "<p><strong>Price</strong> An indeterminate amount of one's lifespan, spent driving to the magic item warehouse, navigating its labyrinthine corridors, and consuming meatballs. Also some gold.</p>\n<hr />\n<p>This classic, timeless suit of <em>+1 resilient full plate</em> is personally assembled from modular pieces of flat-packed darkwood, doubling as furniture and personal protective gear. To wear or remove the suit of armoire, you must succeed at a @Check[type:crafting|dc:41] check (yes, this includes the +10 modifier for an \"Incredibly Difficult\" challenge); on a failure, you and all creatures within @Template[type:emanation|distance:30]{30 feet} must succeed at a @Check[type:will|dc:31] save or be overcome with frustration at how you can't follow the simple, easy-to-understand diagrams for assembling the armoire, imposing a -1 status penalty to Will saves for 1 hour.</p>\n<p>@Compendium[pf2e.equipment-effects.Effect: Suit of Armoire Frustration]{Effect: Suit of Armoire Frustration}</p>\n<hr />\n<p><strong>Activate</strong> <span class=\"pf2-icon\">1</span> Interact; Once per day; You did not fail at the check to assemble the suit of armoire today;</p>\n<p><strong>Effect</strong> You open a set of doors on the armoire's front, producing one fancy suit of clothes of your choosing.</p>\n<hr />\n<p><strong>Activate</strong> <span class=\"pf2-icon\">r</span> Interact; An enemy hits or critically hits you with a Strike, or you fail or critically fail a Reflex save; You did fail the check to assemble the suit of armoire at least once today;</p>\n<p><strong>Effect</strong> You forgot a peg or bolt when you were assembling the suit of armoire, causing it to collapse to pieces around you, though this shields you from harm. The triggering attack is a failure, or you succeed at your Reflex save. The suit of armoire falls apart around you into its constituent panels, leaving you unarmored.</p>\n<hr />\n<p><em><strong>Note</strong>: This item originates from the 2022 Paizo April Fools Blog post.</em></p>"
        },
        "dex": {
            "value": 0
        },
        "equippedBulk": {
            "value": ""
        },
        "group": "plate",
        "hardness": 0,
        "hp": {
            "brokenThreshold": 0,
            "max": 0,
            "value": 0
        },
        "level": {
            "value": 13
        },
        "negateBulk": {
            "value": "0"
        },
        "potencyRune": {
            "value": 1
        },
        "preciousMaterial": {
            "value": null
        },
        "preciousMaterialGrade": {
            "value": null
        },
        "price": {
            "value": {}
        },
        "propertyRune1": {
            "value": ""
        },
        "propertyRune2": {
            "value": ""
        },
        "propertyRune3": {
            "value": ""
        },
        "propertyRune4": {
            "value": ""
        },
        "quantity": 1,
        "resiliencyRune": {
            "value": "resilient"
        },
        "rules": [],
        "size": "med",
        "source": {
            "value": "Pathfinder Blog: April Fools"
        },
        "speed": {
            "value": -10
        },
        "stackGroup": null,
        "strength": {
            "value": 18
        },
        "traits": {
            "custom": "",
            "rarity": "common",
            "value": [
                "bulwark"
            ]
        },
        "usage": {
            "value": "wornarmor"
        },
        "weight": {
            "value": "4"
        }
    },
    "flags": {},
    "img": "systems/pf2e/icons/default-icons/armor.svg",
    "name": "Suit of Armoire",
    "type": "armor"
}
