{
    "_id": "GUyavibqPPxwFxyR",
    "data": {
        "baseItem": null,
        "containerId": "null",
        "description": {
            "value": "<p>This sturdy leather collar is imprinted with tessellated animal shapes. When invested, the animal shapes change to match that of your companion.</p>\n<hr />\n<p><strong>Activate</strong> <span class=\"pf2-icon\">2</span> envision, Interact</p>\n<p><strong>Frequency</strong> once per day</p>\n<p><strong>Effect</strong> You touch the collar and your companion splits into a swarm of hundreds of identical Tiny versions of itself for 1 minute. Its space becomes Large, it gains the weaknesses and resistances of a @Compendium[pf2e.pathfinder-bestiary.Spider Swarm]{Spider Swarm}, and the swarm trait, though it doesn't gain swarm mind, as it's controlled by a single mind. Its unarmed attacks are replaced with a single-action swarming attack that deals 1d8 damage of the type normally inflicted by the companion's unarmed attacks to any foe in its space, with a @Check[type:reflex|dc:23|basic:true|name:Swarm Attack|showDC:all] save. While in swarm form, your companion can take the Support action but can't perform its advanced maneuver. Its other statistics don't change. If the companion is reduced to 0 Hit Points while in swarm form, the companion immediately recombines into its original form in an available space, in addition to the usual effects of being reduced to 0 Hit Points.</p>"
        },
        "equippedBulk": {
            "value": ""
        },
        "hardness": 0,
        "hp": {
            "brokenThreshold": 0,
            "max": 0,
            "value": 0
        },
        "level": {
            "value": 7
        },
        "negateBulk": {
            "value": "0"
        },
        "preciousMaterial": {
            "value": null
        },
        "preciousMaterialGrade": {
            "value": null
        },
        "price": {
            "value": {
                "gp": 350
            }
        },
        "quantity": 1,
        "rules": [],
        "size": "med",
        "source": {
            "value": "Pathfinder Lost Omens: The Grand Bazaar"
        },
        "stackGroup": null,
        "traits": {
            "custom": "",
            "rarity": "uncommon",
            "value": [
                "companion",
                "invested",
                "primal",
                "transmutation"
            ]
        },
        "usage": {
            "value": "worncollar"
        },
        "weight": {
            "value": "1"
        }
    },
    "flags": {},
    "img": "systems/pf2e/icons/default-icons/equipment.svg",
    "name": "Swarmform Collar",
    "type": "equipment"
}
