{
    "_id": "O6cnU1Uiss81C4bG",
    "data": {
        "armor": {
            "value": 0
        },
        "baseItem": "explorers-clothing",
        "category": "unarmored",
        "check": {
            "value": 0
        },
        "containerId": null,
        "description": {
            "value": "<p>These thick, overlapping layers of clothing are coupled with a matching hat, outfitted with mesh netting around its wide brim to keep you safe from insects. You gain resistance 3 to physical damage from swarms. Explorer's clothing altered in this way has a Dexterity cap of +2, check penalty of -1, and Speed penalty of -5 feet regardless of your Strength.</p>"
        },
        "dex": {
            "value": 2
        },
        "equippedBulk": {
            "value": "L"
        },
        "group": null,
        "hardness": 0,
        "hp": {
            "brokenThreshold": 0,
            "max": 0,
            "value": 0
        },
        "level": {
            "value": 1
        },
        "negateBulk": {
            "value": "0"
        },
        "potencyRune": {
            "value": 0
        },
        "preciousMaterial": {
            "value": null
        },
        "preciousMaterialGrade": {
            "value": null
        },
        "price": {
            "value": {
                "gp": 20
            }
        },
        "propertyRune1": {
            "value": ""
        },
        "propertyRune2": {
            "value": ""
        },
        "propertyRune3": {
            "value": ""
        },
        "propertyRune4": {
            "value": ""
        },
        "quantity": 1,
        "resiliencyRune": {
            "value": ""
        },
        "rules": [
            {
                "key": "FlatModifier",
                "predicate": {
                    "not": [
                        "armor:ignore-speed-penalty"
                    ]
                },
                "selector": "land-speed",
                "value": -5
            }
        ],
        "size": "med",
        "source": {
            "value": "Pathfinder Lost Omens: The Grand Bazaar"
        },
        "speed": {
            "value": -5
        },
        "stackGroup": null,
        "strength": {
            "value": 0
        },
        "traits": {
            "custom": "",
            "rarity": "common",
            "value": []
        },
        "usage": {
            "value": "wornarmor"
        },
        "weight": {
            "value": "1"
        }
    },
    "flags": {},
    "img": "systems/pf2e/icons/equipment/adventuring-gear/clothes-explorers.webp",
    "name": "Swarmsuit",
    "type": "armor"
}
