{
    "_id": "dPQhe0tAa5LkPFoW",
    "data": {
        "baseItem": null,
        "containerId": null,
        "description": {
            "value": "<p>These small brooches usually feature carved reliefs of verminous, swarming creatures. When you wear the clasp, you gain resistance 10 to physical damage from swarm creatures.</p>\n<hr />\n<p><strong>Activate</strong><span class=\"pf2-icon\">2 </span>Interact, manipulate</p>\n<p><strong>Frequency</strong> once per day</p>\n<p><strong>Requirements</strong> a swarm creature is within your reach</p>\n<p><strong>Effect</strong> You thrust your hand into the swarm, draw forth a squirming mass of vermin, and devour it. You recover [[/r 3d10+8]] Hit Points and deal the same amount of bludgeoning damage to the swarm. The Hit Point recovery is a positive healing effect.</p>"
        },
        "equippedBulk": {
            "value": ""
        },
        "hardness": 0,
        "hp": {
            "brokenThreshold": 0,
            "max": 0,
            "value": 0
        },
        "level": {
            "value": 8
        },
        "negateBulk": {
            "value": "0"
        },
        "preciousMaterial": {
            "value": ""
        },
        "preciousMaterialGrade": {
            "value": ""
        },
        "price": {
            "value": {
                "gp": 460
            }
        },
        "quantity": 1,
        "rules": [],
        "size": "med",
        "source": {
            "value": "Pathfinder #158: Sixty Feet Under"
        },
        "stackGroup": null,
        "traits": {
            "custom": "",
            "rarity": "uncommon",
            "value": [
                "abjuration",
                "invested",
                "magical"
            ]
        },
        "usage": {
            "value": "worn"
        },
        "weight": {
            "value": "-"
        }
    },
    "flags": {},
    "img": "systems/pf2e/icons/equipment/worn-items/other-worn-items/swarmeaters-clasp.webp",
    "name": "Swarmeater's Clasp",
    "type": "equipment"
}
