{
    "_id": "5SxhwivDVTwV5O0F",
    "data": {
        "baseItem": null,
        "containerId": null,
        "description": {
            "value": "<p>A satyr's wineskin magically enchants any alcohol inside.</p>\n<p>With an Interact action, a living creature can imbibe the alcohol and gain a +1 item bonus to Will saves and a +3 item bonus to Will saves against fear effects for the following hour. When the wineskin is removed from a satyr's person, the magic remains only until the wine spoils. The wineskin holds up to eight drafts of wine.</p>\n<p>@Compendium[pf2e.equipment-effects.Effect: Sylvan Wine]{Effect: Sylvan Wine}</p>"
        },
        "equippedBulk": {
            "value": ""
        },
        "hardness": 0,
        "hp": {
            "brokenThreshold": 0,
            "max": 0,
            "value": 0
        },
        "level": {
            "value": 4
        },
        "negateBulk": {
            "value": "0"
        },
        "preciousMaterial": {
            "value": ""
        },
        "preciousMaterialGrade": {
            "value": ""
        },
        "price": {
            "value": {}
        },
        "quantity": 1,
        "rules": [],
        "size": "med",
        "source": {
            "value": "Pathfinder Bestiary"
        },
        "stackGroup": null,
        "traits": {
            "custom": "",
            "rarity": "common",
            "value": []
        },
        "usage": {
            "value": "held-in-one-hand"
        },
        "weight": {
            "value": "L"
        }
    },
    "flags": {},
    "img": "systems/pf2e/icons/equipment/adventuring-gear/waterskin.webp",
    "name": "Sylvan Wineskin",
    "type": "equipment"
}
