{
    "_id": "nbBtszla32wRC1bp",
    "data": {
        "baseItem": null,
        "containerId": "null",
        "description": {
            "value": "<p>Those who gain one of Taljjae's masks, either by defeating Taljjae or some other means, are known as its understudies and gain a fraction of its power. Each of Taljjae's masks is an 18th-level unique item with the invested and magical traits; if broken, they're automatically repaired to full HP when invested during daily preparations. The effect of a mask on a PC is noted in the mask's Understudy entry. Wearing one of Taljjae's masks also imposes Taljjae's jelly sense and jelly gluttony on the creature as long as it wears the mask.</p>\n<p>The <em>Wanderer</em> allows its wearer to cast 7th-level <em>@Compendium[pf2e.spells-srd.Air Walk]{Air Walk}</em> and 8th-level <em>@Compendium[pf2e.spells-srd.Freedom of Movement]{Freedom of Movement}</em>, each as a divine innate spell, once per day.</p>"
        },
        "equippedBulk": {
            "value": ""
        },
        "hardness": 0,
        "hp": {
            "brokenThreshold": 0,
            "max": 0,
            "value": 0
        },
        "level": {
            "value": 18
        },
        "negateBulk": {
            "value": "0"
        },
        "preciousMaterial": {
            "value": null
        },
        "preciousMaterialGrade": {
            "value": null
        },
        "price": {
            "value": {}
        },
        "quantity": 1,
        "rules": [],
        "size": "med",
        "source": {
            "value": "Pathfinder Lost Omens: Monsters of Myth"
        },
        "stackGroup": null,
        "traits": {
            "custom": "",
            "rarity": "unique",
            "value": [
                "invested",
                "magical"
            ]
        },
        "usage": {
            "value": "wornmask"
        },
        "weight": {
            "value": "-"
        }
    },
    "flags": {},
    "img": "systems/pf2e/icons/equipment/worn-items/other-worn-items/demon-mask.webp",
    "name": "Taljjae's Mask (The Wanderer)",
    "type": "equipment"
}
