{
    "_id": "rKCiDIoozZTkyE4j",
    "data": {
        "MAP": {
            "value": ""
        },
        "baseItem": null,
        "bonus": {
            "value": 0
        },
        "bonusDamage": {
            "value": 0
        },
        "category": "martial",
        "containerId": "null",
        "damage": {
            "damageType": "piercing",
            "dice": 1,
            "die": "d8",
            "value": ""
        },
        "description": {
            "value": "<p>A <em>major tentacle cannon</em> is a <em>+3 greater striking</em> weapon, built using components from squids, krakens, and sometimes even stranger tentacled creatures like alghollthu. It's a distinct type of martial firearm that deals [[/r {1d8}[piercing]]]{1d8 piercing damage}. It has the capacity 5, concussive, and fatal d12 traits, a range increment of 30 feet, and reload 2. The weapon itself resembles a five-barreled handheld cannon with each barrel made from a hollowed out tentacle.</p>\n<hr />\n<p><strong>Activate</strong> <span class=\"pf2-icon\">1</span> Interact (magical, transmutation)</p>\n<p><strong>Effect</strong> You cause one of the tentacles forming the weapon's five barrels to stretch out and attempt to pull and grab a creature within 15 feet. The tentacle attempts to @Compendium[pf2e.actionspf2e.Grapple]{Grapple} with a [[/r 1d20+27 #grapple check]]{+27} bonus. It can attempt to Grapple any creature, regardless of size. On a success, the tentacle pulls the creature up to 10 feet directly towards you, until it's in a square adjacent to you.</p>\n<hr />\n<p><strong>Activate</strong> <span class=\"pf2-icon\">1</span> Interact</p>\n<p><strong>Requirements</strong> The <em>tentacle cannon</em> has a creature @Compendium[pf2e.conditionitems.Grabbed]{Grabbed}</p>\n<p><strong>Effect</strong> You continue to keep the <em>tentacle cannon's</em> hold on one creature it has grabbed. Attempt another check to Grapple the creature with a [[/r 1d20+27 #grapple check]]{+27} bonus.</p>\n<hr />\n<p><strong>Activate</strong> <span class=\"pf2-icon\">1</span> Interact</p>\n<p><strong>Frequency</strong> once per hour</p>\n<p><strong>Effect</strong> The cannon fires a spray of ink in a @Template[type:cone|distance:15]. Creatures in the area must attempt a @Check[type:reflex|dc:37|name:Tentacle Cannon Ink Spray] save. On a failure, the creature is covered in ink and becomes @Compendium[pf2e.conditionitems.Blinded]{Blinded} for 1 round and @Compendium[pf2e.conditionitems.Dazzled]{Dazzled} for 1 minute or until it removes the ink. On a critical failure, the creature becomes blinded and dazzled; both conditions last for 1 minute or until it removes the ink. The creature, or an adjacent creature, can use an Interact action to remove the ink from its eyes to remove the blinded and dazzled conditions.</p>\n<hr />\n<p><strong>Craft Requirements</strong> The initial raw materials must include the tentacles and ink glands of a creature with a tentacle Strike and ink.</p>"
        },
        "equippedBulk": {
            "value": ""
        },
        "group": "firearm",
        "hardness": 0,
        "hp": {
            "brokenThreshold": 0,
            "max": 0,
            "value": 0
        },
        "level": {
            "value": 17
        },
        "negateBulk": {
            "value": "0"
        },
        "potencyRune": {
            "value": 3
        },
        "preciousMaterial": {
            "value": null
        },
        "preciousMaterialGrade": {
            "value": null
        },
        "price": {
            "value": {
                "gp": 15000
            }
        },
        "property1": {
            "critDamage": "",
            "critDamageType": "",
            "critDice": 0,
            "critDie": "",
            "criticalConditionType": "",
            "criticalConditionValue": null,
            "damageType": "",
            "dice": 0,
            "die": "",
            "strikeConditionType": "",
            "strikeConditionValue": null,
            "value": ""
        },
        "propertyRune1": {
            "value": null
        },
        "propertyRune2": {
            "value": null
        },
        "propertyRune3": {
            "value": null
        },
        "propertyRune4": {
            "value": null
        },
        "quantity": 1,
        "range": 30,
        "reload": {
            "value": "2"
        },
        "rules": [],
        "size": "med",
        "source": {
            "value": "Pathfinder Guns & Gears"
        },
        "specific": {
            "material": null,
            "price": "360",
            "runes": {
                "potency": 1,
                "striking": "striking"
            },
            "value": true
        },
        "splashDamage": {
            "value": 0
        },
        "stackGroup": null,
        "strikingRune": {
            "value": "greaterStriking"
        },
        "traits": {
            "custom": "",
            "rarity": "uncommon",
            "value": [
                "capacity-5",
                "concussive",
                "evocation",
                "fatal-d12",
                "magical"
            ]
        },
        "usage": {
            "value": "held-in-two-hands"
        },
        "weight": {
            "value": "2"
        }
    },
    "flags": {},
    "img": "systems/pf2e/icons/default-icons/weapon.svg",
    "name": "Tentacle Cannon (Major)",
    "type": "weapon"
}
