{
    "_id": "Sw7MBLASN3xK4Y44",
    "data": {
        "baseItem": null,
        "containerId": null,
        "description": {
            "value": "<p>These are replacement picks for @Compendium[pf2e.equipment-srd.Thieves' Tools]{Thieves' Tools}.</p>"
        },
        "equippedBulk": {
            "value": ""
        },
        "hardness": 0,
        "hp": {
            "brokenThreshold": 0,
            "max": 0,
            "value": 0
        },
        "level": {
            "value": 0
        },
        "negateBulk": {
            "value": "0"
        },
        "preciousMaterial": {
            "value": ""
        },
        "preciousMaterialGrade": {
            "value": ""
        },
        "price": {
            "value": {
                "sp": 3
            }
        },
        "quantity": 1,
        "rules": [],
        "size": "med",
        "source": {
            "value": "Pathfinder Core Rulebook"
        },
        "stackGroup": null,
        "traits": {
            "custom": "",
            "rarity": "common",
            "value": []
        },
        "usage": {
            "value": "held-in-one-hand"
        },
        "weight": {
            "value": "L"
        }
    },
    "flags": {},
    "img": "systems/pf2e/icons/equipment/adventuring-gear/thieves-tools.webp",
    "name": "Thieves' Tools (Replacement Picks)",
    "type": "equipment"
}
