{
    "_id": "Ha6n30Tj3TNru9Dj",
    "data": {
        "activation": {
            "condition": "",
            "cost": 0,
            "type": ""
        },
        "autoDestroy": {
            "_deprecated": true,
            "value": true
        },
        "autoUse": {
            "_deprecated": true,
            "value": true
        },
        "baseItem": null,
        "charges": {
            "_deprecated": true,
            "max": 1,
            "value": 1
        },
        "consumableType": {
            "value": "potion"
        },
        "consume": {
            "_deprecated": true,
            "value": ""
        },
        "containerId": null,
        "description": {
            "value": "<p><strong>Activate</strong> <span class=\"pf2-icon\">1</span> Interact</p>\n<p>You sprinkle these salts onto a single object up to 10 cubic feet in volume and no more than 40 Bulk to preserve it for 1 week. The object doesn't decay, and effects that require the object to be fresh don't count the time passing during this duration as having elapsed. When sprinkled on a corpse, this extends the period in which a creature can be revived by magic, as well as the wait time required before a corpse can be targeted again with <em>@Compendium[pf2e.spells-srd.Talking Corpse]{Talking Corpse}</em>. The salts prevent ordinary pests from consuming the target (such as maggots for a corpse or moths for a piece of clothing). Any creature can use an Interact action to disperse the salts from an unattended object and end this effect.</p>"
        },
        "duration": {
            "units": "",
            "value": null
        },
        "equippedBulk": {
            "value": ""
        },
        "hardness": 0,
        "hp": {
            "brokenThreshold": 0,
            "max": 0,
            "value": 0
        },
        "level": {
            "value": 4
        },
        "negateBulk": {
            "value": "0"
        },
        "preciousMaterial": {
            "value": ""
        },
        "preciousMaterialGrade": {
            "value": ""
        },
        "price": {
            "value": {
                "gp": 14
            }
        },
        "quantity": 1,
        "range": {
            "long": null,
            "units": "",
            "value": null
        },
        "rules": [],
        "size": "med",
        "source": {
            "value": "Pathfinder Advanced Player's Guide"
        },
        "spell": {
            "data": null,
            "heightenedLevel": null
        },
        "stackGroup": "",
        "target": {
            "type": "",
            "units": "",
            "value": null
        },
        "traits": {
            "custom": "",
            "rarity": "common",
            "value": [
                "alchemical",
                "consumable"
            ]
        },
        "usage": {
            "value": "held-in-one-hand"
        },
        "uses": {
            "autoDestroy": true,
            "autoUse": true,
            "max": 0,
            "per": null,
            "value": 0
        },
        "weight": {
            "value": "L"
        }
    },
    "flags": {},
    "img": "systems/pf2e/icons/equipment/alchemical-items/alchemical-tools/timeless-salts.webp",
    "name": "Timeless Salts",
    "type": "consumable"
}
