{
    "_id": "mDNDs5P8ZAJXYbDL",
    "data": {
        "activation": {
            "condition": "",
            "cost": 0,
            "type": ""
        },
        "autoDestroy": {
            "_deprecated": true,
            "value": true
        },
        "autoUse": {
            "_deprecated": true,
            "value": true
        },
        "baseItem": null,
        "charges": {
            "_deprecated": true,
            "max": "1",
            "value": "1"
        },
        "consumableType": {
            "value": "poison"
        },
        "consume": {
            "_deprecated": true,
            "value": ""
        },
        "containerId": null,
        "description": {
            "value": "<p>Toad tears can be mixed with any other foodstuff or drink, but the poison can also be ingested as is. The process of refining giant toad poison lessens its deadly qualities, and as a result, toad tears are rarely directly fatal. Yet those who are exposed to toad tears often lose control of their actions, making it a dangerous poison nevertheless.</p>\n<hr />\n<p><strong>Activate</strong> <span class=\"pf2-icon\">A</span> Interact (Ingested)</p>\n<p><strong>Saving Throw</strong> @Check[type:fortitude|dc:19]</p>\n<p><strong>Onset</strong> 5 minutes</p>\n<p><strong>Maximum Duration</strong> 30 minutes</p>\n<p><strong>Stage 1</strong> @Compendium[pf2e.conditionitems.Stupefied]{Stupefied 1} (10 minutes)</p>\n<p><strong>Stage 2</strong> stupefied 1 and @Compendium[pf2e.conditionitems.Confused]{Confused} (1 minute)</p>"
        },
        "duration": {
            "units": "",
            "value": null
        },
        "equippedBulk": {
            "value": ""
        },
        "hardness": 0,
        "hp": {
            "brokenThreshold": 0,
            "max": 0,
            "value": 0
        },
        "level": {
            "value": 2
        },
        "negateBulk": {
            "value": "0"
        },
        "preciousMaterial": {
            "value": ""
        },
        "preciousMaterialGrade": {
            "value": ""
        },
        "price": {
            "value": {
                "gp": 6
            }
        },
        "quantity": 1,
        "range": {
            "long": null,
            "units": "",
            "value": null
        },
        "rules": [],
        "size": "med",
        "source": {
            "value": "Pathfinder Bestiary 2"
        },
        "spell": {
            "data": null,
            "heightenedLevel": null
        },
        "stackGroup": null,
        "target": {
            "type": "",
            "units": "",
            "value": null
        },
        "traits": {
            "custom": "",
            "rarity": "common",
            "value": [
                "alchemical",
                "consumable",
                "ingested",
                "poison"
            ]
        },
        "usage": {
            "value": "held-in-one-hand"
        },
        "uses": {
            "autoDestroy": true,
            "autoUse": true,
            "max": 0,
            "per": null,
            "value": 0
        },
        "weight": {
            "value": "L"
        }
    },
    "flags": {},
    "img": "systems/pf2e/icons/equipment/alchemical-items/alchemical-poisons/toad-tears.webp",
    "name": "Toad Tears",
    "type": "consumable"
}
