{
    "_id": "gufc2pmaYn9jzFVL",
    "data": {
        "baseItem": null,
        "containerId": null,
        "description": {
            "value": "<p>You cease aging, and if you were older than young adult in age, you become a young adult again. You gain a +4 status bonus to saves against death<em> </em>effects and resistance to negative damage equal to half your level.</p>\n<p>Once per day, from any distance, Abrogail Thrune II can recite a mandatory appearance clause in your Thrune contract as a 3-action activity to summon you to her side, where you are <em>controlled </em>by Abrogail for 1 minute before you return.</p>\n<p><strong>Activate</strong> <span class=\"pf2-icon\">2</span> Command</p>\n<p><strong>Frequency</strong> once per day</p>\n<p><strong>Effect</strong> You recite a hold harmless provision from your Thrune contract. Reduce your doomed value to 0. Abrogail Thrune II is immediately made aware that you have used this ability.</p>"
        },
        "equippedBulk": {
            "value": ""
        },
        "hardness": 0,
        "hp": {
            "brokenThreshold": 0,
            "max": 0,
            "value": 0
        },
        "level": {
            "value": 20
        },
        "negateBulk": {
            "value": "0"
        },
        "preciousMaterial": {
            "value": ""
        },
        "preciousMaterialGrade": {
            "value": ""
        },
        "price": {
            "value": {}
        },
        "quantity": 1,
        "rules": [
            {
                "key": "FlatModifier",
                "label": "Unending Youth (vs. death)",
                "predicate": {
                    "all": [
                        "death"
                    ]
                },
                "selector": "saving-throw",
                "type": "status",
                "value": 4
            }
        ],
        "size": "med",
        "source": {
            "value": "Pathfinder Lost Omens: Legends"
        },
        "stackGroup": null,
        "traits": {
            "custom": "",
            "rarity": "rare",
            "value": [
                "conjuration",
                "contract",
                "invested",
                "magical"
            ]
        },
        "usage": {
            "value": "held-in-one-hand"
        },
        "weight": {
            "value": "-"
        }
    },
    "flags": {},
    "img": "systems/pf2e/icons/equipment/contracts/infernal-contracts/unending-youth.webp",
    "name": "Unending Youth",
    "type": "equipment"
}
