{
    "_id": "ADruUHNWh2AuxJFb",
    "data": {
        "baseItem": null,
        "containerId": "null",
        "description": {
            "value": "<p>This set of hinged metal plates features studs on the inside of each plate to provide a texture for the pastry cakes you cook with it. You pour batter on the plates, close the device, and place it on a fire or stove to cook.</p>\n<p>The plates of this waffle iron are made of standard-grade mithral rather than iron and might bear an imprint on the plates. As with other mithral cookware, food rarely sticks to a mithral waffle iron. As it's made of mithral, this is an uncommon item.</p>"
        },
        "equippedBulk": {
            "value": ""
        },
        "hardness": 0,
        "hp": {
            "brokenThreshold": 0,
            "max": 0,
            "value": 0
        },
        "level": {
            "value": 8
        },
        "negateBulk": {
            "value": "0"
        },
        "preciousMaterial": {
            "value": null
        },
        "preciousMaterialGrade": {
            "value": null
        },
        "price": {
            "value": {
                "gp": 355
            }
        },
        "quantity": 1,
        "rules": [],
        "size": "med",
        "source": {
            "value": "Pathfinder Lost Omens: The Grand Bazaar"
        },
        "stackGroup": null,
        "traits": {
            "custom": "",
            "rarity": "uncommon",
            "value": []
        },
        "usage": {
            "value": "held-in-one-hand"
        },
        "weight": {
            "value": "1"
        }
    },
    "flags": {},
    "img": "systems/pf2e/icons/default-icons/equipment.svg",
    "name": "Waffle Iron (Mithral)",
    "type": "equipment"
}
