{
    "_id": "Zmz2M2u7mGOCbUf4",
    "data": {
        "baseItem": null,
        "containerId": null,
        "description": {
            "value": "<p>This iron cauldron stands upon sturdy iron crow's feet. A <em>walking cauldron</em> has a land Speed of 25 feet and can be used as a suitable tool to <em>Craft </em>potions, oils, or other liquids.</p>\n<p>As a single action, which has the <em>auditory </em>and <em>concentrate </em>traits, you can command the cauldron to either follow you or to stand in place. When following you, the cauldron does its best to remain within 30 feet of you, but its ungainly movements are too imprecise to predictably direct in a combat encounter or other situation where seconds and precise locations count. It can carry up to 2 Bulk of ingredients for potions or other liquids inside of itself while following you, but if overloaded or if you put anything else inside it, it stands in place and refuses to move until 10 minutes after you remove the excess.</p>"
        },
        "equippedBulk": {
            "value": ""
        },
        "hardness": 0,
        "hp": {
            "brokenThreshold": 0,
            "max": 0,
            "value": 0
        },
        "level": {
            "value": 1
        },
        "negateBulk": {
            "value": "0"
        },
        "preciousMaterial": {
            "value": ""
        },
        "preciousMaterialGrade": {
            "value": ""
        },
        "price": {
            "value": {
                "gp": 12
            }
        },
        "quantity": 1,
        "rules": [],
        "size": "med",
        "source": {
            "value": "Pathfinder Advanced Player's Guide"
        },
        "stackGroup": "",
        "traits": {
            "custom": "",
            "rarity": "common",
            "value": [
                "invested",
                "magical",
                "transmutation"
            ]
        },
        "usage": {
            "value": "other"
        },
        "weight": {
            "value": "4"
        }
    },
    "flags": {},
    "img": "systems/pf2e/icons/equipment/other/magic-pots/walking-cauldron.webp",
    "name": "Walking Cauldron",
    "type": "equipment"
}
