{
    "_id": "R88HWv9rw1VNMRer",
    "data": {
        "baseItem": null,
        "containerId": null,
        "description": {
            "value": "<p>This wand increases a spell's duration. Yellow embers spiral over its surface until the spell ends.</p>\n<p><strong>Activate</strong> Cast a Spell; The activation takes <span class=\"pf2-icon\">2</span> if the spell normally takes <span class=\"pf2-icon\">1</span> to cast, or <span class=\"pf2-icon\">3</span> if the spell normally takes <span class=\"pf2-icon\">2</span></p>\n<p><strong>Frequency</strong> Once per day, plus overcharge</p>\n<p><strong>Effect</strong> You Cast the Spell, and its duration is increased by half.</p>\n<hr />\n<p><strong>Craft Requirements</strong> Supply a casting of a spell of the appropriate level. The spell must have a casting time of <span class=\"pf2-icon\">1</span> or <span class=\"pf2-icon\">2</span> and a duration no less than 10 minutes and no greater than 1 hour.</p>"
        },
        "equippedBulk": {
            "value": ""
        },
        "hardness": 0,
        "hp": {
            "brokenThreshold": 0,
            "max": 0,
            "value": 0
        },
        "level": {
            "value": 9
        },
        "negateBulk": {
            "value": "0"
        },
        "preciousMaterial": {
            "value": ""
        },
        "preciousMaterialGrade": {
            "value": ""
        },
        "price": {
            "value": {
                "gp": 700
            }
        },
        "quantity": 1,
        "rules": [],
        "size": "med",
        "source": {
            "value": "Pathfinder Core Rulebook"
        },
        "stackGroup": null,
        "traits": {
            "custom": "",
            "rarity": "common",
            "value": [
                "magical",
                "wand"
            ]
        },
        "usage": {
            "value": "held-in-one-hand"
        },
        "weight": {
            "value": "L"
        }
    },
    "flags": {},
    "img": "systems/pf2e/icons/equipment/wands/specialty-wands/wand-of-continuation.webp",
    "name": "Wand of Continuation (3rd-Level Spell)",
    "type": "equipment"
}
