{
    "_id": "VtzChvlCG2TQRrgu",
    "data": {
        "baseItem": null,
        "containerId": null,
        "description": {
            "value": "<p>This alabaster wand has a clear crystal at the tip.</p>\n<p><strong>Activate</strong> Cast a spell</p>\n<p><strong>Frequency</strong> Once per day, plus overcharge</p>\n<p><strong>Effect</strong> You cast <em>@Compendium[pf2e.spells-srd.Heal]{Heal}</em> at 6th level.</p>\n<p>After you cast the spell, at the start of your next turn, excess healing magic wells up from the wand and heals you, as though you cast the 1-action version of heal on yourself at 3rd-level. You gain this benefit only once, even if you cast multiple heal spells from wands of overflowing life in the same turn.</p>\n<p><strong>Craft Requirements</strong> Supply a casting of heal at 6th-level.</p>"
        },
        "equippedBulk": {
            "value": ""
        },
        "hardness": 0,
        "hp": {
            "brokenThreshold": 0,
            "max": 0,
            "value": 0
        },
        "level": {
            "value": 15
        },
        "negateBulk": {
            "value": "0"
        },
        "preciousMaterial": {
            "value": ""
        },
        "preciousMaterialGrade": {
            "value": ""
        },
        "price": {
            "value": {
                "gp": 6500
            }
        },
        "quantity": 1,
        "rules": [],
        "size": "med",
        "source": {
            "value": "Pathfinder Advanced Player's Guide"
        },
        "stackGroup": null,
        "traits": {
            "custom": "",
            "rarity": "common",
            "value": [
                "healing",
                "magical",
                "necromancy",
                "positive",
                "wand"
            ]
        },
        "usage": {
            "value": "held-in-one-hand"
        },
        "weight": {
            "value": "L"
        }
    },
    "flags": {},
    "img": "systems/pf2e/icons/equipment/wands/specialty-wands/wand-of-overflowing-life.webp",
    "name": "Wand of Overflowing Life (6th-Level Spell)",
    "type": "equipment"
}
