{
    "_id": "H3KAt7cHJ6ZLTJQE",
    "data": {
        "activation": {
            "condition": "",
            "cost": 0,
            "type": ""
        },
        "autoDestroy": {
            "_deprecated": true,
            "value": true
        },
        "autoUse": {
            "_deprecated": true,
            "value": true
        },
        "baseItem": null,
        "charges": {
            "_deprecated": true,
            "max": 0,
            "value": 0
        },
        "consumableType": {
            "value": "elixir"
        },
        "consume": {
            "_deprecated": true,
            "value": ""
        },
        "containerId": null,
        "description": {
            "value": "<p>Upon drinking this mutagen, you can feel your blood surge through your body and hear a low-pitched humming in your ears. These sensations subside as the flesh and muscles of your arm loosen and stretch, the fibers of your very being reaching out to combine with the base of one melee weapon you're holding.</p>\n<p><strong>Benefit</strong> Choose one melee weapon you're holding in one or both hands. You gain a +1 item bonus to your attack rolls with this weapon and to Will saves against fear effects for 1 minute. Any attempt to @Compendium[pf2e.actionspf2e.Disarm]{Disarm} or otherwise remove the weapon from your hands must exceed DC 25 or the attempt fails.</p>\n<p>@Compendium[pf2e.equipment-effects.Effect: War Blood Mutagen (Lesser)]{Effect: War Blood Mutagen (Lesser)}</p>\n<p><strong>Drawback</strong> You can't voluntarily remove the weapon unless you succeed at a @Check[type:athletics|dc:25], which ends the war blood mutagen's effects; this check takes a single action. If you perform an action with the concentrate trait, you must succeed at a @Check[type:flat|dc:5] or the action is lost.</p>"
        },
        "duration": {
            "units": "",
            "value": null
        },
        "equippedBulk": {
            "value": ""
        },
        "hardness": 0,
        "hp": {
            "brokenThreshold": 0,
            "max": 0,
            "value": 0
        },
        "level": {
            "value": 1
        },
        "negateBulk": {
            "value": "0"
        },
        "preciousMaterial": {
            "value": null
        },
        "preciousMaterialGrade": {
            "value": null
        },
        "price": {
            "value": {
                "gp": 4
            }
        },
        "quantity": 1,
        "range": {
            "long": null,
            "units": "",
            "value": null
        },
        "rules": [],
        "size": "med",
        "source": {
            "value": "Pathfinder #178: Punks in a Powder Keg"
        },
        "spell": {
            "data": null,
            "heightenedLevel": null
        },
        "stackGroup": "",
        "target": {
            "type": "",
            "units": "",
            "value": null
        },
        "traits": {
            "custom": "",
            "rarity": "uncommon",
            "value": [
                "alchemical",
                "consumable",
                "elixir",
                "mutagen",
                "polymorph"
            ]
        },
        "usage": {
            "value": "held-in-one-hand"
        },
        "uses": {
            "autoDestroy": true,
            "autoUse": true,
            "max": 0,
            "per": null,
            "value": 0
        },
        "weight": {
            "value": "L"
        }
    },
    "flags": {},
    "img": "systems/pf2e/icons/equipment/alchemical-items/alchemical-elixirs/war-blood-mutagen.webp",
    "name": "War Blood Mutagen (Lesser)",
    "type": "consumable"
}
