{
    "_id": "hZ0s1gz0Cr0LGOLG",
    "data": {
        "MAP": {
            "value": ""
        },
        "baseItem": "alchemical-bomb",
        "bonus": {
            "value": 1
        },
        "bonusDamage": {
            "value": 0
        },
        "category": "martial",
        "containerId": "null",
        "damage": {
            "damageType": "bludgeoning",
            "dice": 1,
            "die": "d4",
            "value": ""
        },
        "description": {
            "value": "<p>This bladder of water explodes when put under pressure or upon being punctured, dealing minimal damage, neutralizing acids, and dousing flames. You gain a +1 item bonus to attack rolls. The bomb deals [[/r {1d4}[nonlethal,bludgeoning]]]{1d4 nonlethal bludgeoning damage} and [[/r {2}[nonlethal,splash,bludgeoning]]]{2 nonlethal bludgeoning splash damage}. On a hit, if the target is suffering from @Compendium[pf2e.conditionitems.Persistent Damage]{Persistent Acid or Persistent Fire Damage}, it can attempt a flat check to end that persistent damage immediately. As this is particularly effective assistance, the DC of the flat check is reduced from 15 to 10 for this check. On a hit against an unattended, non-magical fire, the bomb extinguishes the fire, or extinguishes one square of fire for a larger fire.</p>"
        },
        "equippedBulk": {
            "value": ""
        },
        "group": "bomb",
        "hardness": 0,
        "hp": {
            "brokenThreshold": 0,
            "max": 0,
            "value": 0
        },
        "level": {
            "value": 3
        },
        "negateBulk": {
            "value": "0"
        },
        "potencyRune": {
            "value": 0
        },
        "preciousMaterial": {
            "value": null
        },
        "preciousMaterialGrade": {
            "value": null
        },
        "price": {
            "value": {
                "gp": 10
            }
        },
        "property1": {
            "critDamage": "",
            "critDamageType": "",
            "critDice": 0,
            "critDie": "",
            "criticalConditionType": "",
            "criticalConditionValue": null,
            "damageType": "",
            "dice": 0,
            "die": "",
            "strikeConditionType": "",
            "strikeConditionValue": null,
            "value": ""
        },
        "propertyRune1": {
            "value": null
        },
        "propertyRune2": {
            "value": null
        },
        "propertyRune3": {
            "value": null
        },
        "propertyRune4": {
            "value": null
        },
        "quantity": 1,
        "range": 20,
        "reload": {
            "value": ""
        },
        "rules": [
            {
                "key": "Note",
                "selector": "{item|_id}-damage",
                "text": "<p class='compact-text'>@Localize[PF2E.BombNotes.WaterBomb.Moderate.success]</p>"
            }
        ],
        "size": "med",
        "source": {
            "value": "Pathfinder #176: Lost Mammoth Valley"
        },
        "specific": {
            "value": false
        },
        "splashDamage": {
            "value": 2
        },
        "stackGroup": null,
        "strikingRune": {
            "value": ""
        },
        "traits": {
            "custom": "",
            "rarity": "uncommon",
            "value": [
                "alchemical",
                "bomb",
                "consumable",
                "nonlethal",
                "splash",
                "water"
            ]
        },
        "usage": {
            "value": "held-in-one-hand"
        },
        "weight": {
            "value": "L"
        }
    },
    "flags": {},
    "img": "systems/pf2e/icons/default-icons/weapon.svg",
    "name": "Water Bomb (Moderate)",
    "type": "weapon"
}
