{
    "_id": "xRrMmFzpa0WU9uV4",
    "data": {
        "activation": {
            "condition": "",
            "cost": 0,
            "type": ""
        },
        "autoDestroy": {
            "_deprecated": true,
            "value": true
        },
        "autoUse": {
            "_deprecated": true,
            "value": true
        },
        "baseItem": null,
        "charges": {
            "_deprecated": true,
            "max": 1,
            "value": 1
        },
        "consumableType": {
            "value": "potion"
        },
        "consume": {
            "_deprecated": true,
            "value": "4d6"
        },
        "containerId": null,
        "description": {
            "value": "<p>This liquid contains blood from a white dragon. For 1 hour after you imbibe the concoction, you can unleash a white dragon's breath weapon. The potency of the breath depends on the potion's type, based on the age of the dragon whose blood was used to make the potion.</p>\n<p>Exhaling dragon breath uses a single action. You create a @Template[type:cone|distance:15] of fire which deals [[/r {4d6}[cold]]]{4d6 cold damage}. All creatures in the area must attempt a @Check[type:reflex|dc:23|basic:true|name:Young White Dragon's Breath Potion] save.</p>\n<p>After you use the breath weapon, you can't do so again for [[/r 1d4 #rounds]]{1d4 rounds}.</p>"
        },
        "duration": {
            "units": "",
            "value": null
        },
        "equippedBulk": {
            "value": ""
        },
        "hardness": 0,
        "hp": {
            "brokenThreshold": 0,
            "max": 0,
            "value": 0
        },
        "level": {
            "value": 7
        },
        "negateBulk": {
            "value": "0"
        },
        "preciousMaterial": {
            "value": ""
        },
        "preciousMaterialGrade": {
            "value": ""
        },
        "price": {
            "value": {
                "gp": 70
            }
        },
        "quantity": 1,
        "range": {
            "long": null,
            "units": "",
            "value": null
        },
        "rules": [],
        "size": "med",
        "source": {
            "value": "Pathfinder Core Rulebook"
        },
        "spell": {
            "data": null,
            "heightenedLevel": null
        },
        "stackGroup": null,
        "target": {
            "type": "",
            "units": "",
            "value": null
        },
        "traits": {
            "custom": "",
            "rarity": "common",
            "value": [
                "cold",
                "consumable",
                "evocation",
                "magical",
                "potion"
            ]
        },
        "usage": {
            "value": "held-in-one-hand"
        },
        "uses": {
            "autoDestroy": true,
            "autoUse": true,
            "max": 0,
            "per": null,
            "value": 0
        },
        "weight": {
            "value": "L"
        }
    },
    "flags": {},
    "img": "systems/pf2e/icons/equipment/consumables/potions/white-dragons-breath-potion.webp",
    "name": "White Dragon's Breath Potion (Young)",
    "type": "consumable"
}
