{
    "_id": "RnpzfRWsOW6zmAgN",
    "data": {
        "baseItem": null,
        "containerId": null,
        "description": {
            "value": "<p>This sinister-looking black statuette resembles a horse rearing up on its hind legs.</p>\n<p>When activated, this figurine becomes a @Compendium[pf2e.pathfinder-bestiary.Nightmare]{Nightmare}.</p>\n<p>It can be called upon once per week for up to 24 hours, though it won't use <em>@Compendium[pf2e.spells-srd.Plane Shift]{Plane Shift}</em> or its other abilities on behalf of its rider.</p>\n<p>Although evil, it allows itself to be ridden by creatures of any alignment, although if a good creature mounts it, the rider must attempt a DC 3 flat check. On a failure, the nightmare uses <em>@Compendium[pf2e.spells-srd.Plane Shift]{Plane Shift}</em> to take the rider to a random location in the Abyss, where it promptly returns to statue form, stranding its rider in that nightmarish place.</p>"
        },
        "equippedBulk": {
            "value": ""
        },
        "hardness": 0,
        "hp": {
            "brokenThreshold": 0,
            "max": 0,
            "value": 0
        },
        "level": {
            "value": 15
        },
        "negateBulk": {
            "value": "0"
        },
        "preciousMaterial": {
            "value": ""
        },
        "preciousMaterialGrade": {
            "value": ""
        },
        "price": {
            "value": {
                "gp": 6000
            }
        },
        "quantity": 1,
        "rules": [],
        "size": "med",
        "source": {
            "value": "Pathfinder Core Rulebook"
        },
        "stackGroup": null,
        "traits": {
            "custom": "",
            "rarity": "uncommon",
            "value": [
                "conjuration",
                "magical"
            ]
        },
        "usage": {
            "value": "held-in-one-hand"
        },
        "weight": {
            "value": "L"
        }
    },
    "flags": {},
    "img": "systems/pf2e/icons/equipment/held-items/wondrous-figurine-obsidian-steed.webp",
    "name": "Wondrous Figurine (Obsidian Steed)",
    "type": "equipment"
}
