{
    "_id": "cMpgGvq1fGxh8wI0",
    "data": {
        "abilities": {
            "cha": {
                "mod": 5
            },
            "con": {
                "mod": 2
            },
            "dex": {
                "mod": 5
            },
            "int": {
                "mod": 2
            },
            "str": {
                "mod": 2
            },
            "wis": {
                "mod": 4
            }
        },
        "attributes": {
            "ac": {
                "details": "",
                "value": 23
            },
            "allSaves": {
                "value": "+1 status to all saves vs. magic"
            },
            "hp": {
                "details": "",
                "max": 75,
                "temp": 0,
                "value": 75
            },
            "initiative": {
                "ability": "perception"
            },
            "perception": {
                "value": 14
            },
            "speed": {
                "otherSpeeds": [],
                "value": "25"
            }
        },
        "details": {
            "alignment": {
                "value": "CE"
            },
            "blurb": "Seugathi servant",
            "creatureType": "",
            "level": {
                "value": 6
            },
            "privateNotes": "",
            "publicNotes": "<p>The most common seugathis spawned by neothelids are seugathi servants. Their masters equip them with tools useful in their tasks (often a wand and a weapon), and they rarely value other material things beyond their usefulness in completing their imprinted mission.</p>\n<hr />\n<p>The wicked, alien @Compendium[pf2e.pathfinder-bestiary-2.Neothelid]{Neothelids} impregnate themselves through ritualistic magic to produce wormlike servitor creatures called seugathis. These creatures spawn with a strong psychic drive to complete some task on behalf of the neothelids' far-reaching plans. These directives are diverse, strange, and usually cruel toward humanoid life.</p>",
            "source": {
                "value": "Pathfinder #164: Hands of the Devil"
            }
        },
        "resources": {
            "focus": {
                "max": 1,
                "value": 1
            }
        },
        "saves": {
            "fortitude": {
                "saveDetail": "",
                "value": 14
            },
            "reflex": {
                "saveDetail": "",
                "value": 17
            },
            "will": {
                "saveDetail": "",
                "value": 12
            }
        },
        "traits": {
            "ci": [],
            "di": {
                "custom": "",
                "value": [
                    "mental",
                    "poison"
                ]
            },
            "dr": [
                {
                    "type": "bludgeoning",
                    "value": 5
                }
            ],
            "dv": [],
            "languages": {
                "custom": "Telepathy 100 feet",
                "selected": [],
                "value": [
                    "aklo",
                    "undercommon"
                ]
            },
            "rarity": "uncommon",
            "senses": {
                "value": "darkvision, tremorsense 30 feet"
            },
            "size": {
                "value": "lg"
            },
            "traits": {
                "custom": "",
                "value": [
                    "aberration",
                    "seugathi"
                ]
            }
        }
    },
    "flags": {},
    "img": "systems/pf2e/icons/default-icons/npc.svg",
    "items": [
        {
            "_id": "ZnFe1AJx67Diyerp",
            "data": {
                "autoHeightenLevel": {
                    "value": null
                },
                "description": {
                    "value": ""
                },
                "displayLevels": {},
                "prepared": {
                    "flexible": false,
                    "value": "innate"
                },
                "proficiency": {
                    "value": 0
                },
                "rules": [],
                "showSlotlessLevels": {
                    "value": false
                },
                "showUnpreparedSpells": {
                    "value": true
                },
                "slots": {
                    "slot0": {
                        "max": 0,
                        "prepared": [],
                        "value": 0
                    },
                    "slot1": {
                        "max": 0,
                        "prepared": [],
                        "value": 0
                    },
                    "slot10": {
                        "max": 0,
                        "prepared": [],
                        "value": 0
                    },
                    "slot11": {
                        "max": 0,
                        "prepared": [],
                        "value": 0
                    },
                    "slot2": {
                        "max": 0,
                        "prepared": [],
                        "value": 0
                    },
                    "slot3": {
                        "max": 0,
                        "prepared": [],
                        "value": 0
                    },
                    "slot4": {
                        "max": 0,
                        "prepared": [],
                        "value": 0
                    },
                    "slot5": {
                        "max": 0,
                        "prepared": [],
                        "value": 0
                    },
                    "slot6": {
                        "max": 0,
                        "prepared": [],
                        "value": 0
                    },
                    "slot7": {
                        "max": 0,
                        "prepared": [],
                        "value": 0
                    },
                    "slot8": {
                        "max": 0,
                        "prepared": [],
                        "value": 0
                    },
                    "slot9": {
                        "max": 0,
                        "prepared": [],
                        "value": 0
                    }
                },
                "slug": null,
                "source": {
                    "value": ""
                },
                "spelldc": {
                    "dc": 24,
                    "mod": 0,
                    "value": 16
                },
                "tradition": {
                    "value": "occult"
                },
                "traits": {
                    "custom": "",
                    "rarity": "common",
                    "value": []
                }
            },
            "flags": {},
            "img": "systems/pf2e/icons/default-icons/spellcastingEntry.svg",
            "name": "Occult Innate Spells",
            "sort": 100000,
            "type": "spellcastingEntry"
        },
        {
            "_id": "euIa0xTcIyQOBwOC",
            "data": {
                "ability": {
                    "value": ""
                },
                "area": {
                    "areaType": "",
                    "value": null
                },
                "areasize": {
                    "value": ""
                },
                "category": {
                    "value": "spell"
                },
                "components": {
                    "focus": false,
                    "material": false,
                    "somatic": false,
                    "verbal": true
                },
                "cost": {
                    "value": ""
                },
                "damage": {
                    "value": {}
                },
                "description": {
                    "value": "<p>You rapidly catalog and collate information relevant to your current situation. You can instantly use up to 6 Recall Knowledge actions as part of Casting this Spell. For these actions, you can't use any special abilities, reactions, or free actions that trigger when you Recall Knowledge.</p>"
                },
                "duration": {
                    "value": ""
                },
                "hasCounteractCheck": {
                    "value": false
                },
                "level": {
                    "value": 3
                },
                "location": {
                    "heightenedLevel": 3,
                    "value": "ZnFe1AJx67Diyerp"
                },
                "materials": {
                    "value": ""
                },
                "prepared": {
                    "value": ""
                },
                "primarycheck": {
                    "value": ""
                },
                "range": {
                    "value": ""
                },
                "rules": [],
                "save": {
                    "basic": "",
                    "value": ""
                },
                "school": {
                    "value": "divination"
                },
                "secondarycasters": {
                    "value": ""
                },
                "secondarycheck": {
                    "value": ""
                },
                "slug": "hypercognition",
                "source": {
                    "value": "Pathfinder Core Rulebook"
                },
                "spellType": {
                    "value": "utility"
                },
                "sustained": {
                    "value": false
                },
                "target": {
                    "value": ""
                },
                "time": {
                    "value": "1"
                },
                "traditions": {
                    "value": [
                        "occult"
                    ]
                },
                "traits": {
                    "custom": "",
                    "rarity": "common",
                    "value": []
                }
            },
            "flags": {
                "core": {
                    "sourceId": "Compendium.pf2e.spells-srd.ZYoC630tNGutgbE0"
                }
            },
            "img": "systems/pf2e/icons/spells/hypercognition.webp",
            "name": "Hypercognition",
            "sort": 200000,
            "type": "spell"
        },
        {
            "_id": "9FfhrCy7X6C19XbP",
            "data": {
                "ability": {
                    "value": ""
                },
                "area": {
                    "areaType": "",
                    "value": ""
                },
                "areasize": {
                    "value": ""
                },
                "category": {
                    "value": "spell"
                },
                "components": {
                    "focus": false,
                    "material": false,
                    "somatic": true,
                    "verbal": true
                },
                "cost": {
                    "value": ""
                },
                "damage": {
                    "value": {}
                },
                "description": {
                    "value": "<p>You defy gravity and levitate the target 5 feet off the ground. For the duration of the spell, you can move the target up or down 10 feet with a single action, which has the concentrate trait. A creature floating in the air from levitate takes a -2 circumstance penalty to attack rolls. A floating creature can spend an Interact action to stabilize itself and negate this penalty for the remainder of its turn. If the target is adjacent to a fixed object or terrain of suitable stability, it can move across the surface by climbing (if the surface is vertical, like a wall) or crawling (if the surface is horizontal, such as a ceiling). The GM determines which surfaces can be climbed or crawled across.</p>\n<p>@Compendium[pf2e.spell-effects.Spell Effect: Levitate]{Spell Effect: Levitate}</p>"
                },
                "duration": {
                    "value": "5 minutes"
                },
                "hasCounteractCheck": {
                    "value": false
                },
                "level": {
                    "value": 3
                },
                "location": {
                    "heightenedLevel": 3,
                    "value": "ZnFe1AJx67Diyerp"
                },
                "materials": {
                    "value": ""
                },
                "prepared": {
                    "value": ""
                },
                "primarycheck": {
                    "value": ""
                },
                "range": {
                    "value": "touch"
                },
                "rules": [],
                "save": {
                    "basic": "",
                    "value": ""
                },
                "school": {
                    "value": "evocation"
                },
                "secondarycasters": {
                    "value": ""
                },
                "secondarycheck": {
                    "value": ""
                },
                "slug": "levitate",
                "source": {
                    "value": "Pathfinder Core Rulebook"
                },
                "spellType": {
                    "value": "utility"
                },
                "sustained": {
                    "value": false
                },
                "target": {
                    "value": "1 unattended object or willing creature"
                },
                "time": {
                    "value": "2"
                },
                "traditions": {
                    "value": [
                        "arcane",
                        "occult"
                    ]
                },
                "traits": {
                    "custom": "",
                    "rarity": "common",
                    "value": []
                }
            },
            "flags": {
                "core": {
                    "sourceId": "Compendium.pf2e.spells-srd.fI20AVwOzJMHXRdo"
                }
            },
            "img": "systems/pf2e/icons/spells/levitate.webp",
            "name": "Levitate",
            "sort": 300000,
            "type": "spell"
        },
        {
            "_id": "im296JOSVQ5enGfj",
            "data": {
                "ability": {
                    "value": ""
                },
                "area": {
                    "areaType": "",
                    "value": null
                },
                "areasize": {
                    "value": ""
                },
                "category": {
                    "value": "spell"
                },
                "components": {
                    "focus": false,
                    "material": false,
                    "somatic": true,
                    "verbal": true
                },
                "cost": {
                    "value": ""
                },
                "damage": {
                    "value": {}
                },
                "description": {
                    "value": "<p>With a cursory mental touch, you attempt to read the target's mind. It must attempt a Will save. The target then becomes temporarily immune to your mind reading for 1 hour.</p>\n<hr /><strong>Critical Success</strong> The target perceives vague surface thoughts from you when you Cast the Spell.\n<p><strong>Success</strong> You find out whether the target's Intelligence modifier is higher than, equal to, or lower than yours.</p>\n<p><strong>Failure</strong> You perceive vague surface thoughts from the target when you Cast the Spell, and you find out whether its Intelligence modifier is higher than, equal to, or lower than yours.</p>\n<p><strong>Critical Failure</strong> As failure, and for the duration of the spell, you can Sustain the Spell to detect the target's surface thoughts again. The target doesn't receive any additional saves.</p>"
                },
                "duration": {
                    "value": "1 round or sustained up to 1 minute"
                },
                "hasCounteractCheck": {
                    "value": false
                },
                "level": {
                    "value": 3
                },
                "location": {
                    "heightenedLevel": 3,
                    "uses": {
                        "max": 3,
                        "value": 3
                    },
                    "value": "ZnFe1AJx67Diyerp"
                },
                "materials": {
                    "value": ""
                },
                "prepared": {
                    "value": ""
                },
                "primarycheck": {
                    "value": ""
                },
                "range": {
                    "value": "30 feet"
                },
                "rules": [],
                "save": {
                    "basic": "",
                    "value": "will"
                },
                "school": {
                    "value": "divination"
                },
                "secondarycasters": {
                    "value": ""
                },
                "secondarycheck": {
                    "value": ""
                },
                "slug": "mind-reading",
                "source": {
                    "value": "Pathfinder Core Rulebook"
                },
                "spellType": {
                    "value": "save"
                },
                "sustained": {
                    "value": false
                },
                "target": {
                    "value": "1 creature"
                },
                "time": {
                    "value": "2"
                },
                "traditions": {
                    "value": [
                        "arcane",
                        "occult"
                    ]
                },
                "traits": {
                    "custom": "",
                    "rarity": "uncommon",
                    "value": [
                        "detection",
                        "mental"
                    ]
                }
            },
            "flags": {
                "core": {
                    "sourceId": "Compendium.pf2e.spells-srd.KHnhPHL4x1AQHfbC"
                }
            },
            "img": "systems/pf2e/icons/spells/mind-reading.webp",
            "name": "Mind Reading",
            "sort": 400000,
            "type": "spell"
        },
        {
            "_id": "XAInYyDm0DWjUckv",
            "data": {
                "ability": {
                    "value": ""
                },
                "area": {
                    "areaType": "",
                    "value": null
                },
                "areasize": {
                    "value": ""
                },
                "category": {
                    "value": "spell"
                },
                "components": {
                    "focus": false,
                    "material": false,
                    "somatic": true,
                    "verbal": true
                },
                "cost": {
                    "value": ""
                },
                "damage": {
                    "value": {
                        "0": {
                            "applyMod": true,
                            "type": {
                                "categories": [],
                                "value": "mental"
                            },
                            "value": "0"
                        }
                    }
                },
                "description": {
                    "value": "<p>You cloud the target's mind and daze it with a mental jolt. The jolt deals mental damage equal to your spellcasting ability modifier; the target must attempt a basic Will save. If the target critically fails the save, it is also @Compendium[pf2e.conditionitems.Stunned]{Stunned 1}.</p>\n<hr />\n<p><strong>Heightened (+2)</strong> The damage increases by 1d6.</p>"
                },
                "duration": {
                    "value": "1 round"
                },
                "hasCounteractCheck": {
                    "value": false
                },
                "heightening": {
                    "damage": {
                        "0": "1d6"
                    },
                    "interval": 2,
                    "type": "interval"
                },
                "level": {
                    "value": 1
                },
                "location": {
                    "value": "ZnFe1AJx67Diyerp"
                },
                "materials": {
                    "value": ""
                },
                "prepared": {
                    "value": ""
                },
                "primarycheck": {
                    "value": ""
                },
                "range": {
                    "value": "60 feet"
                },
                "rules": [],
                "save": {
                    "basic": "basic",
                    "value": "will"
                },
                "school": {
                    "value": "enchantment"
                },
                "secondarycasters": {
                    "value": ""
                },
                "secondarycheck": {
                    "value": ""
                },
                "slug": "daze",
                "source": {
                    "value": "Pathfinder Core Rulebook"
                },
                "spellType": {
                    "value": "save"
                },
                "sustained": {
                    "value": false
                },
                "target": {
                    "value": "1 creature"
                },
                "time": {
                    "value": "2"
                },
                "traditions": {
                    "value": [
                        "arcane",
                        "divine",
                        "occult"
                    ]
                },
                "traits": {
                    "custom": "",
                    "rarity": "common",
                    "value": [
                        "cantrip",
                        "mental",
                        "nonlethal"
                    ]
                }
            },
            "flags": {
                "core": {
                    "sourceId": "Compendium.pf2e.spells-srd.4gBIw4IDrSfFHik4"
                }
            },
            "img": "systems/pf2e/icons/spells/daze.webp",
            "name": "Daze",
            "sort": 500000,
            "type": "spell"
        },
        {
            "_id": "f6kzW4hcOJrD3PVp",
            "data": {
                "ability": {
                    "value": ""
                },
                "area": {
                    "areaType": "emanation",
                    "value": "30"
                },
                "areasize": {
                    "value": "30-foot emanation"
                },
                "category": {
                    "value": "spell"
                },
                "components": {
                    "focus": false,
                    "material": false,
                    "somatic": true,
                    "verbal": true
                },
                "cost": {
                    "value": ""
                },
                "damage": {
                    "value": {}
                },
                "description": {
                    "value": "<p>You send out a pulse that registers the presence of magic. You receive no information beyond the presence or absence of magic. You can choose to ignore magic you're fully aware of, such as the magic items and ongoing spells of you and your allies.</p>\n<p>You detect illusion magic only if that magic's effect has a lower level than the level of your detect magic spell. However, items that have an illusion aura but aren't deceptive in appearance (such as an invisibility potion) typically are detected normally.</p>\n<hr />\n<p><strong>Heightened (3rd)</strong> You learn the school of magic for the highest-level effect within range that the spell detects. If multiple effects are equally strong, the GM determines which you learn.</p>\n<p><strong>Heightened (4th)</strong> As 3rd level, but you also pinpoint the source of the highest-level magic. Like for an imprecise sense, you don't learn the exact location, but can narrow down the source to within a 5-foot cube (or the nearest if larger than that).</p>"
                },
                "duration": {
                    "value": ""
                },
                "hasCounteractCheck": {
                    "value": false
                },
                "level": {
                    "value": 1
                },
                "location": {
                    "value": "ZnFe1AJx67Diyerp"
                },
                "materials": {
                    "value": ""
                },
                "prepared": {
                    "value": ""
                },
                "primarycheck": {
                    "value": ""
                },
                "range": {
                    "value": ""
                },
                "rules": [],
                "save": {
                    "basic": "",
                    "value": ""
                },
                "school": {
                    "value": "divination"
                },
                "secondarycasters": {
                    "value": ""
                },
                "secondarycheck": {
                    "value": ""
                },
                "slug": "detect-magic",
                "source": {
                    "value": "Pathfinder Core Rulebook"
                },
                "spellType": {
                    "value": "utility"
                },
                "sustained": {
                    "value": false
                },
                "target": {
                    "value": ""
                },
                "time": {
                    "value": "2"
                },
                "traditions": {
                    "custom": "",
                    "value": [
                        "arcane",
                        "divine",
                        "occult",
                        "primal"
                    ]
                },
                "traits": {
                    "custom": "",
                    "rarity": "common",
                    "value": [
                        "detection",
                        "cantrip"
                    ]
                }
            },
            "flags": {
                "core": {
                    "sourceId": "Compendium.pf2e.spells-srd.gpzpAAAJ1Lza2JVl"
                }
            },
            "img": "systems/pf2e/icons/spells/detect-magic.webp",
            "name": "Detect Magic",
            "sort": 600000,
            "type": "spell"
        },
        {
            "_id": "zWWtMMDuuVs4aqcp",
            "data": {
                "ability": {
                    "value": ""
                },
                "area": {
                    "areaType": "",
                    "value": null
                },
                "areasize": {
                    "value": ""
                },
                "category": {
                    "value": "spell"
                },
                "components": {
                    "focus": false,
                    "material": false,
                    "somatic": true,
                    "verbal": true
                },
                "cost": {
                    "value": ""
                },
                "damage": {
                    "value": {}
                },
                "description": {
                    "value": "<p>You create a single magical hand, either invisible or ghostlike, that grasps the target object and moves it slowly up to 20 feet. Because you're levitating the object, you can move it in any direction. When you Sustain the Spell, you can move the object an additional 20 feet. If the object is in the air when the spell ends, the object falls.</p>\n<hr />\n<p><strong>Heightened (3rd)</strong> You can target an unattended object with a Bulk of 1 or less.</p>\n<p><strong>Heightened (5th)</strong> The range increases to 60 feet, and you can target an unattended object with a Bulk of 1 or less.</p>\n<p><strong>Heightened (7th)</strong> The range increases to 60 feet, and you can target an unattended object with a Bulk of 2 or less.</p>"
                },
                "duration": {
                    "value": "sustained"
                },
                "hasCounteractCheck": {
                    "value": false
                },
                "level": {
                    "value": 1
                },
                "location": {
                    "value": "ZnFe1AJx67Diyerp"
                },
                "materials": {
                    "value": ""
                },
                "prepared": {
                    "value": ""
                },
                "primarycheck": {
                    "value": ""
                },
                "range": {
                    "value": "30 feet"
                },
                "rules": [],
                "save": {
                    "basic": "",
                    "value": ""
                },
                "school": {
                    "value": "evocation"
                },
                "secondarycasters": {
                    "value": ""
                },
                "secondarycheck": {
                    "value": ""
                },
                "slug": "mage-hand",
                "source": {
                    "value": "Pathfinder Core Rulebook"
                },
                "spellType": {
                    "value": "utility"
                },
                "sustained": {
                    "value": false
                },
                "target": {
                    "value": "1 unattended object of light Bulk or less"
                },
                "time": {
                    "value": "2"
                },
                "traditions": {
                    "value": [
                        "arcane",
                        "occult"
                    ]
                },
                "traits": {
                    "custom": "",
                    "rarity": "common",
                    "value": [
                        "cantrip"
                    ]
                }
            },
            "flags": {
                "core": {
                    "sourceId": "Compendium.pf2e.spells-srd.pwzdSlJgYqN7bs2w"
                }
            },
            "img": "systems/pf2e/icons/spells/mage-hand.webp",
            "name": "Mage Hand",
            "sort": 700000,
            "type": "spell"
        },
        {
            "_id": "YmaEutO1beFphbjE",
            "data": {
                "ability": {
                    "value": ""
                },
                "area": {
                    "areaType": "",
                    "value": ""
                },
                "areasize": {
                    "value": ""
                },
                "category": {
                    "value": "spell"
                },
                "components": {
                    "focus": false,
                    "material": false,
                    "somatic": true,
                    "verbal": true
                },
                "cost": {
                    "value": ""
                },
                "damage": {
                    "value": {
                        "0": {
                            "applyMod": true,
                            "type": {
                                "categories": [],
                                "value": "untyped"
                            },
                            "value": "1d6"
                        }
                    }
                },
                "description": {
                    "value": "<p>You hurl a loose, unattended object that is within range and that has 1 Bulk or less at the target. Make a spell attack roll against the target. If you hit, you deal bludgeoning, piercing, or slashing damage-as appropriate for the object you hurled-equal to 1d6 plus your spellcasting ability modifier. No specific traits or magic properties of the hurled item affect the attack or the damage.</p>\n<hr />\n<p><strong>Critical Success</strong> You deal double damage.</p>\n<p><strong>Success</strong> You deal full damage.</p>\n<hr />\n<p><strong>Heightened (+1)</strong> The damage increases by 1d6.</p>"
                },
                "duration": {
                    "value": ""
                },
                "hasCounteractCheck": {
                    "value": false
                },
                "heightening": {
                    "damage": {
                        "0": "1d6"
                    },
                    "interval": 1,
                    "type": "interval"
                },
                "level": {
                    "value": 1
                },
                "location": {
                    "value": "ZnFe1AJx67Diyerp"
                },
                "materials": {
                    "value": ""
                },
                "prepared": {
                    "value": ""
                },
                "primarycheck": {
                    "value": ""
                },
                "range": {
                    "value": "30 feet"
                },
                "rules": [],
                "save": {
                    "basic": "",
                    "value": ""
                },
                "school": {
                    "value": "evocation"
                },
                "secondarycasters": {
                    "value": ""
                },
                "secondarycheck": {
                    "value": ""
                },
                "slug": "telekinetic-projectile",
                "source": {
                    "value": "Pathfinder Core Rulebook"
                },
                "spellType": {
                    "value": "attack"
                },
                "sustained": {
                    "value": false
                },
                "target": {
                    "value": "1 creature"
                },
                "time": {
                    "value": "2"
                },
                "traditions": {
                    "value": [
                        "arcane",
                        "occult"
                    ]
                },
                "traits": {
                    "custom": "",
                    "rarity": "common",
                    "value": [
                        "attack",
                        "cantrip"
                    ]
                }
            },
            "flags": {
                "core": {
                    "sourceId": "Compendium.pf2e.spells-srd.60sgbuMWN0268dB7"
                }
            },
            "img": "systems/pf2e/icons/spells/telekinetic-projectile.webp",
            "name": "Telekinetic Projectile",
            "sort": 800000,
            "type": "spell"
        },
        {
            "_id": "VJh6hBmylHWPU8hN",
            "data": {
                "MAP": {
                    "value": ""
                },
                "baseItem": "longsword",
                "bonus": {
                    "value": 0
                },
                "bonusDamage": {
                    "value": 0
                },
                "category": "martial",
                "containerId": null,
                "damage": {
                    "damageType": "slashing",
                    "dice": 1,
                    "die": "d8",
                    "value": ""
                },
                "description": {
                    "value": "<p>Longswords can be one‑edged or two‑edged swords. Their blades are heavy and they're between 3 and 4 feet in length.</p>"
                },
                "equipped": {
                    "carryType": "worn",
                    "handsHeld": 0,
                    "invested": null
                },
                "equippedBulk": {
                    "value": ""
                },
                "group": "sword",
                "hardness": 0,
                "hp": {
                    "brokenThreshold": 0,
                    "max": 0,
                    "value": 0
                },
                "level": {
                    "value": 0
                },
                "negateBulk": {
                    "value": "0"
                },
                "potencyRune": {
                    "value": 0
                },
                "preciousMaterial": {
                    "value": null
                },
                "preciousMaterialGrade": {
                    "value": null
                },
                "price": {
                    "value": {
                        "gp": 1
                    }
                },
                "property1": {
                    "critDamage": "",
                    "critDamageType": "",
                    "critDice": null,
                    "critDie": "",
                    "criticalConditionType": "",
                    "criticalConditionValue": null,
                    "damageType": "",
                    "dice": null,
                    "die": "",
                    "strikeConditionType": "",
                    "strikeConditionValue": null,
                    "value": ""
                },
                "propertyRune1": {
                    "value": null
                },
                "propertyRune2": {
                    "value": null
                },
                "propertyRune3": {
                    "value": null
                },
                "propertyRune4": {
                    "value": null
                },
                "quantity": 1,
                "range": null,
                "reload": {
                    "value": ""
                },
                "rules": [],
                "size": "lg",
                "slug": "longsword",
                "source": {
                    "value": "Pathfinder Core Rulebook"
                },
                "specific": {
                    "value": false
                },
                "splashDamage": {
                    "value": 0
                },
                "stackGroup": null,
                "strikingRune": {
                    "value": ""
                },
                "traits": {
                    "custom": "",
                    "rarity": "common",
                    "value": [
                        "versatile-p"
                    ]
                },
                "usage": {
                    "value": "held-in-one-hand"
                },
                "weight": {
                    "value": "1"
                }
            },
            "flags": {
                "core": {
                    "sourceId": "Compendium.pf2e.equipment-srd.LJdbVTOZog39EEbi"
                }
            },
            "img": "systems/pf2e/icons/equipment/weapons/longsword.webp",
            "name": "Longsword",
            "sort": 900000,
            "type": "weapon"
        },
        {
            "_id": "pVDvUynTr6z13rp6",
            "data": {
                "baseItem": null,
                "containerId": null,
                "description": {
                    "value": ""
                },
                "equipped": {
                    "carryType": "worn",
                    "invested": null
                },
                "equippedBulk": {
                    "value": ""
                },
                "hardness": 0,
                "hp": {
                    "brokenThreshold": 0,
                    "max": 0,
                    "value": 0
                },
                "level": {
                    "value": 0
                },
                "negateBulk": {
                    "value": "0"
                },
                "preciousMaterial": {
                    "value": ""
                },
                "preciousMaterialGrade": {
                    "value": ""
                },
                "price": {
                    "value": {
                        "cp": 1
                    }
                },
                "quantity": 10,
                "rules": [],
                "size": "med",
                "slug": "chalk",
                "source": {
                    "value": "Pathfinder Core Rulebook"
                },
                "stackGroup": null,
                "traits": {
                    "custom": "",
                    "rarity": "common",
                    "value": []
                },
                "usage": {
                    "value": "held-in-one-hand"
                },
                "weight": {
                    "value": "-"
                }
            },
            "flags": {
                "core": {
                    "sourceId": "Compendium.pf2e.equipment-srd.xShIDyydOMkGvGNb"
                }
            },
            "img": "systems/pf2e/icons/equipment/adventuring-gear/chalk.webp",
            "name": "Chalk",
            "sort": 1000000,
            "type": "equipment"
        },
        {
            "_id": "w1H2Uu7gjl1fTH9B",
            "data": {
                "baseItem": null,
                "containerId": "null",
                "description": {
                    "value": ""
                },
                "equipped": {
                    "carryType": "worn",
                    "handsHeld": 0,
                    "invested": null
                },
                "equippedBulk": {
                    "value": ""
                },
                "hardness": 0,
                "hp": {
                    "brokenThreshold": 0,
                    "max": 0,
                    "value": 0
                },
                "level": {
                    "value": 0
                },
                "negateBulk": {
                    "value": "0"
                },
                "preciousMaterial": {
                    "value": null
                },
                "preciousMaterialGrade": {
                    "value": null
                },
                "price": {
                    "value": {}
                },
                "quantity": 1,
                "rules": [],
                "size": "med",
                "slug": null,
                "source": {
                    "value": ""
                },
                "stackGroup": null,
                "traits": {
                    "custom": "",
                    "rarity": "common",
                    "value": []
                },
                "usage": {
                    "value": "held-in-one-hand"
                },
                "weight": {
                    "value": "-"
                }
            },
            "flags": {},
            "img": "systems/pf2e/icons/equipment/adventuring-gear/replacement-filter.webp",
            "name": "Writing Slate",
            "sort": 1100000,
            "type": "equipment"
        },
        {
            "_id": "7JPnTGzj40aMM3Hk",
            "data": {
                "activation": {
                    "condition": "",
                    "cost": 0,
                    "type": ""
                },
                "autoDestroy": {
                    "_deprecated": true,
                    "value": false
                },
                "autoUse": {
                    "_deprecated": true,
                    "value": true
                },
                "baseItem": null,
                "charges": {
                    "_deprecated": true,
                    "max": 1,
                    "value": 1
                },
                "consumableType": {
                    "value": "wand"
                },
                "consume": {
                    "_deprecated": true,
                    "value": ""
                },
                "containerId": null,
                "description": {
                    "value": "<p>@Compendium[pf2e.spells-srd.Status]</p><hr /><p>This baton is about a foot long and contains a single spell. The appearance typically relates to the spell within.</p>\n<p><strong>Activate</strong> Cast a Spell</p>\n<p><strong>Frequency</strong> once per day, plus overcharge</p>\n<p><strong>Effect</strong> You Cast the Spell at the indicated level.</p>\n<p><strong>Craft Requirements</strong> Supply a listed-level casting of the spell.</p>\n<hr />\n<p><em>Note: To create a scroll or wand of a specific spell, drag the spell from the compendium or compendium browser into the inventory of a PC, NPC, or loot actor.</em></p>"
                },
                "duration": {
                    "units": "",
                    "value": null
                },
                "equipped": {
                    "carryType": "worn"
                },
                "equippedBulk": {
                    "value": ""
                },
                "hardness": 0,
                "hp": {
                    "brokenThreshold": 0,
                    "max": 0,
                    "value": 0
                },
                "level": {
                    "value": 5
                },
                "negateBulk": {
                    "value": "0"
                },
                "preciousMaterial": {
                    "value": ""
                },
                "preciousMaterialGrade": {
                    "value": ""
                },
                "price": {
                    "value": {
                        "gp": 160
                    }
                },
                "quantity": 1,
                "range": {
                    "long": null,
                    "units": "",
                    "value": null
                },
                "rules": [],
                "size": "med",
                "slug": "magic-wand-2nd-level-spell",
                "source": {
                    "value": "Pathfinder Core Rulebook"
                },
                "spell": {
                    "data": {
                        "_id": "HTou8cG05yuSkesj",
                        "data": {
                            "ability": {
                                "value": ""
                            },
                            "area": {
                                "areaType": "",
                                "value": null
                            },
                            "areasize": {
                                "value": ""
                            },
                            "category": {
                                "value": "spell"
                            },
                            "components": {
                                "focus": false,
                                "material": false,
                                "somatic": true,
                                "verbal": true
                            },
                            "cost": {
                                "value": ""
                            },
                            "damage": {
                                "value": {}
                            },
                            "description": {
                                "value": "<p>As long as you and the target are on the same plane of existence and both alive, you remain aware of its present state. You know the target's direction from you, distance from you, and any conditions affecting it.</p>\n<hr />\n<p><strong>Heightened (4th)</strong> The spell's range increases to 30 feet, and you can target up to 10 creatures.</p>"
                            },
                            "duration": {
                                "value": "1 day"
                            },
                            "hasCounteractCheck": {
                                "value": false
                            },
                            "level": {
                                "value": 2
                            },
                            "location": {
                                "value": ""
                            },
                            "materials": {
                                "value": ""
                            },
                            "prepared": {
                                "value": ""
                            },
                            "primarycheck": {
                                "value": ""
                            },
                            "range": {
                                "value": "touch"
                            },
                            "rules": [],
                            "save": {
                                "basic": "",
                                "value": ""
                            },
                            "school": {
                                "value": "divination"
                            },
                            "secondarycasters": {
                                "value": ""
                            },
                            "secondarycheck": {
                                "value": ""
                            },
                            "slug": "status",
                            "source": {
                                "value": "Pathfinder Core Rulebook"
                            },
                            "spellType": {
                                "value": "utility"
                            },
                            "sustained": {
                                "value": false
                            },
                            "target": {
                                "value": "1 willing living creature"
                            },
                            "time": {
                                "value": "2"
                            },
                            "traditions": {
                                "value": [
                                    "divine",
                                    "occult",
                                    "primal"
                                ]
                            },
                            "traits": {
                                "custom": "",
                                "rarity": "common",
                                "value": [
                                    "detection"
                                ]
                            }
                        },
                        "flags": {
                            "core": {
                                "sourceId": "Compendium.pf2e.spells-srd.HTou8cG05yuSkesj"
                            }
                        },
                        "img": "systems/pf2e/icons/spells/status.webp",
                        "name": "Status",
                        "sort": 0,
                        "type": "spell"
                    },
                    "heightenedLevel": 2
                },
                "stackGroup": null,
                "target": {
                    "type": "",
                    "units": "",
                    "value": null
                },
                "traits": {
                    "custom": "",
                    "rarity": "common",
                    "value": [
                        "magical",
                        "wand",
                        "divine",
                        "occult",
                        "primal"
                    ]
                },
                "usage": {
                    "value": "held-in-one-hand"
                },
                "uses": {
                    "autoDestroy": false,
                    "autoUse": true,
                    "max": 0,
                    "per": null,
                    "value": 0
                },
                "weight": {
                    "value": "L"
                }
            },
            "flags": {
                "core": {
                    "sourceId": "Compendium.pf2e.equipment-srd.vJZ49cgi8szuQXAD"
                }
            },
            "img": "systems/pf2e/icons/equipment/wands/magic-wands/magic-wand.webp",
            "name": "Wand of Status (Level 2)",
            "sort": 1200000,
            "type": "consumable"
        },
        {
            "_id": "nzWpj7yo8PguGBFG",
            "data": {
                "attack": {
                    "value": ""
                },
                "attackEffects": {
                    "custom": "",
                    "value": [
                        "seugathi-venom"
                    ]
                },
                "bonus": {
                    "value": 17
                },
                "damageRolls": {
                    "7mouzbmbtpfs7v063fwh": {
                        "damage": "2d6+5",
                        "damageType": "piercing"
                    }
                },
                "description": {
                    "value": ""
                },
                "rules": [],
                "slug": null,
                "source": {
                    "value": ""
                },
                "traits": {
                    "custom": "",
                    "rarity": "common",
                    "value": [
                        "agile",
                        "finesse"
                    ]
                },
                "weaponType": {
                    "value": "melee"
                }
            },
            "flags": {},
            "img": "systems/pf2e/icons/default-icons/melee.svg",
            "name": "Bite",
            "sort": 1300000,
            "type": "melee"
        },
        {
            "_id": "htwDT7obXSlNmWpU",
            "data": {
                "attack": {
                    "value": ""
                },
                "attackEffects": {
                    "custom": "",
                    "value": []
                },
                "bonus": {
                    "value": 14
                },
                "damageRolls": {
                    "6fms5dftz9p6th6dy2ab": {
                        "damage": "1d8+5",
                        "damageType": "piercing"
                    }
                },
                "description": {
                    "value": ""
                },
                "rules": [],
                "slug": null,
                "source": {
                    "value": ""
                },
                "traits": {
                    "custom": "",
                    "rarity": "common",
                    "value": [
                        "reach-10",
                        "versatile-p"
                    ]
                },
                "weaponType": {
                    "value": "melee"
                }
            },
            "flags": {},
            "img": "systems/pf2e/icons/default-icons/melee.svg",
            "name": "Longsword",
            "sort": 1400000,
            "type": "melee"
        },
        {
            "_id": "Qkqj9KzvAaoHkxjH",
            "data": {
                "actionCategory": {
                    "value": "interaction"
                },
                "actionType": {
                    "value": "passive"
                },
                "actions": {
                    "value": null
                },
                "description": {
                    "value": "<p>@Localize[PF2E.NPC.Abilities.Glossary.Darkvision]</p>"
                },
                "requirements": {
                    "value": ""
                },
                "rules": [],
                "slug": "darkvision",
                "source": {
                    "value": ""
                },
                "traits": {
                    "custom": "",
                    "rarity": "common",
                    "value": []
                },
                "trigger": {
                    "value": ""
                },
                "weapon": {
                    "value": ""
                }
            },
            "flags": {
                "core": {
                    "sourceId": "Compendium.pf2e.bestiary-ability-glossary-srd.qCCLZhnp2HhP3Ex6"
                }
            },
            "img": "systems/pf2e/icons/actions/Passive.webp",
            "name": "Darkvision",
            "sort": 1500000,
            "type": "action"
        },
        {
            "_id": "cj3wll0YeOYjYWaL",
            "data": {
                "actionCategory": {
                    "value": "interaction"
                },
                "actionType": {
                    "value": "passive"
                },
                "actions": {
                    "value": null
                },
                "description": {
                    "value": "<p>@Localize[PF2E.NPC.Abilities.Glossary.Tremorsense]</p>"
                },
                "requirements": {
                    "value": ""
                },
                "rules": [],
                "slug": "tremorsense",
                "source": {
                    "value": ""
                },
                "traits": {
                    "custom": "",
                    "rarity": "common",
                    "value": []
                },
                "trigger": {
                    "value": ""
                },
                "weapon": {
                    "value": ""
                }
            },
            "flags": {
                "core": {
                    "sourceId": "Compendium.pf2e.bestiary-ability-glossary-srd.j2wsK6IsW5yMW1jW"
                }
            },
            "img": "systems/pf2e/icons/actions/Passive.webp",
            "name": "Tremorsense (Imprecise) 30 feet",
            "sort": 1600000,
            "type": "action"
        },
        {
            "_id": "1lJU8hzSml2TMM3M",
            "data": {
                "actionCategory": {
                    "value": "interaction"
                },
                "actionType": {
                    "value": "passive"
                },
                "actions": {
                    "value": null
                },
                "description": {
                    "value": "<p>@Localize[PF2E.NPC.Abilities.Glossary.Telepathy]</p>"
                },
                "requirements": {
                    "value": ""
                },
                "rules": [],
                "slug": "telepathy",
                "source": {
                    "value": ""
                },
                "traits": {
                    "custom": "",
                    "rarity": "common",
                    "value": [
                        "aura",
                        "divination",
                        "magical"
                    ]
                },
                "trigger": {
                    "value": ""
                },
                "weapon": {
                    "value": ""
                }
            },
            "flags": {
                "core": {
                    "sourceId": "Compendium.pf2e.bestiary-ability-glossary-srd.kdhbPaBMK1d1fpbA"
                }
            },
            "img": "systems/pf2e/icons/actions/Passive.webp",
            "name": "Telepathy 100 feet",
            "sort": 1700000,
            "type": "action"
        },
        {
            "_id": "j1CfaIqiOES2OC3Y",
            "data": {
                "actionCategory": {
                    "value": "defensive"
                },
                "actionType": {
                    "value": "passive"
                },
                "actions": {
                    "value": null
                },
                "description": {
                    "value": ""
                },
                "requirements": {
                    "value": ""
                },
                "rules": [
                    {
                        "key": "FlatModifier",
                        "predicate": {
                            "any": [
                                "magical",
                                "arcane",
                                "divine",
                                "primal",
                                "occult"
                            ]
                        },
                        "selector": "saving-throw",
                        "type": "status",
                        "value": 1
                    }
                ],
                "slug": "1-status-to-all-saves-vs-magic",
                "source": {
                    "value": ""
                },
                "traits": {
                    "custom": "",
                    "rarity": "common",
                    "value": []
                },
                "trigger": {
                    "value": ""
                },
                "weapon": {
                    "value": ""
                }
            },
            "flags": {
                "core": {
                    "sourceId": "Compendium.pf2e.bestiary-ability-glossary-srd.kquBnQ0kObZztnBc"
                }
            },
            "img": "systems/pf2e/icons/actions/Passive.webp",
            "name": "+1 Status to All Saves vs Magic",
            "sort": 1800000,
            "type": "action"
        },
        {
            "_id": "VkmU3zCSF1tm61N6",
            "data": {
                "actionCategory": {
                    "value": "defensive"
                },
                "actionType": {
                    "value": "reaction"
                },
                "actions": {
                    "value": null
                },
                "description": {
                    "value": "<p><strong>Trigger</strong> A creature fails its save against the seugathi's mindfog aura</p>\n<p><strong>Effect</strong> The seugathi determines who the @Compendium[pf2e.conditionitems.Confused]{Confused} creature attacks for that round, instead of the target being randomly determined by the GM.</p>\n<p>If the chosen target is the confused creature's ally, the creature can immediately attempt a @Check[type:will|dc:21] save; on a success, its target is determined randomly as normal for confusion, and on a critical success the target is no longer confused.</p>"
                },
                "requirements": {
                    "value": ""
                },
                "rules": [],
                "slug": null,
                "source": {
                    "value": ""
                },
                "traits": {
                    "custom": "",
                    "rarity": "common",
                    "value": []
                },
                "trigger": {
                    "value": ""
                },
                "weapon": {
                    "value": ""
                }
            },
            "flags": {},
            "img": "systems/pf2e/icons/actions/Reaction.webp",
            "name": "Command Confusion",
            "sort": 1900000,
            "type": "action"
        },
        {
            "_id": "7tCu8SPq0TpF1lJX",
            "data": {
                "actionCategory": {
                    "value": "defensive"
                },
                "actionType": {
                    "value": "passive"
                },
                "actions": {
                    "value": null
                },
                "description": {
                    "value": "<p>@Template[type:emanation|distance:20]{20 feet} @Compendium[pf2e.bestiary-ability-glossary-srd.Aura]{Aura}</p>\n<hr />\n<p>A creature that starts its turn in the aura must succeed at a @Check[type:will|dc:21] save or become @Compendium[pf2e.conditionitems.Confused]{Confused} for 1 round; on a success, that creature is temporarily immune for 1 minute. A seugathi can suppress or activate this aura as a with the concentrate trait.</p>"
                },
                "requirements": {
                    "value": ""
                },
                "rules": [],
                "slug": null,
                "source": {
                    "value": ""
                },
                "traits": {
                    "custom": "",
                    "rarity": "common",
                    "value": [
                        "enchantment",
                        "mental"
                    ]
                },
                "trigger": {
                    "value": ""
                },
                "weapon": {
                    "value": ""
                }
            },
            "flags": {},
            "img": "systems/pf2e/icons/actions/Passive.webp",
            "name": "Mindfog Aura",
            "sort": 2000000,
            "type": "action"
        },
        {
            "_id": "tNfhf1JnOxOHfY86",
            "data": {
                "actionCategory": {
                    "value": "offensive"
                },
                "actionType": {
                    "value": "action"
                },
                "actions": {
                    "value": 1
                },
                "description": {
                    "value": "<p>The seugathi applies their seugathi venom to one weapon they wield.</p>"
                },
                "requirements": {
                    "value": ""
                },
                "rules": [],
                "slug": null,
                "source": {
                    "value": ""
                },
                "traits": {
                    "custom": "",
                    "rarity": "common",
                    "value": [
                        "manipulate"
                    ]
                },
                "trigger": {
                    "value": ""
                },
                "weapon": {
                    "value": ""
                }
            },
            "flags": {},
            "img": "systems/pf2e/icons/actions/OneAction.webp",
            "name": "Envenom Weapon",
            "sort": 2100000,
            "type": "action"
        },
        {
            "_id": "MnAW3prtfTZxnv7T",
            "data": {
                "actionCategory": {
                    "value": "offensive"
                },
                "actionType": {
                    "value": "passive"
                },
                "actions": {
                    "value": null
                },
                "description": {
                    "value": "<p>A seugathi can Cast a Spell from a magic item even if the spell isn't on their spell list. All such spells are occult spells and use the seugathi's innate spell DC and attack modifier.</p>"
                },
                "requirements": {
                    "value": ""
                },
                "rules": [],
                "slug": null,
                "source": {
                    "value": ""
                },
                "traits": {
                    "custom": "",
                    "rarity": "common",
                    "value": []
                },
                "trigger": {
                    "value": ""
                },
                "weapon": {
                    "value": ""
                }
            },
            "flags": {},
            "img": "systems/pf2e/icons/actions/Passive.webp",
            "name": "Magic Item Mastery",
            "sort": 2200000,
            "type": "action"
        },
        {
            "_id": "1tb7DMhGgvu0yKi2",
            "data": {
                "actionCategory": {
                    "value": "offensive"
                },
                "actionType": {
                    "value": "passive"
                },
                "actions": {
                    "value": null
                },
                "description": {
                    "value": "<p><strong>Saving Throw</strong> @Check[type:fortitude|dc:21]</p>\n<hr />\n<p><strong>Maximum Duration</strong> 6 rounds</p>\n<p><strong>Stage 1</strong> [[/r {1d6}[poison]]]{1d6 poison damage} and @Compendium[pf2e.conditionitems.Stupefied]{Stupefied 1} (1 round)</p>\n<p><strong>Stage 2</strong> [[/r {2d6}[poison]]]{2d6 poison damage} and @Compendium[pf2e.conditionitems.Deafened]{Deafened} and @Compendium[pf2e.conditionitems.Stupefied]{Stupefied 2} (1 round)</p>"
                },
                "requirements": {
                    "value": ""
                },
                "rules": [],
                "slug": null,
                "source": {
                    "value": ""
                },
                "traits": {
                    "custom": "",
                    "rarity": "common",
                    "value": [
                        "poison"
                    ]
                },
                "trigger": {
                    "value": ""
                },
                "weapon": {
                    "value": ""
                }
            },
            "flags": {},
            "img": "systems/pf2e/icons/actions/Passive.webp",
            "name": "Seugathi Venom",
            "sort": 2300000,
            "type": "action"
        },
        {
            "_id": "jLbg1YorL43XtXr8",
            "data": {
                "description": {
                    "value": ""
                },
                "mod": {
                    "value": 15
                },
                "proficient": {
                    "value": 0
                },
                "rules": [],
                "slug": null,
                "source": {
                    "value": ""
                },
                "traits": {
                    "custom": "",
                    "rarity": "common",
                    "value": []
                }
            },
            "flags": {},
            "img": "systems/pf2e/icons/default-icons/lore.svg",
            "name": "Acrobatics",
            "sort": 2400000,
            "type": "lore"
        },
        {
            "_id": "GZ30fJU5FHDsnaLu",
            "data": {
                "description": {
                    "value": ""
                },
                "mod": {
                    "value": 12
                },
                "proficient": {
                    "value": 0
                },
                "rules": [],
                "slug": null,
                "source": {
                    "value": ""
                },
                "traits": {
                    "custom": "",
                    "rarity": "common",
                    "value": []
                }
            },
            "flags": {},
            "img": "systems/pf2e/icons/default-icons/lore.svg",
            "name": "Crafting",
            "sort": 2500000,
            "type": "lore"
        },
        {
            "_id": "YEI9CIUnmNxrth19",
            "data": {
                "description": {
                    "value": ""
                },
                "mod": {
                    "value": 15
                },
                "proficient": {
                    "value": 0
                },
                "rules": [],
                "slug": null,
                "source": {
                    "value": ""
                },
                "traits": {
                    "custom": "",
                    "rarity": "common",
                    "value": []
                }
            },
            "flags": {},
            "img": "systems/pf2e/icons/default-icons/lore.svg",
            "name": "Intimidation",
            "sort": 2600000,
            "type": "lore"
        },
        {
            "_id": "8TmJKtpOBNZCQgWv",
            "data": {
                "description": {
                    "value": ""
                },
                "mod": {
                    "value": 12
                },
                "proficient": {
                    "value": 0
                },
                "rules": [],
                "slug": null,
                "source": {
                    "value": ""
                },
                "traits": {
                    "custom": "",
                    "rarity": "common",
                    "value": []
                }
            },
            "flags": {},
            "img": "systems/pf2e/icons/default-icons/lore.svg",
            "name": "Occultism",
            "sort": 2700000,
            "type": "lore"
        },
        {
            "_id": "fI7hSCpYGpbN4Mwq",
            "data": {
                "description": {
                    "value": ""
                },
                "mod": {
                    "value": 13
                },
                "proficient": {
                    "value": 0
                },
                "rules": [],
                "slug": null,
                "source": {
                    "value": ""
                },
                "traits": {
                    "custom": "",
                    "rarity": "common",
                    "value": []
                }
            },
            "flags": {},
            "img": "systems/pf2e/icons/default-icons/lore.svg",
            "name": "Stealth",
            "sort": 2800000,
            "type": "lore"
        },
        {
            "_id": "hjcRFLhxhWeO7Qvv",
            "data": {
                "description": {
                    "value": ""
                },
                "mod": {
                    "value": 10
                },
                "proficient": {
                    "value": 0
                },
                "rules": [],
                "slug": null,
                "source": {
                    "value": ""
                },
                "traits": {
                    "custom": "",
                    "rarity": "common",
                    "value": []
                }
            },
            "flags": {},
            "img": "systems/pf2e/icons/default-icons/lore.svg",
            "name": "Survival",
            "sort": 2900000,
            "type": "lore"
        }
    ],
    "name": "Seugathi Researcher",
    "token": {
        "disposition": -1,
        "height": 2,
        "img": "systems/pf2e/icons/default-icons/npc.svg",
        "name": "Seugathi Researcher",
        "width": 2
    },
    "type": "npc"
}
