{
    "_id": "DOxl0FDd21VMDOMP",
    "data": {
        "badge": null,
        "description": {
            "value": "<p>You gain @Compendium[pf2e.bestiary-ability-glossary-srd.Fast Healing]{Fast Healing} for 1 minute. This amount of fast healing starts at 3 increases by 1 for every 2 levels you have beyond 5th level.</p>"
        },
        "duration": {
            "expiry": "turn-start",
            "sustained": false,
            "unit": "minutes",
            "value": 1
        },
        "level": {
            "value": 1
        },
        "rules": [
            {
                "key": "FastHealing",
                "type": "fast-healing",
                "value": "max(3,ceil(@actor.level/2))"
            }
        ],
        "source": {
            "value": "Pathfinder #151: The Show Must Go On"
        },
        "start": {
            "initiative": null,
            "value": 0
        },
        "target": null,
        "tokenIcon": {
            "show": true
        },
        "traits": {
            "custom": "",
            "rarity": "common",
            "value": []
        }
    },
    "flags": {},
    "img": "systems/pf2e/icons/spells/heal-companion.webp",
    "name": "Effect: Reflection of Life (Fast Healing)",
    "type": "effect"
}
