{
    "_id": "QWW4hNCtLkOK1k71",
    "data": {
        "badge": null,
        "description": {
            "value": "<p>Immediate and intense headache, causing weakness 5 to mental damage for 8 hours</p>"
        },
        "duration": {
            "expiry": "turn-start",
            "sustained": false,
            "unit": "hours",
            "value": 8
        },
        "level": {
            "value": 1
        },
        "rules": [
            {
                "key": "Weakness",
                "type": "mental",
                "value": 5
            }
        ],
        "source": {
            "value": ""
        },
        "start": {
            "initiative": null,
            "value": 0
        },
        "target": null,
        "tokenIcon": {
            "show": true
        },
        "traits": {
            "custom": "",
            "rarity": "common",
            "value": []
        }
    },
    "flags": {},
    "img": "systems/pf2e/icons/spells/inveigle.webp",
    "name": "Effect: Immediate and intense headache",
    "type": "effect"
}
