{
    "_id": "JnQi8whNqY7sPW7x",
    "data": {
        "badge": null,
        "description": {
            "value": "<p>You can cast @Compendium[pf2e.spells-srd.Dancing Lights]{Dancing Lights} as a primal cantrip once within the next day.</p>"
        },
        "duration": {
            "expiry": "turn-start",
            "sustained": false,
            "unit": "days",
            "value": 1
        },
        "level": {
            "value": 1
        },
        "rules": [],
        "source": {
            "value": ""
        },
        "start": {
            "initiative": null,
            "value": 0
        },
        "target": null,
        "tokenIcon": {
            "show": true
        },
        "traits": {
            "custom": "",
            "rarity": "common",
            "value": []
        }
    },
    "flags": {},
    "img": "systems/pf2e/icons/spells/dancing-lights.webp",
    "name": "Mixed Drink: Dancing Lights",
    "type": "effect"
}
