{
    "_id": "TzltHdjikojp7Um7",
    "data": {
        "abilities": {
            "cha": {
                "mod": 5
            },
            "con": {
                "mod": 2
            },
            "dex": {
                "mod": 5
            },
            "int": {
                "mod": 0
            },
            "str": {
                "mod": 3
            },
            "wis": {
                "mod": 2
            }
        },
        "attributes": {
            "ac": {
                "details": "",
                "value": 22
            },
            "allSaves": {
                "value": null
            },
            "hp": {
                "details": "",
                "max": 83,
                "temp": 0,
                "value": 83
            },
            "initiative": {
                "ability": "perception"
            },
            "perception": {
                "value": 11
            },
            "speed": {
                "otherSpeeds": [
                    {
                        "type": "fly",
                        "value": "40"
                    }
                ],
                "value": "0"
            }
        },
        "details": {
            "alignment": {
                "value": "CE"
            },
            "blurb": "",
            "creatureType": "",
            "level": {
                "value": 5
            },
            "privateNotes": "",
            "publicNotes": "<p>Penanggalans feed on the blood and entrails of the young. When their cannibalistic hunger strikes, penanggalans bathe their bodies in an alchemical substance that smells like vinegar. Once submerged in the concoction, their neck rips from side to side, allowing their head to float upward and pull out their lungs, stomach, and intestines. They leave their bodies in the vinegar bath much like a molting crab leaves its old shell, then fly off to find a victim filled with blood and guts.</p>\n<p>As grotesque as these creatures are when hungry, the penanggalan appears young and healthy while wearing their body. Such is the nature of their existence: they consorted with otherworldy beings, gaining a lifetime of youth in exchange for an evil hunger for the young. But they are not immortal. They age and die normally like the people they once were-they just retain their youthfulness throughout this existence.</p>\n<p>It can be difficult to spot a penanggalan among the populace. The faint scar ringing their neck at the point of separation can be explained away as a blemish, and it can be hidden under a flashy necklace. Meanwhile the faint, sour scent of a penanggalan's preserved body, while peculiar, is not uncommon in the sweaty tropics they frequent.</p>",
            "source": {
                "value": "Pathfinder Bestiary 3"
            }
        },
        "resources": {},
        "saves": {
            "fortitude": {
                "saveDetail": "",
                "value": 9
            },
            "reflex": {
                "saveDetail": "",
                "value": 16
            },
            "will": {
                "saveDetail": "",
                "value": 11
            }
        },
        "traits": {
            "ci": [],
            "di": {
                "custom": "",
                "value": []
            },
            "dr": [],
            "dv": [
                {
                    "type": "slashing",
                    "value": 5
                }
            ],
            "languages": {
                "custom": "",
                "selected": [],
                "value": [
                    "aklo",
                    "common"
                ]
            },
            "rarity": "common",
            "senses": {
                "value": "darkvision"
            },
            "size": {
                "value": "med"
            },
            "traits": {
                "custom": "",
                "value": [
                    "aberration",
                    "tanggal"
                ]
            }
        }
    },
    "flags": {},
    "img": "systems/pf2e/icons/default-icons/npc.svg",
    "items": [
        {
            "_id": "RE9BxxRzi4ENZrXg",
            "data": {
                "attack": {
                    "value": ""
                },
                "attackEffects": {
                    "custom": "",
                    "value": [
                        "penanggalan-bile"
                    ]
                },
                "bonus": {
                    "value": 14
                },
                "damageRolls": {
                    "0": {
                        "damage": "2d6+5",
                        "damageType": "piercing"
                    }
                },
                "description": {
                    "value": ""
                },
                "rules": [],
                "slug": null,
                "source": {
                    "value": ""
                },
                "traits": {
                    "custom": "",
                    "rarity": "common",
                    "value": [
                        "finesse"
                    ]
                },
                "weaponType": {
                    "value": "melee"
                }
            },
            "flags": {},
            "img": "systems/pf2e/icons/default-icons/melee.svg",
            "name": "Proboscis Tongue",
            "sort": 100000,
            "type": "melee"
        },
        {
            "_id": "PHZ0zixmQt2ljkJm",
            "data": {
                "attack": {
                    "value": ""
                },
                "attackEffects": {
                    "custom": "",
                    "value": [
                        "grab"
                    ]
                },
                "bonus": {
                    "value": 14
                },
                "damageRolls": {
                    "0": {
                        "damage": "2d4+5",
                        "damageType": "bludgeoning"
                    }
                },
                "description": {
                    "value": ""
                },
                "rules": [],
                "slug": null,
                "source": {
                    "value": ""
                },
                "traits": {
                    "custom": "",
                    "rarity": "common",
                    "value": []
                },
                "weaponType": {
                    "value": "melee"
                }
            },
            "flags": {},
            "img": "systems/pf2e/icons/default-icons/melee.svg",
            "name": "Entrails",
            "sort": 200000,
            "type": "melee"
        },
        {
            "_id": "m1kfe61fI2Y0NgZd",
            "data": {
                "actionCategory": {
                    "value": "interaction"
                },
                "actionType": {
                    "value": "passive"
                },
                "actions": {
                    "value": null
                },
                "description": {
                    "value": "<p>@Localize[PF2E.NPC.Abilities.Glossary.Darkvision]</p>"
                },
                "requirements": {
                    "value": ""
                },
                "rules": [],
                "slug": "darkvision",
                "source": {
                    "value": ""
                },
                "traits": {
                    "custom": "",
                    "rarity": "common",
                    "value": []
                },
                "trigger": {
                    "value": ""
                },
                "weapon": {
                    "value": ""
                }
            },
            "flags": {
                "core": {
                    "sourceId": "Compendium.pf2e.bestiary-ability-glossary-srd.qCCLZhnp2HhP3Ex6"
                }
            },
            "img": "systems/pf2e/icons/actions/Passive.webp",
            "name": "Darkvision",
            "sort": 300000,
            "type": "action"
        },
        {
            "_id": "ymApeJr8ZiUS6OhX",
            "data": {
                "actionCategory": {
                    "value": "defensive"
                },
                "actionType": {
                    "value": "passive"
                },
                "actions": {
                    "value": null
                },
                "description": {
                    "value": "<p>When the penanggalan takes slashing damage, their wound spews bile on adjacent creatures, dealing [[/r {2d10}[poison]]]{2d10 poison damage} (@Check[type:fortitude|dc:19|basic:true] save).</p>\n<p>The penanggalan loses their spewing bile and penanggalan bile abilities until the end of their next turn.</p>"
                },
                "requirements": {
                    "value": ""
                },
                "rules": [],
                "slug": null,
                "source": {
                    "value": ""
                },
                "traits": {
                    "custom": "",
                    "rarity": "common",
                    "value": []
                },
                "trigger": {
                    "value": ""
                },
                "weapon": {
                    "value": ""
                }
            },
            "flags": {},
            "img": "systems/pf2e/icons/actions/Passive.webp",
            "name": "Spewing Bile",
            "sort": 400000,
            "type": "action"
        },
        {
            "_id": "HX6LFkk4karuzyse",
            "data": {
                "actionCategory": {
                    "value": "offensive"
                },
                "actionType": {
                    "value": "action"
                },
                "actions": {
                    "value": 1
                },
                "description": {
                    "value": "<p>[[/r {2d4+3}[bludgeoning]]]{2d4+3 bludgeoning damage}, @Check[type:fortitude|dc:21|basic:true]</p>\n<hr />\n<p>@Localize[PF2E.NPC.Abilities.Glossary.Constrict]</p>"
                },
                "requirements": {
                    "value": ""
                },
                "rules": [],
                "slug": "constrict",
                "source": {
                    "value": ""
                },
                "traits": {
                    "custom": "",
                    "rarity": "common",
                    "value": []
                },
                "trigger": {
                    "value": ""
                },
                "weapon": {
                    "value": ""
                }
            },
            "flags": {
                "core": {
                    "sourceId": "Compendium.pf2e.bestiary-ability-glossary-srd.g26YiEIfSHCpLocV"
                }
            },
            "img": "systems/pf2e/icons/actions/OneAction.webp",
            "name": "Constrict",
            "sort": 500000,
            "type": "action"
        },
        {
            "_id": "6m81W89YrbQ1gHjG",
            "data": {
                "actionCategory": {
                    "value": "offensive"
                },
                "actionType": {
                    "value": "action"
                },
                "actions": {
                    "value": 1
                },
                "description": {
                    "value": "<p>The penanggalan's tongue extends, the membrane stretching and becoming translucent. Until the end of the turn, the penanggalan's proboscis tongue Strikes have a 10-foot reach, and any target is @Compendium[pf2e.conditionitems.Flat-Footed]{Flat-Footed} against the Strike unless it has a Perception DC of 22 or higher or the ability to precisely sense @Compendium[pf2e.conditionitems.Invisible]{Invisible} things.</p>"
                },
                "requirements": {
                    "value": ""
                },
                "rules": [],
                "slug": null,
                "source": {
                    "value": ""
                },
                "traits": {
                    "custom": "",
                    "rarity": "common",
                    "value": []
                },
                "trigger": {
                    "value": ""
                },
                "weapon": {
                    "value": ""
                }
            },
            "flags": {},
            "img": "systems/pf2e/icons/actions/OneAction.webp",
            "name": "Elongate Tongue",
            "sort": 600000,
            "type": "action"
        },
        {
            "_id": "t4NelvHMno5EsQBb",
            "data": {
                "actionCategory": {
                    "value": "offensive"
                },
                "actionType": {
                    "value": "passive"
                },
                "actions": {
                    "value": null
                },
                "description": {
                    "value": "<p>Rest doesn't decrease the drained value from penanggalan bile</p>\n<p><strong>Saving Throw</strong> @Check[type:fortitude|dc:19]</p>\n<p><strong>Stage 1</strong> @Compendium[pf2e.conditionitems.Drained]{Drained 1} (1 week)</p>\n<p><strong>Stage 2</strong> @Compendium[pf2e.conditionitems.Drained]{Drained 2} (1 week)</p>\n<p><strong>Stage 3</strong> @Compendium[pf2e.conditionitems.Drained]{Drained 3} (1 week)</p>\n<p><strong>Stage 4</strong> dead</p>"
                },
                "requirements": {
                    "value": ""
                },
                "rules": [],
                "slug": null,
                "source": {
                    "value": ""
                },
                "traits": {
                    "custom": "",
                    "rarity": "common",
                    "value": [
                        "disease"
                    ]
                },
                "trigger": {
                    "value": ""
                },
                "weapon": {
                    "value": ""
                }
            },
            "flags": {},
            "img": "systems/pf2e/icons/actions/Passive.webp",
            "name": "Penanggalan Bile",
            "sort": 700000,
            "type": "action"
        },
        {
            "_id": "IVnGWQzHYIx6BwIf",
            "data": {
                "actionCategory": {
                    "value": "offensive"
                },
                "actionType": {
                    "value": "action"
                },
                "actions": {
                    "value": 3
                },
                "description": {
                    "value": "<p>The penanggalan inserts their entrails into their humanoid body, allowing them to appear as and move about like a normal human. The body has 10 Hit Points and the same defenses as the penanggalan.</p>\n<p>When the body is destroyed, the penanggalan is ejected unharmed. The body becomes a corpse, and if it is neither controlled by the penanggalan nor stored in an alchemical vat, it decays as normal.</p>"
                },
                "requirements": {
                    "value": ""
                },
                "rules": [],
                "slug": null,
                "source": {
                    "value": ""
                },
                "traits": {
                    "custom": "",
                    "rarity": "common",
                    "value": [
                        "concentrate",
                        "polymorph",
                        "transmutation"
                    ]
                },
                "trigger": {
                    "value": ""
                },
                "weapon": {
                    "value": ""
                }
            },
            "flags": {},
            "img": "systems/pf2e/icons/actions/ThreeActions.webp",
            "name": "Ride Corpse",
            "sort": 800000,
            "type": "action"
        },
        {
            "_id": "YZALPaj0pw2QQhWF",
            "data": {
                "actionCategory": {
                    "value": "offensive"
                },
                "actionType": {
                    "value": "action"
                },
                "actions": {
                    "value": 1
                },
                "description": {
                    "value": "<p>@Localize[PF2E.NPC.Abilities.Glossary.Grab]</p>"
                },
                "requirements": {
                    "value": ""
                },
                "rules": [],
                "slug": "grab",
                "source": {
                    "value": ""
                },
                "traits": {
                    "custom": "",
                    "rarity": "common",
                    "value": []
                },
                "trigger": {
                    "value": ""
                },
                "weapon": {
                    "value": ""
                }
            },
            "flags": {
                "core": {
                    "sourceId": "Compendium.pf2e.bestiary-ability-glossary-srd.Tkd8sH4pwFIPzqTr"
                }
            },
            "img": "systems/pf2e/icons/actions/OneAction.webp",
            "name": "Grab",
            "sort": 900000,
            "type": "action"
        },
        {
            "_id": "ybPYVosVVPoXjCAM",
            "data": {
                "description": {
                    "value": ""
                },
                "mod": {
                    "value": 14
                },
                "proficient": {
                    "value": 0
                },
                "rules": [],
                "slug": null,
                "source": {
                    "value": ""
                },
                "traits": {
                    "custom": "",
                    "rarity": "common",
                    "value": []
                }
            },
            "flags": {},
            "img": "systems/pf2e/icons/default-icons/lore.svg",
            "name": "Deception",
            "sort": 1000000,
            "type": "lore"
        },
        {
            "_id": "7lyJsqo3LLoBhxdo",
            "data": {
                "description": {
                    "value": ""
                },
                "mod": {
                    "value": 12
                },
                "proficient": {
                    "value": 0
                },
                "rules": [],
                "slug": null,
                "source": {
                    "value": ""
                },
                "traits": {
                    "custom": "",
                    "rarity": "common",
                    "value": []
                }
            },
            "flags": {},
            "img": "systems/pf2e/icons/default-icons/lore.svg",
            "name": "Intimidation",
            "sort": 1100000,
            "type": "lore"
        },
        {
            "_id": "fCe9kl0ZVqmf44Qi",
            "data": {
                "description": {
                    "value": ""
                },
                "mod": {
                    "value": 9
                },
                "proficient": {
                    "value": 0
                },
                "rules": [],
                "slug": null,
                "source": {
                    "value": ""
                },
                "traits": {
                    "custom": "",
                    "rarity": "common",
                    "value": []
                }
            },
            "flags": {},
            "img": "systems/pf2e/icons/default-icons/lore.svg",
            "name": "Midwifery Lore",
            "sort": 1200000,
            "type": "lore"
        },
        {
            "_id": "HNBSxS1KTVtqDZI0",
            "data": {
                "description": {
                    "value": ""
                },
                "mod": {
                    "value": 14
                },
                "proficient": {
                    "value": 0
                },
                "rules": [],
                "slug": null,
                "source": {
                    "value": ""
                },
                "traits": {
                    "custom": "",
                    "rarity": "common",
                    "value": []
                }
            },
            "flags": {},
            "img": "systems/pf2e/icons/default-icons/lore.svg",
            "name": "Stealth",
            "sort": 1300000,
            "type": "lore"
        }
    ],
    "name": "Penanggalan",
    "token": {
        "disposition": -1,
        "height": 1,
        "img": "systems/pf2e/icons/default-icons/npc.svg",
        "name": "Penanggalan",
        "width": 1
    },
    "type": "npc"
}
