{
    "_id": "4pBHIGtTK9yQmZ7h",
    "data": {
        "actionCategory": {
            "value": "interaction"
        },
        "actionType": {
            "value": "passive"
        },
        "actions": {
            "value": null
        },
        "deathNote": false,
        "description": {
            "value": "<p>The beheaded has imprecise @Compendium[pf2e.bestiary-ability-glossary-srd.Lifesense]{Lifesense} out to 60 feet.</p>"
        },
        "requirements": {
            "value": ""
        },
        "rules": [],
        "source": {
            "value": "Pathfinder Book of the Dead"
        },
        "traits": {
            "custom": "",
            "rarity": "common",
            "value": []
        },
        "trigger": {
            "value": ""
        }
    },
    "flags": {},
    "img": "systems/pf2e/icons/actions/Passive.webp",
    "name": "(Beheaded) Lifesense 60 feet",
    "type": "action"
}
