{
    "_id": "OPGu0WsUHpHSmu80",
    "data": {
        "actionCategory": {
            "value": "defensive"
        },
        "actionType": {
            "value": "passive"
        },
        "actions": {
            "value": null
        },
        "description": {
            "value": "<p>A divine warden can't attack a creature that openly wears or displays the religious symbol of the divine warden's patron deity unless that creature uses a hostile action against the divine warden first. If the divine warden is intelligent, it can also attack a creature it believes isn't faithful to its deity or who wears the religious symbol as a ruse (typically after succeeding at a Perception check to Sense Motive).</p>"
        },
        "requirements": {
            "value": ""
        },
        "rules": [],
        "source": {
            "value": "Pathfinder Bestiary 3"
        },
        "traits": {
            "custom": "",
            "rarity": "common",
            "value": [
                "abjuration",
                "divine"
            ]
        },
        "trigger": {
            "value": ""
        },
        "weapon": {
            "value": ""
        }
    },
    "flags": {},
    "img": "systems/pf2e/icons/actions/Passive.webp",
    "name": "(Divine Warden) Faith Bound",
    "type": "action"
}
