{
    "_id": "IxJbFJ8dG5RbZWBD",
    "data": {
        "actionCategory": {
            "value": "offensive"
        },
        "actionType": {
            "value": "action"
        },
        "actions": {
            "value": 2
        },
        "description": {
            "value": "<p>The graveknight unleashes a @Template[type:cone|distance:30] of energy. Creatures in the area take [[/r {1d12}[damageType]]]{1d12 damageType damage}, plus an additional 1d12 damage for every two levels the graveknight has (@Check[type:reflex|dc:|basic:true] save).</p>\n<p>The graveknight can use this ability once every [[/br 1d4 #Recharge Devastating Blast]]{1d4 rounds}.</p>\n<p>This energy damage is of the same type as that of its ruinous weapons; <em>Devastating Blast gains the associated energy trait</em>.</p>"
        },
        "requirements": {
            "value": ""
        },
        "rules": [],
        "source": {
            "value": "Pathfinder Bestiary"
        },
        "traits": {
            "custom": "",
            "rarity": "common",
            "value": [
                "arcane",
                "evocation"
            ]
        },
        "trigger": {
            "value": ""
        },
        "weapon": {
            "value": ""
        }
    },
    "flags": {},
    "img": "systems/pf2e/icons/actions/TwoActions.webp",
    "name": "(Graveknight) Devastating Blast",
    "type": "action"
}
