{
    "_id": "wh2T2L5SMsa32RyE",
    "data": {
        "actionCategory": {
            "value": "offensive"
        },
        "actionType": {
            "value": "passive"
        },
        "actions": {
            "value": null
        },
        "description": {
            "value": "<p>The lich's hand Strike deals cold damage instead of negative, and instead of being paralyzed, the target is @Compendium[pf2e.conditionitems.Slowed]{Slowed 2}.</p>\n<p>A successful @Check[type:fortitude|name:Cold Beyond Cold|traits:arcane,curse,necromancy] save reduces this to @Compendium[pf2e.conditionitems.Slowed]{Slowed 1} (or negates it on a critical success).</p>"
        },
        "requirements": {
            "value": ""
        },
        "rules": [],
        "source": {
            "value": "Pathfinder Bestiary"
        },
        "traits": {
            "custom": "",
            "rarity": "common",
            "value": []
        },
        "trigger": {
            "value": ""
        },
        "weapon": {
            "value": ""
        }
    },
    "flags": {},
    "img": "systems/pf2e/icons/actions/Passive.webp",
    "name": "(Lich) Cold Beyond Cold",
    "type": "action"
}
