{
    "_id": "gbKpCw21tEmehq6e",
    "data": {
        "actionCategory": {
            "value": "defensive"
        },
        "actionType": {
            "value": "passive"
        },
        "actions": {
            "value": null
        },
        "deathNote": true,
        "description": {
            "value": "<p>When a siabrae is destroyed, they can attempt a @Check[type:flat|dc:10] (they automatically succeed if they're standing on blighted or diseased terrain, and automatically fail if they're standing on sacred ground). If the flat check succeeds, the siabrae's body crumbles to dust and absorbs into the earth. After [[/r 1d10 #days]]{1d10 days}, the siabrae's body reforms from a mass of unworked stone large enough to create a new body; this stone is in a random location within 1d10 miles of where the siabrae was destroyed. The siabrae emerges from the stone with a peal of thunder, though without any of their gear.</p>"
        },
        "requirements": {
            "value": ""
        },
        "rules": [],
        "source": {
            "value": "Pathfinder Book of the Dead"
        },
        "traits": {
            "custom": "",
            "rarity": "common",
            "value": [
                "necromancy",
                "primal"
            ]
        },
        "trigger": {
            "value": ""
        }
    },
    "flags": {},
    "img": "systems/pf2e/icons/actions/Passive.webp",
    "name": "(Siabrae) Rejuvenation",
    "type": "action"
}
