{
    "_id": "DIYZNvVP28U2UnDb",
    "data": {
        "actionCategory": {
            "value": "offensive"
        },
        "actionType": {
            "value": "passive"
        },
        "actions": {
            "value": null
        },
        "deathNote": false,
        "description": {
            "value": "<p>The siabrae can @Compendium[pf2e.actionspf2e.Burrow]{Burrow} through any earthen matter, including rock. When it does so, the siabrae moves at its full burrow Speed, leaving no tunnels or signs of its passing.</p>"
        },
        "requirements": {
            "value": ""
        },
        "rules": [],
        "source": {
            "value": "Pathfinder Book of the Dead"
        },
        "traits": {
            "custom": "",
            "rarity": "common",
            "value": []
        },
        "trigger": {
            "value": ""
        }
    },
    "flags": {},
    "img": "systems/pf2e/icons/actions/Passive.webp",
    "name": "(Siabrae) Earth Glide",
    "type": "action"
}
