{
    "_id": "WUXY9F8SLVQSC2b8",
    "data": {
        "actionCategory": {
            "value": "offensive"
        },
        "actionType": {
            "value": "passive"
        },
        "actions": {
            "value": null
        },
        "deathNote": false,
        "description": {
            "value": "<p>Tiny shards break off the siabrae's antlers when they attack, lodging in the target's wounds and inflicting a terrible curse. A creature damaged by a siabrae's stone antlers Strike must succeed at a @Check[type:fortitude|dc:] save against the siabrae's spell DC - 4 or become @Compendium[pf2e.conditionitems.Clumsy]{Clumsy 2} for [[/r 1d4 #rounds]]{1d4 rounds} on a failure. If the creature critically fails, or fails while already clumsy 2 or greater, the creature is petrified.</p>"
        },
        "requirements": {
            "value": ""
        },
        "rules": [],
        "source": {
            "value": "Pathfinder Book of the Dead"
        },
        "traits": {
            "custom": "",
            "rarity": "common",
            "value": [
                "curse",
                "earth",
                "incapacitation",
                "necromancy",
                "primal"
            ]
        },
        "trigger": {
            "value": ""
        }
    },
    "flags": {},
    "img": "systems/pf2e/icons/actions/Passive.webp",
    "name": "(Siabrae) Stony Shards",
    "type": "action"
}
