{
    "_id": "9oy2zWxy7Klk9FxR",
    "data": {
        "actionCategory": {
            "value": "offensive"
        },
        "actionType": {
            "value": "passive"
        },
        "actions": {
            "value": null
        },
        "description": {
            "value": "<p>The skeleton is wreathed with fire, which doesn't consume its bones or gear.</p>\n<p>The skeleton gains immunity to fire and weakness 5 to cold, loses its resistance to cold, and its Strikes deal additional persistent fire damage equal to half the skeleton's level (minimum 1 damage).</p>"
        },
        "requirements": {
            "value": ""
        },
        "rules": [],
        "source": {
            "value": "Pathfinder Bestiary 3"
        },
        "traits": {
            "custom": "",
            "rarity": "common",
            "value": []
        },
        "trigger": {
            "value": ""
        },
        "weapon": {
            "value": ""
        }
    },
    "flags": {},
    "img": "systems/pf2e/icons/actions/Passive.webp",
    "name": "(Skeleton) Blaze",
    "type": "action"
}
