{
    "_id": "rdQzd5ClgGPP4Qmt",
    "data": {
        "actionCategory": {
            "value": "offensive"
        },
        "actionType": {
            "value": "passive"
        },
        "actions": {
            "value": null
        },
        "deathNote": false,
        "description": {
            "value": "<p>The skeleton is particularly fast and nimble. Its land Speed increases by 10 feet and it has a climb Speed of 20 feet. In addition, it gains the @Compendium[pf2e.bestiary-ability-glossary-srd.Nimble Dodge]{Nimble Dodge} reaction.</p>"
        },
        "requirements": {
            "value": ""
        },
        "rules": [
            {
                "key": "FlatModifier",
                "selector": "land-speed",
                "value": 10
            },
            {
                "key": "BaseSpeed",
                "selector": "climb-speed",
                "value": 20
            },
            {
                "key": "GrantItem",
                "uuid": "Compendium.pf2e.bestiary-ability-glossary-srd.Nimble Dodge"
            }
        ],
        "source": {
            "value": "Pathfinder Book of the Dead"
        },
        "traits": {
            "custom": "",
            "rarity": "common",
            "value": []
        },
        "trigger": {
            "value": ""
        }
    },
    "flags": {},
    "img": "systems/pf2e/icons/actions/Passive.webp",
    "name": "(Skeleton) Nimble",
    "type": "action"
}
