{
    "_id": "EpDyZ0mG9beLkBna",
    "data": {
        "actionCategory": {
            "value": "offensive"
        },
        "actionType": {
            "value": "action"
        },
        "actions": {
            "value": 1
        },
        "deathNote": false,
        "description": {
            "value": "<p><strong>Requirements</strong> A @Compendium[pf2e.conditionitems.Grabbed]{Grabbed}, @Compendium[pf2e.conditionitems.Paralyzed]{Paralyzed}, @Compendium[pf2e.conditionitems.Restrained]{Restrained}, @Compendium[pf2e.conditionitems.Unconscious]{Unconscious}, or willing creature is within the vetalarana's reach;</p>\n<p><strong>Effect</strong> The vetalarana seizes a creature and consumes its memories. This requires an Athletics check against the victim's Fortitude DC if the victim is grabbed and is automatic for any of the other conditions. The victim is @Compendium[pf2e.conditionitems.Stupefied]{Stupefied 1}, and the vetalarana regains HP equal to 10% of the vetalarana's maximum HP, gaining any excess as temporary Hit Points. Draining Thoughts from a creature that is already stupefied doesn't restore any HP to the vetalarana but increases the victim's stupefied value by 1. Additionally, the vetalarana views one of the victim's memories.</p>\n<p>A victim's stupefied condition value decreases by 1 every week.</p>\n<p>A victim that becomes stupefied 5 in this way is rendered comatose, becoming permanently @Compendium[pf2e.conditionitems.Unconscious]{Unconscious}. As long as the vetalarana lives, a comatose victim can't regain consciousness, and its stupefied condition doesn't decrease.</p>"
        },
        "requirements": {
            "value": ""
        },
        "rules": [],
        "source": {
            "value": "Pathfinder Book of the Dead"
        },
        "traits": {
            "custom": "",
            "rarity": "common",
            "value": [
                "divination",
                "mental",
                "occult"
            ]
        },
        "trigger": {
            "value": ""
        }
    },
    "flags": {},
    "img": "systems/pf2e/icons/actions/OneAction.webp",
    "name": "(Vampire, Vetalarana, Basic) Drain Thoughts",
    "type": "action"
}
