{
    "_id": "sWDlb5vJRK092MMt",
    "data": {
        "actionCategory": {
            "value": "offensive"
        },
        "actionType": {
            "value": "passive"
        },
        "actions": {
            "value": null
        },
        "deathNote": false,
        "description": {
            "value": "<p><strong>Frequency</strong> once per day;</p>\n<p><strong>Effect</strong> The vetalarana manipulator spends 10 minutes to take psychic control of the creatures they've rendered comatose with Drain Thoughts. This has the effects of the <em>@Compendium[pf2e.spells-srd.Possession]{Possession}</em> spell, but lasts for up to 6 hours, has a range of 1 mile, and the vetalarana can control a number of comatose victims at a time equal to half the vetalarana's level. A comatose victim can't resist this possession and automatically gets a critical failure on its saving throw against Control Comatose.</p>\n<p>As long as a comatose victim is controlled by a vetalarana manipulator in this way, the victim's stupefied and @Compendium[pf2e.conditionitems.Unconscious]{Unconscious} conditions are temporarily suppressed.</p>"
        },
        "requirements": {
            "value": ""
        },
        "rules": [],
        "source": {
            "value": "Pathfinder Book of the Dead"
        },
        "traits": {
            "custom": "",
            "rarity": "common",
            "value": []
        },
        "trigger": {
            "value": ""
        }
    },
    "flags": {},
    "img": "systems/pf2e/icons/actions/Passive.webp",
    "name": "(Vampire, Vetalarana, Manipulator) Control Comatose",
    "type": "action"
}
