{
    "_id": "ipGBYIXk4u47Mp1D",
    "data": {
        "actionCategory": {
            "value": "offensive"
        },
        "actionType": {
            "value": "action"
        },
        "actions": {
            "value": 2
        },
        "description": {
            "value": "<p>If the zombie is adjacent to a helpless or unconscious creature, or a deceased creature that died in the past hour, the zombie can feast upon its flesh to heal itself.</p>\n<p>This restores an amount of Hit Points equal to the zombie's level. If the creature is alive, the zombie deals damage equal to its jaws, fist, or claw damage.</p>"
        },
        "requirements": {
            "value": ""
        },
        "rules": [],
        "source": {
            "value": "Pathfinder Bestiary"
        },
        "traits": {
            "custom": "",
            "rarity": "common",
            "value": [
                "manipulate"
            ]
        },
        "trigger": {
            "value": ""
        },
        "weapon": {
            "value": ""
        }
    },
    "flags": {},
    "img": "systems/pf2e/icons/actions/TwoActions.webp",
    "name": "(Zombie) Feast",
    "type": "action"
}
