{
    "_id": "Qf94y985g0o6lEoN",
    "data": {
        "actionCategory": {
            "value": "offensive"
        },
        "actionType": {
            "value": "passive"
        },
        "actions": {
            "value": null
        },
        "deathNote": false,
        "description": {
            "value": "<p>The zombies work in groups to rip foes to pieces. Whenever a zombie with this ability successfully @Compendium[pf2e.actionspf2e.Grapple]{Grapples} a foe that's already @Compendium[pf2e.conditionitems.Grabbed]{Grabbed} or @Compendium[pf2e.conditionitems.Restrained]{Restrained} by another zombie with this ability, they violently struggle over the poor victim, dealing fist damage (or a similar Strike's damage if the zombie doesn't have a fist Strike). If the grapple is a critical success, the target takes double damage and ceases being grabbed or restrained by any other creatures. If the zombie has the @Compendium[pf2e.bestiary-ability-glossary-srd.Grab]{Grab} ability, using Grab deals half its fist Strike damage to the target.</p>"
        },
        "requirements": {
            "value": ""
        },
        "rules": [
            {
                "key": "Note",
                "outcome": [
                    "criticalSuccess",
                    "success"
                ],
                "predicate": {
                    "all": [
                        "action:grapple"
                    ]
                },
                "selector": "athletics",
                "text": "<p><strong>{item|name}</strong></p>{item|data.description.value}"
            }
        ],
        "source": {
            "value": "Pathfinder Book of the Dead"
        },
        "traits": {
            "custom": "",
            "rarity": "common",
            "value": []
        },
        "trigger": {
            "value": ""
        }
    },
    "flags": {},
    "img": "systems/pf2e/icons/actions/Passive.webp",
    "name": "(Zombie) Tearing Grapple",
    "type": "action"
}
