{
    "_id": "4O7wKZdeAemTEbvG",
    "data": {
        "attributes": {
            "ac": {
                "value": 16
            },
            "hardness": 5,
            "hp": {
                "details": "",
                "max": 20,
                "temp": 0,
                "value": 20
            },
            "stealth": {
                "details": "",
                "value": 0
            }
        },
        "creatureType": "",
        "details": {
            "description": "<p>Pressure-sensitive panels in the floor connect to a stone slab hidden in a hallway's ceiling.</p>",
            "disable": "<p>@Check[type:thievery|dc:15|traits:hazard|name:Disable Floor Panels] on the floor panels before the slab falls.</p>",
            "isComplex": false,
            "level": {
                "value": 1
            },
            "reset": "",
            "routine": ""
        },
        "saves": {
            "fortitude": {
                "saveDetail": "",
                "value": 10
            },
            "reflex": {
                "saveDetail": "",
                "value": 2
            },
            "will": {
                "saveDetail": "",
                "value": 0
            }
        },
        "source": {
            "value": "Pathfinder Beginner Box"
        },
        "statusEffects": [],
        "traits": {
            "di": {
                "custom": "Sneak Attack",
                "selected": {},
                "value": [
                    "critical-hits"
                ]
            },
            "dr": [],
            "dv": [],
            "rarity": "common",
            "size": {
                "value": "med"
            },
            "traits": {
                "custom": "",
                "value": []
            }
        }
    },
    "flags": {},
    "img": "systems/pf2e/icons/default-icons/hazard.svg",
    "items": [
        {
            "_id": "WpW23oqzbYlPDDuP",
            "data": {
                "actionCategory": {
                    "value": "offensive"
                },
                "actionType": {
                    "value": "reaction"
                },
                "actions": {
                    "value": null
                },
                "description": {
                    "value": "<p>When pressure is placed on any floor tile, the door falls, closing off the hallway. The stone slab deals [[/r {3d8}[bludgeoning]]]{3d8 bludgeoning damage} to anyone beneath or adjacent to the slab when it drops and pushes them out of its space in a random direction. A creature that succeeds at a @Check[type:reflex|dc:17|traits:damaging-effect,hazard] save takes no damage and rolls out of the way in a random direction. On a critical success, they roll out of the way and can choose which direction.</p>\n<p>Lifting the fallen slab requires a successful @Check[type:athletics|dc:25|traits:hazard] check. Hitting the floor panels triggers the trap. The slab uses the same AC and saves as the trap, but it has Hardness 12, HP 48 (BT 24).</p>"
                },
                "requirements": {
                    "value": ""
                },
                "rules": [],
                "slug": null,
                "source": {
                    "value": ""
                },
                "traits": {
                    "custom": "",
                    "rarity": "common",
                    "value": []
                },
                "trigger": {
                    "value": ""
                }
            },
            "flags": {},
            "img": "systems/pf2e/icons/actions/Reaction.webp",
            "name": "Slam Shut",
            "sort": 0,
            "type": "action"
        }
    ],
    "name": "Slamming Door (BB)",
    "token": {
        "disposition": 0,
        "height": 1,
        "img": "systems/pf2e/icons/default-icons/hazard.svg",
        "name": "Slamming Door",
        "width": 1
    },
    "type": "hazard"
}
