{
    "_id": "661SdyR6HhzsmYJN",
    "data": {
        "abilities": {
            "cha": {
                "mod": -5
            },
            "con": {
                "mod": 2
            },
            "dex": {
                "mod": 2
            },
            "int": {
                "mod": -5
            },
            "str": {
                "mod": 4
            },
            "wis": {
                "mod": 4
            }
        },
        "attributes": {
            "ac": {
                "details": "",
                "value": 20
            },
            "allSaves": {
                "value": ""
            },
            "hp": {
                "details": "",
                "max": 50,
                "temp": 0,
                "value": 50
            },
            "initiative": {
                "ability": "perception"
            },
            "perception": {
                "value": 12
            },
            "speed": {
                "otherSpeeds": [],
                "value": "25"
            }
        },
        "details": {
            "alignment": {
                "value": "N"
            },
            "blurb": "",
            "creatureType": "",
            "level": {
                "value": 4
            },
            "privateNotes": "",
            "publicNotes": "<p>This mechanical humanoid serves the role of a gatekeeper or even a greeter, but its strength also enables it to repel unwanted visitors.</p>\n<hr />\n<p>In the Grand Duchy of Alkenstar, the creation of constructs is complicated by the intermittent interference of the nearby Mana Wastes. Golems and animated objects depend on lengthy magical rituals that the magic-warping effects of the Wastes often disrupt, but clockwork constructs use far less magic in their creation. A clockwork device replaces magical intricacy with superb manufacturing skill, using magic only for the final acts of animating and powering the device. Skilled local creators and inventors rarely follow someone else's design, so most clockworks found in Alkenstar are custom creations with abilities designed for a specific purpose or individual's needs.</p>",
            "source": {
                "value": "Pathfinder #179: Cradle of Quartz"
            }
        },
        "resources": {},
        "saves": {
            "fortitude": {
                "saveDetail": "",
                "value": 10
            },
            "reflex": {
                "saveDetail": "",
                "value": 8
            },
            "will": {
                "saveDetail": "",
                "value": 14
            }
        },
        "traits": {
            "di": {
                "custom": "",
                "value": [
                    "death-effects",
                    "disease",
                    "doomed",
                    "drained",
                    "fatigued",
                    "healing",
                    "mental",
                    "necromancy",
                    "nonlethal-attacks",
                    "paralyzed",
                    "poison",
                    "sickened",
                    "unconscious"
                ]
            },
            "dr": [
                {
                    "exceptions": "except adamantine or orichalcum",
                    "type": "physical",
                    "value": 5
                }
            ],
            "dv": [
                {
                    "type": "electricity",
                    "value": 5
                },
                {
                    "type": "orichalcum",
                    "value": 5
                }
            ],
            "languages": {
                "custom": "",
                "selected": [],
                "value": []
            },
            "rarity": "rare",
            "senses": {
                "value": "darkvision"
            },
            "size": {
                "value": "med"
            },
            "traits": {
                "custom": "",
                "value": [
                    "clockwork",
                    "construct",
                    "mindless"
                ]
            }
        }
    },
    "flags": {},
    "img": "systems/pf2e/icons/default-icons/npc.svg",
    "items": [
        {
            "_id": "RL8IftrbigccKZKR",
            "data": {
                "MAP": {
                    "value": ""
                },
                "baseItem": "repeating-hand-crossbow",
                "bonus": {
                    "value": 0
                },
                "bonusDamage": {
                    "value": 0
                },
                "category": "advanced",
                "containerId": "null",
                "damage": {
                    "damageType": "piercing",
                    "dice": 1,
                    "die": "d6",
                    "value": ""
                },
                "description": {
                    "value": "<p>This handheld crossbow features an ingeniously designed catch mechanism at the top of the flight groove, just in front of the latch, which automatically loads a bolt from a magazine and resets the string each time the weapon is fired. A typical repeating hand crossbow magazine holds five bolts.</p>"
                },
                "equipped": {
                    "carryType": "worn",
                    "handsHeld": 0,
                    "invested": null
                },
                "equippedBulk": {
                    "value": ""
                },
                "group": "bow",
                "hardness": 0,
                "hp": {
                    "brokenThreshold": 0,
                    "max": 0,
                    "value": 0
                },
                "level": {
                    "value": 1
                },
                "negateBulk": {
                    "value": "0"
                },
                "potencyRune": {
                    "value": 0
                },
                "preciousMaterial": {
                    "value": null
                },
                "preciousMaterialGrade": {
                    "value": null
                },
                "price": {
                    "value": {
                        "gp": 10
                    }
                },
                "property1": {
                    "critDamage": "",
                    "critDamageType": "",
                    "critDice": 0,
                    "critDie": "",
                    "criticalConditionType": "",
                    "criticalConditionValue": null,
                    "damageType": "",
                    "dice": 0,
                    "die": "",
                    "strikeConditionType": "",
                    "strikeConditionValue": null,
                    "value": ""
                },
                "propertyRune1": {
                    "value": null
                },
                "propertyRune2": {
                    "value": null
                },
                "propertyRune3": {
                    "value": null
                },
                "propertyRune4": {
                    "value": null
                },
                "quantity": 1,
                "range": 60,
                "reload": {
                    "value": "0"
                },
                "rules": [],
                "size": "med",
                "slug": "repeating-hand-crossbow",
                "source": {
                    "value": "Pathfinder Guns & Gears"
                },
                "specific": {
                    "value": false
                },
                "splashDamage": {
                    "value": 0
                },
                "stackGroup": null,
                "strikingRune": {
                    "value": ""
                },
                "traits": {
                    "custom": "",
                    "rarity": "uncommon",
                    "value": [
                        "repeating"
                    ]
                },
                "usage": {
                    "value": "held-in-one-hand"
                },
                "weight": {
                    "value": "L"
                }
            },
            "flags": {
                "core": {
                    "sourceId": "Compendium.pf2e.equipment-srd.zcrIuILnp6oh4dr9"
                }
            },
            "img": "systems/pf2e/icons/equipment/weapons/repeating-hand-crossbow.webp",
            "name": "Repeating Hand Crossbow",
            "sort": 100000,
            "type": "weapon"
        },
        {
            "_id": "gB4por4SKOL8z5gp",
            "data": {
                "activation": {
                    "condition": "",
                    "cost": 0,
                    "type": ""
                },
                "autoDestroy": {
                    "_deprecated": true,
                    "value": true
                },
                "autoUse": {
                    "_deprecated": true,
                    "value": true
                },
                "baseItem": null,
                "charges": {
                    "_deprecated": true,
                    "max": 5,
                    "value": 5
                },
                "consumableType": {
                    "value": "ammo"
                },
                "consume": {
                    "_deprecated": true,
                    "value": ""
                },
                "containerId": "null",
                "description": {
                    "value": ""
                },
                "duration": {
                    "units": "",
                    "value": null
                },
                "equipped": {
                    "carryType": "worn"
                },
                "equippedBulk": {
                    "value": ""
                },
                "hardness": 0,
                "hp": {
                    "brokenThreshold": 0,
                    "max": 0,
                    "value": 0
                },
                "level": {
                    "value": 0
                },
                "negateBulk": {
                    "value": "0"
                },
                "preciousMaterial": {
                    "value": null
                },
                "preciousMaterialGrade": {
                    "value": null
                },
                "price": {
                    "value": {
                        "sp": 9
                    }
                },
                "quantity": 1,
                "range": {
                    "long": null,
                    "units": "",
                    "value": null
                },
                "rules": [],
                "size": "med",
                "slug": "repeating-hand-crossbow-magazine",
                "source": {
                    "value": "Pathfinder Guns & Gears"
                },
                "spell": {
                    "data": null,
                    "heightenedLevel": null
                },
                "stackGroup": "",
                "target": {
                    "type": "",
                    "units": "",
                    "value": null
                },
                "traits": {
                    "custom": "",
                    "rarity": "uncommon",
                    "value": []
                },
                "usage": {
                    "value": "held-in-one-hand"
                },
                "uses": {
                    "autoDestroy": true,
                    "autoUse": true,
                    "max": 0,
                    "per": null,
                    "value": 0
                },
                "weight": {
                    "value": "L"
                }
            },
            "flags": {
                "core": {
                    "sourceId": "Compendium.pf2e.equipment-srd.xk9bw9ccupAIx7xT"
                }
            },
            "img": "systems/pf2e/icons/equipment/weapons/magazine-with-5-bolts.webp",
            "name": "Repeating Hand Crossbow Magazine",
            "sort": 200000,
            "type": "consumable"
        },
        {
            "_id": "YG1tPmAbV80KVaWu",
            "data": {
                "attack": {
                    "value": ""
                },
                "attackEffects": {
                    "custom": "",
                    "value": [
                        "push"
                    ]
                },
                "bonus": {
                    "value": 14
                },
                "damageRolls": {
                    "5tz4i48ujmrqv39rbnfc": {
                        "damage": "2d6+7",
                        "damageType": "bludgeoning"
                    }
                },
                "description": {
                    "value": ""
                },
                "rules": [],
                "slug": null,
                "source": {
                    "value": ""
                },
                "traits": {
                    "custom": "",
                    "rarity": "common",
                    "value": [
                        "reach-10"
                    ]
                },
                "weaponType": {
                    "value": "melee"
                }
            },
            "flags": {},
            "img": "systems/pf2e/icons/default-icons/melee.svg",
            "name": "Fist",
            "sort": 300000,
            "type": "melee"
        },
        {
            "_id": "uQ36o4707QlcjsIo",
            "data": {
                "attack": {
                    "value": ""
                },
                "attackEffects": {
                    "value": []
                },
                "bonus": {
                    "value": 12
                },
                "damageRolls": {
                    "dv7ibx349ogiov0fa923": {
                        "damage": "1d6+3",
                        "damageType": "piercing"
                    }
                },
                "description": {
                    "value": ""
                },
                "rules": [],
                "slug": null,
                "source": {
                    "value": ""
                },
                "traits": {
                    "custom": "",
                    "rarity": "common",
                    "value": [
                        "range-60",
                        "reload-0",
                        "repeating"
                    ]
                },
                "weaponType": {
                    "value": "ranged"
                }
            },
            "flags": {},
            "img": "systems/pf2e/icons/default-icons/melee.svg",
            "name": "Repeating Hand Crossbow",
            "sort": 400000,
            "type": "melee"
        },
        {
            "_id": "h7AV6C1lhC81XiNh",
            "data": {
                "actionCategory": {
                    "value": "interaction"
                },
                "actionType": {
                    "value": "passive"
                },
                "actions": {
                    "value": null
                },
                "deathNote": false,
                "description": {
                    "value": "<p>@Localize[PF2E.NPC.Abilities.Glossary.Darkvision]</p>"
                },
                "requirements": {
                    "value": ""
                },
                "rules": [],
                "slug": "darkvision",
                "source": {
                    "value": ""
                },
                "traits": {
                    "custom": "",
                    "rarity": "common",
                    "value": []
                },
                "trigger": {
                    "value": ""
                },
                "weapon": {
                    "value": ""
                }
            },
            "flags": {
                "core": {
                    "sourceId": "Compendium.pf2e.bestiary-ability-glossary-srd.qCCLZhnp2HhP3Ex6"
                }
            },
            "img": "systems/pf2e/icons/actions/Passive.webp",
            "name": "Darkvision",
            "sort": 500000,
            "type": "action"
        },
        {
            "_id": "0dw0iJ2dkmoh97AY",
            "data": {
                "actionCategory": {
                    "value": "interaction"
                },
                "actionType": {
                    "value": "passive"
                },
                "actions": {
                    "value": null
                },
                "deathNote": false,
                "description": {
                    "value": "<p>24 hours, @Check[type:thievery|dc:19|traits:action:disable-a-device], standby</p>\n<hr />\n<p>For a clockwork to act, it must be wound with a unique key by another creature. This takes 1 minute. Once wound, it remains operational for the listed amount of time, usually 24 hours, after which time it becomes unaware of its surroundings and can't act until it's wound again. Some clockworks' abilities require them to spend some of their remaining operational time. They can't spend more than they have and shut down immediately once they have 0 time remaining. If it's unclear when a clockwork was last wound, most clockwork keepers wind all their clockworks at a set time, typically 8 a.m.</p>\n<p>A clockwork that lists standby in its wind-up entry can enter standby mode as a 3-action activity. Its operational time doesn't decrease in standby, but it can sense its surroundings (with a -2 penalty to Perception). It can't act, with one exception: when it perceives a creature, it can exit standby as a reaction (rolling initiative if appropriate).</p>\n<p>A creature can attempt to Disable a Device to wind a clockwork down (with a DC listed in the wind-up entry). For each success, the clockwork loses 1 hour of operational time. This can be done even if the clockwork is in standby mode.</p>"
                },
                "requirements": {
                    "value": ""
                },
                "rules": [],
                "slug": "clockwork-creature-wind-up",
                "source": {
                    "value": "Pathfinder Bestiary 3"
                },
                "traits": {
                    "custom": "",
                    "rarity": "common",
                    "value": []
                },
                "trigger": {
                    "value": ""
                },
                "weapon": {
                    "value": ""
                }
            },
            "flags": {
                "core": {
                    "sourceId": "Compendium.pf2e.bestiary-family-ability-glossary.xS8ybzuqPSi3Jb8k"
                }
            },
            "img": "systems/pf2e/icons/actions/Passive.webp",
            "name": "Wind-Up",
            "sort": 600000,
            "type": "action"
        },
        {
            "_id": "dqqN874clyqyaFCp",
            "data": {
                "actionCategory": {
                    "value": "defensive"
                },
                "actionType": {
                    "value": "passive"
                },
                "actions": {
                    "value": null
                },
                "deathNote": false,
                "description": {
                    "value": ""
                },
                "requirements": {
                    "value": ""
                },
                "rules": [
                    {
                        "hideIfDisabled": true,
                        "key": "FlatModifier",
                        "predicate": {
                            "all": [
                                "action:disarm"
                            ]
                        },
                        "selector": "fortitude",
                        "type": "status",
                        "value": 2
                    }
                ],
                "slug": "1-status-to-all-saves-vs-magic",
                "source": {
                    "value": ""
                },
                "traits": {
                    "custom": "",
                    "rarity": "common",
                    "value": []
                },
                "trigger": {
                    "value": ""
                },
                "weapon": {
                    "value": ""
                }
            },
            "flags": {
                "core": {
                    "sourceId": "Compendium.pf2e.bestiary-ability-glossary-srd.kquBnQ0kObZztnBc"
                }
            },
            "img": "systems/pf2e/icons/actions/Passive.webp",
            "name": "+2 Status to Fortitude Saves vs Disarm",
            "sort": 700000,
            "type": "action"
        },
        {
            "_id": "fLoRo1P5cVAGqu0V",
            "data": {
                "actionCategory": {
                    "value": "offensive"
                },
                "actionType": {
                    "value": "action"
                },
                "actions": {
                    "value": 1
                },
                "deathNote": false,
                "description": {
                    "value": "<p>The door warden holds shut an adjacent door. This ends the door warden's turn. Until the start of its next turn, as long as it remains functional and in the same square, other creatures trying to get through must succeed at a @Check[type:athletics|dc:21|traits:action:force-open] check to @Compendium[pf2e.actionspf2e.Force Open]{Force Open} the door.</p>"
                },
                "requirements": {
                    "value": ""
                },
                "rules": [],
                "slug": null,
                "source": {
                    "value": ""
                },
                "traits": {
                    "custom": "",
                    "rarity": "common",
                    "value": []
                },
                "trigger": {
                    "value": ""
                }
            },
            "flags": {},
            "img": "systems/pf2e/icons/actions/OneAction.webp",
            "name": "Brace Door",
            "sort": 800000,
            "type": "action"
        },
        {
            "_id": "6jGwzDep6kwKwCNk",
            "data": {
                "actionCategory": {
                    "value": "offensive"
                },
                "actionType": {
                    "value": "reaction"
                },
                "actions": {
                    "value": null
                },
                "deathNote": false,
                "description": {
                    "value": "<p><strong>Trigger</strong> The door warden Pushes a creature through an open doorway</p>\n<p><strong>Effect</strong> The door warden slams the door shut on the creature</p>"
                },
                "requirements": {
                    "value": ""
                },
                "rules": [],
                "slug": null,
                "source": {
                    "value": ""
                },
                "traits": {
                    "custom": "",
                    "rarity": "common",
                    "value": []
                },
                "trigger": {
                    "value": ""
                }
            },
            "flags": {},
            "img": "systems/pf2e/icons/actions/Reaction.webp",
            "name": "Slam Door",
            "sort": 900000,
            "type": "action"
        },
        {
            "_id": "W1j2xgludiHJE74U",
            "data": {
                "actionCategory": {
                    "value": "offensive"
                },
                "actionType": {
                    "value": "action"
                },
                "actions": {
                    "value": 1
                },
                "deathNote": false,
                "description": {
                    "value": "<p>@Localize[PF2E.NPC.Abilities.Glossary.Push]</p>"
                },
                "requirements": {
                    "value": ""
                },
                "rules": [],
                "slug": "push",
                "source": {
                    "value": ""
                },
                "traits": {
                    "custom": "",
                    "rarity": "common",
                    "value": []
                },
                "trigger": {
                    "value": ""
                },
                "weapon": {
                    "value": ""
                }
            },
            "flags": {
                "core": {
                    "sourceId": "Compendium.pf2e.bestiary-ability-glossary-srd.t6cx9FOODmeZQNYl"
                }
            },
            "img": "systems/pf2e/icons/actions/OneAction.webp",
            "name": "Push",
            "sort": 1000000,
            "type": "action"
        },
        {
            "_id": "59PiSLTxba9KUQRm",
            "data": {
                "description": {
                    "value": ""
                },
                "mod": {
                    "value": 10
                },
                "proficient": {
                    "value": 0
                },
                "rules": [
                    {
                        "key": "FlatModifier",
                        "label": "PF2E.SkillVariant.DisarmGrapple",
                        "predicate": {
                            "any": [
                                "action:disarm",
                                "action:grapple"
                            ]
                        },
                        "selector": "athletics",
                        "value": 2
                    }
                ],
                "slug": null,
                "source": {
                    "value": ""
                },
                "traits": {
                    "custom": "",
                    "rarity": "common",
                    "value": []
                },
                "variants": {
                    "0": {
                        "label": "+12 to Disarm or Grapple",
                        "options": "action:disarm,action:grapple"
                    }
                }
            },
            "flags": {},
            "img": "systems/pf2e/icons/default-icons/lore.svg",
            "name": "Athletics",
            "sort": 1100000,
            "type": "lore"
        }
    ],
    "name": "Clockwork Door Warden",
    "token": {
        "disposition": -1,
        "height": 1,
        "img": "systems/pf2e/icons/default-icons/npc.svg",
        "name": "Clockwork Door Warden",
        "width": 1
    },
    "type": "npc"
}
