{
    "_id": "YsSpSUB1jeLSifFg",
    "data": {
        "abilities": {
            "cha": {
                "mod": 1
            },
            "con": {
                "mod": 2
            },
            "dex": {
                "mod": 1
            },
            "int": {
                "mod": 4
            },
            "str": {
                "mod": 4
            },
            "wis": {
                "mod": 2
            }
        },
        "attributes": {
            "ac": {
                "details": "",
                "value": 25
            },
            "allSaves": {
                "value": ""
            },
            "hp": {
                "details": "",
                "max": 110,
                "temp": 0,
                "value": 110
            },
            "initiative": {
                "ability": "perception"
            },
            "perception": {
                "value": 19
            },
            "speed": {
                "otherSpeeds": [
                    {
                        "type": "burrow",
                        "value": "25"
                    }
                ],
                "value": "25"
            }
        },
        "details": {
            "alignment": {
                "value": "CN"
            },
            "blurb": "Genderless alien entity of unknown provenance",
            "creatureType": "",
            "level": {
                "value": 7
            },
            "privateNotes": "",
            "publicNotes": "",
            "source": {
                "value": "Pathfinder #179: Cradle of Quartz"
            }
        },
        "resources": {},
        "saves": {
            "fortitude": {
                "saveDetail": "",
                "value": 14
            },
            "reflex": {
                "saveDetail": "",
                "value": 12
            },
            "will": {
                "saveDetail": "",
                "value": 14
            }
        },
        "traits": {
            "di": {
                "custom": "",
                "value": []
            },
            "dr": [
                {
                    "exceptions": "",
                    "type": "bludgeoning",
                    "value": 10
                }
            ],
            "dv": [],
            "languages": {
                "custom": "Can't Speak Any Language; Telepathy 100 feet",
                "selected": [],
                "value": [
                    "common",
                    "gnoll",
                    "osiriani"
                ]
            },
            "rarity": "unique",
            "senses": {
                "value": "darkvision, tremorsense (imprecise) 30 feet"
            },
            "size": {
                "value": "med"
            },
            "traits": {
                "custom": "",
                "value": [
                    "aberration"
                ]
            }
        }
    },
    "flags": {},
    "img": "systems/pf2e/icons/default-icons/npc.svg",
    "items": [
        {
            "_id": "rQKyEPDKFWYkoZdm",
            "data": {
                "autoHeightenLevel": {
                    "value": null
                },
                "description": {
                    "value": ""
                },
                "displayLevels": {},
                "prepared": {
                    "flexible": false,
                    "value": "innate"
                },
                "proficiency": {
                    "value": 1
                },
                "rules": [],
                "showSlotlessLevels": {
                    "value": false
                },
                "showUnpreparedSpells": {
                    "value": true
                },
                "slots": {
                    "slot0": {
                        "max": 0,
                        "prepared": [],
                        "value": 0
                    },
                    "slot1": {
                        "max": 0,
                        "prepared": [],
                        "value": 0
                    },
                    "slot10": {
                        "max": 0,
                        "prepared": [],
                        "value": 0
                    },
                    "slot11": {
                        "max": 0,
                        "prepared": [],
                        "value": 0
                    },
                    "slot2": {
                        "max": 0,
                        "prepared": [],
                        "value": 0
                    },
                    "slot3": {
                        "max": 0,
                        "prepared": [],
                        "value": 0
                    },
                    "slot4": {
                        "max": 0,
                        "prepared": [],
                        "value": 0
                    },
                    "slot5": {
                        "max": 0,
                        "prepared": [],
                        "value": 0
                    },
                    "slot6": {
                        "max": 0,
                        "prepared": [],
                        "value": 0
                    },
                    "slot7": {
                        "max": 0,
                        "prepared": [],
                        "value": 0
                    },
                    "slot8": {
                        "max": 0,
                        "prepared": [],
                        "value": 0
                    },
                    "slot9": {
                        "max": 0,
                        "prepared": [],
                        "value": 0
                    }
                },
                "slug": null,
                "source": {
                    "value": ""
                },
                "spelldc": {
                    "dc": 25,
                    "mod": 0,
                    "value": 17
                },
                "tradition": {
                    "value": "primal"
                },
                "traits": {
                    "custom": "",
                    "rarity": "common",
                    "value": []
                }
            },
            "flags": {},
            "img": "systems/pf2e/icons/default-icons/spellcastingEntry.svg",
            "name": "Primal Innate Spells",
            "sort": 100000,
            "type": "spellcastingEntry"
        },
        {
            "_id": "5xmXYC51CFcWWP3V",
            "data": {
                "ability": {
                    "value": ""
                },
                "area": {
                    "areaType": "burst",
                    "value": "20"
                },
                "areasize": {
                    "value": "a horizontal earthen or sandy surface within a 20-foot burst"
                },
                "category": {
                    "value": "spell"
                },
                "components": {
                    "focus": false,
                    "material": true,
                    "somatic": true,
                    "verbal": true
                },
                "cost": {
                    "value": ""
                },
                "damage": {
                    "value": {}
                },
                "description": {
                    "value": "<p>You cause the surface to heave. The area becomes difficult terrain and any tracks in the area are destroyed by the churning ground. Creatures standing in the area take a -1 status penalty to Acrobatics checks to @Compendium[pf2e.actionspf2e.Balance]{Balance} and @Compendium[pf2e.actionspf2e.Tumble Through]{Tumble Through} and Athletics checks to @Compendium[pf2e.actionspf2e.High Jump]{High Jump} and @Compendium[pf2e.actionspf2e.Long Jump]{Long Jump}. The first time each round you Sustain the Spell, you can move the churning area up to 10 feet in any direction. Creatures immobilized by the spell are carried along with the shifting sand in the same direction, if possible; this movement is forced movement. Creatures that enter or begin their turn standing in the shifting sand must attempt a Reflex save.</p>\n<hr />\n<p><strong>Critical Success</strong> The creature is unaffected and ignores the area's difficult terrain and penalty to skill checks until the end of its turn.</p>\n<p><strong>Success</strong> The creature ignores the area's penalty to skill checks until the end of its turn.</p>\n<p><strong>Failure</strong> The creature is affected normally by the spell this turn.</p>\n<p><strong>Critical Failure</strong> The creature becomes @Compendium[pf2e.conditionitems.Immobilized]{Immobilized} within the spell's area until it Escapes. If the creature was already immobilized by shifting sands, it also falls @Compendium[pf2e.conditionitems.Prone]{Prone}.</p>\n<hr />\n<p><strong>Heightened (5th)</strong> The status penalty increases to -2 and the spell's range increases to 60 feet.</p>\n<p><strong>Heightened (7th)</strong> The status penalty increases to -3, the spell's range increases to 60 feet, and the spell's area increases to a 30-foot burst.</p>\n<p><strong>Heightened (9th)</strong> The status penalty increases to -4, the spell's range increases to 60 feet, and the spell's area increases to a 40-foot burst.</p>"
                },
                "duration": {
                    "value": "sustained up to 1 minute"
                },
                "hasCounteractCheck": {
                    "value": false
                },
                "heightening": {
                    "levels": {
                        "5": {
                            "range": {
                                "value": "60 feet"
                            }
                        },
                        "7": {
                            "area": {
                                "areaType": "burst",
                                "value": "30"
                            }
                        },
                        "9": {
                            "area": {
                                "areaType": "burst",
                                "value": "40"
                            }
                        }
                    },
                    "type": "fixed"
                },
                "level": {
                    "value": 3
                },
                "location": {
                    "heightenedLevel": 3,
                    "value": "rQKyEPDKFWYkoZdm"
                },
                "materials": {
                    "value": ""
                },
                "prepared": {
                    "value": ""
                },
                "primarycheck": {
                    "value": ""
                },
                "range": {
                    "value": "30 feet"
                },
                "rules": [],
                "save": {
                    "basic": "",
                    "value": ""
                },
                "school": {
                    "value": "transmutation"
                },
                "secondarycasters": {
                    "value": ""
                },
                "secondarycheck": {
                    "value": ""
                },
                "slug": "shifting-sand",
                "source": {
                    "value": "Pathfinder Lost Omens: Gods & Magic"
                },
                "spellType": {
                    "value": "attack"
                },
                "sustained": {
                    "value": false
                },
                "target": {
                    "value": ""
                },
                "time": {
                    "value": "3"
                },
                "traditions": {
                    "custom": "",
                    "value": [
                        "arcane",
                        "primal"
                    ]
                },
                "traits": {
                    "custom": "",
                    "rarity": "common",
                    "value": [
                        "earth"
                    ]
                }
            },
            "flags": {
                "core": {
                    "sourceId": "Compendium.pf2e.spells-srd.HcIAQZjNXHemoXSU"
                }
            },
            "img": "systems/pf2e/icons/spells/shifting-sand.webp",
            "name": "Shifting Sand",
            "sort": 200000,
            "type": "spell"
        },
        {
            "_id": "tiDaReFaoBAsBEp6",
            "data": {
                "ability": {
                    "value": ""
                },
                "area": {
                    "value": "10-foot emanation"
                },
                "areasize": {
                    "value": ""
                },
                "category": {
                    "value": "spell"
                },
                "components": {
                    "focus": false,
                    "material": false,
                    "somatic": true,
                    "verbal": true
                },
                "cost": {
                    "value": ""
                },
                "damage": {
                    "value": {
                        "0": {
                            "type": {
                                "categories": [],
                                "value": "poison"
                            },
                            "value": "1d6"
                        }
                    }
                },
                "description": {
                    "value": "<p>You emit a cloud of toxic smoke that temporarily obscures you from sight. Each creature except you in the area when you @Compendium[pf2e.actionspf2e.Cast a Spell]{Cast the Spell} takes [[/r {1d6}[poison]]]{1d6 poison damage} (basic Fortitude save). A creature that critically fails the saving throw also becomes @Compendium[pf2e.conditionitems.Sickened]{Sickened 1}. All creatures in the area become @Compendium[pf2e.conditionitems.Concealed]{Concealed}, and all creatures outside the smoke become Concealed to creatures within it. This smoke can be dispersed by a strong wind.</p>\n<hr />\n<p><strong>Heightened (+1)</strong> The damage increases by [[/r {1d6}[poison]]]{1d6 poison}.</p>"
                },
                "duration": {
                    "value": "1 round"
                },
                "hasCounteractCheck": {
                    "value": false
                },
                "heightening": {
                    "damage": {
                        "0": "1d6"
                    },
                    "interval": 1,
                    "type": "interval"
                },
                "level": {
                    "value": 1
                },
                "location": {
                    "heightenedLevel": 3,
                    "value": "rQKyEPDKFWYkoZdm"
                },
                "materials": {
                    "value": ""
                },
                "prepared": {
                    "value": false
                },
                "primarycheck": {
                    "value": ""
                },
                "range": {
                    "value": ""
                },
                "rules": [],
                "save": {
                    "basic": "basic",
                    "value": "fortitude"
                },
                "school": {
                    "value": "evocation"
                },
                "secondarycasters": {
                    "value": ""
                },
                "secondarycheck": {
                    "value": ""
                },
                "slug": "noxious-vapors",
                "source": {
                    "value": "Pathfinder Advanced Player's Guide"
                },
                "spellType": {
                    "value": "attack"
                },
                "sustained": {
                    "value": false
                },
                "target": {
                    "value": ""
                },
                "time": {
                    "value": "2"
                },
                "traditions": {
                    "value": [
                        "arcane",
                        "primal"
                    ]
                },
                "traits": {
                    "custom": "",
                    "rarity": "common",
                    "value": [
                        "poison"
                    ]
                }
            },
            "flags": {
                "core": {
                    "sourceId": "Compendium.pf2e.spells-srd.1meVElIu1CEVYWkv"
                }
            },
            "img": "systems/pf2e/icons/spells/noxious-vapors.webp",
            "name": "Noxious Vapors",
            "sort": 300000,
            "type": "spell"
        },
        {
            "_id": "3E1vAI0FYvGUHw2x",
            "data": {
                "ability": {
                    "value": ""
                },
                "area": {
                    "areaType": "cone",
                    "value": "15"
                },
                "areasize": {
                    "value": "15-foot cone"
                },
                "category": {
                    "value": "spell"
                },
                "components": {
                    "focus": false,
                    "material": false,
                    "somatic": true,
                    "verbal": true
                },
                "cost": {
                    "value": ""
                },
                "damage": {
                    "value": {}
                },
                "description": {
                    "value": "<p>You create a wave of energy that ripples through the earth. Terrestrial creatures in the affected area must attempt a Reflex save to avoid stumbling as the shockwave shakes the ground.</p>\n<hr />\n<p><strong>Critical Success</strong> The creature is unaffected.</p>\n<p><strong>Success</strong> The creature is @Compendium[pf2e.conditionitems.Flat-Footed]{Flat-Footed} until the start of its next turn.</p>\n<p><strong>Failure</strong> The creature falls @Compendium[pf2e.conditionitems.Prone]{Prone}.</p>\n<p><strong>Critical Failure</strong> As failure, plus the creature takes 1d6 damage.</p>\n<hr />\n<p><strong>Heightened (+1)</strong> The area increases by 5 feet (to a 20-foot cone at 2nd level, and so on).</p>"
                },
                "duration": {
                    "value": ""
                },
                "hasCounteractCheck": {
                    "value": false
                },
                "level": {
                    "value": 1
                },
                "location": {
                    "heightenedLevel": 1,
                    "value": "rQKyEPDKFWYkoZdm"
                },
                "materials": {
                    "value": ""
                },
                "prepared": {
                    "value": ""
                },
                "primarycheck": {
                    "value": ""
                },
                "range": {
                    "value": ""
                },
                "rules": [],
                "save": {
                    "basic": "",
                    "value": "reflex"
                },
                "school": {
                    "value": "evocation"
                },
                "secondarycasters": {
                    "value": ""
                },
                "secondarycheck": {
                    "value": ""
                },
                "slug": "shockwave",
                "source": {
                    "value": "Pathfinder Lost Omens: Gods & Magic"
                },
                "spellType": {
                    "value": "save"
                },
                "sustained": {
                    "value": false
                },
                "target": {
                    "value": ""
                },
                "time": {
                    "value": "2"
                },
                "traditions": {
                    "custom": "",
                    "value": [
                        "arcane",
                        "primal"
                    ]
                },
                "traits": {
                    "custom": "",
                    "rarity": "common",
                    "value": [
                        "earth"
                    ]
                }
            },
            "flags": {
                "core": {
                    "sourceId": "Compendium.pf2e.spells-srd.dgCH2E0gMLMUgyFl"
                }
            },
            "img": "systems/pf2e/icons/spells/shockwave.webp",
            "name": "Shockwave (At Will)",
            "sort": 400000,
            "type": "spell"
        },
        {
            "_id": "YYDNyGlz4Sv5qmrD",
            "data": {
                "baseItem": null,
                "containerId": null,
                "description": {
                    "value": "<p>The creator of the original <em>thunder helm</em> tried and failed time and again to craft a reliable, helmet-mounted firearm that enabled hands-free gunplay, but even after resorting to magical enhancements, they were never quite able to realize their vision. The allure of the <em>thunder helm</em> continues to compel certain mindsets in the Mana Wastes, and these items continue to be crafted to this day.</p>\n<p>A <em>thunder helm</em> appears as a cylindrical iron helmet adorned with a crown-like display of gun barrels extending out in all directions. A slit in the front allows for limited visibility, while sound is muffled by the inner lining. As long as a creature wears a <em>thunder helm</em>, it takes a -1 circumstance penalty to auditory and visual Perception checks but also gain a +1 circumstance bonus to saving throws against auditory and visual effects.</p>\n<hr />\n<p><strong>Activate</strong> <span class=\"pf2-icon\">1</span> envision, Interact</p>\n<p><strong>Frequency</strong> once per day</p>\n<p><strong>Effect</strong> The helm's gun barrels swivel and aim randomly, then conjure enough gunpowder and bullets to fire in all directions around you. Every creature within a @Template[type:emanation|distance:20] takes [[/r {4d6}[piercing]]]{4d6 piercing damage} (@Check[type:reflex|dc:19|basic:true]). When determining a creature's resistance or immunity to this damage, use the weaker of the target's resistance or immunity to piercing or bludgeoning.</p>"
                },
                "equipped": {
                    "carryType": "worn",
                    "invested": null
                },
                "equippedBulk": {
                    "value": ""
                },
                "hardness": 0,
                "hp": {
                    "brokenThreshold": 0,
                    "max": 0,
                    "value": 0
                },
                "level": {
                    "value": 5
                },
                "negateBulk": {
                    "value": "0"
                },
                "preciousMaterial": {
                    "value": null
                },
                "preciousMaterialGrade": {
                    "value": null
                },
                "price": {
                    "value": {
                        "gp": 160
                    }
                },
                "quantity": 1,
                "rules": [
                    {
                        "key": "FlatModifier",
                        "predicate": {
                            "any": [
                                "auditory",
                                "visual"
                            ]
                        },
                        "requireInvestment": false,
                        "selector": "perception",
                        "type": "circumstance",
                        "value": -1
                    },
                    {
                        "key": "FlatModifier",
                        "predicate": {
                            "any": [
                                "auditory",
                                "visual"
                            ]
                        },
                        "requireInvestment": false,
                        "selector": "saving-throw",
                        "type": "circumstance",
                        "value": 1
                    }
                ],
                "size": "med",
                "slug": "thunder-helm",
                "source": {
                    "value": "Pathfinder #179: Cradle of Quartz"
                },
                "stackGroup": "",
                "traits": {
                    "custom": "",
                    "rarity": "uncommon",
                    "value": [
                        "conjuration",
                        "invested",
                        "magical"
                    ]
                },
                "usage": {
                    "value": "wornheadwear"
                },
                "weight": {
                    "value": "L"
                }
            },
            "flags": {
                "core": {
                    "sourceId": "Compendium.pf2e.equipment-srd.GVgA0w4CUP4lanPl"
                }
            },
            "img": "systems/pf2e/icons/equipment/worn-items/other-worn-items/clockwork-helm.webp",
            "name": "Thunder Helm",
            "sort": 500000,
            "type": "equipment"
        },
        {
            "_id": "ygv6fUqDsDUy5Sgl",
            "data": {
                "attack": {
                    "value": ""
                },
                "attackEffects": {
                    "custom": "",
                    "value": [
                        "grab"
                    ]
                },
                "bonus": {
                    "value": 16
                },
                "damageRolls": {
                    "o9rvp0kgfyzn1d4sgozz": {
                        "damage": "2d8+6",
                        "damageType": "bludgeoning"
                    }
                },
                "description": {
                    "value": ""
                },
                "rules": [],
                "slug": null,
                "source": {
                    "value": ""
                },
                "traits": {
                    "custom": "",
                    "rarity": "common",
                    "value": [
                        "agile",
                        "reach-10"
                    ]
                },
                "weaponType": {
                    "value": "melee"
                }
            },
            "flags": {},
            "img": "systems/pf2e/icons/default-icons/melee.svg",
            "name": "Arm",
            "sort": 600000,
            "type": "melee"
        },
        {
            "_id": "JGF5XtOjAaisPWvc",
            "data": {
                "attack": {
                    "value": ""
                },
                "attackEffects": {
                    "custom": "",
                    "value": [
                        "i-venom"
                    ]
                },
                "bonus": {
                    "value": 16
                },
                "damageRolls": {
                    "xf1x6bv8y1bme6xkzv2u": {
                        "damage": "2d8+6",
                        "damageType": "piercing"
                    }
                },
                "description": {
                    "value": ""
                },
                "rules": [],
                "slug": null,
                "source": {
                    "value": ""
                },
                "traits": {
                    "custom": "",
                    "rarity": "common",
                    "value": []
                },
                "weaponType": {
                    "value": "melee"
                }
            },
            "flags": {},
            "img": "systems/pf2e/icons/default-icons/melee.svg",
            "name": "Beak",
            "sort": 700000,
            "type": "melee"
        },
        {
            "_id": "DRiTAkncXHC24WD8",
            "data": {
                "actionCategory": {
                    "value": "interaction"
                },
                "actionType": {
                    "value": "passive"
                },
                "actions": {
                    "value": null
                },
                "deathNote": false,
                "description": {
                    "value": "<p>@Localize[PF2E.NPC.Abilities.Glossary.Darkvision]</p>"
                },
                "requirements": {
                    "value": ""
                },
                "rules": [],
                "slug": "darkvision",
                "source": {
                    "value": ""
                },
                "traits": {
                    "custom": "",
                    "rarity": "common",
                    "value": []
                },
                "trigger": {
                    "value": ""
                },
                "weapon": {
                    "value": ""
                }
            },
            "flags": {
                "core": {
                    "sourceId": "Compendium.pf2e.bestiary-ability-glossary-srd.qCCLZhnp2HhP3Ex6"
                }
            },
            "img": "systems/pf2e/icons/actions/Passive.webp",
            "name": "Darkvision",
            "sort": 800000,
            "type": "action"
        },
        {
            "_id": "Ef9xrtArkFxq0P59",
            "data": {
                "actionCategory": {
                    "value": "interaction"
                },
                "actionType": {
                    "value": "passive"
                },
                "actions": {
                    "value": null
                },
                "deathNote": false,
                "description": {
                    "value": "<p>@Localize[PF2E.NPC.Abilities.Glossary.Tremorsense]</p>"
                },
                "requirements": {
                    "value": ""
                },
                "rules": [],
                "slug": "tremorsense",
                "source": {
                    "value": ""
                },
                "traits": {
                    "custom": "",
                    "rarity": "common",
                    "value": []
                },
                "trigger": {
                    "value": ""
                },
                "weapon": {
                    "value": ""
                }
            },
            "flags": {
                "core": {
                    "sourceId": "Compendium.pf2e.bestiary-ability-glossary-srd.j2wsK6IsW5yMW1jW"
                }
            },
            "img": "systems/pf2e/icons/actions/Passive.webp",
            "name": "Tremorsense (Imprecise) 30 feet",
            "sort": 900000,
            "type": "action"
        },
        {
            "_id": "tQD9i5upGgPtUF3z",
            "data": {
                "actionCategory": {
                    "value": "interaction"
                },
                "actionType": {
                    "value": "passive"
                },
                "actions": {
                    "value": null
                },
                "deathNote": false,
                "description": {
                    "value": "<p>@Localize[PF2E.NPC.Abilities.Glossary.Telepathy]</p>"
                },
                "requirements": {
                    "value": ""
                },
                "rules": [],
                "slug": "telepathy",
                "source": {
                    "value": ""
                },
                "traits": {
                    "custom": "",
                    "rarity": "common",
                    "value": [
                        "aura",
                        "divination",
                        "magical"
                    ]
                },
                "trigger": {
                    "value": ""
                },
                "weapon": {
                    "value": ""
                }
            },
            "flags": {
                "core": {
                    "sourceId": "Compendium.pf2e.bestiary-ability-glossary-srd.kdhbPaBMK1d1fpbA"
                }
            },
            "img": "systems/pf2e/icons/actions/Passive.webp",
            "name": "Telepathy 100 feet",
            "sort": 1000000,
            "type": "action"
        },
        {
            "_id": "xNO9qlWPQbqMpX6n",
            "data": {
                "actionCategory": {
                    "value": "interaction"
                },
                "actionType": {
                    "value": "passive"
                },
                "actions": {
                    "value": null
                },
                "deathNote": false,
                "description": {
                    "value": "<p>@Localize[PF2E.NPC.Abilities.Glossary.AtWillSpells]</p>"
                },
                "requirements": {
                    "value": ""
                },
                "rules": [],
                "slug": "at-will-spells",
                "source": {
                    "value": ""
                },
                "traits": {
                    "custom": "",
                    "rarity": "common",
                    "value": []
                },
                "trigger": {
                    "value": ""
                },
                "weapon": {
                    "value": ""
                }
            },
            "flags": {
                "core": {
                    "sourceId": "Compendium.pf2e.bestiary-ability-glossary-srd.2YRDYVnC1eljaXKK"
                }
            },
            "img": "systems/pf2e/icons/actions/Passive.webp",
            "name": "At-Will Spells",
            "sort": 1100000,
            "type": "action"
        },
        {
            "_id": "xVxpVjRSG9uuNxHf",
            "data": {
                "actionCategory": {
                    "value": "offensive"
                },
                "actionType": {
                    "value": "action"
                },
                "actions": {
                    "value": 1
                },
                "deathNote": false,
                "description": {
                    "value": "<p>[[/r {1d8+8}[bludgeoning]]]{1d8+8 Bludgeoning } @Check[type:fortitude|dc:22|basic:true]</p>\n<hr />\n<p><em>Note: A DC was not provided for this ability by Paizo. The DC present here is a moderate DC for the creature level according to the Gamemastery Guide creature building Tables.</em></p>\n<hr />\n<p>@Localize[PF2E.NPC.Abilities.Glossary.Constrict]</p>"
                },
                "requirements": {
                    "value": ""
                },
                "rules": [],
                "slug": "constrict",
                "source": {
                    "value": ""
                },
                "traits": {
                    "custom": "",
                    "rarity": "common",
                    "value": []
                },
                "trigger": {
                    "value": ""
                },
                "weapon": {
                    "value": ""
                }
            },
            "flags": {
                "core": {
                    "sourceId": "Compendium.pf2e.bestiary-ability-glossary-srd.g26YiEIfSHCpLocV"
                }
            },
            "img": "systems/pf2e/icons/actions/OneAction.webp",
            "name": "Constrict",
            "sort": 1200000,
            "type": "action"
        },
        {
            "_id": "szzBCyHGwJrdNDMW",
            "data": {
                "actionCategory": {
                    "value": "offensive"
                },
                "actionType": {
                    "value": "passive"
                },
                "actions": {
                    "value": null
                },
                "deathNote": false,
                "description": {
                    "value": "<p><strong>Saving Throw</strong> @Check[type:fortitude|dc:25]</p>\n<hr />\n<p><strong>Maximum Duration</strong> 6 rounds</p>\n<p><strong>Stage 1</strong> [[/r {2d6}[poison]]]{2d6 poison damage} and @Compendium[pf2e.conditionitems.Enfeebled]{Enfeebled 1} (1 round)</p>\n<p><strong>Stage 2</strong> [[/r {2d6}[poison]]]{2d6 poison damage}, enfeebled 1, and @Compendium[pf2e.conditionitems.Flat-Footed]{Flat-Footed} (1 round)</p>\n<p><strong>Stage 3</strong> [[/r {2d6}[poison]]]{2d6 poison damage}, @Compendium[pf2e.conditionitems.Enfeebled]{Enfeebled 2}, and flat‑footed (1 round)</p>"
                },
                "requirements": {
                    "value": ""
                },
                "rules": [],
                "slug": null,
                "source": {
                    "value": ""
                },
                "traits": {
                    "custom": "",
                    "rarity": "common",
                    "value": [
                        "poison"
                    ]
                },
                "trigger": {
                    "value": ""
                }
            },
            "flags": {},
            "img": "systems/pf2e/icons/actions/Passive.webp",
            "name": "I Venom",
            "sort": 1300000,
            "type": "action"
        },
        {
            "_id": "5YlLz9qenasMgsSl",
            "data": {
                "actionCategory": {
                    "value": "offensive"
                },
                "actionType": {
                    "value": "action"
                },
                "actions": {
                    "value": 2
                },
                "deathNote": false,
                "description": {
                    "value": "<p>I makes up to four Strikes with different arms, each against a different target. Each attack counts separately for their multiple attack penalty, but the penalty doesn't increase until all attacks have been made. If I subsequently uses the @Compendium[pf2e.bestiary-ability-glossary-srd.Grab]{Grab} action, they can Grab any number of creatures they hit with Writhing Arms.</p>"
                },
                "requirements": {
                    "value": ""
                },
                "rules": [],
                "slug": null,
                "source": {
                    "value": ""
                },
                "traits": {
                    "custom": "",
                    "rarity": "common",
                    "value": []
                },
                "trigger": {
                    "value": ""
                }
            },
            "flags": {},
            "img": "systems/pf2e/icons/actions/TwoActions.webp",
            "mce_11": "<p>I makes up to four Strikes with different arms, each against a different target. Each attack counts separately for their multiple attack penalty, but the penalty doesn't increase until all attacks have been made. If I subsequently uses the @Compendium[pf2e.bestiary-ability-glossary-srd.Grab]{Grab} action, they can Grab any number of creatures they hit with Writhing Arms.</p>",
            "name": "Writhing Arms",
            "sort": 1400000,
            "type": "action"
        },
        {
            "_id": "2m6tvPBNAApp6KHD",
            "data": {
                "actionCategory": {
                    "value": "offensive"
                },
                "actionType": {
                    "value": "action"
                },
                "actions": {
                    "value": 1
                },
                "deathNote": false,
                "description": {
                    "value": "<p>@Localize[PF2E.NPC.Abilities.Glossary.Grab]</p>"
                },
                "requirements": {
                    "value": ""
                },
                "rules": [],
                "slug": "grab",
                "source": {
                    "value": ""
                },
                "traits": {
                    "custom": "",
                    "rarity": "common",
                    "value": []
                },
                "trigger": {
                    "value": ""
                },
                "weapon": {
                    "value": ""
                }
            },
            "flags": {
                "core": {
                    "sourceId": "Compendium.pf2e.bestiary-ability-glossary-srd.Tkd8sH4pwFIPzqTr"
                }
            },
            "img": "systems/pf2e/icons/actions/OneAction.webp",
            "name": "Grab",
            "sort": 1500000,
            "type": "action"
        },
        {
            "_id": "qkEVIUrEoRd9IL1b",
            "data": {
                "description": {
                    "value": ""
                },
                "mod": {
                    "value": 16
                },
                "proficient": {
                    "value": 0
                },
                "rules": [],
                "slug": null,
                "source": {
                    "value": ""
                },
                "traits": {
                    "custom": "",
                    "rarity": "common",
                    "value": []
                }
            },
            "flags": {},
            "img": "systems/pf2e/icons/default-icons/lore.svg",
            "name": "Arcana",
            "sort": 1600000,
            "type": "lore"
        },
        {
            "_id": "RnvONDwtnbKequeH",
            "data": {
                "description": {
                    "value": ""
                },
                "mod": {
                    "value": 16
                },
                "proficient": {
                    "value": 0
                },
                "rules": [],
                "slug": null,
                "source": {
                    "value": ""
                },
                "traits": {
                    "custom": "",
                    "rarity": "common",
                    "value": []
                }
            },
            "flags": {},
            "img": "systems/pf2e/icons/default-icons/lore.svg",
            "name": "Athletics",
            "sort": 1700000,
            "type": "lore"
        },
        {
            "_id": "AkYW8V3Q63bFPSr8",
            "data": {
                "description": {
                    "value": ""
                },
                "mod": {
                    "value": 14
                },
                "proficient": {
                    "value": 0
                },
                "rules": [],
                "slug": null,
                "source": {
                    "value": ""
                },
                "traits": {
                    "custom": "",
                    "rarity": "common",
                    "value": []
                }
            },
            "flags": {},
            "img": "systems/pf2e/icons/default-icons/lore.svg",
            "name": "Diplomacy",
            "sort": 1800000,
            "type": "lore"
        },
        {
            "_id": "7uLbdRcU4d7JaUy9",
            "data": {
                "description": {
                    "value": ""
                },
                "mod": {
                    "value": 19
                },
                "proficient": {
                    "value": 0
                },
                "rules": [],
                "slug": null,
                "source": {
                    "value": ""
                },
                "traits": {
                    "custom": "",
                    "rarity": "common",
                    "value": []
                }
            },
            "flags": {},
            "img": "systems/pf2e/icons/default-icons/lore.svg",
            "name": "Spellscar Lore",
            "sort": 1900000,
            "type": "lore"
        },
        {
            "_id": "5YmXWRrZiQB5Fjjr",
            "data": {
                "description": {
                    "value": ""
                },
                "mod": {
                    "value": 16
                },
                "proficient": {
                    "value": 0
                },
                "rules": [],
                "slug": null,
                "source": {
                    "value": ""
                },
                "traits": {
                    "custom": "",
                    "rarity": "common",
                    "value": []
                }
            },
            "flags": {},
            "img": "systems/pf2e/icons/default-icons/lore.svg",
            "name": "Thievery",
            "sort": 2000000,
            "type": "lore"
        }
    ],
    "name": "I",
    "token": {
        "disposition": -1,
        "height": 1,
        "img": "systems/pf2e/icons/default-icons/npc.svg",
        "name": "I",
        "width": 1
    },
    "type": "npc"
}
