{
    "_id": "Qbt1X2GTcPvmptgc",
    "data": {
        "attributes": {
            "ac": {
                "value": 13
            },
            "hardness": 1,
            "hasHealth": true,
            "hp": {
                "details": "",
                "max": 4,
                "temp": 0,
                "value": 4
            },
            "stealth": {
                "details": "",
                "value": 6
            }
        },
        "creatureType": "",
        "details": {
            "description": "<p>Five tiny glass bottles, each full of volatile green liquid, are discretely positioned around the room. Each bottle explodes when its glass is broken.</p>",
            "disable": "<p>Interact action to pick up one of the five bottles.</p>",
            "isComplex": false,
            "level": {
                "value": 1
            },
            "reset": "",
            "routine": ""
        },
        "saves": {
            "fortitude": {
                "saveDetail": "",
                "value": 4
            },
            "reflex": {
                "saveDetail": "",
                "value": 6
            },
            "will": {
                "saveDetail": "",
                "value": 0
            }
        },
        "source": {
            "value": ""
        },
        "statusEffects": [],
        "traits": {
            "ci": [],
            "di": {
                "custom": "",
                "selected": {},
                "value": [
                    "critical-hits",
                    "object-immunities",
                    "precision"
                ]
            },
            "dr": [],
            "dv": [],
            "rarity": "common",
            "size": {
                "value": "med"
            },
            "traits": {
                "custom": "",
                "value": [
                    "mechanical",
                    "trap"
                ]
            }
        }
    },
    "flags": {},
    "img": "systems/pf2e/icons/default-icons/hazard.svg",
    "items": [
        {
            "_id": "MWuxW7760E0wQgk0",
            "data": {
                "actionCategory": {
                    "value": "offensive"
                },
                "actionType": {
                    "value": "reaction"
                },
                "actions": {
                    "value": null
                },
                "description": {
                    "value": "<p><strong>Trigger</strong> A creature steps on the bottle or the bottle becomes broken</p>\n<p><strong>Effect</strong> The bottle explodes, dealing [[/r {2d8}[fire]]]{2d8 fire damage} plus [[/r {2}[persistent,fire]] @Compendium[pf2e.conditionitems.Persistent Damage]{Persistent Fire Damage} and [[/r {2}[splash,fire]]{2 fire splash damage} to each creature sharing its square (@Check[type:reflex|dc:18|basic:true|traits:hazard,mechanical,trap]).</p>"
                },
                "requirements": {
                    "value": ""
                },
                "rules": [],
                "slug": null,
                "source": {
                    "value": ""
                },
                "traits": {
                    "custom": "",
                    "rarity": "common",
                    "value": []
                },
                "trigger": {
                    "value": ""
                }
            },
            "flags": {},
            "img": "systems/pf2e/icons/actions/Reaction.webp",
            "name": "Explode",
            "sort": 0,
            "type": "action"
        }
    ],
    "name": "Lyzerium Bottles",
    "token": {
        "disposition": 0,
        "height": 1,
        "img": "systems/pf2e/icons/default-icons/hazard.svg",
        "name": "Lyzerium Bottles",
        "width": 1
    },
    "type": "hazard"
}
