{
    "_id": "CMTeUYpFwhN0CKs2",
    "data": {
        "attributes": {
            "ac": {
                "value": 12
            },
            "hardness": 3,
            "hasHealth": true,
            "hp": {
                "details": "",
                "max": 10,
                "temp": 0,
                "value": 10
            },
            "stealth": {
                "details": "<p>(trained)</p>",
                "value": 5
            }
        },
        "creatureType": "",
        "details": {
            "description": "<p>A tripwire fastened to the gate snaps when the gate is opened, releasing a moderate thunderstone to the ground.</p>",
            "disable": "<p>@Check[type:thievery|dc:15|name:Remove the thunderstone|traits:hazard,mechanical,trap] (trained) to remove the thunderstone or @Check[type:reflex|dc:18|name:Catch the falling thunderstone|traits:hazard,mechanical,trap] save to catch the falling thunderstone</p>",
            "isComplex": false,
            "level": {
                "value": 1
            },
            "reset": "",
            "routine": ""
        },
        "saves": {
            "fortitude": {
                "saveDetail": "",
                "value": 7
            },
            "reflex": {
                "saveDetail": "",
                "value": 3
            },
            "will": {
                "saveDetail": "",
                "value": 0
            }
        },
        "source": {
            "value": ""
        },
        "statusEffects": [],
        "traits": {
            "ci": [],
            "di": {
                "custom": "",
                "selected": {},
                "value": [
                    "critical-hits",
                    "object-immunities",
                    "precision"
                ]
            },
            "dr": [],
            "dv": [],
            "rarity": "common",
            "size": {
                "value": "med"
            },
            "traits": {
                "custom": "",
                "value": [
                    "mechanical",
                    "trap"
                ]
            }
        }
    },
    "flags": {},
    "img": "systems/pf2e/icons/default-icons/hazard.svg",
    "items": [
        {
            "_id": "cAQyBjT2q2n4GYvk",
            "data": {
                "actionCategory": {
                    "value": "offensive"
                },
                "actionType": {
                    "value": "reaction"
                },
                "actions": {
                    "value": null
                },
                "description": {
                    "value": "<p><strong>Trigger</strong> The front gate is opened</p>\n<p><strong>Effect</strong> A moderate thunderstone falls on the flagstones and activates, dealing [[/r {2}[splash,sonic]]]{2 sonic splash} damage to each creature within 10 feet of the gate. Creatures in the area must succeed at a @Check[type:fortitude|dc:17|traits:hazard,mechanical,trap] saving throw or be @Compendium[pf2e.conditionitems.Deafened]{Deafened} for 1 round. Adjacent creatures can attempt to catch the falling thunderstone (see Disable).</p>"
                },
                "requirements": {
                    "value": ""
                },
                "rules": [],
                "slug": null,
                "source": {
                    "value": ""
                },
                "traits": {
                    "custom": "",
                    "rarity": "common",
                    "value": [
                        "sonic"
                    ]
                },
                "trigger": {
                    "value": ""
                }
            },
            "flags": {},
            "img": "systems/pf2e/icons/actions/Reaction.webp",
            "name": "Thunderstone",
            "sort": 0,
            "type": "action"
        }
    ],
    "name": "Precarious Thunderstone Trap",
    "token": {
        "disposition": 0,
        "height": 1,
        "img": "systems/pf2e/icons/default-icons/hazard.svg",
        "name": "Precarious Thunderstone Trap",
        "width": 1
    },
    "type": "hazard"
}
