{
    "_id": "o9H7LrIqjOVyZTDH",
    "data": {
        "attributes": {
            "ac": {
                "value": 22
            },
            "hardness": 12,
            "hasHealth": true,
            "hp": {
                "details": "",
                "max": 50,
                "temp": 0,
                "value": 50
            },
            "stealth": {
                "details": "<p>(trained)</p>",
                "value": 13
            }
        },
        "creatureType": "",
        "details": {
            "description": "<p>A pressure plate in the hallway floor releases a latch, causing a ceiling panel to drop down. A <em>+1 striking heavy crossbow</em> contained in a steel box sprays bolts at any creatures in the hallway.</p>",
            "disable": "<p>@Check[type:thievery|dc:20|name:Disengage the reloading mechanism|traits:hazard,complex,mechanical,trap] (Expert) or @Check[type:crafting|dc:20|name:Disengage the reloading mechanism|traits:hazard,complex,mechanical,trap] (Trained) to disengage the reloading mechanism; the trap can also be disabled by the switch in area <strong>F2</strong></p>",
            "isComplex": true,
            "level": {
                "value": 5
            },
            "reset": "<p>The trap runs out of ammo after it fires 5 bolts; it must be manually reloaded.</p>",
            "routine": "<p>(3 actions) The repeater crossbow trap reloads (2 actions) then Strikes a random creature in the hallway.</p>"
        },
        "saves": {
            "fortitude": {
                "saveDetail": "",
                "value": 15
            },
            "reflex": {
                "saveDetail": "",
                "value": 9
            },
            "will": {
                "saveDetail": "",
                "value": 0
            }
        },
        "source": {
            "value": ""
        },
        "statusEffects": [],
        "traits": {
            "ci": [],
            "di": {
                "custom": "",
                "selected": {},
                "value": [
                    "critical-hits",
                    "object-immunities",
                    "precision"
                ]
            },
            "dr": [],
            "dv": [],
            "rarity": "common",
            "size": {
                "value": "med"
            },
            "traits": {
                "custom": "",
                "value": [
                    "mechanical",
                    "trap"
                ]
            }
        }
    },
    "flags": {},
    "img": "systems/pf2e/icons/default-icons/hazard.svg",
    "items": [
        {
            "_id": "BhwFjVsraJcLLbrF",
            "data": {
                "actionCategory": {
                    "value": "offensive"
                },
                "actionType": {
                    "value": "reaction"
                },
                "actions": {
                    "value": null
                },
                "description": {
                    "value": "<p><strong>Trigger</strong> An object or creature weighing at least 25 pounds steps on the pressure plate at the south end of the hallway</p>\n<p><strong>Effect</strong> A <em>+1 striking heavy crossbow</em> encased in a steel box drops from the ceiling and fires. The repeater crossbow trap Strikes a random creature in the hallway. The trap then rolls initiative.</p>"
                },
                "requirements": {
                    "value": ""
                },
                "rules": [],
                "slug": null,
                "source": {
                    "value": ""
                },
                "traits": {
                    "custom": "",
                    "rarity": "common",
                    "value": []
                },
                "trigger": {
                    "value": ""
                }
            },
            "flags": {},
            "img": "systems/pf2e/icons/actions/Reaction.webp",
            "name": "Auto-Bolter",
            "sort": 0,
            "type": "action"
        },
        {
            "_id": "6fkjRxXSm5hFWjLC",
            "data": {
                "attack": {
                    "value": ""
                },
                "attackEffects": {
                    "value": []
                },
                "bonus": {
                    "value": 16
                },
                "damageRolls": {
                    "x9rz2u1v19rx25mvpmko": {
                        "damage": "2d10+4",
                        "damageType": "piercing"
                    }
                },
                "description": {
                    "value": ""
                },
                "rules": [],
                "slug": null,
                "source": {
                    "value": ""
                },
                "traits": {
                    "custom": "",
                    "rarity": "common",
                    "value": [
                        "agile",
                        "range-120",
                        "reload-2"
                    ]
                },
                "weaponType": {
                    "value": "ranged"
                }
            },
            "flags": {},
            "img": "systems/pf2e/icons/actions/OneAction.webp",
            "name": "Heavy Crossbow",
            "sort": 0,
            "type": "melee"
        }
    ],
    "name": "Repeater Crossbow Trap",
    "token": {
        "disposition": 0,
        "height": 1,
        "img": "systems/pf2e/icons/default-icons/hazard.svg",
        "name": "Repeater Crossbow Trap",
        "width": 1
    },
    "type": "hazard"
}
