{
    "_id": "64BpT3gs4q1n187w",
    "data": {
        "attributes": {
            "ac": {
                "value": 10
            },
            "hardness": 10,
            "hasHealth": true,
            "hp": {
                "details": "",
                "max": 50,
                "temp": 0,
                "value": 50
            },
            "stealth": {
                "details": "<p>(trained)</p>",
                "value": 10
            }
        },
        "creatureType": "",
        "details": {
            "description": "<p>A hopper full of wooden sling bullets is attached to several launching devices, which spew the bullets at high velocity through various holes in the boards covering the window. A distinctive \"click\" and whirring sound indicate the trap has been sprung.</p>",
            "disable": "<p>@Check[type:thievery|dc:17|name:reinforce the porch sensor|traits:complex,hazard,trap,mechanical] (trained) to reinforce the porch pressure sensor or @Check[type:crafting|dc:15|name:Cover the holes|traits:complex,hazard,trap,mechanical] (trained) to cover the holes launching the bullets</p>",
            "isComplex": true,
            "level": {
                "value": 3
            },
            "reset": "<p>The trap stops after 10 rounds or when the weight on the porch is removed, whichever comes first. The trap can operate for a total of 10 rounds before its ammunition is exhausted.</p>",
            "routine": "<p>(2 actions) The wooden bullets trap Strikes the two nearest creatures. It ignores @Compendium[pf2e.conditionitems.Prone]{Prone} creatures as the bullets fly overhead.</p>"
        },
        "saves": {
            "fortitude": {
                "saveDetail": "",
                "value": 15
            },
            "reflex": {
                "saveDetail": "",
                "value": 5
            },
            "will": {
                "saveDetail": "",
                "value": 0
            }
        },
        "source": {
            "value": ""
        },
        "statusEffects": [],
        "traits": {
            "ci": [],
            "di": {
                "custom": "",
                "selected": {},
                "value": [
                    "critical-hits",
                    "object-immunities",
                    "precision"
                ]
            },
            "dr": [],
            "dv": [
                {
                    "type": "fire",
                    "value": 5
                }
            ],
            "rarity": "common",
            "size": {
                "value": "med"
            },
            "traits": {
                "custom": "",
                "value": [
                    "mechanical",
                    "trap"
                ]
            }
        }
    },
    "flags": {},
    "img": "systems/pf2e/icons/default-icons/hazard.svg",
    "items": [
        {
            "_id": "klvdQszuOX36YOId",
            "data": {
                "actionCategory": {
                    "value": "offensive"
                },
                "actionType": {
                    "value": "reaction"
                },
                "actions": {
                    "value": null
                },
                "description": {
                    "value": "<p><strong>Trigger</strong> A creature or object weighing at least 50 pounds is placed on the porch (marked \"T\" on the map)</p>\n<p><strong>Effect</strong> A stream of wooden sling bullets flies from a launcher. The trap Strikes the two nearest creatures and then rolls initiative.</p>"
                },
                "requirements": {
                    "value": ""
                },
                "rules": [],
                "slug": null,
                "source": {
                    "value": ""
                },
                "traits": {
                    "custom": "",
                    "rarity": "common",
                    "value": []
                },
                "trigger": {
                    "value": ""
                }
            },
            "flags": {},
            "img": "systems/pf2e/icons/actions/Reaction.webp",
            "name": "Auto-Sling",
            "sort": 0,
            "type": "action"
        },
        {
            "_id": "uIH22aBxZefzX5nW",
            "data": {
                "attack": {
                    "value": ""
                },
                "attackEffects": {
                    "value": []
                },
                "bonus": {
                    "value": 12
                },
                "damageRolls": {
                    "94w0ubv46z6vatmui1mg": {
                        "damage": "1d6+6",
                        "damageType": "bludgeoning"
                    }
                },
                "description": {
                    "value": ""
                },
                "rules": [],
                "slug": null,
                "source": {
                    "value": ""
                },
                "traits": {
                    "custom": "",
                    "rarity": "common",
                    "value": [
                        "nonlethal",
                        "range-10"
                    ]
                },
                "weaponType": {
                    "value": "ranged"
                }
            },
            "flags": {},
            "img": "systems/pf2e/icons/actions/OneAction.webp",
            "name": "Wooden Bullet",
            "sort": 0,
            "type": "melee"
        }
    ],
    "name": "Wooden Bullets Trap",
    "token": {
        "disposition": 0,
        "height": 1,
        "img": "systems/pf2e/icons/default-icons/hazard.svg",
        "name": "Wooden Bullets Trap",
        "width": 1
    },
    "type": "hazard"
}
