{
    "_id": "wfsT2QDtQhsFXQfE",
    "data": {
        "abilities": {
            "cha": {
                "mod": 0
            },
            "con": {
                "mod": 1
            },
            "dex": {
                "mod": 3
            },
            "int": {
                "mod": 2
            },
            "str": {
                "mod": 1
            },
            "wis": {
                "mod": 4
            }
        },
        "attributes": {
            "ac": {
                "details": "",
                "value": 17
            },
            "allSaves": {
                "value": ""
            },
            "hp": {
                "details": "",
                "max": 30,
                "temp": 0,
                "value": 30
            },
            "initiative": {
                "ability": "perception"
            },
            "perception": {
                "value": 14
            },
            "speed": {
                "otherSpeeds": [],
                "value": "25"
            }
        },
        "details": {
            "alignment": {
                "value": "N"
            },
            "blurb": "",
            "creatureType": "",
            "level": {
                "value": 2
            },
            "privateNotes": "",
            "publicNotes": "<p>The surgeon specializes in the physical alteration of the body to prevent the spread of disease, removing necrotic and decaying flesh to help the whole to survive. Few healers know the science of anatomy and physiology better than the surgeon. While their expertise is of grave importance in the medical world, the downside is that when one is in need of their talents, it is likely the complaint is serious. In medical matters, a surgeon is a 6th-level challenge.</p>\n<hr />\n<p>The world is a dangerous place. Thankfully, there are those who devote their lives to easing the pain and suffering of others.</p>",
            "source": {
                "value": "Pathfinder Gamemastery Guide"
            }
        },
        "resources": {},
        "saves": {
            "fortitude": {
                "saveDetail": "",
                "value": 7
            },
            "reflex": {
                "saveDetail": "",
                "value": 7
            },
            "will": {
                "saveDetail": "",
                "value": 10
            }
        },
        "traits": {
            "ci": [],
            "di": {
                "custom": "",
                "value": []
            },
            "dr": [],
            "dv": [],
            "languages": {
                "custom": "",
                "selected": [],
                "value": [
                    "common"
                ]
            },
            "rarity": "common",
            "senses": {
                "value": ""
            },
            "size": {
                "value": "med"
            },
            "traits": {
                "custom": "",
                "value": [
                    "human",
                    "humanoid"
                ]
            }
        }
    },
    "flags": {},
    "img": "systems/pf2e/icons/default-icons/npc.svg",
    "items": [
        {
            "_id": "Z6BNfng94z1xdzn3",
            "data": {
                "MAP": {
                    "value": ""
                },
                "baseItem": "war-razor",
                "bonus": {
                    "value": 0
                },
                "bonusDamage": {
                    "value": 0
                },
                "category": "martial",
                "containerId": null,
                "damage": {
                    "damageType": "slashing",
                    "dice": 1,
                    "die": "d4",
                    "value": ""
                },
                "description": {
                    "value": "<p>A war razor is an exaggerated version of the barbers' tool. It is a brittle but extremely sharp weapon that is very easy to slip into a pocket or sleeve.</p>"
                },
                "equipped": {
                    "carryType": "worn",
                    "handsHeld": 1,
                    "invested": null
                },
                "equippedBulk": {
                    "value": ""
                },
                "group": "knife",
                "hardness": 0,
                "hp": {
                    "brokenThreshold": 0,
                    "max": 0,
                    "value": 0
                },
                "level": {
                    "value": 0
                },
                "negateBulk": {
                    "value": "0"
                },
                "potencyRune": {
                    "value": null
                },
                "preciousMaterial": {
                    "value": ""
                },
                "preciousMaterialGrade": {
                    "value": ""
                },
                "price": {
                    "value": {
                        "sp": 3
                    }
                },
                "property1": {
                    "critDamage": "",
                    "critDamageType": "",
                    "critDice": null,
                    "critDie": "",
                    "criticalConditionType": "",
                    "criticalConditionValue": null,
                    "damageType": "",
                    "dice": null,
                    "die": "",
                    "strikeConditionType": "",
                    "strikeConditionValue": null,
                    "value": ""
                },
                "propertyRune1": {
                    "value": ""
                },
                "propertyRune2": {
                    "value": ""
                },
                "propertyRune3": {
                    "value": ""
                },
                "propertyRune4": {
                    "value": ""
                },
                "quantity": 3,
                "range": null,
                "reload": {
                    "value": ""
                },
                "rules": [],
                "size": "med",
                "slug": "war-razor",
                "source": {
                    "value": ""
                },
                "specific": {
                    "value": false
                },
                "splashDamage": {
                    "value": null
                },
                "stackGroup": null,
                "strikingRune": {
                    "value": ""
                },
                "traits": {
                    "custom": "",
                    "rarity": "common",
                    "value": [
                        "agile",
                        "backstabber",
                        "deadly-d8",
                        "finesse"
                    ]
                },
                "usage": {
                    "value": "held-in-one-hand"
                },
                "weight": {
                    "value": "L"
                }
            },
            "flags": {
                "core": {
                    "sourceId": "Compendium.pf2e.equipment-srd.nOFcCidD5AwVZWTv"
                }
            },
            "img": "systems/pf2e/icons/equipment/weapons/war-razor.webp",
            "name": "Scalpel",
            "sort": 100000,
            "type": "weapon"
        },
        {
            "_id": "s5e6CueENejAHsP7",
            "data": {
                "baseItem": null,
                "containerId": null,
                "description": {
                    "value": "<p>This kit of bandages, herbs, and suturing tools is necessary for Medicine checks to Administer First Aid, Treat Disease, Treat Poison, or Treat Wounds.</p>"
                },
                "equipped": {
                    "carryType": "worn",
                    "handsHeld": 0,
                    "invested": null
                },
                "equippedBulk": {
                    "value": ""
                },
                "hardness": 0,
                "hp": {
                    "brokenThreshold": 0,
                    "max": 0,
                    "value": 0
                },
                "level": {
                    "value": 0
                },
                "negateBulk": {
                    "value": "0"
                },
                "preciousMaterial": {
                    "value": ""
                },
                "preciousMaterialGrade": {
                    "value": ""
                },
                "price": {
                    "value": {
                        "gp": 5
                    }
                },
                "quantity": 1,
                "rules": [],
                "size": "med",
                "slug": "healers-tools",
                "source": {
                    "value": ""
                },
                "stackGroup": null,
                "traits": {
                    "custom": "",
                    "rarity": "common",
                    "value": []
                },
                "usage": {
                    "value": "held-in-two-hands"
                },
                "weight": {
                    "value": "1"
                }
            },
            "flags": {
                "core": {
                    "sourceId": "Compendium.pf2e.equipment-srd.s1vB3HdXjMigYAnY"
                }
            },
            "img": "systems/pf2e/icons/equipment/adventuring-gear/healers-kit.webp",
            "name": "Healer's Tools",
            "sort": 200000,
            "type": "equipment"
        },
        {
            "_id": "JbPgkPBw6I7dZFcQ",
            "data": {
                "attack": {
                    "value": ""
                },
                "attackEffects": {
                    "value": []
                },
                "bonus": {
                    "value": 11
                },
                "damageRolls": {
                    "0": {
                        "damage": "1d4+1",
                        "damageType": "slashing"
                    }
                },
                "description": {
                    "value": ""
                },
                "rules": [],
                "slug": null,
                "source": {
                    "value": ""
                },
                "traits": {
                    "custom": "",
                    "rarity": "common",
                    "value": [
                        "agile",
                        "versatile-p"
                    ]
                },
                "weaponType": {
                    "value": "melee"
                }
            },
            "flags": {},
            "img": "systems/pf2e/icons/default-icons/melee.svg",
            "name": "Scalpel",
            "sort": 300000,
            "type": "melee"
        },
        {
            "_id": "YgMj9CaUadOgAwPl",
            "data": {
                "attack": {
                    "value": ""
                },
                "attackEffects": {
                    "value": []
                },
                "bonus": {
                    "value": 11
                },
                "damageRolls": {
                    "0": {
                        "damage": "1d4+1",
                        "damageType": "slashing"
                    }
                },
                "description": {
                    "value": ""
                },
                "rules": [],
                "slug": null,
                "source": {
                    "value": ""
                },
                "traits": {
                    "custom": "",
                    "rarity": "common",
                    "value": [
                        "agile",
                        "thrown-10",
                        "versatile-p"
                    ]
                },
                "weaponType": {
                    "value": "ranged"
                }
            },
            "flags": {},
            "img": "systems/pf2e/icons/default-icons/melee.svg",
            "name": "Scalpel",
            "sort": 400000,
            "type": "melee"
        },
        {
            "_id": "F7IHKiavOdLoatuo",
            "data": {
                "actionCategory": {
                    "value": "interaction"
                },
                "actionType": {
                    "value": "passive"
                },
                "actions": {
                    "value": null
                },
                "description": {
                    "value": "<p>When the surgeon rolls a critical failure on a check to @Compendium[pf2e.actionspf2e.Treat Disease]{Treat Disease}, @Compendium[pf2e.actionspf2e.Treat Poison]{Treat Poison}, or @Compendium[pf2e.actionspf2e.Treat Wounds]{Treat Wounds}, they get a failure instead.</p>"
                },
                "requirements": {
                    "value": ""
                },
                "rules": [
                    {
                        "adjustment": {
                            "criticalFailure": "one-degree-better"
                        },
                        "key": "AdjustDegreeOfSuccess",
                        "predicate": {
                            "any": [
                                "action:treat-wounds",
                                "action:treat-disease",
                                "action:treat-poison"
                            ]
                        },
                        "selector": "medicine",
                        "type": "skill"
                    }
                ],
                "slug": null,
                "source": {
                    "value": ""
                },
                "traits": {
                    "custom": "",
                    "rarity": "common",
                    "value": []
                },
                "trigger": {
                    "value": ""
                },
                "weapon": {
                    "value": ""
                }
            },
            "flags": {},
            "img": "systems/pf2e/icons/actions/Passive.webp",
            "name": "Doctor's Hand",
            "sort": 500000,
            "type": "action"
        },
        {
            "_id": "Q95qJwP5SCa0IlGu",
            "data": {
                "actionCategory": {
                    "value": "offensive"
                },
                "actionType": {
                    "value": "action"
                },
                "actions": {
                    "value": null
                },
                "description": {
                    "value": "<p>The surgeon attempts a Medicine check against the Fortitude DC of one living creature they can see within 60 feet.</p>\n<p>On a success, the surgeon's melee Strikes deal an extra [[/r {1d6}[precision]]]{1d6 precision damage} against that creature ([[/r {2d6}[precision]]]{2d6 precision damage} on a critical success) until 1 minute passes or the surgeon critically hits that creature, whichever comes first.</p>\n<p>Using this action again designates a new target and ends the effect for any previous target. A surgeon can target an individual creature no more than once per day with this ability.</p>"
                },
                "requirements": {
                    "value": ""
                },
                "rules": [
                    {
                        "domain": "all",
                        "key": "RollOption",
                        "option": "medical-malpractice",
                        "toggleable": true
                    },
                    {
                        "domain": "all",
                        "key": "RollOption",
                        "label": "Medical Malpractice (Critical Success)",
                        "option": "medical-malpractice-crit",
                        "toggleable": true
                    },
                    {
                        "damageType": "precision",
                        "diceNumber": 1,
                        "dieSize": "d6",
                        "key": "DamageDice",
                        "predicate": {
                            "all": [
                                "medical-malpractice"
                            ]
                        },
                        "selector": "strike-damage"
                    },
                    {
                        "damageType": "precision",
                        "diceNumber": 2,
                        "dieSize": "d6",
                        "key": "DamageDice",
                        "predicate": {
                            "all": [
                                "medical-malpractice-crit"
                            ]
                        },
                        "selector": "strike-damage"
                    }
                ],
                "slug": null,
                "source": {
                    "value": ""
                },
                "traits": {
                    "custom": "",
                    "rarity": "common",
                    "value": []
                },
                "trigger": {
                    "value": ""
                },
                "weapon": {
                    "value": ""
                }
            },
            "flags": {},
            "img": "systems/pf2e/icons/actions/OneAction.webp",
            "name": "Medical Malpractice",
            "sort": 600000,
            "type": "action"
        },
        {
            "_id": "QIRnV7ARjaqPa77i",
            "data": {
                "description": {
                    "value": ""
                },
                "mod": {
                    "value": 10
                },
                "proficient": {
                    "value": 0
                },
                "rules": [],
                "slug": null,
                "source": {
                    "value": ""
                },
                "traits": {
                    "custom": "",
                    "rarity": "common",
                    "value": []
                }
            },
            "flags": {},
            "img": "systems/pf2e/icons/default-icons/lore.svg",
            "name": "Crafting",
            "sort": 700000,
            "type": "lore"
        },
        {
            "_id": "dozxqjoRyi4eoisR",
            "data": {
                "description": {
                    "value": ""
                },
                "mod": {
                    "value": 8
                },
                "proficient": {
                    "value": 0
                },
                "rules": [],
                "slug": null,
                "source": {
                    "value": ""
                },
                "traits": {
                    "custom": "",
                    "rarity": "common",
                    "value": []
                }
            },
            "flags": {},
            "img": "systems/pf2e/icons/default-icons/lore.svg",
            "name": "Diplomacy",
            "sort": 800000,
            "type": "lore"
        },
        {
            "_id": "0q0T8gJLXTvtrX8J",
            "data": {
                "description": {
                    "value": ""
                },
                "mod": {
                    "value": 16
                },
                "proficient": {
                    "value": 0
                },
                "rules": [],
                "slug": null,
                "source": {
                    "value": ""
                },
                "traits": {
                    "custom": "",
                    "rarity": "common",
                    "value": []
                }
            },
            "flags": {},
            "img": "systems/pf2e/icons/default-icons/lore.svg",
            "name": "Medicine",
            "sort": 900000,
            "type": "lore"
        }
    ],
    "name": "Surgeon",
    "token": {
        "disposition": -1,
        "height": 1,
        "img": "systems/pf2e/icons/default-icons/npc.svg",
        "name": "Surgeon",
        "width": 1
    },
    "type": "npc"
}
