{
    "_id": "9qV49KjZujZnSp6w",
    "data": {
        "actionCategory": {
            "value": "defensive"
        },
        "actionType": {
            "value": "passive"
        },
        "actions": {
            "value": null
        },
        "description": {
            "value": "<p>@Localize[PF2E.NPC.Abilities.Glossary.AllAroundVision]</p>"
        },
        "requirements": {
            "value": ""
        },
        "rules": [
            {
                "key": "ActiveEffectLike",
                "mode": "override",
                "path": "data.attributes.flanking.flankable",
                "value": false
            }
        ],
        "source": {
            "value": ""
        },
        "traits": {
            "custom": "",
            "rarity": "common",
            "value": []
        },
        "trigger": {
            "value": ""
        },
        "weapon": {
            "value": ""
        }
    },
    "flags": {},
    "img": "systems/pf2e/icons/actions/Passive.webp",
    "name": "All-Around Vision",
    "type": "action"
}
