{
    "_id": "OvqohW9YuahnFaiX",
    "data": {
        "actionCategory": {
            "value": "interaction"
        },
        "actionType": {
            "value": "action"
        },
        "actions": {
            "value": 1
        },
        "description": {
            "value": "<p>@Localize[PF2E.NPC.Abilities.Glossary.FormUp]</p>"
        },
        "requirements": {
            "value": ""
        },
        "rules": [],
        "source": {
            "value": ""
        },
        "traits": {
            "custom": "",
            "rarity": "common",
            "value": []
        },
        "trigger": {
            "value": ""
        },
        "weapon": {
            "value": ""
        }
    },
    "flags": {},
    "img": "systems/pf2e/icons/actions/OneAction.webp",
    "name": "Form Up",
    "type": "action"
}
