{
    "_id": "oHUIqVPBpHAbN3qO",
    "data": {
        "attributes": {
            "ac": {
                "value": 21
            },
            "hardness": 0,
            "hasHealth": true,
            "hp": {
                "details": "",
                "max": 52,
                "temp": 0,
                "tempmax": 0,
                "value": 52
            },
            "stealth": {
                "details": "<p>(expert)</p>",
                "value": 16
            }
        },
        "creatureType": "",
        "details": {
            "description": "<p>A field of grass-like fungal filaments amid clusters of softly glowing, long-stalked mushrooms.</p>",
            "disable": "<p>@Check[type:survival|dc:22|name:Clear Patch of Mushrooms|traits:environmental,fungus,hazard] (expert) to remove a 5-foot-patch without triggering the mushrooms.</p>",
            "isComplex": false,
            "level": {
                "value": 5
            },
            "reset": "",
            "routine": ""
        },
        "saves": {
            "fortitude": {
                "saveDetail": "",
                "value": 13
            },
            "reflex": {
                "saveDetail": "",
                "value": 9
            },
            "will": {
                "saveDetail": "",
                "value": 0
            }
        },
        "source": {
            "value": "Pathfinder #145: Hellknight Hill"
        },
        "statusEffects": [],
        "traits": {
            "ci": [],
            "di": {
                "custom": "",
                "selected": {},
                "value": [
                    "critical-hits",
                    "object-immunities",
                    "precision"
                ]
            },
            "dr": [],
            "dv": [
                {
                    "type": "cold",
                    "value": 10
                }
            ],
            "rarity": "common",
            "size": {
                "value": "med"
            },
            "traits": {
                "custom": "",
                "value": [
                    "environmental",
                    "fungus"
                ]
            }
        }
    },
    "flags": {},
    "img": "systems/pf2e/icons/default-icons/hazard.svg",
    "items": [
        {
            "_id": "Z6mjzInaKKCOyvbM",
            "data": {
                "actionCategory": {
                    "value": ""
                },
                "actionType": {
                    "value": "reaction"
                },
                "actions": {
                    "value": null
                },
                "description": {
                    "value": "<p><strong>Trigger</strong> A creature moves into the mushrooms' space or damages the mushrooms. The mushrooms can't use this reaction if the damage was cold damage.</p>\n<p><strong>Effect</strong> The triggering creature and all creatures within 10 feet are sprayed with itchy, distracting, glowing spores and must attempt a @Check[type:reflex|dc:22|traits:environmental,fungus,hazard] save. On a failed save, the creatures become @Compendium[pf2e.conditionitems.Sickened]{Sickened 1} and @Compendium[pf2e.conditionitems.Stupefied]{Stupefied 1} (or @Compendium[pf2e.conditionitems.Sickened]{Sickened 2} and @Compendium[pf2e.conditionitems.Stupefied]{Stupefied 2} on a critical failure) and take a -4 penalty to Stealth checks until the spores lose potency in 24 hours or are removed. This requires washing them off by bathing in water for a minute, a <em>@Compendium[pf2e.spells-srd.Prestidigitation]{Prestidigitation}</em> spell, or a similar measure allowed by the GM.</p>\n<hr />\n<p>@Compendium[pf2e.bestiary-effects.Effect: Glowing Spores]{Effect: Glowing Spores}</p>"
                },
                "requirements": {
                    "value": ""
                },
                "rules": [],
                "slug": null,
                "source": {
                    "value": ""
                },
                "traits": {
                    "custom": "",
                    "rarity": "common",
                    "selected": {},
                    "value": []
                },
                "trigger": {
                    "value": ""
                },
                "weapon": {
                    "value": ""
                }
            },
            "flags": {},
            "img": "systems/pf2e/icons/actions/Reaction.webp",
            "name": "Glowing Spores",
            "sort": 100000,
            "type": "action"
        }
    ],
    "name": "Gloomglow Mushrooms",
    "token": {
        "disposition": 0,
        "height": 1,
        "img": "systems/pf2e/icons/default-icons/hazard.svg",
        "name": "Gloomglow Mushrooms",
        "width": 1
    },
    "type": "hazard"
}
