{
    "_id": "XNso2IMnhnfHcMCn",
    "data": {
        "abilities": {
            "cha": {
                "mod": 0
            },
            "con": {
                "mod": 4
            },
            "dex": {
                "mod": 7
            },
            "int": {
                "mod": 8
            },
            "str": {
                "mod": 2
            },
            "wis": {
                "mod": 7
            }
        },
        "attributes": {
            "ac": {
                "details": "",
                "value": 36
            },
            "allSaves": {
                "value": ""
            },
            "hp": {
                "details": "",
                "max": 265,
                "temp": 0,
                "value": 265
            },
            "initiative": {
                "ability": "perception"
            },
            "perception": {
                "value": 26
            },
            "speed": {
                "otherSpeeds": [],
                "value": "25"
            }
        },
        "details": {
            "alignment": {
                "value": "NE"
            },
            "blurb": "Female human",
            "creatureType": "Humanoid",
            "level": {
                "value": 15
            },
            "privateNotes": "",
            "publicNotes": "",
            "source": {
                "value": "Pathfinder #148: Fires of the Haunted City"
            }
        },
        "resources": {},
        "saves": {
            "fortitude": {
                "saveDetail": "",
                "value": 24
            },
            "reflex": {
                "saveDetail": "",
                "value": 29
            },
            "will": {
                "saveDetail": "",
                "value": 27
            }
        },
        "traits": {
            "ci": [],
            "di": {
                "custom": "",
                "value": []
            },
            "dr": [],
            "dv": [],
            "languages": {
                "custom": "",
                "selected": [],
                "value": [
                    "common",
                    "dwarven",
                    "undercommon"
                ]
            },
            "rarity": "unique",
            "senses": {
                "value": ""
            },
            "size": {
                "value": "med"
            },
            "traits": {
                "custom": "",
                "value": [
                    "human",
                    "humanoid"
                ]
            }
        }
    },
    "flags": {},
    "img": "systems/pf2e/icons/default-icons/npc.svg",
    "items": [
        {
            "_id": "kpp6uAfQZcHA99Ot",
            "data": {
                "MAP": {
                    "value": ""
                },
                "baseItem": "alchemical-bomb",
                "bonus": {
                    "value": 2
                },
                "bonusDamage": {
                    "value": 0
                },
                "category": "martial",
                "containerId": null,
                "damage": {
                    "damageType": "acid",
                    "dice": 1,
                    "die": "",
                    "value": ""
                },
                "description": {
                    "value": "<p><strong>Activate</strong> <span class=\"pf2-icon\">A</span> Strike</p>\n<p>This flask filled with corrosive acid deals 1 acid damage, 3d6 persistent acid damage, and 3 acid splash damage. You gain a +2 item bonus to attack rolls.</p>"
                },
                "equipped": {
                    "carryType": "worn",
                    "handsHeld": 0,
                    "invested": null
                },
                "equippedBulk": {
                    "value": ""
                },
                "group": "bomb",
                "hardness": 0,
                "hp": {
                    "brokenThreshold": 0,
                    "max": 0,
                    "value": 0
                },
                "level": {
                    "value": 11
                },
                "negateBulk": {
                    "value": "0"
                },
                "potencyRune": {
                    "value": 0
                },
                "preciousMaterial": {
                    "value": ""
                },
                "preciousMaterialGrade": {
                    "value": ""
                },
                "price": {
                    "value": {
                        "gp": 250
                    }
                },
                "property1": {
                    "critDamage": "",
                    "critDamageType": "",
                    "critDice": null,
                    "critDie": "",
                    "criticalConditionType": "",
                    "criticalConditionValue": null,
                    "damageType": "",
                    "dice": null,
                    "die": "",
                    "strikeConditionType": "",
                    "strikeConditionValue": null,
                    "value": ""
                },
                "propertyRune1": {
                    "value": null
                },
                "propertyRune2": {
                    "value": null
                },
                "propertyRune3": {
                    "value": null
                },
                "propertyRune4": {
                    "value": null
                },
                "quantity": 4,
                "range": 20,
                "reload": {
                    "value": ""
                },
                "rules": [
                    {
                        "key": "Note",
                        "outcome": [
                            "success"
                        ],
                        "selector": "{item|_id}-damage",
                        "text": "<p class='compact-text'>@Localize[PF2E.BombNotes.AcidFlask.Greater.success]</p>"
                    },
                    {
                        "key": "Note",
                        "outcome": [
                            "criticalSuccess"
                        ],
                        "selector": "{item|_id}-damage",
                        "text": "<p class='compact-text'>@Localize[PF2E.BombNotes.AcidFlask.Greater.criticalSuccess]</p>"
                    }
                ],
                "size": "med",
                "slug": "acid-flask-greater",
                "source": {
                    "value": "Pathfinder Core Rulebook"
                },
                "specific": {
                    "value": false
                },
                "splashDamage": {
                    "value": 3
                },
                "stackGroup": null,
                "strikingRune": {
                    "value": ""
                },
                "traits": {
                    "custom": "",
                    "rarity": "common",
                    "value": [
                        "acid",
                        "alchemical",
                        "bomb",
                        "consumable",
                        "infused",
                        "splash"
                    ]
                },
                "usage": {
                    "value": "held-in-one-hand"
                },
                "weight": {
                    "value": "L"
                }
            },
            "flags": {
                "core": {
                    "sourceId": "Compendium.pf2e.equipment-srd.jC8GmH0Un6vDxdMj"
                }
            },
            "img": "systems/pf2e/icons/equipment/alchemical-items/alchemical-bombs/acid-flask.webp",
            "name": "Acid Flask (Greater) [Infused]",
            "sort": 100000,
            "type": "weapon"
        },
        {
            "_id": "FGLOUpHNkmleuOIx",
            "data": {
                "MAP": {
                    "value": ""
                },
                "baseItem": "alchemical-bomb",
                "bonus": {
                    "value": 2
                },
                "bonusDamage": {
                    "value": 0
                },
                "category": "martial",
                "containerId": null,
                "damage": {
                    "damageType": "cold",
                    "dice": 3,
                    "die": "d6",
                    "value": ""
                },
                "description": {
                    "value": "<p>The liquid reagents in this vial rapidly absorb heat when exposed to air. A frost vial deals the listed cold damage and cold splash damage. On a hit, the target takes a status penalty to its Speeds until the end of its next turn. Many types of frost vial also grant an item bonus to attack rolls.</p>\n<p>You gain a +2 item bonus to attack rolls, the bomb deals 3d6 cold damage and 3 cold splash damage, and the target takes a -10-foot penalty.</p>\n<hr />\n<p>@Compendium[pf2e.equipment-effects.Effect: Frost Vial (Greater)]{Effect: Frost Vial (Greater)}</p>"
                },
                "equipped": {
                    "carryType": "worn",
                    "handsHeld": 0,
                    "invested": null
                },
                "equippedBulk": {
                    "value": ""
                },
                "group": "bomb",
                "hardness": 0,
                "hp": {
                    "brokenThreshold": 0,
                    "max": 0,
                    "value": 0
                },
                "level": {
                    "value": 11
                },
                "negateBulk": {
                    "value": "0"
                },
                "potencyRune": {
                    "value": 0
                },
                "preciousMaterial": {
                    "value": ""
                },
                "preciousMaterialGrade": {
                    "value": ""
                },
                "price": {
                    "value": {
                        "gp": 250
                    }
                },
                "property1": {
                    "critDamage": "",
                    "critDamageType": "",
                    "critDice": null,
                    "critDie": "",
                    "criticalConditionType": "",
                    "criticalConditionValue": null,
                    "damageType": "",
                    "dice": null,
                    "die": "",
                    "strikeConditionType": "",
                    "strikeConditionValue": null,
                    "value": ""
                },
                "propertyRune1": {
                    "value": null
                },
                "propertyRune2": {
                    "value": null
                },
                "propertyRune3": {
                    "value": null
                },
                "propertyRune4": {
                    "value": null
                },
                "quantity": 4,
                "range": 10,
                "reload": {
                    "value": ""
                },
                "rules": [
                    {
                        "key": "Note",
                        "selector": "{item|_id}-damage",
                        "text": "<p class='compact-text'><strong>Effect</strong> Target takes a -10-foot penalty to its Speeds.</p>"
                    }
                ],
                "size": "med",
                "slug": "frost-vial-greater",
                "source": {
                    "value": "Pathfinder Core Rulebook"
                },
                "specific": {
                    "value": false
                },
                "splashDamage": {
                    "value": 3
                },
                "stackGroup": null,
                "strikingRune": {
                    "value": ""
                },
                "traits": {
                    "custom": "",
                    "rarity": "common",
                    "value": [
                        "alchemical",
                        "bomb",
                        "cold",
                        "consumable",
                        "infused",
                        "splash"
                    ]
                },
                "usage": {
                    "value": "held-in-one-hand"
                },
                "weight": {
                    "value": "L"
                }
            },
            "flags": {
                "core": {
                    "sourceId": "Compendium.pf2e.equipment-srd.intVPcEzbE9o4NQd"
                }
            },
            "img": "systems/pf2e/icons/equipment/alchemical-items/alchemical-bombs/frost-vial.webp",
            "name": "Frost Vial (Greater) [Infused]",
            "sort": 200000,
            "type": "weapon"
        },
        {
            "_id": "50JvEJYUrD0euZsR",
            "data": {
                "MAP": {
                    "value": ""
                },
                "baseItem": "light-mace",
                "bonus": {
                    "value": 0
                },
                "bonusDamage": {
                    "value": 0
                },
                "category": "simple",
                "containerId": null,
                "damage": {
                    "damageType": "bludgeoning",
                    "dice": 1,
                    "die": "d4",
                    "value": ""
                },
                "description": {
                    "value": "<p>A light mace has a short wooden or metal shaft ending with a dense metal head. Used much like a club, it delivers heavy bludgeoning blows, but with extra power derived from the head's metal ridges or spikes.</p>"
                },
                "equipped": {
                    "carryType": "worn",
                    "handsHeld": 0,
                    "invested": null
                },
                "equippedBulk": {
                    "value": ""
                },
                "group": "club",
                "hardness": 0,
                "hp": {
                    "brokenThreshold": 0,
                    "max": 0,
                    "value": 0
                },
                "level": {
                    "value": 0
                },
                "negateBulk": {
                    "value": "0"
                },
                "potencyRune": {
                    "value": 2
                },
                "preciousMaterial": {
                    "value": null
                },
                "preciousMaterialGrade": {
                    "value": null
                },
                "price": {
                    "value": {
                        "sp": 4
                    }
                },
                "property1": {
                    "critDamage": "",
                    "critDamageType": "",
                    "critDice": null,
                    "critDie": "",
                    "criticalConditionType": "",
                    "criticalConditionValue": null,
                    "damageType": "",
                    "dice": null,
                    "die": "",
                    "strikeConditionType": "",
                    "strikeConditionValue": null,
                    "value": ""
                },
                "propertyRune1": {
                    "value": null
                },
                "propertyRune2": {
                    "value": null
                },
                "propertyRune3": {
                    "value": null
                },
                "propertyRune4": {
                    "value": null
                },
                "quantity": 1,
                "range": null,
                "reload": {
                    "value": ""
                },
                "rules": [],
                "size": "med",
                "slug": "light-mace",
                "source": {
                    "value": "Pathfinder Core Rulebook"
                },
                "specific": {
                    "value": false
                },
                "splashDamage": {
                    "value": 0
                },
                "stackGroup": null,
                "strikingRune": {
                    "value": "striking"
                },
                "traits": {
                    "custom": "",
                    "rarity": "common",
                    "value": [
                        "agile",
                        "finesse",
                        "shove"
                    ]
                },
                "usage": {
                    "value": "held-in-one-hand"
                },
                "weight": {
                    "value": "L"
                }
            },
            "flags": {
                "core": {
                    "sourceId": "Compendium.pf2e.equipment-srd.x1TOpwH755Ami5bC"
                }
            },
            "img": "systems/pf2e/icons/equipment/weapons/light-mace.webp",
            "name": "Light Mace",
            "sort": 300000,
            "type": "weapon"
        },
        {
            "_id": "bQGNTrxdCyY34M1f",
            "data": {
                "MAP": {
                    "value": ""
                },
                "baseItem": "alchemical-bomb",
                "bonus": {
                    "value": 2
                },
                "bonusDamage": {
                    "value": 0
                },
                "category": "martial",
                "containerId": null,
                "damage": {
                    "damageType": "sonic",
                    "dice": 3,
                    "die": "d4",
                    "value": ""
                },
                "description": {
                    "value": "<p>When this stone hits a creature or a hard surface, it explodes with a deafening bang. A thunderstone deals the listed sonic damage and sonic splash damage, and each creature within 10 feet of the space in which the stone exploded must succeed at a @Check[type:fortitude|dc:28|name:Greater Thunderstone|showDC:all] saving throw with the listed DC or be @Compendium[pf2e.conditionitems.Deafened]{Deafened} until the end of its next turn. Many types of thunderstone grant an item bonus to attack rolls.</p>\n<p>You gain a +2 item bonus to attack rolls. The bomb deals 3d4 sonic damage and 3 sonic splash damage, and the DC is 28.</p>"
                },
                "equipped": {
                    "carryType": "worn",
                    "handsHeld": 0,
                    "invested": null
                },
                "equippedBulk": {
                    "value": ""
                },
                "group": "bomb",
                "hardness": 0,
                "hp": {
                    "brokenThreshold": 0,
                    "max": 0,
                    "value": 0
                },
                "level": {
                    "value": 11
                },
                "negateBulk": {
                    "value": "0"
                },
                "potencyRune": {
                    "value": 0
                },
                "preciousMaterial": {
                    "value": ""
                },
                "preciousMaterialGrade": {
                    "value": ""
                },
                "price": {
                    "value": {
                        "gp": 250
                    }
                },
                "property1": {
                    "critDamage": "",
                    "critDamageType": "",
                    "critDice": null,
                    "critDie": "",
                    "criticalConditionType": "",
                    "criticalConditionValue": null,
                    "damageType": "",
                    "dice": null,
                    "die": "",
                    "strikeConditionType": "",
                    "strikeConditionValue": null,
                    "value": ""
                },
                "propertyRune1": {
                    "value": null
                },
                "propertyRune2": {
                    "value": null
                },
                "propertyRune3": {
                    "value": null
                },
                "propertyRune4": {
                    "value": null
                },
                "quantity": 4,
                "range": 20,
                "reload": {
                    "value": ""
                },
                "rules": [
                    {
                        "key": "Note",
                        "selector": "{item|_id}-damage",
                        "text": "<p class='compact-text'>@Localize[PF2E.BombNotes.Thunderstone.Greater.success]</p>"
                    }
                ],
                "size": "med",
                "slug": "thunderstone-greater",
                "source": {
                    "value": "Pathfinder Core Rulebook"
                },
                "specific": {
                    "value": false
                },
                "splashDamage": {
                    "value": 3
                },
                "stackGroup": null,
                "strikingRune": {
                    "value": ""
                },
                "traits": {
                    "custom": "",
                    "rarity": "common",
                    "value": [
                        "alchemical",
                        "bomb",
                        "consumable",
                        "infused",
                        "sonic",
                        "splash"
                    ]
                },
                "usage": {
                    "value": "held-in-one-hand"
                },
                "weight": {
                    "value": "L"
                }
            },
            "flags": {
                "core": {
                    "sourceId": "Compendium.pf2e.equipment-srd.dsMkvuLgpOOGLWDy"
                }
            },
            "img": "systems/pf2e/icons/equipment/alchemical-items/alchemical-bombs/thunderstone.webp",
            "name": "Thunderstone (Greater) [Infused]",
            "sort": 400000,
            "type": "weapon"
        },
        {
            "_id": "M2OxBMZbqLpIs5U3",
            "data": {
                "armor": {
                    "value": 1
                },
                "baseItem": "leather-armor",
                "category": "light",
                "check": {
                    "value": -1
                },
                "containerId": null,
                "description": {
                    "value": "<p>A mix of flexible and molded boiled leather, a suit of this type of armor provides some protection with maximum flexibility.</p>"
                },
                "dex": {
                    "value": 4
                },
                "equipped": {
                    "carryType": "worn",
                    "inSlot": false,
                    "invested": false
                },
                "equippedBulk": {
                    "value": "1"
                },
                "group": "leather",
                "hardness": 0,
                "hp": {
                    "brokenThreshold": 0,
                    "max": 0,
                    "value": 0
                },
                "level": {
                    "value": 11
                },
                "negateBulk": {
                    "value": "0"
                },
                "potency": {},
                "potencyRune": {
                    "value": 2
                },
                "preciousMaterial": {
                    "value": null
                },
                "preciousMaterialGrade": {
                    "value": null
                },
                "price": {
                    "value": {
                        "gp": 1400
                    }
                },
                "propertyRune1": {
                    "value": ""
                },
                "propertyRune2": {
                    "value": ""
                },
                "propertyRune3": {
                    "value": ""
                },
                "propertyRune4": {
                    "value": ""
                },
                "quantity": 1,
                "resiliencyRune": {
                    "value": "resilient"
                },
                "rules": [],
                "size": "med",
                "slug": "leather-armor",
                "source": {
                    "value": "Pathfinder Core Rulebook"
                },
                "speed": {
                    "value": 0
                },
                "stackGroup": null,
                "strength": {
                    "value": 10
                },
                "traits": {
                    "custom": "",
                    "rarity": "common",
                    "value": []
                },
                "usage": {
                    "value": "wornarmor"
                },
                "weight": {
                    "value": "2"
                }
            },
            "flags": {
                "core": {
                    "sourceId": "Compendium.pf2e.equipment-srd.4tIVTg9wj56RrveA"
                }
            },
            "img": "systems/pf2e/icons/equipment/armor/leather-armor.webp",
            "name": "+2 Resilient Leather Armor",
            "sort": 500000,
            "type": "armor"
        },
        {
            "_id": "eVp9yzgr73sRje00",
            "data": {
                "baseItem": null,
                "containerId": null,
                "description": {
                    "value": "<p>These brass goggles are engraved with flame patterns and have thick, heavy lenses.</p>\n<p>While worn, they give you a +2 item bonus to Crafting checks to Craft alchemical items and a +2 item bonus to attack rolls with alchemical bombs.</p>\n<p>You can also ignore lesser cover when making Strikes with alchemical bombs.</p>"
                },
                "equipped": {
                    "carryType": "worn",
                    "inSlot": false,
                    "invested": false
                },
                "equippedBulk": {
                    "value": ""
                },
                "hardness": 0,
                "hp": {
                    "brokenThreshold": 0,
                    "max": 0,
                    "value": 0
                },
                "level": {
                    "value": 11
                },
                "negateBulk": {
                    "value": ""
                },
                "preciousMaterial": {
                    "value": ""
                },
                "preciousMaterialGrade": {
                    "value": ""
                },
                "price": {
                    "value": {
                        "gp": 1400
                    }
                },
                "quantity": 1,
                "rules": [
                    {
                        "key": "FlatModifier",
                        "label": "Alchemist Goggles (craft alchemical items)",
                        "predicate": {
                            "all": [
                                "alchemical",
                                "action:craft"
                            ]
                        },
                        "selector": "crafting",
                        "type": "item",
                        "value": 2
                    },
                    {
                        "key": "FlatModifier",
                        "label": "Alchemist Goggles, Greater (alchemical bombs)",
                        "predicate": {
                            "all": [
                                "alchemical",
                                "bomb"
                            ]
                        },
                        "selector": "attack",
                        "type": "item",
                        "value": 2
                    }
                ],
                "size": "med",
                "slug": "alchemist-goggles-greater",
                "source": {
                    "value": "Pathfinder Core Rulebook"
                },
                "stackGroup": null,
                "traits": {
                    "custom": "",
                    "rarity": "common",
                    "value": [
                        "invested",
                        "magical",
                        "transmutation"
                    ]
                },
                "usage": {
                    "value": "worneyepiece"
                },
                "weight": {
                    "value": "-"
                }
            },
            "flags": {
                "core": {
                    "sourceId": "Compendium.pf2e.equipment-srd.8XZqdeZStFAM4XnH"
                }
            },
            "img": "systems/pf2e/icons/equipment/worn-items/other-worn-items/alchemist-goggles.webp",
            "name": "Alchemist Goggles (Greater)",
            "sort": 600000,
            "type": "equipment"
        },
        {
            "_id": "W24hKhRcyY9H8AQZ",
            "data": {
                "baseItem": null,
                "containerId": null,
                "description": {
                    "value": "<p>@Compendium[pf2e.equipment-srd.Acid Flask (Greater)]{Acid Flask (Greater)}</p>\n<p>@Compendium[pf2e.equipment-srd.Alchemist's Fire (Greater)]{Alchemist's Fire (Greater)}</p>\n<p>@Compendium[pf2e.equipment-srd.Bottled Lightning (Greater)]{Bottled Lightning (Greater)}</p>\n<p>@Compendium[pf2e.equipment-srd.Darkvision Elixir (Greater)]{Darkvision Elixir (Greater)}</p>\n<p>@Compendium[pf2e.equipment-srd.Deathcap Powder]{Deathcap Powder}</p>\n<p>@Compendium[pf2e.equipment-srd.Elixir of Life (Greater)]{Elixir of Life (Greater)}</p>\n<p>@Compendium[pf2e.equipment-srd.Frost Vial (Greater)]{Frost Vial (Greater)}</p>\n<p>@Compendium[pf2e.equipment-srd.Lethargy Poison]{Lethargy Poison}</p>\n<p>@Compendium[pf2e.equipment-srd.Purple Worm Venom]{Purple Worm Venom}</p>\n<p>@Compendium[pf2e.equipment-srd.Tanglefoot Bag (Greater)]{Tanglefoot Bag (Greater)}</p>"
                },
                "equipped": {
                    "carryType": "worn",
                    "handsHeld": 0,
                    "invested": null
                },
                "equippedBulk": {
                    "value": ""
                },
                "hardness": 0,
                "hp": {
                    "brokenThreshold": 0,
                    "max": 0,
                    "value": 0
                },
                "level": {
                    "value": 0
                },
                "negateBulk": {
                    "value": ""
                },
                "preciousMaterial": {
                    "value": ""
                },
                "preciousMaterialGrade": {
                    "value": ""
                },
                "price": {
                    "value": {
                        "gp": 1
                    }
                },
                "quantity": 1,
                "rules": [],
                "size": "med",
                "slug": "formula-book-blank",
                "source": {
                    "value": "Pathfinder Core Rulebook"
                },
                "stackGroup": null,
                "traits": {
                    "custom": "",
                    "rarity": "common",
                    "value": []
                },
                "usage": {
                    "value": "held-in-one-hand"
                },
                "weight": {
                    "value": "L"
                }
            },
            "flags": {
                "core": {
                    "sourceId": "Compendium.pf2e.equipment-srd.qCEOZ6109Yo34tRx"
                }
            },
            "img": "systems/pf2e/icons/equipment/adventuring-gear/formula-book.webp",
            "name": "Formula Book",
            "sort": 700000,
            "type": "equipment"
        },
        {
            "_id": "8tasUeRLnXBUpVlJ",
            "data": {
                "baseItem": null,
                "containerId": null,
                "description": {
                    "value": "<p>This mobile collection of vials and chemicals can be used for simple alchemical tasks.</p>"
                },
                "equipped": {
                    "carryType": "worn",
                    "handsHeld": 0,
                    "invested": null
                },
                "equippedBulk": {
                    "value": ""
                },
                "hardness": 0,
                "hp": {
                    "brokenThreshold": 0,
                    "max": 0,
                    "value": 0
                },
                "level": {
                    "value": 0
                },
                "negateBulk": {
                    "value": ""
                },
                "preciousMaterial": {
                    "value": ""
                },
                "preciousMaterialGrade": {
                    "value": ""
                },
                "price": {
                    "value": {
                        "gp": 3
                    }
                },
                "quantity": 1,
                "rules": [],
                "size": "med",
                "slug": "alchemists-tools",
                "source": {
                    "value": "Pathfinder Core Rulebook"
                },
                "stackGroup": null,
                "traits": {
                    "custom": "",
                    "rarity": "common",
                    "value": []
                },
                "usage": {
                    "value": "held-in-two-hands"
                },
                "weight": {
                    "value": "1"
                }
            },
            "flags": {
                "core": {
                    "sourceId": "Compendium.pf2e.equipment-srd.4ftXXUCBHcf4b0MH"
                }
            },
            "img": "systems/pf2e/icons/equipment/adventuring-gear/alchemists-tools.webp",
            "name": "Alchemist's Tools",
            "sort": 800000,
            "type": "equipment"
        },
        {
            "_id": "MvAnys19mxToQGDU",
            "data": {
                "activation": {
                    "condition": "",
                    "cost": 0,
                    "type": ""
                },
                "autoDestroy": {
                    "_deprecated": true,
                    "value": true
                },
                "autoUse": {
                    "_deprecated": true,
                    "value": true
                },
                "baseItem": null,
                "charges": {
                    "_deprecated": true,
                    "max": 1,
                    "value": 1
                },
                "consumableType": {
                    "value": "potion"
                },
                "consume": {
                    "_deprecated": true,
                    "value": "7d6+18"
                },
                "containerId": null,
                "description": {
                    "value": "<p><strong>Activate</strong> <span class=\"pf2-icon\">A</span> Interact</p>\n<p>Elixirs of life accelerate a living creature''s natural healing processes and immune system. Upon drinking this elixir, you regain [[/r {7d6+18}[healing]]]{7d6+18 Hit Points} and gain +2 item bonus to saving throws against diseases and poisons for 10 minutes.</p>\n<p>@Compendium[pf2e.consumable-effects.Effect: Elixir of Life (Greater)]{Effect: Elixir of Life (Greater)}</p>"
                },
                "duration": {
                    "units": "",
                    "value": null
                },
                "equipped": {
                    "carryType": "worn",
                    "handsHeld": 0
                },
                "equippedBulk": {
                    "value": ""
                },
                "hardness": 0,
                "hp": {
                    "brokenThreshold": 0,
                    "max": 0,
                    "value": 0
                },
                "level": {
                    "value": 13
                },
                "negateBulk": {
                    "value": "0"
                },
                "preciousMaterial": {
                    "value": ""
                },
                "preciousMaterialGrade": {
                    "value": ""
                },
                "price": {
                    "value": {
                        "gp": 600
                    }
                },
                "quantity": 2,
                "range": {
                    "long": null,
                    "units": "",
                    "value": null
                },
                "rules": [],
                "size": "med",
                "slug": "elixir-of-life-greater",
                "source": {
                    "value": "Pathfinder Core Rulebook"
                },
                "spell": {
                    "data": null,
                    "heightenedLevel": null
                },
                "stackGroup": null,
                "target": {
                    "type": "",
                    "units": "",
                    "value": null
                },
                "traits": {
                    "custom": "",
                    "rarity": "common",
                    "value": [
                        "alchemical",
                        "consumable",
                        "elixir",
                        "healing"
                    ]
                },
                "usage": {
                    "value": "held-in-one-hand"
                },
                "uses": {
                    "autoDestroy": true,
                    "autoUse": true,
                    "max": 0,
                    "per": null,
                    "value": 0
                },
                "weight": {
                    "value": "L"
                }
            },
            "flags": {
                "core": {
                    "sourceId": "Compendium.pf2e.equipment-srd.mYozcVg9fQY6zO7C"
                }
            },
            "img": "systems/pf2e/icons/equipment/alchemical-items/alchemical-elixirs/elixir-of-life.webp",
            "name": "Elixir of Life (Greater)",
            "sort": 900000,
            "type": "consumable"
        },
        {
            "_id": "0Eqa5Be8keCH6y7q",
            "data": {
                "attack": {
                    "value": ""
                },
                "attackEffects": {
                    "value": []
                },
                "bonus": {
                    "value": 30
                },
                "damageRolls": {
                    "gafflj51wcio5yrg9xt9": {
                        "damage": "2d4+8",
                        "damageType": "bludgeoning"
                    }
                },
                "description": {
                    "value": ""
                },
                "rules": [],
                "slug": null,
                "source": {
                    "value": ""
                },
                "traits": {
                    "custom": "",
                    "rarity": "common",
                    "value": [
                        "agile",
                        "finesse",
                        "shove"
                    ]
                },
                "weaponType": {
                    "value": "melee"
                }
            },
            "flags": {},
            "img": "systems/pf2e/icons/default-icons/melee.svg",
            "name": "Light Mace",
            "sort": 1000000,
            "type": "melee"
        },
        {
            "_id": "hCNYJ9tfRIOCl989",
            "data": {
                "attack": {
                    "value": ""
                },
                "attackEffects": {
                    "custom": "",
                    "value": [
                        "expanded-splash",
                        "uncanny-bombs"
                    ]
                },
                "bonus": {
                    "value": 30
                },
                "damageRolls": {
                    "pte562bkxuat7xxiqkdn": {
                        "damage": "1",
                        "damageType": "acid"
                    }
                },
                "description": {
                    "value": ""
                },
                "rules": [
                    {
                        "key": "Note",
                        "outcome": [
                            "success"
                        ],
                        "selector": "{item|_id}-damage",
                        "text": "<p class='compact-text'>@Localize[PF2E.BombNotes.AcidFlask.Greater.success]</p>"
                    },
                    {
                        "key": "Note",
                        "outcome": [
                            "criticalSuccess"
                        ],
                        "selector": "{item|_id}-damage",
                        "text": "<p class='compact-text'>@Localize[PF2E.BombNotes.AcidFlask.Greater.criticalSuccess]</p>"
                    }
                ],
                "slug": null,
                "source": {
                    "value": ""
                },
                "traits": {
                    "custom": "",
                    "rarity": "common",
                    "value": [
                        "acid",
                        "alchemical",
                        "bomb",
                        "consumable",
                        "range-increment-60",
                        "splash"
                    ]
                },
                "weaponType": {
                    "value": "ranged"
                }
            },
            "flags": {},
            "img": "systems/pf2e/icons/default-icons/melee.svg",
            "name": "Greater Acid Flask",
            "sort": 1100000,
            "type": "melee"
        },
        {
            "_id": "2MUmPkWIDTgvArGY",
            "data": {
                "attack": {
                    "value": ""
                },
                "attackEffects": {
                    "custom": "",
                    "value": [
                        "expanded-splash",
                        "uncanny-bombs"
                    ]
                },
                "bonus": {
                    "value": 30
                },
                "damageRolls": {
                    "pw2kv0xu8rov8h0dhhk4": {
                        "damage": "3d8",
                        "damageType": "fire"
                    }
                },
                "description": {
                    "value": ""
                },
                "rules": [
                    {
                        "key": "Note",
                        "outcome": [
                            "success"
                        ],
                        "selector": "{item|_id}-damage",
                        "text": "<p class='compact-text'>@Localize[PF2E.BombNotes.AlchemistsFire.Greater.success]</p>"
                    },
                    {
                        "key": "Note",
                        "outcome": [
                            "criticalSuccess"
                        ],
                        "selector": "{item|_id}-damage",
                        "text": "<p class='compact-text'>@Localize[PF2E.BombNotes.AlchemistsFire.Greater.criticalSuccess]</p>"
                    }
                ],
                "slug": null,
                "source": {
                    "value": ""
                },
                "traits": {
                    "custom": "",
                    "rarity": "common",
                    "value": [
                        "alchemical",
                        "bomb",
                        "consumable",
                        "fire",
                        "range-increment-60",
                        "splash"
                    ]
                },
                "weaponType": {
                    "value": "ranged"
                }
            },
            "flags": {},
            "img": "systems/pf2e/icons/default-icons/melee.svg",
            "name": "Greater Alchemist's Fire",
            "sort": 1200000,
            "type": "melee"
        },
        {
            "_id": "sc3daf0IgUPTb2rM",
            "data": {
                "attack": {
                    "value": ""
                },
                "attackEffects": {
                    "custom": "",
                    "value": [
                        "expanded-splash",
                        "uncanny-bombs"
                    ]
                },
                "bonus": {
                    "value": 30
                },
                "damageRolls": {
                    "xcjiegt48mftaksebr9h": {
                        "damage": "3d6",
                        "damageType": "cold"
                    }
                },
                "description": {
                    "value": ""
                },
                "rules": [
                    {
                        "key": "Note",
                        "selector": "{item|_id}-damage",
                        "text": "<p class='compact-text'>@Localize[PF2E.BombNotes.FrostVial.Greater.success]</p>"
                    }
                ],
                "slug": null,
                "source": {
                    "value": ""
                },
                "traits": {
                    "custom": "",
                    "rarity": "common",
                    "value": [
                        "alchemical",
                        "bomb",
                        "cold",
                        "consumable",
                        "range-increment-60",
                        "splash"
                    ]
                },
                "weaponType": {
                    "value": "ranged"
                }
            },
            "flags": {},
            "img": "systems/pf2e/icons/default-icons/melee.svg",
            "name": "Greater Frost Vial",
            "sort": 1300000,
            "type": "melee"
        },
        {
            "_id": "e0qpil2ll45f3L8R",
            "data": {
                "attack": {
                    "value": ""
                },
                "attackEffects": {
                    "custom": "",
                    "value": [
                        "expanded-splash",
                        "uncanny-bombs"
                    ]
                },
                "bonus": {
                    "value": 30
                },
                "damageRolls": {
                    "z4yhi34ljl8lsbasygzc": {
                        "damage": "3d4",
                        "damageType": "sonic"
                    }
                },
                "description": {
                    "value": ""
                },
                "rules": [
                    {
                        "key": "Note",
                        "selector": "{item|_id}-damage",
                        "text": "<p class='compact-text'>@Localize[PF2E.BombNotes.Thunderstone.Greater.success]</p>"
                    }
                ],
                "slug": null,
                "source": {
                    "value": ""
                },
                "traits": {
                    "custom": "",
                    "rarity": "common",
                    "value": [
                        "alchemical",
                        "bomb",
                        "consumable",
                        "range-increment-60",
                        "sonic",
                        "splash"
                    ]
                },
                "weaponType": {
                    "value": "ranged"
                }
            },
            "flags": {},
            "img": "systems/pf2e/icons/default-icons/melee.svg",
            "name": "Greater Thunderstone",
            "sort": 1400000,
            "type": "melee"
        },
        {
            "_id": "1BZlxGhTFq59fpA6",
            "data": {
                "actionCategory": {
                    "value": "interaction"
                },
                "actionType": {
                    "value": "passive"
                },
                "actions": {
                    "value": null
                },
                "description": {
                    "value": "<p>Zuferian's items listed as infused last for 24 hours, or until her next daily preparations.</p>"
                },
                "requirements": {
                    "value": ""
                },
                "rules": [],
                "slug": null,
                "source": {
                    "value": ""
                },
                "traits": {
                    "custom": "",
                    "rarity": "common",
                    "value": []
                },
                "trigger": {
                    "value": ""
                },
                "weapon": {
                    "value": ""
                }
            },
            "flags": {},
            "img": "systems/pf2e/icons/actions/Passive.webp",
            "name": "Infused Items",
            "sort": 1500000,
            "type": "action"
        },
        {
            "_id": "454nSdnfQdhFZ4cJ",
            "data": {
                "actionCategory": {
                    "value": "offensive"
                },
                "actionType": {
                    "value": "passive"
                },
                "actions": {
                    "value": null
                },
                "description": {
                    "value": "<p>@Compendium[pf2e.equipment-srd.Acid Flask (Greater)]{Acid Flask (Greater)}</p>\n<p>@Compendium[pf2e.equipment-srd.Alchemist's Fire (Greater)]{Alchemist's Fire (Greater)}</p>\n<p>@Compendium[pf2e.equipment-srd.Bottled Lightning (Greater)]{Bottled Lightning (Greater)}</p>\n<p>@Compendium[pf2e.equipment-srd.Darkvision Elixir (Greater)]{Darkvision Elixir (Greater)}</p>\n<p>@Compendium[pf2e.equipment-srd.Deathcap Powder]{Deathcap Powder}</p>\n<p>@Compendium[pf2e.equipment-srd.Elixir of Life (Greater)]{Elixir of Life (Greater)}</p>\n<p>@Compendium[pf2e.equipment-srd.Frost Vial (Greater)]{Frost Vial (Greater)}</p>\n<p>@Compendium[pf2e.equipment-srd.Lethargy Poison]{Lethargy Poison}</p>\n<p>@Compendium[pf2e.equipment-srd.Purple Worm Venom]{Purple Worm Venom}</p>\n<p>@Compendium[pf2e.equipment-srd.Tanglefoot Bag (Greater)]{Tanglefoot Bag (Greater)}</p>"
                },
                "requirements": {
                    "value": ""
                },
                "rules": [],
                "slug": null,
                "source": {
                    "value": ""
                },
                "traits": {
                    "custom": "",
                    "rarity": "common",
                    "value": []
                },
                "trigger": {
                    "value": ""
                },
                "weapon": {
                    "value": ""
                }
            },
            "flags": {},
            "img": "systems/pf2e/icons/actions/Passive.webp",
            "name": "Alchemical Formulas",
            "sort": 1600000,
            "type": "action"
        },
        {
            "_id": "wBZt1NPsZgzDeD2m",
            "data": {
                "actionCategory": {
                    "value": "offensive"
                },
                "actionType": {
                    "value": "passive"
                },
                "actions": {
                    "value": null
                },
                "description": {
                    "value": "<p>Zuferian's bombs that have the splash trait deal 8 extra splash damage, and splash to 10 feet.</p>"
                },
                "requirements": {
                    "value": ""
                },
                "rules": [],
                "slug": null,
                "source": {
                    "value": ""
                },
                "traits": {
                    "custom": "",
                    "rarity": "common",
                    "value": []
                },
                "trigger": {
                    "value": ""
                },
                "weapon": {
                    "value": ""
                }
            },
            "flags": {},
            "img": "systems/pf2e/icons/actions/Passive.webp",
            "name": "Expanded Splash",
            "sort": 1700000,
            "type": "action"
        },
        {
            "_id": "qtiwr8Rp5Y4kIa7O",
            "data": {
                "actionCategory": {
                    "value": "offensive"
                },
                "actionType": {
                    "value": "action"
                },
                "actions": {
                    "value": 1
                },
                "description": {
                    "value": "<p>Zuferian creates a single alchemical item from her formula book. This item has the infused trait, but it remains potent only until the start of her next turn. With her typical preparations, she can use this ability 7 times per day.</p>"
                },
                "requirements": {
                    "value": ""
                },
                "rules": [],
                "slug": null,
                "source": {
                    "value": ""
                },
                "traits": {
                    "custom": "",
                    "rarity": "common",
                    "value": []
                },
                "trigger": {
                    "value": ""
                },
                "weapon": {
                    "value": ""
                }
            },
            "flags": {},
            "img": "systems/pf2e/icons/actions/OneAction.webp",
            "name": "Quick Alchemy",
            "sort": 1800000,
            "type": "action"
        },
        {
            "_id": "Hfn2kPN8v4JuYF1l",
            "data": {
                "actionCategory": {
                    "value": "offensive"
                },
                "actionType": {
                    "value": "action"
                },
                "actions": {
                    "value": 1
                },
                "description": {
                    "value": "<p>Zuferian Interacts to draw a bomb, then Strikes with it.</p>"
                },
                "requirements": {
                    "value": ""
                },
                "rules": [],
                "slug": null,
                "source": {
                    "value": ""
                },
                "traits": {
                    "custom": "",
                    "rarity": "common",
                    "value": []
                },
                "trigger": {
                    "value": ""
                },
                "weapon": {
                    "value": ""
                }
            },
            "flags": {},
            "img": "systems/pf2e/icons/actions/OneAction.webp",
            "name": "Quick Bomber",
            "sort": 1900000,
            "type": "action"
        },
        {
            "_id": "H2vI4lzuGs1S1ljJ",
            "data": {
                "actionCategory": {
                    "value": "offensive"
                },
                "actionType": {
                    "value": "passive"
                },
                "actions": {
                    "value": null
                },
                "description": {
                    "value": "<p>When Zuferian uses Debilitating Bomb, add the following to the list of effects Zuferian can choose from:</p>\n<ul>\n<li>@Compendium[pf2e.conditionitems.Enfeebled]{Enfeebled 2}</li>\n<li>@Compendium[pf2e.conditionitems.Stupefied]{Stupefied 2}</li>\n<li>a -15-foot status penalty to Speeds.</li>\n</ul>\n<p>If Zuferian instead applies one of the effects listed in Debilitating Bomb, the target avoids the effect only if the result of its saving throw is a critical success.</p>"
                },
                "requirements": {
                    "value": ""
                },
                "rules": [],
                "slug": null,
                "source": {
                    "value": ""
                },
                "traits": {
                    "custom": "",
                    "rarity": "common",
                    "value": []
                },
                "trigger": {
                    "value": ""
                },
                "weapon": {
                    "value": ""
                }
            },
            "flags": {},
            "img": "systems/pf2e/icons/actions/Passive.webp",
            "name": "True Debilitating Bomb",
            "sort": 2000000,
            "type": "action"
        },
        {
            "_id": "15vIK60zfhRa5WGH",
            "data": {
                "actionCategory": {
                    "value": "offensive"
                },
                "actionType": {
                    "value": "passive"
                },
                "actions": {
                    "value": null
                },
                "description": {
                    "value": "<p>When Zuferian throws an alchemical item with the bomb trait, its range increment increases to 60 feet, Zuferian reduces any circumstance bonus to the target's AC from cover by 1, and Zuferian automatically succeeds at the flat check when targeting a concealed creature.</p>"
                },
                "requirements": {
                    "value": ""
                },
                "rules": [],
                "slug": null,
                "source": {
                    "value": ""
                },
                "traits": {
                    "custom": "",
                    "rarity": "common",
                    "value": []
                },
                "trigger": {
                    "value": ""
                },
                "weapon": {
                    "value": ""
                }
            },
            "flags": {},
            "img": "systems/pf2e/icons/actions/Passive.webp",
            "name": "Uncanny Bombs",
            "sort": 2100000,
            "type": "action"
        },
        {
            "_id": "rYVwD7FTmUizQgCw",
            "data": {
                "description": {
                    "value": ""
                },
                "mod": {
                    "value": 26
                },
                "proficient": {
                    "value": 0
                },
                "rules": [],
                "slug": null,
                "source": {
                    "value": ""
                },
                "traits": {
                    "custom": "",
                    "rarity": "common",
                    "value": []
                }
            },
            "flags": {},
            "img": "systems/pf2e/icons/default-icons/lore.svg",
            "name": "Acrobatics",
            "sort": 2200000,
            "type": "lore"
        },
        {
            "_id": "jBd3jdQnJJLqJ5Tk",
            "data": {
                "description": {
                    "value": ""
                },
                "mod": {
                    "value": 27
                },
                "proficient": {
                    "value": 0
                },
                "rules": [],
                "slug": null,
                "source": {
                    "value": ""
                },
                "traits": {
                    "custom": "",
                    "rarity": "common",
                    "value": []
                }
            },
            "flags": {},
            "img": "systems/pf2e/icons/default-icons/lore.svg",
            "name": "Arcana",
            "sort": 2300000,
            "type": "lore"
        },
        {
            "_id": "T1MUgKrMJnC4CnSS",
            "data": {
                "description": {
                    "value": ""
                },
                "mod": {
                    "value": 31
                },
                "proficient": {
                    "value": 0
                },
                "rules": [
                    {
                        "key": "FlatModifier",
                        "predicate": {
                            "all": [
                                "action:craft",
                                "alchemical"
                            ]
                        },
                        "selector": "crafting",
                        "value": 2
                    }
                ],
                "slug": null,
                "source": {
                    "value": ""
                },
                "traits": {
                    "custom": "",
                    "rarity": "common",
                    "value": []
                },
                "variants": {
                    "0": {
                        "label": "+33 to Craft alchemical items",
                        "options": "action:craft,alchemical"
                    }
                }
            },
            "flags": {},
            "img": "systems/pf2e/icons/default-icons/lore.svg",
            "name": "Crafting",
            "sort": 2400000,
            "type": "lore"
        },
        {
            "_id": "68AltkSAWcBWPFXJ",
            "data": {
                "description": {
                    "value": ""
                },
                "mod": {
                    "value": 23
                },
                "proficient": {
                    "value": 0
                },
                "rules": [],
                "slug": null,
                "source": {
                    "value": ""
                },
                "traits": {
                    "custom": "",
                    "rarity": "common",
                    "value": []
                }
            },
            "flags": {},
            "img": "systems/pf2e/icons/default-icons/lore.svg",
            "name": "Intimidation",
            "sort": 2500000,
            "type": "lore"
        },
        {
            "_id": "TwiE2cjtJSfKzFvD",
            "data": {
                "description": {
                    "value": ""
                },
                "mod": {
                    "value": 25
                },
                "proficient": {
                    "value": 0
                },
                "rules": [],
                "slug": null,
                "source": {
                    "value": ""
                },
                "traits": {
                    "custom": "",
                    "rarity": "common",
                    "value": []
                }
            },
            "flags": {},
            "img": "systems/pf2e/icons/default-icons/lore.svg",
            "name": "Occultism",
            "sort": 2600000,
            "type": "lore"
        },
        {
            "_id": "zzBtoq5KhcnTiZH7",
            "data": {
                "description": {
                    "value": ""
                },
                "mod": {
                    "value": 26
                },
                "proficient": {
                    "value": 0
                },
                "rules": [],
                "slug": null,
                "source": {
                    "value": ""
                },
                "traits": {
                    "custom": "",
                    "rarity": "common",
                    "value": []
                }
            },
            "flags": {},
            "img": "systems/pf2e/icons/default-icons/lore.svg",
            "name": "Stealth",
            "sort": 2700000,
            "type": "lore"
        },
        {
            "_id": "jwmjB3zJYjRDvJmJ",
            "data": {
                "description": {
                    "value": ""
                },
                "mod": {
                    "value": 28
                },
                "proficient": {
                    "value": 0
                },
                "rules": [],
                "slug": null,
                "source": {
                    "value": ""
                },
                "traits": {
                    "custom": "",
                    "rarity": "common",
                    "value": []
                }
            },
            "flags": {},
            "img": "systems/pf2e/icons/default-icons/lore.svg",
            "name": "Thievery",
            "sort": 2800000,
            "type": "lore"
        }
    ],
    "name": "Zuferian",
    "token": {
        "disposition": -1,
        "height": 1,
        "img": "systems/pf2e/icons/default-icons/npc.svg",
        "name": "Zuferian",
        "width": 1
    },
    "type": "npc"
}
