{
    "_id": "4MkOtc3bBYsBGF97",
    "content": "<table class=\"pf2-table\">\n<thead>\n<tr>\n<th>\n<h3><strong>Name</strong></h3>\n</th>\n<th>\n<h3><strong>Crit Effect</strong></h3>\n</th>\n<th>\n<h3><strong>Type</strong></h3>\n</th>\n</tr>\n</thead>\n<tbody>\n<tr>\n<td>Eat Dirt</td>\n<td>You fall prone and are blinded until the end of your next turn.</td>\n<td>\n<h3>Melee</h3>\n</td>\n</tr>\n<tr>\n<td>Overcompensate</td>\n<td>Cover provides a +4 circumstance bonus to AC against your ranged attacks for 1 minute.</td>\n<td>\n<h3>Ranged</h3>\n</td>\n</tr>\n<tr>\n<td>That tastes Awful!</td>\n<td>If this was a jaws attack (or similar), you are sickened 3.</td>\n<td>\n<h3>Unarmed</h3>\n</td>\n</tr>\n<tr>\n<td>Strange Transference</td>\n<td>Lost one prepared spell or spell slot, determined randomly by the GM. Your target can Cast this Spell on its next turn even if they can't cast spells, using your level, spell attack modifier, and spell DC.</td>\n<td>\n<h3>Spell</h3>\n</td>\n</tr>\n</tbody>\n</table>\n<h3 style=\"text-align: left;\"> </h3>",
    "flags": {},
    "name": "Critical Fumble Deck #6",
    "permission": {
        "default": 0
    }
}
