{
    "_id": "IvDJkDpe3JxMHaj1",
    "content": "<table class=\"pf2-table\">\n<thead>\n<tr>\n<th>\n<h3><strong>Name</strong></h3>\n</th>\n<th>\n<h3><strong>Crit Effect</strong></h3>\n</th>\n<th>\n<h3><strong>Type</strong></h3>\n</th>\n</tr>\n</thead>\n<tbody>\n<tr>\n<td>Armor Smash</td>\n<td>You deal the attack's normal damage to your armor, applying Hardness.</td>\n<td>\n<h3>Melee</h3>\n</td>\n</tr>\n<tr>\n<td>Lost Grip</td>\n<td>You are slowed 2 until the end of your next turn.</td>\n<td>\n<h3>Ranged</h3>\n</td>\n</tr>\n<tr>\n<td>Battered</td>\n<td>Until healed, you take a -2 circumstance penalty to checks and saving throws.</td>\n<td>\n<h3>Unarmed</h3>\n</td>\n</tr>\n<tr>\n<td>Unexpected Blast</td>\n<td>Your spell affects all targets within 30 feet of you. You are immune to this effect.</td>\n<td>\n<h3>Spell</h3>\n</td>\n</tr>\n</tbody>\n</table>\n<h3 style=\"text-align: left;\"> </h3>",
    "flags": {},
    "name": "Critical Fumble Deck #28",
    "permission": {
        "default": 0
    }
}
