{
    "_id": "unEu0FFXZfTtvF2b",
    "content": "<table class=\"pf2-table\">\n<thead>\n<tr>\n<th>\n<h3><strong>Name</strong></h3>\n</th>\n<th>\n<h3><strong>Crit Effect</strong></h3>\n</th>\n<th>\n<h3><strong>Type</strong></h3>\n</th>\n</tr>\n</thead>\n<tbody>\n<tr>\n<td>\n<h3>Crushed Intestines</h3>\n</td>\n<td>\n<h3>Normal damage. The target is wounded 2 and enfeebled 2 until it is no longer wounded.</h3>\n</td>\n<td>\n<h3>Bludgeoning</h3>\n</td>\n</tr>\n<tr>\n<td>\n<h3>Lodged in the Bone</h3>\n</td>\n<td>\n<h3>The target takes 1d6 persistent bleed damage.</h3>\n</td>\n<td>\n<h3>Piercing</h3>\n</td>\n</tr>\n<tr>\n<td>\n<h3>Severed Spine</h3>\n</td>\n<td>\n<h3>The target must succeed at a Fortitude save or be paralyzed until healed.</h3>\n</td>\n<td>\n<h3>Slashing</h3>\n</td>\n</tr>\n<tr>\n<td>\n<h3>Psychic Overflow</h3>\n</td>\n<td>\n<h3>The target takes 1d8 mental damage.</h3>\n</td>\n<td>\n<h3>Bomb or Spell</h3>\n</td>\n</tr>\n</tbody>\n</table>\n<h3 style=\"text-align: left;\"> </h3>",
    "flags": {},
    "name": "Critical Hit Deck #26",
    "permission": {
        "default": 0
    }
}
