{
    "_id": "kjUiMaSmcOQXxoeo",
    "content": "<table class=\"pf2-table\" style=\"width:93.1133%\">\n<thead>\n<tr>\n<th style=\"width:13.8675%\">\n<h3><strong>Name</strong></h3>\n</th>\n<th style=\"width:67.3128%\">\n<h3><strong>Crit Effect</strong></h3>\n</th>\n<th style=\"width:18.6656%\">\n<h3><strong>Type</strong></h3>\n</th>\n</tr>\n</thead>\n<tbody>\n<tr>\n<td style=\"width:13.8675%\">Slipped</td>\n<td style=\"width:67.3128%;text-align:left\">You fall prone.</td>\n<td style=\"width:18.6656%\">\n<h3>Melee</h3>\n</td>\n</tr>\n<tr>\n<td style=\"width:13.8675%\">Backfire</td>\n<td style=\"width:67.3128%;text-align:left\">You hit yourself instead of the target.</td>\n<td style=\"width:18.6656%\">\n<h3>Ranged</h3>\n</td>\n</tr>\n<tr>\n<td style=\"width:13.8675%\">Bruised Ego</td>\n<td style=\"width:67.3128%;text-align:left\">You can't attack another creature until the target is knocked out or the end of your next turn.</td>\n<td style=\"width:18.6656%\">\n<h3>Unarmed</h3>\n</td>\n</tr>\n<tr>\n<td style=\"width:13.8675%\">Nosebleed</td>\n<td style=\"width:67.3128%;text-align:left\">You take 1 persistent bleed damage.</td>\n<td style=\"width:18.6656%\">\n<h3>Spell</h3>\n</td>\n</tr>\n</tbody>\n</table>",
    "flags": {},
    "name": "Critical Fumble Deck #11",
    "permission": {
        "default": 0
    }
}
