{
    "_id": "e08YEjoNa60xrAYS",
    "content": "<table class=\"pf2-table\">\n<thead>\n<tr>\n<th>\n<h3><strong>Name</strong></h3>\n</th>\n<th>\n<h3><strong>Crit Effect</strong></h3>\n</th>\n<th>\n<h3><strong>Type</strong></h3>\n</th>\n</tr>\n</thead>\n<tbody>\n<tr>\n<td>This is Bad</td>\n<td>You take 1d10 persistent bleed damage.</td>\n<td>\n<h3>Melee</h3>\n</td>\n</tr>\n<tr>\n<td>What are the Odds?</td>\n<td>If this is a thrown weapon attack and the target can hold the weapon, the target snatches the weapon out of the air and wields it.</td>\n<td>\n<h3>Ranged</h3>\n</td>\n</tr>\n<tr>\n<td>Whirlwind of Shame</td>\n<td>You hit the creature adjacent to your except for the target.</td>\n<td>\n<h3>Unarmed</h3>\n</td>\n</tr>\n<tr>\n<td>Jumbled Components</td>\n<td>You are slowed 2 until the end of your next turn.</td>\n<td>\n<h3>Spell</h3>\n</td>\n</tr>\n</tbody>\n</table>\n<h3 style=\"text-align: left;\"> </h3>",
    "flags": {},
    "name": "Critical Fumble Deck #45",
    "permission": {
        "default": 0
    }
}
