{
    "_id": "JbSbUomIHYwkqgAM",
    "data": {
        "attributes": {
            "ac": {
                "value": 10
            },
            "hardness": 0,
            "hasHealth": false,
            "hp": {
                "details": "",
                "max": 0,
                "temp": 0,
                "value": 0
            },
            "stealth": {
                "details": "<p>(master)</p>",
                "value": 32
            }
        },
        "creatureType": "",
        "details": {
            "description": "<p>An invisible magic rune emits a burst of psychic static and sends extraplanar creatures to Pharasma's realm.</p>",
            "disable": "<p>@Check[type:religion|dc:42|name:Discharge Glyph|traits:uncommon,trap,magical] (master) or @Check[type:thievery|dc:42|name:Discharge Glyph|traits:uncommon,trap,magical] (master) to discharge the glyph's power harmlessly, or <em>@Compendium[pf2e.spells-srd.Dispel Magic]{Dispel Magic}</em> </em>(8th level; counteract DC 40) to counteract the glyph</p>",
            "isComplex": false,
            "level": {
                "value": 17
            },
            "reset": "",
            "routine": ""
        },
        "saves": {
            "fortitude": {
                "saveDetail": "",
                "value": 0
            },
            "reflex": {
                "saveDetail": "",
                "value": 0
            },
            "will": {
                "saveDetail": "",
                "value": 0
            }
        },
        "source": {
            "value": ""
        },
        "statusEffects": [],
        "traits": {
            "ci": [],
            "di": {
                "custom": "",
                "selected": {},
                "value": []
            },
            "dr": [],
            "dv": [],
            "rarity": "uncommon",
            "size": {
                "value": "med"
            },
            "traits": {
                "custom": "",
                "value": [
                    "magical",
                    "trap"
                ]
            }
        }
    },
    "flags": {},
    "img": "systems/pf2e/icons/default-icons/hazard.svg",
    "items": [
        {
            "_id": "9lc94kalk84ogmt3",
            "data": {
                "actionCategory": {
                    "value": "offensive"
                },
                "actionType": {
                    "value": "reaction"
                },
                "actions": {
                    "value": null
                },
                "description": {
                    "value": "<p><strong>Trigger</strong> A creature that isn't openly wearing a religious symbol of Pharasma passes over the glyph at the midpoint of the landing</p><hr />\n<p><strong>Effect</strong> The glyph flares and discharges its energy. Each creature within 30 feet of the glyph takes [[/r {8d12+24}[mental]]]{8d12+24 mental damage} and must attempt a @Check[type:will|dc:40|traits:magical,trap,uncommon] saving throw.</p>\n<hr />\n<p><strong>Critical Success</strong> The creature takes no damage.</p>\n<p><strong>Success</strong> The creature takes half damage and, if not on its home plane, is @Compendium[pf2e.conditionitems.Stupefied]{Stupefied 1} for 1 minute.</p>\n<p><strong>Failure</strong> The creature takes full damage and is stupefied 1 for 1 minute. If not on its home plane, the creature is sent to a random location in the Boneyard.</p>\n<p><strong>Critical Failure</strong> The creature takes double damage and is @Compendium[pf2e.conditionitems.Stupefied]{Stupefied 2} for 1 minute. If not on its home plane, the creature is sent to a random location in the Boneyard and can't return to the Material Plane until it receives permission to do so from a psychopomp of a higher level than the creature's level.</p>"
                },
                "requirements": {
                    "value": ""
                },
                "rules": [],
                "slug": null,
                "source": {
                    "value": ""
                },
                "traits": {
                    "custom": "",
                    "rarity": "common",
                    "value": [
                        "conjuration",
                        "divine",
                        "incapacitation",
                        "mental",
                        "teleportation"
                    ]
                },
                "trigger": {
                    "value": ""
                }
            },
            "flags": {},
            "img": "systems/pf2e/icons/actions/Reaction.webp",
            "name": "Wracking Eviction",
            "sort": 0,
            "type": "action"
        }
    ],
    "name": "Planar Eviction Trap",
    "token": {
        "disposition": 0,
        "height": 1,
        "img": "systems/pf2e/icons/default-icons/hazard.svg",
        "name": "Planar Eviction Trap",
        "width": 1
    },
    "type": "hazard"
}
