{
    "_id": "UAaQk93a30nx0nYY",
    "data": {
        "actionCategory": {
            "value": ""
        },
        "actionType": {
            "value": "passive"
        },
        "actions": {
            "value": null
        },
        "deathNote": false,
        "description": {
            "value": "<p><strong>Requirements</strong> You must use a @Compendium[pf2e.equipment-srd.Repair Kit]{Repair Kit}</p>\n<hr />\n<p>You spend 10 minutes affixing a talisman to an item, placing the item on a stable surface and using the repair kit with both hands. You can also use this activity to remove a talisman. If more than one talisman is affixed to an item, the talismans are suppressed; none of them can be activated.</p>"
        },
        "requirements": {
            "value": ""
        },
        "rules": [],
        "source": {
            "value": "Pathfinder Core Rulebook"
        },
        "traits": {
            "custom": "",
            "rarity": "common",
            "value": [
                "manipulate",
                "exploration"
            ]
        },
        "trigger": {
            "value": ""
        },
        "weapon": {
            "value": ""
        }
    },
    "flags": {},
    "img": "systems/pf2e/icons/actions/Passive.webp",
    "name": "Affix a Talisman",
    "type": "action"
}
