{
    "_id": "vZltxwRNvF5khf9a",
    "data": {
        "actionCategory": {
            "value": "offensive"
        },
        "actionType": {
            "value": "action"
        },
        "actions": {
            "value": 2
        },
        "description": {
            "value": "<p>Either Stride twice or attempt an Acrobatics check (DC determined by the GM, but usually DC 20) to swing on a rope up to twice your Speed.</p>\n<p>If you boarded or disembarked from a boat or similar vehicle during this movement, you can make a melee Strike that deals one additional weapon damage die.</p>"
        },
        "requirements": {
            "value": ""
        },
        "rules": [],
        "source": {
            "value": ""
        },
        "traits": {
            "custom": "",
            "rarity": "common",
            "value": [
                "flourish"
            ]
        },
        "trigger": {
            "value": ""
        },
        "weapon": {
            "value": ""
        }
    },
    "flags": {},
    "img": "systems/pf2e/icons/actions/TwoActions.webp",
    "name": "Boarding Assault",
    "type": "action"
}
