{
    "_id": "LWrR6UiGm3eCAALJ",
    "data": {
        "actionCategory": {
            "value": "interaction"
        },
        "actionType": {
            "value": "action"
        },
        "actions": {
            "value": 3
        },
        "deathNote": false,
        "description": {
            "value": "<p><strong>Requirements</strong> You're holding your spirit dwelling</p>\n<hr />\n<p><strong>Effect</strong> You brandish your spirit dwelling at the location where a haunt, ghost, or other incorporeal undead was destroyed within the last minute and pray or recite ritual incantations. You coax the spirit remnant into your spirit dwelling.</p>"
        },
        "requirements": {
            "value": ""
        },
        "rules": [],
        "source": {
            "value": "Pathfinder Book of the Dead"
        },
        "traits": {
            "custom": "",
            "rarity": "common",
            "value": [
                "concentrate",
                "manipulate"
            ]
        },
        "trigger": {
            "value": ""
        }
    },
    "flags": {},
    "img": "systems/pf2e/icons/actions/ThreeActions.webp",
    "name": "Collect Spirit Remnant",
    "type": "action"
}
