{
    "_id": "BKnN9la3WNrRgZ6n",
    "data": {
        "actionCategory": {
            "value": ""
        },
        "actionType": {
            "value": "free"
        },
        "actions": {
            "value": null
        },
        "description": {
            "value": "<p><strong>Requirements</strong> Your last action or spell this turn had the acid, cold, electricity, fire, or sonic trait.</p>\n<hr />\n<p>You channel energy into your weapon. The weapon deals 1 additional damage per weapon damage die until the start of your next turn. This damage type matches the trait of the triggering action or spell. If your triggering action or spell had multiple eligible traits, you select one of those traits.</p>"
        },
        "requirements": {
            "value": ""
        },
        "rules": [],
        "source": {
            "value": "Pathfinder Lost Omens: Ancestry Guide"
        },
        "traits": {
            "custom": "",
            "rarity": "common",
            "value": [
                "energy"
            ]
        },
        "trigger": {
            "value": ""
        },
        "weapon": {
            "value": ""
        }
    },
    "flags": {},
    "img": "systems/pf2e/icons/actions/FreeAction.webp",
    "name": "Conduct Energy",
    "type": "action"
}
