{
    "_id": "gBhWEy3ToxQeCLQm",
    "data": {
        "actionCategory": {
            "value": "offensive"
        },
        "actionType": {
            "value": "action"
        },
        "actions": {
            "value": 1
        },
        "description": {
            "value": "<p>You duck into a safe position or minimize your profile while reloading to make your next attack. Either @Compendium[pf2e.actionspf2e.Take Cover]{Take Cover} or attempt to @Compendium[pf2e.actionspf2e.Hide]{Hide}, then Interact to reload. As normal, you must meet the requirements to Take Cover or Hide; you must be @Compendium[pf2e.conditionitems.Prone]{Prone}, benefiting from cover, or near a feature that allows you to Take Cover, and you need to be benefiting from cover or @Compendium[pf2e.conditionitems.Concealed]{Concealed} to a creature to Hide from that creature.</p>"
        },
        "requirements": {
            "value": ""
        },
        "rules": [],
        "source": {
            "value": ""
        },
        "traits": {
            "custom": "",
            "rarity": "common",
            "value": [
                "gunslinger"
            ]
        },
        "trigger": {
            "value": ""
        }
    },
    "flags": {},
    "img": "systems/pf2e/icons/actions/OneAction.webp",
    "name": "Covered Reload",
    "type": "action"
}
