{
    "_id": "49F65W6VwuXhmv8K",
    "data": {
        "actionCategory": {
            "value": "offensive"
        },
        "actionType": {
            "value": "action"
        },
        "actions": {
            "value": 1
        },
        "description": {
            "value": "<p><strong>Requirements</strong> A @Compendium[pf2e.conditionitems.Grabbed]{Grabbed}, @Compendium[pf2e.conditionitems.Paralyzed]{Paralyzed}, @Compendium[pf2e.conditionitems.Restrained]{Restrained}, @Compendium[pf2e.conditionitems.Unconscious]{Unconscious}, or willing creature is within your reach</p>\n<hr />\n<p><strong>Effect</strong> You sink your fangs into that creature and drink its blood. This requires an Athletics check against the victim's Fortitude DC if the victim is grabbed, and automatically succeeds for any of the other conditions. If you succeed, the creature becomes @Compendium[pf2e.conditionitems.Drained]{Drained 1}, and you gain temporary HP equal to the target's level that last for 10 minutes. Further uses against the target don't increase the drained condition or grant you more temporary HP.</p>\n<p><strong>Special</strong> You can't select another dedication feat until you have gained two other feats from the vampire archetype.</p>"
        },
        "requirements": {
            "value": ""
        },
        "rules": [],
        "source": {
            "value": "Pathfinder Book of the Dead"
        },
        "traits": {
            "custom": "",
            "rarity": "common",
            "value": [
                "divine",
                "necromancy"
            ]
        },
        "trigger": {
            "value": ""
        }
    },
    "flags": {},
    "img": "systems/pf2e/icons/actions/OneAction.webp",
    "name": "Drink Blood",
    "type": "action"
}
