{
    "_id": "jbmXxq56swDYw8hy",
    "data": {
        "actionCategory": {
            "value": "defensive"
        },
        "actionType": {
            "value": "reaction"
        },
        "actions": {
            "value": null
        },
        "deathNote": false,
        "description": {
            "value": "<p><strong>Frequency</strong> once per day</p>\n<p><strong>Trigger</strong> You're reduced to 0 Hit Points</p>\n<hr />\n<p><strong>Effect</strong> You make a Strike before falling @Compendium[pf2e.conditionitems.Unconscious]{Unconscious}.</p>"
        },
        "requirements": {
            "value": ""
        },
        "rules": [],
        "source": {
            "value": "Pathfinder Book of the Dead"
        },
        "traits": {
            "custom": "",
            "rarity": "common",
            "value": []
        },
        "trigger": {
            "value": ""
        }
    },
    "flags": {},
    "img": "systems/pf2e/icons/actions/Reaction.webp",
    "name": "Final Spite",
    "type": "action"
}
