{
    "_id": "EHa0owz6mccnmSBf",
    "data": {
        "actionCategory": {
            "value": ""
        },
        "actionType": {
            "value": "action"
        },
        "actions": {
            "value": null
        },
        "description": {
            "value": "<p>You Stride twice. The @Compendium[pf2e.equipment-srd.Drakeheart Mutagen (Lesser)]{Drakeheart Mutagen}'s duration ends.</p>"
        },
        "requirements": {
            "value": ""
        },
        "rules": [],
        "source": {
            "value": "Pathfinder Advanced Player's Guide"
        },
        "traits": {
            "custom": "",
            "rarity": "common",
            "value": []
        },
        "trigger": {
            "value": ""
        },
        "weapon": {
            "value": ""
        }
    },
    "flags": {},
    "img": "systems/pf2e/icons/actions/OneAction.webp",
    "name": "Final Surge",
    "type": "action"
}
