{
    "_id": "yXk0G8l0leaqHh1U",
    "data": {
        "actionCategory": {
            "value": "interaction"
        },
        "actionType": {
            "value": "passive"
        },
        "actions": {
            "value": null
        },
        "deathNote": false,
        "description": {
            "value": "<p><strong>Frequency</strong> once per day</p>\n<hr />\n<p><strong>Effect</strong> You attempt one skill check to perform an exploration activity, even if it normally requires you to be trained to do so. You're trained in the skill just long enough to make that single check (to a maximum of 10 minutes).</p>\n<p>Whether or not the check succeeds, in the next 24 hours you must perform a minor favor to appease the spirit who aided you, determined by the GM (usually something sensation related, such as tasting a certain food, listening to a specific song, or smoking a pipe). You can't Host Spirit again until you've performed the favor. If you haven't completed it after 24 hours, you're @Compendium[pf2e.conditionitems.Fatigued]{Fatigued} until the obligation is fulfilled.</p>"
        },
        "requirements": {
            "value": ""
        },
        "rules": [],
        "source": {
            "value": "Pathfinder Book of the Dead"
        },
        "traits": {
            "custom": "",
            "rarity": "common",
            "value": [
                "exploration",
                "necromancy",
                "occult"
            ]
        },
        "trigger": {
            "value": ""
        }
    },
    "flags": {},
    "img": "systems/pf2e/icons/actions/Passive.webp",
    "name": "Host Spirit",
    "type": "action"
}
