{
    "_id": "6Oe9dg3Lu10slyeC",
    "data": {
        "actionCategory": {
            "value": "interaction"
        },
        "actionType": {
            "value": "passive"
        },
        "actions": {
            "value": null
        },
        "deathNote": false,
        "description": {
            "value": "<p>You attempt to make a favorable impression on an NPC to convince the NPC to support your cause. Attempt a skill check to impress that NPC. The DC and skills which can apply can be found in the NPC's stat block.</p>\n<hr />\n<p><strong>Critical Success</strong> You gain 2 Influence Points with the chosen NPC.</p>\n<p><strong>Success</strong> You gain 1 Influence Point with the chosen NPC.</p>\n<p><strong>Failure</strong> You gain no Influence Points with the chosen NPC.</p>\n<p><strong>Critical Failure</strong> You lose 1 Influence Point with the chosen NPC.</p>"
        },
        "requirements": {
            "value": ""
        },
        "rules": [],
        "source": {
            "value": "Pathfinder Gamemastery Guide"
        },
        "traits": {
            "custom": "",
            "rarity": "common",
            "value": [
                "concentrate",
                "linguistic"
            ]
        },
        "trigger": {
            "value": ""
        }
    },
    "flags": {},
    "img": "systems/pf2e/icons/actions/Passive.webp",
    "name": "Influence",
    "type": "action"
}
