{
    "_id": "Aq2mXT2hLlstFL5C",
    "data": {
        "actionCategory": {
            "value": ""
        },
        "actionType": {
            "value": "reaction"
        },
        "actions": {
            "value": null
        },
        "description": {
            "value": "<p><strong>Trigger</strong> You attempt a saving throw against a divine effect, but you haven't rolled yet.</p>\n<hr />\n<p>You rise above the triggering effect, refusing to be harmed by it. You gain a +1 circumstance bonus to the triggering saving throw and to any other saving throws you attempt against divine effects until the start of your next turn.</p>"
        },
        "requirements": {
            "value": ""
        },
        "rules": [],
        "source": {
            "value": "Pathfinder Lost Omens: Ancestry Guide"
        },
        "traits": {
            "custom": "",
            "rarity": "common",
            "value": []
        },
        "trigger": {
            "value": ""
        },
        "weapon": {
            "value": ""
        }
    },
    "flags": {},
    "img": "systems/pf2e/icons/actions/Reaction.webp",
    "name": "Invoke Celestial Privilege",
    "type": "action"
}
