{
    "_id": "KMKuJ0onVS72t9Fv",
    "data": {
        "actionCategory": {
            "value": "interaction"
        },
        "actionType": {
            "value": "action"
        },
        "actions": {
            "value": 1
        },
        "description": {
            "value": "<p><strong>Requirements</strong> If summoning a weapon or shield, you have the hands free to wield it; if summoning armor, you aren't wearing any armor</p>\n<p><strong>Effect</strong> You immediately wield or wear the soulforged armament bound to you. The soulforged armament remains manifested until you Dismiss this effect.</p>\n<p>Once per day when you use this ability, you can manifest the armament's essence form. You gain the armament's essence power until it's Dismissed. After 1 minute, the essence form armament is automatically Dismissed.</p>"
        },
        "requirements": {
            "value": ""
        },
        "rules": [],
        "source": {
            "value": ""
        },
        "traits": {
            "custom": "",
            "rarity": "common",
            "value": [
                "concentrate",
                "conjuration",
                "divine",
                "extradimensional"
            ]
        },
        "trigger": {
            "value": ""
        }
    },
    "flags": {},
    "img": "systems/pf2e/icons/actions/OneAction.webp",
    "name": "Manifest Soulforged Armament",
    "type": "action"
}
