{
    "_id": "Ma93dpT4K7JbP9gu",
    "data": {
        "actionCategory": {
            "value": "interaction"
        },
        "actionType": {
            "value": "action"
        },
        "actions": {
            "value": 2
        },
        "description": {
            "value": "<p><strong>Requirements</strong> You know the conflict that created a specific siege shard, and the siege shard is @Compendium[pf2e.conditionitems.Immobilized]{Immobilized}.</p>\n<hr />\n<p>You touch the siege shard, establish a mental connection, and relay facts of the conflict's resolution.</p>\n<p>Attempt a check to @Compendium[pf2e.actionspf2e.Recall Knowledge (Crafting)]{Recall Knowledge} about the conflict that created the shard, using the siege shard's Will DC. If you succeed, you prove the conflict's end, and the siege shard reverts to ordinary stone. On a critical failure, images of the past conflict overwhelm you, and you are @Compendium[pf2e.conditionitems.Confused]{Confused} until the end of your next turn.</p>"
        },
        "requirements": {
            "value": ""
        },
        "rules": [],
        "source": {
            "value": "Pathfinder #157: Devil at the Dreaming Palace"
        },
        "traits": {
            "custom": "",
            "rarity": "common",
            "value": [
                "concentrate",
                "manipulate"
            ]
        },
        "trigger": {
            "value": ""
        },
        "weapon": {
            "value": ""
        }
    },
    "flags": {},
    "img": "systems/pf2e/icons/actions/TwoActions.webp",
    "name": "Prove Peace",
    "type": "action"
}
