{
    "_id": "yzNJgwzV9XqEhKc6",
    "data": {
        "actionCategory": {
            "value": "interaction"
        },
        "actionType": {
            "value": "action"
        },
        "actions": {
            "value": 1
        },
        "description": {
            "value": "<p><strong>Cost</strong> 1 batch of infused reagents</p>\n<p><strong>Requirements</strong> You have the formula for the alchemical item you're creating, and you're either holding or wearing the @Compendium[pf2e.equipment-srd.Alchemist's Tools]{Alchemist's Tools}.</p>\n<hr />\n<p>You swiftly mix up a short-lived alchemical item to use at a moment's notice. You create a single alchemical item of your advanced alchemy level or lower that's in your formula book without having to spend the normal monetary cost in alchemical reagents or needing to attempt a Crafting check. This item has the infused trait, but it remains potent only until the start of your next turn.</p>"
        },
        "requirements": {
            "value": ""
        },
        "rules": [],
        "source": {
            "value": "Pathfinder Core Rulebook"
        },
        "traits": {
            "custom": "",
            "rarity": "common",
            "value": [
                "manipulate",
                "alchemist"
            ]
        },
        "trigger": {
            "value": ""
        },
        "weapon": {
            "value": ""
        }
    },
    "flags": {},
    "img": "systems/pf2e/icons/actions/OneAction.webp",
    "name": "Quick Alchemy",
    "type": "action"
}
