{
    "_id": "3ZzoI9MTtJFd1Kjl",
    "data": {
        "actionCategory": {
            "value": "interaction"
        },
        "actionType": {
            "value": "action"
        },
        "actions": {
            "value": 1
        },
        "description": {
            "value": "<p><strong>Requirements</strong> Your eidolon is manifested.</p>\n<p>You project your senses into your eidolon, allowing you to perceive through it. When you do, you lose all sensory information from your own body, but can sense through your eidolon's body for up to 1 minute. You can @Compendium[pf2e.actionspf2e.Dismiss]{Dismiss} this effect.</p>\n<hr />\n<p><strong>Special</strong> This action has the trait matching your eidolon's tradition (arcane, divine, occult, or primal). Your eidolon can also use this ability. When it does, it projects its senses into your body.</p>"
        },
        "requirements": {
            "value": ""
        },
        "rules": [],
        "source": {
            "value": ""
        },
        "traits": {
            "custom": "",
            "rarity": "common",
            "value": [
                "concentrate",
                "divination",
                "scrying",
                "summoner"
            ]
        },
        "trigger": {
            "value": ""
        },
        "weapon": {
            "value": ""
        }
    },
    "flags": {},
    "img": "systems/pf2e/icons/actions/OneAction.webp",
    "name": "Share Senses",
    "type": "action"
}
