{
    "_id": "yh9O9BQjwWrAIiuf",
    "data": {
        "actionCategory": {
            "value": "interaction"
        },
        "actionType": {
            "value": "action"
        },
        "actions": {
            "value": 1
        },
        "description": {
            "value": "<p><strong>Requirements</strong> You are aboard the vehicle and adjacent to its controls.</p>\n<p>You grab the reins, the wheel, or some other mechanism to control the vehicle. Attempt a piloting check; on a success, you become the vehicle's pilot, or regain control of the vehicle if it was uncontrolled. Some vehicles have complicated controls that cause this action to become a multi-action activity.</p>"
        },
        "requirements": {
            "value": ""
        },
        "rules": [],
        "source": {
            "value": "Pathfinder Gamemastery Guide"
        },
        "traits": {
            "custom": "",
            "rarity": "common",
            "value": [
                "manipulate"
            ]
        },
        "trigger": {
            "value": ""
        },
        "weapon": {
            "value": ""
        }
    },
    "flags": {},
    "img": "systems/pf2e/icons/actions/OneAction.webp",
    "name": "Take Control",
    "type": "action"
}
