{
    "_id": "6SAdjml3OZw0BZnn",
    "data": {
        "actionCategory": {
            "value": "offensive"
        },
        "actionType": {
            "value": "action"
        },
        "actions": {
            "value": 1
        },
        "description": {
            "value": "<p>The target unleashes a powerful vocalization. Each enemy in a 10- foot emanation takes 4d8 sonic damage with a basic Will save against your spell DC. A creature that fails its Will save is also @Compendium[pf2e.conditionitems.Frightened]{Frightened 1}.</p>\n<hr />\n<p><strong>Heightened (+2)</strong> The damage from the roar increases by 2d8.</p>"
        },
        "requirements": {
            "value": ""
        },
        "rules": [],
        "source": {
            "value": ""
        },
        "traits": {
            "custom": "",
            "rarity": "common",
            "value": [
                "auditory",
                "concentrate",
                "emotion",
                "enchantment",
                "fear",
                "flourish",
                "mental",
                "sonic"
            ]
        },
        "trigger": {
            "value": ""
        },
        "weapon": {
            "value": ""
        }
    },
    "flags": {},
    "img": "systems/pf2e/icons/actions/OneAction.webp",
    "name": "Thundering Roar",
    "type": "action"
}
