{
    "_id": "TC7OcDa7JlWbqMaN",
    "data": {
        "actionCategory": {
            "value": ""
        },
        "actionType": {
            "value": "passive"
        },
        "actions": {
            "value": null
        },
        "deathNote": false,
        "description": {
            "value": "<p><strong>Requirements</strong> You're wearing or holding @Compendium[pf2e.equipment-srd.Healer's Tools]{Healer's Tools}</p>\n<hr />\n<p>You spend at least 8 hours caring for a diseased creature. Attempt a Medicine check against the disease's DC. After you attempt to Treat a Disease for a creature, you can't try again until after that creature's next save against the disease.</p>\n<hr />\n<p><strong>Critical Success</strong> You grant the creature a +4 circumstance bonus to its next saving throw against the disease.</p>\n<p><strong>Success</strong> You grant the creature a +2 circumstance bonus to its next saving throw against the disease.</p>\n<p><strong>Critical Failure</strong> Your efforts cause the creature to take a -2 circumstance penalty to its next save against the disease.</p>"
        },
        "requirements": {
            "value": ""
        },
        "rules": [],
        "source": {
            "value": "Pathfinder Core Rulebook"
        },
        "traits": {
            "custom": "",
            "rarity": "common",
            "value": [
                "manipulate",
                "skill",
                "downtime"
            ]
        },
        "trigger": {
            "value": ""
        },
        "weapon": {
            "value": ""
        }
    },
    "flags": {},
    "img": "systems/pf2e/icons/actions/Passive.webp",
    "name": "Treat Disease",
    "type": "action"
}
