{
    "_id": "KjoCEEmPGTeFE4hh",
    "data": {
        "actionCategory": {
            "value": ""
        },
        "actionType": {
            "value": "action"
        },
        "actions": {
            "value": 1
        },
        "description": {
            "value": "<p><strong>Requirements</strong> You're wearing or holding @Compendium[pf2e.equipment-srd.Healer's Tools]{Healer's Tools}</p>\n<hr />\n<p>You treat a patient to prevent the spread of poison. Attempt a <span data-pf2-action=\"treatPoison\" data-pf2-glyph=\"A\">Medicine</span> check against the poison's DC. After you attempt to Treat a Poison for a creature, you can't try again until after the next time that creature attempts a save against the poison.</p>\n<hr />\n<p><strong>Critical Success</strong> You grant the creature a +4 circumstance bonus to its next saving throw against the poison.</p>\n<p><strong>Success</strong> You grant the creature a +2 circumstance bonus to its next saving throw against the poison.</p>\n<p><strong>Critical Failure</strong> Your efforts cause the creature to take a -2 circumstance penalty to its next save against the poison.</p>"
        },
        "requirements": {
            "value": ""
        },
        "rules": [],
        "source": {
            "value": "Pathfinder Core Rulebook"
        },
        "traits": {
            "custom": "",
            "rarity": "common",
            "value": [
                "manipulate",
                "skill"
            ]
        },
        "trigger": {
            "value": ""
        },
        "weapon": {
            "value": ""
        }
    },
    "flags": {},
    "img": "systems/pf2e/icons/actions/OneAction.webp",
    "name": "Treat Poison",
    "type": "action"
}
