{
    "_id": "7pdG8l9POMK76Lf2",
    "data": {
        "actionCategory": {
            "value": ""
        },
        "actionType": {
            "value": "reaction"
        },
        "actions": {
            "value": null
        },
        "description": {
            "value": "<p><strong>Frequency</strong> once per minute</p>\n<p><strong>Trigger</strong> You attempt a saving throw against a magical effect, but you haven't rolled yet</p>\n<hr />\n<p><strong>Effect</strong> You call on the power of a personal, eldritch sign of protection, which flares brightly before slowly fading. You gain a +2 circumstance bonus to the triggering saving throw, or a +3 circumstance bonus if the effect is a curse.</p>"
        },
        "requirements": {
            "value": ""
        },
        "rules": [],
        "source": {
            "value": ""
        },
        "traits": {
            "custom": "",
            "rarity": "common",
            "selected": {},
            "value": [
                "concentrate"
            ]
        },
        "trigger": {
            "value": ""
        },
        "weapon": {
            "value": ""
        }
    },
    "flags": {},
    "img": "systems/pf2e/icons/actions/Reaction.webp",
    "name": "Warding Sign",
    "type": "action"
}
