{
    "_id": "I9lfZUiCwMiGogVi",
    "data": {
        "badge": null,
        "description": {
            "value": "<p>When you're behind an obstacle that could block weapons, guard you against explosions, and make you harder to detect, you're behind cover. Standard cover gives you a +2 circumstance bonus to AC, to Reflex saves against area effects, and to Stealth checks to Hide, Sneak, or otherwise avoid detection. You can increase this to greater cover using the Take Cover basic action, increasing the circumstance bonus to +4. If cover is especially light, typically when it's provided by a creature, you have lesser cover, which grants a +1 circumstance bonus to AC. A creature with standard cover or greater cover can attempt to use Stealth to Hide, but lesser cover isn't sufficient.</p>"
        },
        "duration": {
            "expiry": null,
            "sustained": false,
            "unit": "unlimited",
            "value": -1
        },
        "level": {
            "value": 1
        },
        "rules": [
            {
                "choices": [
                    {
                        "label": "PF2E.SpecificRule.Cover.Lesser",
                        "sort": 1,
                        "value": 1
                    },
                    {
                        "label": "PF2E.SpecificRule.Cover.Standard",
                        "sort": 2,
                        "value": 2
                    },
                    {
                        "label": "PF2E.SpecificRule.Cover.Greater",
                        "sort": 3,
                        "value": 4
                    }
                ],
                "key": "ChoiceSet",
                "prompt": "PF2E.SpecificRule.Cover.Prompt",
                "rollOption": "self:cover-bonus"
            },
            {
                "key": "FlatModifier",
                "selector": "ac",
                "type": "circumstance",
                "value": "@item.data.flags.pf2e.rulesSelections.cover"
            },
            {
                "key": "FlatModifier",
                "predicate": {
                    "all": [
                        "area-effect"
                    ]
                },
                "selector": "reflex",
                "type": "circumstance",
                "value": "@item.data.flags.pf2e.rulesSelections.cover"
            },
            {
                "key": "FlatModifier",
                "predicate": {
                    "any": [
                        "action:hide",
                        "action:sneak",
                        "avoid-detection"
                    ]
                },
                "selector": "stealth",
                "type": "circumstance",
                "value": "@item.data.flags.pf2e.rulesSelections.cover"
            },
            {
                "key": "FlatModifier",
                "predicate": {
                    "all": [
                        "action:avoid-notice"
                    ]
                },
                "selector": "initiative",
                "type": "circumstance",
                "value": "@item.data.flags.pf2e.rulesSelections.cover"
            }
        ],
        "source": {
            "value": ""
        },
        "start": {
            "initiative": null,
            "value": 0
        },
        "target": null,
        "tokenIcon": {
            "show": true
        },
        "traits": {
            "custom": "",
            "rarity": "common",
            "value": []
        }
    },
    "flags": {},
    "img": "systems/pf2e/icons/conditions-2/status_acup.webp",
    "name": "Cover",
    "type": "effect"
}
