{
    "_id": "T27uDXdMVc5ZFwKw",
    "data": {
        "badge": null,
        "description": {
            "value": "<p>You mentally increase the input of your hearing aids. You gain a +1 item bonus to all hearing-based Perception checks for 10 minutes.</p>"
        },
        "duration": {
            "expiry": "turn-start",
            "sustained": false,
            "unit": "minutes",
            "value": 10
        },
        "level": {
            "value": 3
        },
        "rules": [
            {
                "key": "FlatModifier",
                "selector": "perception",
                "type": "item",
                "value": 1
            }
        ],
        "source": {
            "value": "Pathfinder Lost Omens: The Grand Bazaar"
        },
        "start": {
            "initiative": null,
            "value": 0
        },
        "target": null,
        "tokenIcon": {
            "show": false
        },
        "traits": {
            "custom": "",
            "rarity": "common",
            "value": []
        }
    },
    "flags": {},
    "img": "systems/pf2e/icons/equipment/worn-items/other-worn-items/hearing-aid.webp",
    "name": "Effect: Enhanced Hearing Aids",
    "type": "effect"
}
