{
    "_id": "XwCBalKJf3CiEiFa",
    "data": {
        "badge": null,
        "description": {
            "value": "<p>You have been treated to prevent the spread of poison. You gain a +4 circumstance bonus to your next save against the poison.</p>"
        },
        "duration": {
            "expiry": "turn-start",
            "sustained": false,
            "unit": "unlimited",
            "value": -1
        },
        "level": {
            "value": 1
        },
        "rules": [
            {
                "key": "FlatModifier",
                "predicate": {
                    "all": [
                        "poison"
                    ]
                },
                "selector": "saving-throw",
                "type": "circumstance",
                "value": 4
            }
        ],
        "source": {
            "value": ""
        },
        "start": {
            "initiative": null,
            "value": 0
        },
        "target": null,
        "tokenIcon": {
            "show": true
        },
        "traits": {
            "custom": "",
            "rarity": "common",
            "value": []
        }
    },
    "flags": {},
    "img": "systems/pf2e/icons/effects/treat-poison.webp",
    "name": "Effect: Treat Poison (Critical Success)",
    "type": "effect"
}
