{
    "_id": "KiurLemTV8GV7OyM",
    "data": {
        "badge": null,
        "description": {
            "value": "<p>The <em>Rowan Rifle</em>'s damage type changes from its current damage type to sonic. On the next sunrise, the <em>Rowan Rifle</em> returns to dealing fire damage.</p>"
        },
        "duration": {
            "expiry": "turn-start",
            "sustained": false,
            "unit": "days",
            "value": 1
        },
        "level": {
            "value": 16
        },
        "rules": [
            {
                "key": "DamageDice",
                "override": {
                    "damageType": "sonic"
                },
                "selector": "rowan-rifle-damage"
            }
        ],
        "source": {
            "value": "Pathfinder Guns & Gears"
        },
        "start": {
            "initiative": null,
            "value": 0
        },
        "target": null,
        "tokenIcon": {
            "show": false
        },
        "traits": {
            "custom": "",
            "rarity": "common",
            "value": []
        }
    },
    "flags": {},
    "img": "systems/pf2e/icons/equipment/weapons/specific-magic-weapons/rowan-rifle-sonic.webp",
    "name": "Effect: Rowan Rifle (Sonic)",
    "type": "effect"
}
