{
    "_id": "eSIYyxi6uTKiP6W5",
    "data": {
        "description": {
            "value": "<p>Automatically applied effects:</p>\n<ul>\n<li>-2 penalty to attack rolls with any weapon with an improvised trait.</li>\n</ul>"
        },
        "duration": {
            "expiry": "turn-start",
            "sustained": false,
            "unit": "unlimited",
            "value": -1
        },
        "level": {
            "value": 0
        },
        "rules": [
            {
                "key": "FlatModifier",
                "label": "Improvised Weapon",
                "predicate": {
                    "all": [
                        "improvised"
                    ]
                },
                "selector": "attack-roll",
                "type": "untyped",
                "value": -2
            }
        ],
        "source": {
            "value": ""
        },
        "start": {
            "initiative": null,
            "value": 0
        },
        "target": null,
        "tokenIcon": {
            "show": true
        },
        "traits": {
            "custom": "",
            "rarity": "common",
            "value": []
        }
    },
    "flags": {},
    "img": "systems/pf2e/icons/equipment/held-items/shoony-shovel.webp",
    "name": "Effect: Improvised Weapon",
    "type": "effect"
}
