{
    "_id": "VsHhBBLApZsOCJRL",
    "data": {
        "badge": null,
        "description": {
            "value": "<p>You gain resistance 10 to fire and cold for 5 minutes.</p>"
        },
        "duration": {
            "expiry": "turn-end",
            "sustained": false,
            "unit": "minutes",
            "value": 5
        },
        "level": {
            "value": 12
        },
        "rules": [
            {
                "key": "Resistance",
                "type": "fire",
                "value": 10
            },
            {
                "key": "Resistance",
                "type": "cold",
                "value": 10
            }
        ],
        "source": {
            "value": ""
        },
        "start": {
            "initiative": null,
            "value": 0
        },
        "target": null,
        "tokenIcon": {
            "show": true
        },
        "traits": {
            "custom": "",
            "rarity": "common",
            "value": []
        }
    },
    "flags": {},
    "img": "systems/pf2e/icons/equipment/alchemical-items/alchemical-tapas/fire-and-iceberg.webp",
    "name": "Effect: Fire and Iceberg (Greater)",
    "type": "effect"
}
