{
    "_id": "6alqXfVq0qWQC359",
    "data": {
        "badge": null,
        "description": {
            "value": "<p>You gain a +30-foot status bonus to Speed for 1 minute.</p>"
        },
        "duration": {
            "expiry": "turn-end",
            "sustained": false,
            "unit": "minutes",
            "value": 1
        },
        "level": {
            "value": 1
        },
        "rules": [
            {
                "key": "FlatModifier",
                "label": "Energy Robe of Fire",
                "selector": "land-speed",
                "type": "status",
                "value": 30
            }
        ],
        "source": {
            "value": ""
        },
        "start": {
            "initiative": null,
            "value": 0
        },
        "target": null,
        "tokenIcon": {
            "show": false
        },
        "traits": {
            "custom": "",
            "rarity": "common",
            "value": []
        }
    },
    "flags": {},
    "img": "systems/pf2e/icons/equipment/worn-items/other-worn-items/energy-robe-of-fire.webp",
    "name": "Effect: Energy Robe of Fire",
    "type": "effect"
}
