{
    "_id": "19ECULG5Zp593jQX",
    "data": {
        "badge": null,
        "description": {
            "value": "<p>If you choose to Demoralize, you gain a +2 item bonus to the Intimidation check.</p>"
        },
        "duration": {
            "expiry": "turn-end",
            "sustained": false,
            "unit": "rounds",
            "value": 1
        },
        "level": {
            "value": 5
        },
        "rules": [
            {
                "key": "FlatModifier",
                "label": "Greater Dragon's Blood Pudding Intmidation",
                "predicate": {
                    "all": [
                        "action:demoralize"
                    ]
                },
                "selector": "intimidation",
                "type": "item",
                "value": 2
            }
        ],
        "source": {
            "value": ""
        },
        "start": {
            "initiative": null,
            "value": 0
        },
        "target": null,
        "tokenIcon": {
            "show": false
        },
        "traits": {
            "custom": "",
            "rarity": "common",
            "value": []
        }
    },
    "flags": {},
    "img": "systems/pf2e/icons/equipment/alchemical-items/alchemical-tapas/dragons-blood-pudding.webp",
    "name": "Effect: Dragon's Blood Pudding (Moderate)",
    "type": "effect"
}
