{
    "_id": "kMPPl4AqFb6GclOL",
    "data": {
        "badge": null,
        "description": {
            "value": "<p>You gain a +3 item bonus to your Fortitude and Reflex DCs against attempts to Grapple, Shove, or Trip you for 10 minutes.</p>"
        },
        "duration": {
            "expiry": "turn-end",
            "sustained": false,
            "unit": "minutes",
            "value": 10
        },
        "level": {
            "value": 1
        },
        "rules": [
            {
                "key": "FlatModifier",
                "label": "Inspire Courage (vs fear)",
                "predicate": {
                    "any": [
                        "action:grapple",
                        "action:trip",
                        "action:shove"
                    ]
                },
                "selector": "fortitude",
                "type": "item",
                "value": 3
            },
            {
                "key": "FlatModifier",
                "label": "Inspire Courage (vs fear)",
                "predicate": {
                    "any": [
                        "action:grapple",
                        "action:trip",
                        "action:shove"
                    ]
                },
                "selector": "reflex",
                "type": "item",
                "value": 3
            }
        ],
        "source": {
            "value": ""
        },
        "start": {
            "initiative": null,
            "value": 0
        },
        "target": null,
        "tokenIcon": {
            "show": false
        },
        "traits": {
            "custom": "",
            "rarity": "common",
            "value": []
        }
    },
    "flags": {},
    "img": "systems/pf2e/icons/equipment/alchemical-items/alchemical-elixirs/malleable-mixture.webp",
    "name": "Effect: Malleable Mixture (Greater)",
    "type": "effect"
}
