{
    "_id": "bri7UVNCfHhCIvXN",
    "data": {
        "badge": null,
        "description": {
            "value": "<p>For 1 minute, you look like a flaming corpse. During this time, you gain a +2 status bonus to Intimidation checks and the <em>immolation hand cannon</em> becomes a <em>+2 striking flaming hand cannon</em>.</p>"
        },
        "duration": {
            "expiry": "turn-start",
            "sustained": false,
            "unit": "unlimited",
            "value": -1
        },
        "level": {
            "value": 10
        },
        "rules": [
            {
                "key": "FlatModifier",
                "selector": "intimidation",
                "type": "status",
                "value": 2
            }
        ],
        "source": {
            "value": "Pathfinder Guns & Gears"
        },
        "start": {
            "initiative": null,
            "value": 0
        },
        "target": null,
        "tokenIcon": {
            "show": true
        },
        "traits": {
            "custom": "",
            "rarity": "common",
            "value": []
        }
    },
    "flags": {},
    "img": "systems/pf2e/icons/equipment/weapons/specific-magic-weapons/immolation-clan-pistol.webp",
    "name": "Effect: Immolation Clan Pistol",
    "type": "effect"
}
