{
    "_id": "zPhArF36ZVgLeVUU",
    "data": {
        "ancestry": {
            "name": "Azarketi",
            "uuid": "Compendium.pf2e.ancestries.yFoojz6q3ZjvceFw"
        },
        "description": {
            "value": "<p>Your lineage stems from azarketis who remain dedicated to their deep-sea roots. Divorced from land society, you're a foreigner to any world above a thousand fathoms deep. You gain @Compendium[pf2e.ancestryfeatures.Darkvision]{Darkvision}.</p>\n<p>Your body is dotted with phosphorescent spots that emit a guiding light and help you communicate. The spots - located primarily on your face, arms, and hands - illuminate a 10-foot radius around you with dim light. You can activate, deactivate, or change the arrangement of lights as an action, which has the concentration trait.</p>"
        },
        "rules": [
            {
                "key": "Sense",
                "label": "PF2E.SensesDarkvision",
                "selector": "darkvision"
            }
        ],
        "source": {
            "value": "Pathfinder Lost Omens: Absalom, City of Lost Omens"
        },
        "traits": {
            "custom": "",
            "rarity": "common",
            "value": []
        }
    },
    "flags": {},
    "img": "systems/pf2e/icons/default-icons/heritage.svg",
    "name": "Ancient Scale Azarketi",
    "type": "heritage"
}
