{
    "_id": "sEnMG5zbnXdJvVPz",
    "data": {
        "ancestry": {
            "name": "Lizardfolk",
            "uuid": "Compendium.pf2e.ancestries.HWEgF7Gmoq55VhTL"
        },
        "description": {
            "value": "<p>Your body is light with flaps of skin along your limbs that catch the air that passes beneath you. As long as you can act and have enough room, you can open the flaps to slow any fall just enough to avoid taking damage (whether you have the room to do so depends on the GM's discretion).</p>"
        },
        "rules": [],
        "source": {
            "value": "Pathfinder Lost Omens: Ancestry Guide"
        },
        "traits": {
            "custom": "",
            "rarity": "common",
            "value": []
        }
    },
    "flags": {},
    "img": "systems/pf2e/icons/default-icons/heritage.svg",
    "name": "Cloudleaper Lizardfolk",
    "type": "heritage"
}
