{
    "_id": "mZqaKQkvadBbNubM",
    "data": {
        "ancestry": null,
        "description": {
            "value": "<p>For tasks that require a lighter touch, gnome, goblin, and halfling remains are more suitable than a larger creature's. These smaller, nimbler skeletons fit well in a traveling chest, can be forced through tight spaces, and more easily avoid detection. Your size is Small instead of Medium. You gain the @Compendium[pf2e.feats-srd.Quick Squeeze]{Quick Squeeze} feat, even if you aren't trained in Acrobatics. Tight spaces not tight enough to require the Squeeze activity aren't difficult terrain for you.</p>"
        },
        "rules": [
            {
                "key": "CreatureSize",
                "value": "small"
            },
            {
                "key": "GrantItem",
                "uuid": "Compendium.pf2e.feats-srd.Quick Squeeze"
            }
        ],
        "source": {
            "value": "Pathfinder Book of the Dead"
        },
        "traits": {
            "custom": "",
            "rarity": "common",
            "value": []
        }
    },
    "flags": {},
    "img": "systems/pf2e/icons/default-icons/heritage.svg",
    "name": "Compact Skeleton",
    "type": "heritage"
}
