{
    "_id": "Je15UGsLWYaaGJSW",
    "data": {
        "ancestry": {
            "name": "Poppet",
            "uuid": "Compendium.pf2e.ancestries.6F2fSFC1Eo1JdpY4"
        },
        "description": {
            "value": "<p>You awakened when a bit of another person's life force and a fragment of their soul-possibly, but not always, at the moment of their death-found its way into your constructed body. You don't remember anything more than vague flashes of your \"before life,\" but that life essence still protects you. You gain resistance to negative damage equal to half your level (minimum 1).</p>"
        },
        "rules": [
            {
                "key": "Resistance",
                "type": "negative",
                "value": "max(1,floor(@actor.level/2))"
            }
        ],
        "source": {
            "value": "Pathfinder Lost Omens: The Grand Bazaar"
        },
        "traits": {
            "custom": "",
            "rarity": "common",
            "value": []
        }
    },
    "flags": {},
    "img": "systems/pf2e/icons/default-icons/heritage.svg",
    "name": "Ghost Poppet",
    "type": "heritage"
}
