{
    "_id": "MtH5bq0MhaMQbJEL",
    "data": {
        "ancestry": {
            "name": "Azarketi",
            "uuid": "Compendium.pf2e.ancestries.yFoojz6q3ZjvceFw"
        },
        "description": {
            "value": "<p>You live in murky waters and have grown accustomed to life in a low-visibility environment. You need only a successful DC 3 flat check when targeting a concealed creature and a successful DC 9 flat check when targeting a hidden creature.</p>"
        },
        "rules": [],
        "source": {
            "value": "Pathfinder Lost Omens: Ancestry Guide"
        },
        "traits": {
            "custom": "",
            "rarity": "common",
            "value": []
        }
    },
    "flags": {},
    "img": "systems/pf2e/icons/default-icons/heritage.svg",
    "name": "Murkeyed Azarketi",
    "type": "heritage"
}
