{
    "_id": "hTl3uc6y1kTuo9ac",
    "data": {
        "ancestry": {
            "name": "Leshy",
            "uuid": "Compendium.pf2e.ancestries.cdhgByGG1WtuaK73"
        },
        "description": {
            "value": "<p>Your body is made from woven seaweed, and you're just as comfortable underwater as on land. You gain a swim Speed of 20 feet, and you can always breathe underwater. However, your land Speed is reduced by 5 feet (to 20 feet for most seaweed leshys).</p>"
        },
        "rules": [
            {
                "key": "BaseSpeed",
                "selector": "swim",
                "value": 20
            },
            {
                "key": "FlatModifier",
                "selector": "land-speed",
                "value": -5
            }
        ],
        "source": {
            "value": "Pathfinder Lost Omens: Ancestry Guide"
        },
        "traits": {
            "custom": "",
            "rarity": "common",
            "value": []
        }
    },
    "flags": {},
    "img": "systems/pf2e/icons/default-icons/heritage.svg",
    "name": "Seaweed Leshy",
    "type": "heritage"
}
