{
    "_id": "RxNBBMFZwPA3Vlg3",
    "data": {
        "ancestry": {
            "name": "Strix",
            "uuid": "Compendium.pf2e.ancestries.GXcC6oVa5quzgNHD"
        },
        "description": {
            "value": "<p>You're the descendant of strix who traveled to the coasts. Your feathers are especially water-repellent and sleekly angled for diving, allowing you to catch fish and other prey in the shallows. You are trained in Athletics, and you gain the @Compendium[pf2e.feats-srd.Underwater Marauder]{Underwater Marauder} skill feat as a bonus skill feat.</p>"
        },
        "rules": [
            {
                "key": "ActiveEffectLike",
                "mode": "upgrade",
                "path": "data.skills.ath.rank",
                "value": 1
            },
            {
                "key": "GrantItem",
                "uuid": "Compendium.pf2e.feats-srd.Underwater Marauder"
            }
        ],
        "source": {
            "value": "Pathfinder Lost Omens: Ancestry Guide"
        },
        "traits": {
            "custom": "",
            "rarity": "common",
            "value": []
        }
    },
    "flags": {},
    "img": "systems/pf2e/icons/default-icons/heritage.svg",
    "name": "Shoreline Strix",
    "type": "heritage"
}
