{
    "_id": "rFdVYKtHsZzRCsSd",
    "data": {
        "ancestry": {
            "name": "Grippli",
            "uuid": "Compendium.pf2e.ancestries.hXM5jXezIki1cMI2"
        },
        "description": {
            "value": "<p>Your hands and feet exude a film that helps them adhere to surfaces. You gain a +2 circumstance bonus to your Fortitude and Reflex DC against attempts to Disarm, Shove, or Trip you. When ascending trees, vines, and other foliage, if you roll a success on the Athletics check to Climb, you get a critical success instead.</p>"
        },
        "rules": [
            {
                "key": "FlatModifier",
                "predicate": {
                    "any": [
                        "action:disarm",
                        "action:shove",
                        "action:trip"
                    ]
                },
                "selector": "fortitude",
                "type": "circumstance",
                "value": 2
            },
            {
                "key": "FlatModifier",
                "predicate": {
                    "any": [
                        "action:disarm",
                        "action:shove",
                        "action:trip"
                    ]
                },
                "selector": "reflex",
                "type": "circumstance",
                "value": 2
            },
            {
                "adjustment": {
                    "success": "one-degree-better"
                },
                "key": "AdjustDegreeOfSuccess",
                "predicate": {
                    "all": [
                        "action:climb"
                    ]
                },
                "selector": "athletics",
                "type": "skill"
            }
        ],
        "source": {
            "value": "Pathfinder Lost Omens: The Mwangi Expanse"
        },
        "traits": {
            "custom": "",
            "rarity": "common",
            "value": []
        }
    },
    "flags": {},
    "img": "systems/pf2e/icons/default-icons/heritage.svg",
    "name": "Stickytoe Grippli",
    "type": "heritage"
}
