{
    "_id": "B89BCo6LtI3SJq54",
    "data": {
        "ancestry": {
            "name": "Gnoll",
            "uuid": "Compendium.pf2e.ancestries.vxbQ1Yw4qwgjTzqo"
        },
        "description": {
            "value": "<p>You're a striped, pale-furred gnoll with oddly pleasant breath, which you can use to entrance your prey. You are trained in Diplomacy (or another skill if you were already trained in Diplomacy). You also gain a +1 circumstance bonus to checks to Make an Impression if the target can smell your breath.</p>\n<hr />\n<p><em>Note: If you are already trained in the skill provided by this feat, you need to manually select an alternative skill.</em></p>"
        },
        "rules": [
            {
                "key": "FlatModifier",
                "label": "Sweetbreath Gnoll",
                "predicate": {
                    "all": [
                        "action:make-an-impression"
                    ]
                },
                "selector": "diplomacy",
                "type": "circumstance",
                "value": 1
            },
            {
                "key": "ActiveEffectLike",
                "mode": "upgrade",
                "path": "data.skills.dip.rank",
                "value": 1
            }
        ],
        "source": {
            "value": "Pathfinder Lost Omens: The Mwangi Expanse"
        },
        "traits": {
            "custom": "",
            "rarity": "common",
            "value": []
        }
    },
    "flags": {},
    "img": "systems/pf2e/icons/default-icons/heritage.svg",
    "name": "Sweetbreath Gnoll",
    "type": "heritage"
}
