{
    "_id": "n2DKA0OQQcfvZRly",
    "data": {
        "ancestry": {
            "name": "Fleshwarp",
            "uuid": "Compendium.pf2e.ancestries.FXlXmNBFiiz9oasi"
        },
        "description": {
            "value": "<p>Your transformation is due to manipulation by advanced technology, like that found in Numeria. Your emotions are dulled and hard to influence. When you roll a success on a saving throw against an emotion effect, you get a critical success instead.</p>"
        },
        "rules": [
            {
                "adjustment": {
                    "success": "one-degree-better"
                },
                "key": "AdjustDegreeOfSuccess",
                "predicate": {
                    "all": [
                        "emotion"
                    ]
                },
                "selector": "saving-throw",
                "type": "skill"
            }
        ],
        "source": {
            "value": "Pathfinder Lost Omens: Ancestry Guide"
        },
        "traits": {
            "custom": "",
            "rarity": "common",
            "value": []
        }
    },
    "flags": {},
    "img": "systems/pf2e/icons/default-icons/heritage.svg",
    "name": "Technological Fleshwarp",
    "type": "heritage"
}
