{
    "_id": "y24ykEUfpIu5Gp6D",
    "data": {
        "ancestry": {
            "name": "Automaton",
            "uuid": "Compendium.pf2e.ancestries.kYsBAJ103T44agJF"
        },
        "description": {
            "value": "<p>Sporting a bulkier, powerful design, your body has been designed for combat. You have a bulky, humanoid shape. The damage die for your fist increases to 1d6 instead of 1d4. You don't take a penalty when making a lethal attack with your fist or any other unarmed attack.</p>"
        },
        "rules": [
            {
                "baseType": "fist",
                "category": "unarmed",
                "damage": {
                    "base": {
                        "damageType": "bludgeoning",
                        "dice": 1,
                        "die": "d6"
                    }
                },
                "group": "brawling",
                "img": "systems/pf2e/icons/features/classes/powerful-fist.webp",
                "key": "Strike",
                "label": "PF2E.Strike.Fist.Label",
                "predicate": {
                    "not": [
                        "feature:powerful-fist",
                        "feat:martial-artist-dedication",
                        "feat:arcane-fist"
                    ]
                },
                "range": null,
                "slug": "fist",
                "traits": [
                    "agile",
                    "finesse",
                    "nonlethal",
                    "unarmed"
                ]
            }
        ],
        "source": {
            "value": "Pathfinder Guns & Gears"
        },
        "traits": {
            "custom": "",
            "rarity": "common",
            "value": []
        }
    },
    "flags": {},
    "img": "systems/pf2e/icons/default-icons/heritage.svg",
    "name": "Warrior Automaton",
    "type": "heritage"
}
