{
    "_id": "7ZxPS0UU7pf7wjp0",
    "data": {
        "badge": null,
        "description": {
            "value": "<p>Your familiar knows how to act cute or focused on cue, helping you make a good impression.</p>\n<p>Despite being a minion, your familiar gains 1 reaction at the start of its turns, which it can use only to @Compendium[pf2e.actionspf2e.Aid]{Aid} you on a Diplomacy check to @Compendium[pf2e.actionspf2e.Make an Impression]{Make an Impression} (it still has to prepare to help you as normal for the Aid reaction, which requires it to participate throughout the activity).</p>\n<p>It automatically succeeds at its check to Aid you with those skills or automatically critically succeeds if you're a master of the skill in question.</p>"
        },
        "duration": {
            "expiry": "turn-start",
            "sustained": false,
            "unit": "unlimited",
            "value": -1
        },
        "level": {
            "value": 1
        },
        "rules": [],
        "source": {
            "value": "Pathfinder Lost Omens: The Grand Bazaar"
        },
        "start": {
            "initiative": null,
            "value": 0
        },
        "target": null,
        "tokenIcon": {
            "show": false
        },
        "traits": {
            "custom": "",
            "rarity": "common",
            "value": []
        }
    },
    "flags": {},
    "img": "systems/pf2e/icons/actions/Passive.webp",
    "name": "Ambassador",
    "type": "effect"
}
