{
    "_id": "tEWAHPPZULvPgHnT",
    "data": {
        "description": {
            "value": "<p>Your familiar can transform into a tattoo you carry on your flesh. When transformed into a tattoo, the familiar looks like a colorful and stylized version of itself and can't act except to turn back into a familiar. It isn't affected by area effects and must be targeted separately to affect it, which requires knowledge that it's a creature. This means you and your allies can heal or assist the familiar while most enemies stay unaware of its true nature. Creatures must attempt a @Check[type:perception|dc:20|showDC:all] check to Seek to realize a tattoo is actually a familiar (which few foes will try). Your familiar can still communicate its feelings empathically. Transforming into a tattoo or back to familiar form is a 1-minute activity that has the concentrate trait.</p>"
        },
        "duration": {
            "expiry": "turn-start",
            "sustained": false,
            "unit": "unlimited",
            "value": -1
        },
        "level": {
            "value": 1
        },
        "rules": [],
        "source": {
            "value": "Pathfinder Lost Omens: The Grand Bazaar"
        },
        "start": {
            "initiative": null,
            "value": 0
        },
        "target": null,
        "tokenIcon": {
            "show": false
        },
        "traits": {
            "custom": "",
            "rarity": "common",
            "value": []
        }
    },
    "flags": {},
    "img": "systems/pf2e/icons/actions/Passive.webp",
    "name": "Tattoo Transformation",
    "type": "effect"
}
