{
    "_id": "HeRHBo2NaKy5IxhU",
    "data": {
        "description": {
            "value": "<p>Granted by @Compendium[pf2e.equipment-srd.Antiplague (Moderate)]{Antiplague (Moderate)}</p>\n<p>Implemented effects:</p>\n<ul>\n<li>+3 item bonus to Fortitude saves against diseases</li>\n</ul>"
        },
        "duration": {
            "expiry": "turn-start",
            "sustained": false,
            "unit": "hours",
            "value": 24
        },
        "level": {
            "value": 6
        },
        "rules": [
            {
                "key": "FlatModifier",
                "label": "Antiplague Moderate(vs. disease)",
                "predicate": {
                    "all": [
                        "disease"
                    ]
                },
                "selector": "fortitude",
                "type": "item",
                "value": 3
            }
        ],
        "source": {
            "value": ""
        },
        "start": {
            "initiative": null,
            "value": 0
        },
        "target": null,
        "tokenIcon": {
            "show": true
        },
        "traits": {
            "custom": "",
            "rarity": "common",
            "value": []
        }
    },
    "flags": {},
    "img": "systems/pf2e/icons/equipment/alchemical-items/alchemical-elixirs/antiplague.webp",
    "name": "Effect: Antiplague (Moderate)",
    "type": "effect"
}
