{
    "_id": "xVAdPzFaSvJXPMKv",
    "data": {
        "description": {
            "value": "<p>Granted by @Compendium[pf2e.equipment-srd.Applereed Mutagen (Lesser)]{Applereed Mutagen (Lesser)}</p>\n<p>Implemented effects:</p>\n<ul>\n<li>+2 item bonus to Athletics checks</li>\n<li>+10 foot status bonus to Speed</li>\n<li>You grow one size category larger</li>\n<li>-1 penalty to AC</li>\n<li>-2 to penalty Reflex saves</li>\n</ul>"
        },
        "duration": {
            "expiry": "turn-start",
            "sustained": false,
            "unit": "minutes",
            "value": 1
        },
        "level": {
            "value": 4
        },
        "rules": [
            {
                "key": "FlatModifier",
                "label": "Applereed Mutagen (Lesser)",
                "selector": "athletics",
                "type": "item",
                "value": 2
            },
            {
                "key": "FlatModifier",
                "label": "Applereed Mutagen (Lesser)",
                "selector": "ac",
                "type": "untyped",
                "value": -1
            },
            {
                "key": "FlatModifier",
                "label": "Applereed Mutagen (Lesser)",
                "selector": "reflex",
                "type": "untyped",
                "value": -2
            },
            {
                "key": "FlatModifier",
                "label": "Applereed Mutagen (Lesser)",
                "selector": "speed",
                "type": "status",
                "value": 10
            },
            {
                "key": "CreatureSize",
                "value": "large"
            }
        ],
        "source": {
            "value": ""
        },
        "start": {
            "initiative": null,
            "value": 0
        },
        "target": null,
        "tokenIcon": {
            "show": true
        },
        "traits": {
            "custom": "",
            "rarity": "common",
            "value": []
        }
    },
    "flags": {},
    "img": "systems/pf2e/icons/equipment/alchemical-items/alchemical-elixirs/applereed-mutagen.webp",
    "name": "Effect: Applereed Mutagen (Lesser)",
    "type": "effect"
}
