{
    "_id": "MI5OCkF9IXmD2lPF",
    "data": {
        "description": {
            "value": "<p>Granted by @Compendium[pf2e.equipment-srd.Bloodhound Mask (Greater)]{Bloodhound Mask (Greater)}</p>"
        },
        "duration": {
            "expiry": "turn-start",
            "sustained": false,
            "unit": "hours",
            "value": 8
        },
        "level": {
            "value": 11
        },
        "rules": [
            {
                "acuity": "imprecise",
                "key": "Sense",
                "label": "PF2E.SensesScent",
                "range": 60,
                "selector": "scent"
            },
            {
                "key": "FlatModifier",
                "label": "Bloodhound Mask (Track by scent)",
                "predicate": {
                    "all": [
                        "action:track",
                        "scent"
                    ]
                },
                "selector": "survival",
                "type": "item",
                "value": 3
            }
        ],
        "source": {
            "value": ""
        },
        "start": {
            "initiative": null,
            "value": 0
        },
        "target": null,
        "tokenIcon": {
            "show": true
        },
        "traits": {
            "custom": "",
            "rarity": "common",
            "value": []
        }
    },
    "flags": {},
    "img": "systems/pf2e/icons/equipment/alchemical-items/alchemical-tools/bloodhound-mask.webp",
    "name": "Effect: Bloodhound Mask (Greater)",
    "type": "effect"
}
