{
    "_id": "6A8jsLR7upLGuRiv",
    "data": {
        "description": {
            "value": "<p>Granted by @Compendium[pf2e.equipment-srd.Lastwall Soup]{Lastwall Soup}</p>\n<p>Implemented effects:</p>\n<ul>\n<li>+2 item bonus to Stealth checks against undead</li>\n</ul>\n<p>Unimplemented effects:</p>\n<ul>\n<li>+2 item bonus to Stealth DCs against undead</li>\n</ul>"
        },
        "duration": {
            "expiry": "turn-start",
            "sustained": false,
            "unit": "hours",
            "value": 1
        },
        "level": {
            "value": 1
        },
        "rules": [
            {
                "key": "FlatModifier",
                "label": "Lastwall Soup (vs. undead)",
                "predicate": {
                    "all": [
                        "undead"
                    ]
                },
                "selector": "stealth",
                "type": "item",
                "value": 2
            }
        ],
        "source": {
            "value": ""
        },
        "start": {
            "initiative": null,
            "value": 0
        },
        "target": null,
        "tokenIcon": {
            "show": true
        },
        "traits": {
            "custom": "",
            "rarity": "common",
            "value": []
        }
    },
    "flags": {},
    "img": "systems/pf2e/icons/equipment/alchemical-items/alchemical-elixirs/lastwall-soup.webp",
    "name": "Effect: Lastwall Soup",
    "type": "effect"
}
