{
    "_id": "e6dXfbKzv5sNr1zh",
    "data": {
        "description": {
            "value": "<p>Granted by @Compendium[pf2e.equipment-srd.Vermin Repellent Agent (Major)]{Vermin Repellent Agent (Major)}</p>"
        },
        "duration": {
            "expiry": "turn-start",
            "sustained": false,
            "unit": "hours",
            "value": 4
        },
        "level": {
            "value": 16
        },
        "rules": [
            {
                "key": "FlatModifier",
                "label": "Vermin Repellent Agent (vs. poisons)",
                "predicate": {
                    "all": [
                        "poison"
                    ]
                },
                "selector": "fortitude",
                "type": "item",
                "value": 4
            }
        ],
        "source": {
            "value": ""
        },
        "start": {
            "initiative": null,
            "value": 0
        },
        "target": null,
        "tokenIcon": {
            "show": true
        },
        "traits": {
            "custom": "",
            "rarity": "common",
            "value": []
        }
    },
    "flags": {},
    "img": "systems/pf2e/icons/equipment/alchemical-items/alchemical-tools/vermin-repellent-agent.webp",
    "name": "Effect: Vermin Repellent Agent (Major)",
    "type": "effect"
}
