{
    "_id": "ns6fmJ8469hzBOtM",
    "data": {
        "abilities": {
            "cha": {
                "mod": 4
            },
            "con": {
                "mod": 3
            },
            "dex": {
                "mod": 6
            },
            "int": {
                "mod": 3
            },
            "str": {
                "mod": 4
            },
            "wis": {
                "mod": 7
            }
        },
        "attributes": {
            "ac": {
                "details": "",
                "value": 30
            },
            "allSaves": {
                "value": ""
            },
            "hp": {
                "details": "",
                "max": 180,
                "temp": 0,
                "value": 180
            },
            "initiative": {
                "ability": "perception"
            },
            "perception": {
                "value": 22
            },
            "speed": {
                "otherSpeeds": [
                    {
                        "type": "climb",
                        "value": "30"
                    },
                    {
                        "type": "fly",
                        "value": "25"
                    }
                ],
                "value": "30"
            }
        },
        "details": {
            "alignment": {
                "value": "CN"
            },
            "blurb": "",
            "creatureType": "",
            "level": {
                "value": 10
            },
            "privateNotes": "",
            "publicNotes": "<p>The Mosquito Witch is a humanoid figure with unpleasant, waxy skin. She always seems to have her head bowed and her shoulders hunched, a mane of unkempt black hair hiding all of her face save for a pair of unblinking red eyes and a long, sharp tongue that's as stiff and pointed as a proboscis. Fleshy, ribbed mosquito wings protrude from her back. She has six handless arms that taper into malformed points, which she keeps clutched to her chest like the legs of an insect's pupae. Her spindly legs also taper into points; when bloated from feeding, she must run on all eight limbs, which leave small holes in the ground as tracks.</p>\n<h2>The Hemoprophet</h2>\n<p>Already versed in several folk divinations like dowsing and reading patterns in windblown winnowed husks, Shimmerford residents swiftly attributed divinatory powers to the Mosquito Witch.</p>\n<p>This \"hemoprophet\" aspect can supposedly smell conundrums, and she visits those facing difficult decisions or mysteries in their dreams. The witch offers an answer to the dreamer's deepest question, and if the dreamer accepts, the witch drinks their blood as they sleep, tastes their options, and leaves an answer nearby, written with some of the stolen fluids. This Mosquito Witch isn't necessarily malicious, but neither does she worry about draining too much or painting embarrassing blood-truths for all of Shimmerford to see. The blood's weight makes her footfalls heavy, and hunters often remark that especially deep tracks left by anyone are \"heavy with answers\" in homage to the Witch.</p>",
            "source": {
                "value": "Pathfinder Lost Omens: Monsters of Myth"
            }
        },
        "resources": {},
        "saves": {
            "fortitude": {
                "saveDetail": "",
                "value": 17
            },
            "reflex": {
                "saveDetail": "",
                "value": 20
            },
            "will": {
                "saveDetail": "",
                "value": 23
            }
        },
        "traits": {
            "ci": [],
            "di": {
                "custom": "",
                "value": [
                    "disease"
                ]
            },
            "dr": [],
            "dv": [],
            "languages": {
                "custom": "speak with animals",
                "selected": [],
                "value": [
                    "aklo",
                    "auran",
                    "common",
                    "sylvan"
                ]
            },
            "rarity": "unique",
            "senses": {
                "value": "darkvision, swarmsense (imprecise) 30 feet"
            },
            "size": {
                "value": "med"
            },
            "traits": {
                "custom": "",
                "value": [
                    "fey"
                ]
            }
        }
    },
    "flags": {},
    "img": "systems/pf2e/icons/default-icons/npc.svg",
    "items": [
        {
            "_id": "YMYOue7oRwbSMl5C",
            "data": {
                "autoHeightenLevel": {
                    "value": null
                },
                "description": {
                    "value": ""
                },
                "displayLevels": {},
                "prepared": {
                    "flexible": false,
                    "value": "innate"
                },
                "proficiency": {
                    "value": 0
                },
                "rules": [],
                "showSlotlessLevels": {
                    "value": false
                },
                "showUnpreparedSpells": {
                    "value": true
                },
                "slots": {
                    "slot0": {
                        "max": 0,
                        "prepared": [],
                        "value": 0
                    },
                    "slot1": {
                        "max": 0,
                        "prepared": [],
                        "value": 0
                    },
                    "slot10": {
                        "max": 0,
                        "prepared": [],
                        "value": 0
                    },
                    "slot11": {
                        "max": 0,
                        "prepared": [],
                        "value": 0
                    },
                    "slot2": {
                        "max": 0,
                        "prepared": [],
                        "value": 0
                    },
                    "slot3": {
                        "max": 0,
                        "prepared": [],
                        "value": 0
                    },
                    "slot4": {
                        "max": 0,
                        "prepared": [],
                        "value": 0
                    },
                    "slot5": {
                        "max": 0,
                        "prepared": [],
                        "value": 0
                    },
                    "slot6": {
                        "max": 0,
                        "prepared": [],
                        "value": 0
                    },
                    "slot7": {
                        "max": 0,
                        "prepared": [],
                        "value": 0
                    },
                    "slot8": {
                        "max": 0,
                        "prepared": [],
                        "value": 0
                    },
                    "slot9": {
                        "max": 0,
                        "prepared": [],
                        "value": 0
                    }
                },
                "slug": null,
                "source": {
                    "value": ""
                },
                "spelldc": {
                    "dc": 29,
                    "mod": 0,
                    "value": 21
                },
                "tradition": {
                    "value": "occult"
                },
                "traits": {
                    "custom": "",
                    "rarity": "common",
                    "value": []
                }
            },
            "flags": {},
            "img": "systems/pf2e/icons/default-icons/spellcastingEntry.svg",
            "name": "Innate Occult Spells",
            "sort": 100000,
            "type": "spellcastingEntry"
        },
        {
            "_id": "UFRLslFhBdZucG5F",
            "data": {
                "ability": {
                    "value": ""
                },
                "area": {
                    "areaType": "",
                    "value": null
                },
                "areasize": {
                    "value": ""
                },
                "category": {
                    "value": "spell"
                },
                "components": {
                    "focus": false,
                    "material": true,
                    "somatic": true,
                    "verbal": true
                },
                "cost": {
                    "value": ""
                },
                "damage": {
                    "value": {}
                },
                "description": {
                    "value": "<p>Opening your mind to occult echoes, you gain impressions from past events that occurred in your current location. Retrocognition reveals psychic impressions from events that occurred over the course of the last day throughout the first minute of the duration, followed by impressions from the next day back the next minute, and so on. These echoes don't play out like a vision but instead reveal impressions of emotions and metaphors that provide cryptic clues and details of the past. If you witness a traumatic or turbulent event through an impression, the spell ends unless you succeed at a Will save with a DC of at least 30 and possibly as much as 50, depending on the severity of the event. The GM determines whether an event is traumatic and chooses the DC.</p>\n<hr />\n<p><strong>Heightened (8th)</strong> You gain impressions of events that occurred over the previous year for each minute you concentrate, instead of the previous day, though the details diminish, making it harder to distinguish impressions from all but the most major events.</p>\n<p><strong>Heightened (9th)</strong> You gain impressions of events that occurred over the previous century for each minute you concentrate, instead of the previous day, though the details diminish, making it almost impossible to distinguish impressions from all but the most major events.</p>"
                },
                "duration": {
                    "value": "sustained"
                },
                "hasCounteractCheck": {
                    "value": false
                },
                "level": {
                    "value": 7
                },
                "location": {
                    "heightenedLevel": 7,
                    "uses": {
                        "max": 3,
                        "value": 3
                    },
                    "value": "YMYOue7oRwbSMl5C"
                },
                "materials": {
                    "value": ""
                },
                "prepared": {
                    "value": ""
                },
                "primarycheck": {
                    "value": ""
                },
                "range": {
                    "value": ""
                },
                "rules": [],
                "save": {
                    "basic": "",
                    "value": ""
                },
                "school": {
                    "value": "divination"
                },
                "secondarycasters": {
                    "value": ""
                },
                "secondarycheck": {
                    "value": ""
                },
                "slug": "retrocognition",
                "source": {
                    "value": "Pathfinder Core Rulebook"
                },
                "spellType": {
                    "value": "utility"
                },
                "sustained": {
                    "value": false
                },
                "target": {
                    "value": ""
                },
                "time": {
                    "value": "1 minute"
                },
                "traditions": {
                    "value": [
                        "occult"
                    ]
                },
                "traits": {
                    "custom": "",
                    "rarity": "common",
                    "value": []
                }
            },
            "flags": {
                "core": {
                    "sourceId": "Compendium.pf2e.spells-srd.rsZ5c0AUyywe5yoK"
                }
            },
            "img": "systems/pf2e/icons/spells/retrocognition.webp",
            "name": "Retrocognition",
            "sort": 200000,
            "type": "spell"
        },
        {
            "_id": "Kmx8sr37gGv653W7",
            "data": {
                "ability": {
                    "value": ""
                },
                "area": {
                    "areaType": "",
                    "value": null
                },
                "areasize": {
                    "value": ""
                },
                "category": {
                    "value": "spell"
                },
                "components": {
                    "focus": false,
                    "material": true,
                    "somatic": true,
                    "verbal": true
                },
                "cost": {
                    "value": ""
                },
                "damage": {
                    "value": {}
                },
                "description": {
                    "value": "<p>You magically spy on a creature of your choice. Scrying works like <em>@Compendium[pf2e.spells-srd.Clairvoyance]{Clairvoyance}</em>, except that the image you receive is less precise, insuficient for teleport and similar spells. Instead of creating an eye in a set location within 500 feet, you instead create an eye that manifests just above the target. You can choose a target either by name or by touching one of its possessions or a piece of its body. If you haven't met the target in person, scrying's DC is 2 lower, and if you are unaware of the target's identity (perhaps because you found an unknown creature's fang at a crime scene), the DC is instead 10 lower. The effect of scrying depends on the target's Will save.</p>\n<hr />\n<p><strong>Critical Success</strong> The spell fails and the target is temporarily immune for 1 week. The target also gains a glimpse of you and learns its rough distance and direction from you.</p>\n<p><strong>Success</strong> The spell fails and the target is temporarily immune for 1 day.</p>\n<p><strong>Failure</strong> The spell succeeds.</p>\n<p><strong>Critical Failure</strong> The spell succeeds, and the eye follows the target if it moves, traveling up to 60 feet per round.</p>"
                },
                "duration": {
                    "value": "sustained up to 10 minutes"
                },
                "hasCounteractCheck": {
                    "value": false
                },
                "level": {
                    "value": 6
                },
                "location": {
                    "heightenedLevel": 6,
                    "uses": {
                        "max": 3,
                        "value": 3
                    },
                    "value": "YMYOue7oRwbSMl5C"
                },
                "materials": {
                    "value": ""
                },
                "prepared": {
                    "value": ""
                },
                "primarycheck": {
                    "value": ""
                },
                "range": {
                    "value": "planetary"
                },
                "rules": [],
                "save": {
                    "basic": "",
                    "value": "will"
                },
                "school": {
                    "value": "divination"
                },
                "secondarycasters": {
                    "value": ""
                },
                "secondarycheck": {
                    "value": ""
                },
                "slug": "scrying",
                "source": {
                    "value": "Pathfinder Core Rulebook"
                },
                "spellType": {
                    "value": "save"
                },
                "sustained": {
                    "value": false
                },
                "target": {
                    "value": "1 creature"
                },
                "time": {
                    "value": "10 minutes"
                },
                "traditions": {
                    "value": [
                        "arcane",
                        "occult"
                    ]
                },
                "traits": {
                    "custom": "",
                    "rarity": "uncommon",
                    "value": [
                        "scrying"
                    ]
                }
            },
            "flags": {
                "core": {
                    "sourceId": "Compendium.pf2e.spells-srd.r784cIz17eWujtQj"
                }
            },
            "img": "systems/pf2e/icons/spells/scrying.webp",
            "name": "Scrying",
            "sort": 300000,
            "type": "spell"
        },
        {
            "_id": "Ad7fZSEkshy4Mem9",
            "data": {
                "ability": {
                    "value": ""
                },
                "area": {
                    "areaType": "",
                    "value": null
                },
                "areasize": {
                    "value": ""
                },
                "category": {
                    "value": "spell"
                },
                "components": {
                    "focus": false,
                    "material": true,
                    "somatic": true,
                    "verbal": true
                },
                "cost": {
                    "value": ""
                },
                "damage": {
                    "value": {}
                },
                "description": {
                    "value": "<p>You create an @Compendium[pf2e.conditionitems.Invisible]{Invisible}, floating eye, 1 inch in diameter, at a location you can see within 500 feet. It sees in all directions with your normal visual senses and continuously transmits what it sees to you. The first time you Sustain the Spell each round, you can either move the eye up to 30 feet, seeing only things in front of the eye, or move it up to 10 feet, seeing everything in all directions around it. There is no limit to how far from you the eye can move, but the spell ends immediately if you and the eye ever cease to be on the same plane of existence. You can attempt Seek actions through the eye if you want to attempt Perception checks with it. Any damage dealt to the eye destroys it and ends the spell.</p>"
                },
                "duration": {
                    "value": "sustained"
                },
                "hasCounteractCheck": {
                    "value": false
                },
                "level": {
                    "value": 5
                },
                "location": {
                    "heightenedLevel": 5,
                    "uses": {
                        "max": 3,
                        "value": 3
                    },
                    "value": "YMYOue7oRwbSMl5C"
                },
                "materials": {
                    "value": ""
                },
                "prepared": {
                    "value": ""
                },
                "primarycheck": {
                    "value": ""
                },
                "range": {
                    "value": "see text"
                },
                "rules": [],
                "save": {
                    "basic": "",
                    "value": ""
                },
                "school": {
                    "value": "divination"
                },
                "secondarycasters": {
                    "value": ""
                },
                "secondarycheck": {
                    "value": ""
                },
                "slug": "prying-eye",
                "source": {
                    "value": "Pathfinder Core Rulebook"
                },
                "spellType": {
                    "value": "utility"
                },
                "sustained": {
                    "value": false
                },
                "target": {
                    "value": ""
                },
                "time": {
                    "value": "1 minute"
                },
                "traditions": {
                    "value": [
                        "arcane",
                        "divine",
                        "occult"
                    ]
                },
                "traits": {
                    "custom": "",
                    "rarity": "common",
                    "value": [
                        "scrying"
                    ]
                }
            },
            "flags": {
                "core": {
                    "sourceId": "Compendium.pf2e.spells-srd.Ek5XI0aEdZhBgm21"
                }
            },
            "img": "systems/pf2e/icons/spells/prying-eye.webp",
            "name": "Prying Eye",
            "sort": 400000,
            "type": "spell"
        },
        {
            "_id": "OKHMsjR8AAXV9MIl",
            "data": {
                "ability": {
                    "value": ""
                },
                "area": {
                    "areaType": "",
                    "value": null
                },
                "areasize": {
                    "value": ""
                },
                "category": {
                    "value": "spell"
                },
                "components": {
                    "focus": false,
                    "material": true,
                    "somatic": true,
                    "verbal": true
                },
                "cost": {
                    "value": ""
                },
                "damage": {
                    "value": {}
                },
                "description": {
                    "value": "<p>You peek into the future. Choose a particular goal or activity you plan to engage in within 1 week, or an event you expect might happen within 1 week. You learn a cryptic clue or piece of advice that could help with the chosen event, often in the form of a rhyme or omen.</p>"
                },
                "duration": {
                    "value": ""
                },
                "hasCounteractCheck": {
                    "value": false
                },
                "level": {
                    "value": 4
                },
                "location": {
                    "heightenedLevel": 4,
                    "uses": {
                        "max": 3,
                        "value": 3
                    },
                    "value": "YMYOue7oRwbSMl5C"
                },
                "materials": {
                    "value": ""
                },
                "prepared": {
                    "value": ""
                },
                "primarycheck": {
                    "value": ""
                },
                "range": {
                    "value": ""
                },
                "rules": [],
                "save": {
                    "basic": "",
                    "value": ""
                },
                "school": {
                    "value": "divination"
                },
                "secondarycasters": {
                    "value": ""
                },
                "secondarycheck": {
                    "value": ""
                },
                "slug": "read-omens",
                "source": {
                    "value": "Pathfinder Core Rulebook"
                },
                "spellType": {
                    "value": "utility"
                },
                "sustained": {
                    "value": false
                },
                "target": {
                    "value": ""
                },
                "time": {
                    "value": "10 minutes"
                },
                "traditions": {
                    "value": [
                        "divine",
                        "occult"
                    ]
                },
                "traits": {
                    "custom": "",
                    "rarity": "uncommon",
                    "value": [
                        "prediction"
                    ]
                }
            },
            "flags": {
                "core": {
                    "sourceId": "Compendium.pf2e.spells-srd.pkcOby5prOausy1k"
                }
            },
            "img": "systems/pf2e/icons/spells/read-omens.webp",
            "name": "Read Omens",
            "sort": 500000,
            "type": "spell"
        },
        {
            "_id": "6NqpB1FaPbkIDN94",
            "data": {
                "ability": {
                    "value": ""
                },
                "area": {
                    "areaType": "",
                    "value": null
                },
                "areasize": {
                    "value": ""
                },
                "category": {
                    "value": "spell"
                },
                "components": {
                    "focus": false,
                    "material": true,
                    "somatic": true,
                    "verbal": true
                },
                "cost": {
                    "value": ""
                },
                "damage": {
                    "value": {}
                },
                "description": {
                    "value": "<p>You learn the direction to the target (if you picked a specific object, such as \"my mother's sword\") or the nearest target (if you picked a type of object, such as \"swords\"). If the target is a specific object, you must have observed it directly with your own senses. If it's a type of object, you still need to have an accurate mental image of the type of object. If there's lead or running water between you and the target, this spell can't locate the object. This means you might find a type of object farther away if the nearest one is behind lead or running water.</p>\n<hr />\n<p><strong>Heightened (5th)</strong> You can target a specific creature or ancestry instead of an object, but you must have met or seen up close the creature or ancestry you want to target.</p>"
                },
                "duration": {
                    "value": "sustained"
                },
                "hasCounteractCheck": {
                    "value": false
                },
                "level": {
                    "value": 3
                },
                "location": {
                    "heightenedLevel": 5,
                    "uses": {
                        "max": 3,
                        "value": 3
                    },
                    "value": "YMYOue7oRwbSMl5C"
                },
                "materials": {
                    "value": ""
                },
                "prepared": {
                    "value": ""
                },
                "primarycheck": {
                    "value": ""
                },
                "range": {
                    "value": "500 feet"
                },
                "rules": [],
                "save": {
                    "basic": "",
                    "value": ""
                },
                "school": {
                    "value": "divination"
                },
                "secondarycasters": {
                    "value": ""
                },
                "secondarycheck": {
                    "value": ""
                },
                "slug": "locate",
                "source": {
                    "value": "Pathfinder Core Rulebook"
                },
                "spellType": {
                    "value": "utility"
                },
                "sustained": {
                    "value": false
                },
                "target": {
                    "value": "1 specific object or type of object"
                },
                "time": {
                    "value": "10 minutes"
                },
                "traditions": {
                    "value": [
                        "arcane",
                        "divine",
                        "occult"
                    ]
                },
                "traits": {
                    "custom": "",
                    "rarity": "uncommon",
                    "value": [
                        "detection"
                    ]
                }
            },
            "flags": {
                "core": {
                    "sourceId": "Compendium.pf2e.spells-srd.LQzlKbYjZSMFQawP"
                }
            },
            "img": "systems/pf2e/icons/spells/locate.webp",
            "name": "Locate",
            "sort": 600000,
            "type": "spell"
        },
        {
            "_id": "vGUKT3qpP6aw0HLR",
            "data": {
                "ability": {
                    "value": ""
                },
                "area": {
                    "areaType": "",
                    "value": null
                },
                "areasize": {
                    "value": ""
                },
                "category": {
                    "value": "spell"
                },
                "components": {
                    "focus": false,
                    "material": true,
                    "somatic": true,
                    "verbal": true
                },
                "cost": {
                    "value": ""
                },
                "damage": {
                    "value": {}
                },
                "description": {
                    "value": "<p>You call upon the beyond to guide your route. When you Cast this Spell, choose a destination; you receive an inspired route to that destination, allowing you and allies who travel overland with you to reduce the movement penalty from difficult terrain by half for the duration, as long as you don't deviate from the inspired route. This doesn't have any effect on movement during encounters. If you use this ability again before the duration is over, this effect ends and is replaced by that of the new route.</p>"
                },
                "duration": {
                    "value": "until your next daily preparations"
                },
                "hasCounteractCheck": {
                    "value": false
                },
                "level": {
                    "value": 3
                },
                "location": {
                    "heightenedLevel": 3,
                    "uses": {
                        "max": 3,
                        "value": 3
                    },
                    "value": "YMYOue7oRwbSMl5C"
                },
                "materials": {
                    "value": ""
                },
                "prepared": {
                    "value": ""
                },
                "primarycheck": {
                    "value": ""
                },
                "range": {
                    "value": ""
                },
                "rules": [],
                "save": {
                    "basic": "",
                    "value": ""
                },
                "school": {
                    "value": "divination"
                },
                "secondarycasters": {
                    "value": ""
                },
                "secondarycheck": {
                    "value": ""
                },
                "slug": "wanderers-guide",
                "source": {
                    "value": "Pathfinder Core Rulebook"
                },
                "spellType": {
                    "value": "utility"
                },
                "sustained": {
                    "value": false
                },
                "target": {
                    "value": ""
                },
                "time": {
                    "value": "1 minute"
                },
                "traditions": {
                    "value": [
                        "divine",
                        "occult"
                    ]
                },
                "traits": {
                    "custom": "",
                    "rarity": "common",
                    "value": []
                }
            },
            "flags": {
                "core": {
                    "sourceId": "Compendium.pf2e.spells-srd.ppA1StEigPLKEQqR"
                }
            },
            "img": "systems/pf2e/icons/spells/wanderer's-guide.webp",
            "name": "Wanderer's Guide",
            "sort": 700000,
            "type": "spell"
        },
        {
            "_id": "6yERGkpbUogIJyX7",
            "data": {
                "ability": {
                    "value": ""
                },
                "area": {
                    "areaType": "",
                    "value": null
                },
                "areasize": {
                    "value": ""
                },
                "category": {
                    "value": "spell"
                },
                "components": {
                    "focus": false,
                    "material": false,
                    "somatic": true,
                    "verbal": true
                },
                "cost": {
                    "value": ""
                },
                "damage": {
                    "value": {}
                },
                "description": {
                    "value": "<p>You place a hand on an object to learn a piece of information about an emotional event that occurred involving the object within the past week, determined by the GM. If you cast <em>object reading</em> on the same item multiple times, you can either concentrate on a single event to gain additional pieces of information about that event, or you can gain a piece of information about another emotional event in the applicable time frame.</p>\n<hr />\n<p><strong>Heightened (2nd)</strong> You can learn about an event that occurred within the last month.</p>\n<p><strong>Heightened (4th)</strong> You can learn about an event that occurred within the last year.</p>\n<p><strong>Heightened (6th)</strong> You can learn about an event that occurred within the last decade.</p>\n<p><strong>Heightened (8th)</strong> You can learn about an event that occurred within the last century.</p>\n<p><strong>Heightened (9th)</strong> You can learn about an event that occurred within the entirety of the object's history.</p>"
                },
                "duration": {
                    "value": ""
                },
                "hasCounteractCheck": {
                    "value": false
                },
                "level": {
                    "value": 1
                },
                "location": {
                    "heightenedLevel": 6,
                    "uses": {
                        "max": 3,
                        "value": 3
                    },
                    "value": "YMYOue7oRwbSMl5C"
                },
                "materials": {
                    "value": ""
                },
                "prepared": {
                    "value": ""
                },
                "primarycheck": {
                    "value": ""
                },
                "range": {
                    "value": ""
                },
                "rules": [],
                "save": {
                    "basic": "",
                    "value": ""
                },
                "school": {
                    "value": "divination"
                },
                "secondarycasters": {
                    "value": ""
                },
                "secondarycheck": {
                    "value": ""
                },
                "slug": "object-reading",
                "source": {
                    "value": "Pathfinder Advanced Player's Guide"
                },
                "spellType": {
                    "value": "utility"
                },
                "sustained": {
                    "value": false
                },
                "target": {
                    "value": "1 object"
                },
                "time": {
                    "value": "2"
                },
                "traditions": {
                    "custom": "",
                    "value": [
                        "occult"
                    ]
                },
                "traits": {
                    "custom": "",
                    "rarity": "common",
                    "value": []
                }
            },
            "flags": {
                "core": {
                    "sourceId": "Compendium.pf2e.spells-srd.5LYi9Efs6cko4GGL"
                }
            },
            "img": "systems/pf2e/icons/spells/object-reading.webp",
            "name": "Object Reading",
            "sort": 800000,
            "type": "spell"
        },
        {
            "_id": "0iFOo30bLuKDuEi1",
            "data": {
                "attack": {
                    "value": ""
                },
                "attackEffects": {
                    "custom": "",
                    "value": []
                },
                "bonus": {
                    "value": 23
                },
                "damageRolls": {
                    "60fjoxi1jgq7zqm0dtie": {
                        "damage": "2d12+8",
                        "damageType": "piercing"
                    }
                },
                "description": {
                    "value": "<p>[[/r {1d8}[persistent,bleed]]]{1d8} @Compendium[pf2e.conditionitems.Persistent Damage]{Persistent bleed Damage}</p>"
                },
                "rules": [],
                "slug": null,
                "source": {
                    "value": ""
                },
                "traits": {
                    "custom": "",
                    "rarity": "common",
                    "value": [
                        "agile",
                        "finesse"
                    ]
                },
                "weaponType": {
                    "value": "melee"
                }
            },
            "flags": {},
            "img": "systems/pf2e/icons/default-icons/melee.svg",
            "name": "Bite",
            "sort": 900000,
            "type": "melee"
        },
        {
            "_id": "VZAHd7X6Aj3KZwiC",
            "data": {
                "attack": {
                    "value": ""
                },
                "attackEffects": {
                    "custom": "",
                    "value": [
                        "dipteric-dread"
                    ]
                },
                "bonus": {
                    "value": 23
                },
                "damageRolls": {
                    "3uus9uirrzmx87k9tyd2": {
                        "damage": "2d10+6",
                        "damageType": "piercing"
                    }
                },
                "description": {
                    "value": ""
                },
                "rules": [],
                "slug": null,
                "source": {
                    "value": ""
                },
                "traits": {
                    "custom": "",
                    "rarity": "common",
                    "value": [
                        "range-increment-30"
                    ]
                },
                "weaponType": {
                    "value": "ranged"
                }
            },
            "flags": {},
            "img": "systems/pf2e/icons/default-icons/melee.svg",
            "name": "Swarm Strike",
            "sort": 1000000,
            "type": "melee"
        },
        {
            "_id": "hurxa5aGs4Afv0g1",
            "data": {
                "actionCategory": {
                    "value": "interaction"
                },
                "actionType": {
                    "value": "passive"
                },
                "actions": {
                    "value": null
                },
                "description": {
                    "value": "<p>@Localize[PF2E.NPC.Abilities.Glossary.Darkvision]</p>"
                },
                "requirements": {
                    "value": ""
                },
                "rules": [],
                "slug": "darkvision",
                "source": {
                    "value": ""
                },
                "traits": {
                    "custom": "",
                    "rarity": "common",
                    "value": []
                },
                "trigger": {
                    "value": ""
                },
                "weapon": {
                    "value": ""
                }
            },
            "flags": {
                "core": {
                    "sourceId": "Compendium.pf2e.bestiary-ability-glossary-srd.qCCLZhnp2HhP3Ex6"
                }
            },
            "img": "systems/pf2e/icons/actions/Passive.webp",
            "name": "Darkvision",
            "sort": 1100000,
            "type": "action"
        },
        {
            "_id": "ogwneXvRU4jsDv9m",
            "data": {
                "actionCategory": {
                    "value": "interaction"
                },
                "actionType": {
                    "value": "passive"
                },
                "actions": {
                    "value": null
                },
                "description": {
                    "value": "<p>The Mosquito Witch receives constant updates from nearby insects and can use her touch as an imprecise sense at the listed range as long as there are insects around to guide her.</p>"
                },
                "requirements": {
                    "value": ""
                },
                "rules": [],
                "slug": null,
                "source": {
                    "value": ""
                },
                "traits": {
                    "custom": "",
                    "rarity": "common",
                    "value": []
                },
                "trigger": {
                    "value": ""
                }
            },
            "flags": {},
            "img": "systems/pf2e/icons/actions/Passive.webp",
            "mce_18": "<p>The Mosquito Witch receives constant updates from nearby insects and can use her touch as an imprecise sense at the listed range as long as there are insects around to guide her.</p>",
            "name": "Swarmsense (Imprecise) 30 feet",
            "sort": 1200000,
            "type": "action"
        },
        {
            "_id": "JMixf4Jehvf8B5F0",
            "data": {
                "actionCategory": {
                    "value": "interaction"
                },
                "actionType": {
                    "value": "passive"
                },
                "actions": {
                    "value": null
                },
                "description": {
                    "value": "<p>The Mosquito Witch can use Diplomacy to @Compendium[pf2e.actionspf2e.Make an Impression]{Make an Impression} on and make Requests of arthropods (insects, spiders, and similar invertebrates like bloodseekers). Most arthropods have a starting attitude of indifferent to the Mosquito Witch.</p>"
                },
                "requirements": {
                    "value": ""
                },
                "rules": [],
                "slug": null,
                "source": {
                    "value": ""
                },
                "traits": {
                    "custom": "",
                    "rarity": "common",
                    "value": []
                },
                "trigger": {
                    "value": ""
                }
            },
            "flags": {},
            "img": "systems/pf2e/icons/actions/Passive.webp",
            "name": "Wild Empathy",
            "sort": 1300000,
            "type": "action"
        },
        {
            "_id": "iX6VJgGNpPw2jGIf",
            "data": {
                "actionCategory": {
                    "value": "interaction"
                },
                "actionType": {
                    "value": "passive"
                },
                "actions": {
                    "value": null
                },
                "description": {
                    "value": "<p>@Localize[PF2E.NPC.Abilities.Glossary.AtWillSpells]</p>"
                },
                "requirements": {
                    "value": ""
                },
                "rules": [],
                "slug": "at-will-spells",
                "source": {
                    "value": ""
                },
                "traits": {
                    "custom": "",
                    "rarity": "common",
                    "value": []
                },
                "trigger": {
                    "value": ""
                },
                "weapon": {
                    "value": ""
                }
            },
            "flags": {
                "core": {
                    "sourceId": "Compendium.pf2e.bestiary-ability-glossary-srd.2YRDYVnC1eljaXKK"
                }
            },
            "img": "systems/pf2e/icons/actions/Passive.webp",
            "name": "At-Will Spells",
            "sort": 1400000,
            "type": "action"
        },
        {
            "_id": "qX64mpf4UMVhGW9x",
            "data": {
                "actionCategory": {
                    "value": "interaction"
                },
                "actionType": {
                    "value": "passive"
                },
                "actions": {
                    "value": null
                },
                "description": {
                    "value": "<p>@Localize[PF2E.NPC.Abilities.Glossary.ConstantSpells]</p>"
                },
                "requirements": {
                    "value": ""
                },
                "rules": [],
                "slug": "constant-spells",
                "source": {
                    "value": ""
                },
                "traits": {
                    "custom": "",
                    "rarity": "common",
                    "value": []
                },
                "trigger": {
                    "value": ""
                },
                "weapon": {
                    "value": ""
                }
            },
            "flags": {
                "core": {
                    "sourceId": "Compendium.pf2e.bestiary-ability-glossary-srd.kakyXBG5WA8c6Zfd"
                }
            },
            "img": "systems/pf2e/icons/actions/Passive.webp",
            "name": "Constant Spells",
            "sort": 1500000,
            "type": "action"
        },
        {
            "_id": "ZZRfZR12Lmy71xpp",
            "data": {
                "actionCategory": {
                    "value": "defensive"
                },
                "actionType": {
                    "value": "passive"
                },
                "actions": {
                    "value": null
                },
                "description": {
                    "value": "<p>The Mosquito Witch steals and stores stolen blood to power her divinations. Whenever she deals piercing damage, the Mosquito Witch can gain an equal number of Blood Points, to a maximum of 100 Blood Points. She becomes @Compendium[pf2e.conditionitems.Clumsy]{Clumsy 1} so long as she has at least 40 Blood Points stored, or @Compendium[pf2e.conditionitems.Clumsy]{Clumsy 2} if she has at least 80 Blood Points stored.</p>"
                },
                "requirements": {
                    "value": ""
                },
                "rules": [],
                "slug": null,
                "source": {
                    "value": ""
                },
                "traits": {
                    "custom": "",
                    "rarity": "common",
                    "value": []
                },
                "trigger": {
                    "value": ""
                }
            },
            "flags": {},
            "img": "systems/pf2e/icons/actions/Passive.webp",
            "name": "Bloodbelly",
            "sort": 1600000,
            "type": "action"
        },
        {
            "_id": "wsoXTaPUc3IRBQPc",
            "data": {
                "actionCategory": {
                    "value": "defensive"
                },
                "actionType": {
                    "value": "passive"
                },
                "actions": {
                    "value": null
                },
                "description": {
                    "value": "<p>@Template[type:emanation|distance:30] @Compendium[pf2e.bestiary-ability-glossary-srd.Aura]{Aura}</p>\n<hr />\n<p>When a creature ends its turn in the emanation, it must attempt a @Check[type:will|dc:29] save. If the creature fails, it becomes @Compendium[pf2e.conditionitems.Frightened]{Frightened 1}. If it's already frightened, its frightened value instead increases by 1 (maximum @Compendium[pf2e.conditionitems.Frightened]{Frightened 3}) and doesn't decrease by 1 at the end of the creature's next turn. If a creature's frightened value is 3 or higher before failing its save, the creature is also @Compendium[pf2e.conditionitems.Fleeing]{Fleeing} for 1 round.</p>"
                },
                "requirements": {
                    "value": ""
                },
                "rules": [],
                "slug": null,
                "source": {
                    "value": ""
                },
                "traits": {
                    "custom": "",
                    "rarity": "common",
                    "value": [
                        "aura",
                        "emotion",
                        "enchantment",
                        "fear",
                        "mental",
                        "visual"
                    ]
                },
                "trigger": {
                    "value": ""
                }
            },
            "flags": {},
            "img": "systems/pf2e/icons/actions/Passive.webp",
            "name": "Haunting Gaze",
            "sort": 1700000,
            "type": "action"
        },
        {
            "_id": "OEUTuDBEI85hnLpo",
            "data": {
                "actionCategory": {
                    "value": "offensive"
                },
                "actionType": {
                    "value": "passive"
                },
                "actions": {
                    "value": null
                },
                "description": {
                    "value": "<p><strong>Saving Throw</strong> @Check[type:fortitude|dc:29]</p>\n<p><strong>Maximum Duration</strong> 6 rounds</p>\n<p><strong>Stage 1</strong> [[/r {2d6}[piercing] + {2d6}[poison]]]{2d6 piercing and 2d6 poison} (1 round)</p>\n<p><strong>Stage 2</strong> [[/r {2d6}[piercing] + {3d6}[poison]]]{2d6 piercing and 3d6 poison} (1 round)</p>\n<p><strong>Stage 3</strong> [[/r {2d6}[piercing] + {5d6}[poison]]]{2d6 piercing and 5d6 poison}</p>"
                },
                "requirements": {
                    "value": ""
                },
                "rules": [],
                "slug": null,
                "source": {
                    "value": ""
                },
                "traits": {
                    "custom": "",
                    "rarity": "common",
                    "value": [
                        "poison"
                    ]
                },
                "trigger": {
                    "value": ""
                }
            },
            "flags": {},
            "img": "systems/pf2e/icons/actions/Passive.webp",
            "name": "Dipteric Dread",
            "sort": 1800000,
            "type": "action"
        },
        {
            "_id": "0EQzj592kQVr7LPK",
            "data": {
                "actionCategory": {
                    "value": "offensive"
                },
                "actionType": {
                    "value": "passive"
                },
                "actions": {
                    "value": null
                },
                "description": {
                    "value": "<p>The Mosquito Witch can't Cast an occult Spell without simultaneously expending a number of Blood Points equal to 10 × the spell's level.</p>"
                },
                "requirements": {
                    "value": ""
                },
                "rules": [],
                "slug": null,
                "source": {
                    "value": ""
                },
                "traits": {
                    "custom": "",
                    "rarity": "common",
                    "value": []
                },
                "trigger": {
                    "value": ""
                }
            },
            "flags": {},
            "img": "systems/pf2e/icons/actions/Passive.webp",
            "name": "Prophecy in Red",
            "sort": 1900000,
            "type": "action"
        },
        {
            "_id": "ScDaI78shhOwbdsg",
            "data": {
                "actionCategory": {
                    "value": "offensive"
                },
                "actionType": {
                    "value": "reaction"
                },
                "actions": {
                    "value": null
                },
                "description": {
                    "value": "<p><strong>Trigger</strong> A creature adjacent to the Mosquito Witch takes persistent bleed damage</p>\n<p><strong>Effect</strong> The Mosquito Witch slurps up some of the creature's blood and gains Blood Points equal to the bleed damage dealt.</p>"
                },
                "requirements": {
                    "value": ""
                },
                "rules": [],
                "slug": null,
                "source": {
                    "value": "Pathfinder Lost Omens: Monsters of Myth"
                },
                "traits": {
                    "custom": "",
                    "rarity": "common",
                    "value": []
                },
                "trigger": {
                    "value": ""
                }
            },
            "flags": {},
            "img": "systems/pf2e/icons/actions/Reaction.webp",
            "name": "Slurp",
            "sort": 2000000,
            "type": "action"
        },
        {
            "_id": "LkRxknzQtTeUmOC4",
            "data": {
                "actionCategory": {
                    "value": "offensive"
                },
                "actionType": {
                    "value": "passive"
                },
                "actions": {
                    "value": null
                },
                "description": {
                    "value": "<p>The Mosquito Witch's powers feed on fear. When taking bleed or piercing damage dealt by the Mosquito Witch's bleed and dipteric dread, a creature takes additional damage equal to twice the creature's frightened value.</p>"
                },
                "requirements": {
                    "value": ""
                },
                "rules": [],
                "slug": null,
                "source": {
                    "value": ""
                },
                "traits": {
                    "custom": "",
                    "rarity": "common",
                    "value": []
                },
                "trigger": {
                    "value": ""
                }
            },
            "flags": {},
            "img": "systems/pf2e/icons/actions/Passive.webp",
            "name": "Terror From Within",
            "sort": 2100000,
            "type": "action"
        },
        {
            "_id": "cFuD0vGwK5oCjxm5",
            "data": {
                "description": {
                    "value": ""
                },
                "mod": {
                    "value": 18
                },
                "proficient": {
                    "value": 0
                },
                "rules": [],
                "slug": null,
                "source": {
                    "value": ""
                },
                "traits": {
                    "custom": "",
                    "rarity": "common",
                    "value": []
                }
            },
            "flags": {},
            "img": "systems/pf2e/icons/default-icons/lore.svg",
            "name": "Acrobatics",
            "sort": 2200000,
            "type": "lore"
        },
        {
            "_id": "odTDDaV6yKBKuFlU",
            "data": {
                "description": {
                    "value": ""
                },
                "mod": {
                    "value": 18
                },
                "proficient": {
                    "value": 0
                },
                "rules": [],
                "slug": null,
                "source": {
                    "value": ""
                },
                "traits": {
                    "custom": "",
                    "rarity": "common",
                    "value": []
                }
            },
            "flags": {},
            "img": "systems/pf2e/icons/default-icons/lore.svg",
            "name": "Diplomacy",
            "sort": 2300000,
            "type": "lore"
        },
        {
            "_id": "Eefu5bXhM8T3twUY",
            "data": {
                "description": {
                    "value": ""
                },
                "mod": {
                    "value": 20
                },
                "proficient": {
                    "value": 0
                },
                "rules": [],
                "slug": null,
                "source": {
                    "value": ""
                },
                "traits": {
                    "custom": "",
                    "rarity": "common",
                    "value": []
                }
            },
            "flags": {},
            "img": "systems/pf2e/icons/default-icons/lore.svg",
            "name": "Intimidation",
            "sort": 2400000,
            "type": "lore"
        },
        {
            "_id": "NItCwoQ4RC8HOk7m",
            "data": {
                "description": {
                    "value": ""
                },
                "mod": {
                    "value": 19
                },
                "proficient": {
                    "value": 0
                },
                "rules": [],
                "slug": null,
                "source": {
                    "value": ""
                },
                "traits": {
                    "custom": "",
                    "rarity": "common",
                    "value": []
                }
            },
            "flags": {},
            "img": "systems/pf2e/icons/default-icons/lore.svg",
            "name": "Medicine",
            "sort": 2500000,
            "type": "lore"
        },
        {
            "_id": "Oi7HFlp0KG2uPO9V",
            "data": {
                "description": {
                    "value": ""
                },
                "mod": {
                    "value": 21
                },
                "proficient": {
                    "value": 0
                },
                "rules": [],
                "slug": null,
                "source": {
                    "value": ""
                },
                "traits": {
                    "custom": "",
                    "rarity": "common",
                    "value": []
                }
            },
            "flags": {},
            "img": "systems/pf2e/icons/default-icons/lore.svg",
            "name": "Nature",
            "sort": 2600000,
            "type": "lore"
        },
        {
            "_id": "pwVswSyNd1sAw7ID",
            "data": {
                "description": {
                    "value": ""
                },
                "mod": {
                    "value": 15
                },
                "proficient": {
                    "value": 0
                },
                "rules": [],
                "slug": null,
                "source": {
                    "value": ""
                },
                "traits": {
                    "custom": "",
                    "rarity": "common",
                    "value": []
                }
            },
            "flags": {},
            "img": "systems/pf2e/icons/default-icons/lore.svg",
            "name": "Occultism",
            "sort": 2700000,
            "type": "lore"
        },
        {
            "_id": "zS28EHXhYPCl2sen",
            "data": {
                "description": {
                    "value": ""
                },
                "mod": {
                    "value": 22
                },
                "proficient": {
                    "value": 0
                },
                "rules": [],
                "slug": null,
                "source": {
                    "value": ""
                },
                "traits": {
                    "custom": "",
                    "rarity": "common",
                    "value": []
                }
            },
            "flags": {},
            "img": "systems/pf2e/icons/default-icons/lore.svg",
            "name": "Stealth",
            "sort": 2800000,
            "type": "lore"
        },
        {
            "_id": "cPS5xg1W7QiTCBJc",
            "data": {
                "description": {
                    "value": ""
                },
                "mod": {
                    "value": 21
                },
                "proficient": {
                    "value": 0
                },
                "rules": [],
                "slug": null,
                "source": {
                    "value": ""
                },
                "traits": {
                    "custom": "",
                    "rarity": "common",
                    "value": []
                }
            },
            "flags": {},
            "img": "systems/pf2e/icons/default-icons/lore.svg",
            "name": "Survival",
            "sort": 2900000,
            "type": "lore"
        }
    ],
    "name": "Mosquito Witch (The Hemoprophet)",
    "token": {
        "disposition": -1,
        "height": 1,
        "img": "systems/pf2e/icons/default-icons/npc.svg",
        "name": "Mosquito Witch",
        "width": 1
    },
    "type": "npc"
}
