{
    "_id": "sXZExyaijbRnKI2S",
    "data": {
        "abilities": {
            "cha": {
                "mod": 9
            },
            "con": {
                "mod": 7
            },
            "dex": {
                "mod": 9
            },
            "int": {
                "mod": 6
            },
            "str": {
                "mod": 8
            },
            "wis": {
                "mod": 8
            }
        },
        "attributes": {
            "ac": {
                "details": "",
                "value": 43
            },
            "allSaves": {
                "value": ""
            },
            "hp": {
                "details": "",
                "max": 400,
                "temp": 0,
                "value": 400
            },
            "initiative": {
                "ability": "perception"
            },
            "perception": {
                "value": 33
            },
            "speed": {
                "otherSpeeds": [
                    {
                        "type": "swim",
                        "value": "30"
                    }
                ],
                "special": "",
                "value": "50"
            }
        },
        "details": {
            "alignment": {
                "value": "CN"
            },
            "blurb": "",
            "creatureType": "",
            "level": {
                "value": 18
            },
            "privateNotes": "",
            "publicNotes": "<p>The form of Taljjae's body can vary from visit to visit or even moment to moment, but it's easily recognized due to its signature cloak and masks. So long as Taljjae's mood is placid, it can be approached safely, but its mercurial temperament can be hard to predict.</p>\n<p>The kind eyes of this mask sap any attackers' will to fight while granting Taljjae powerful supportive magic.</p>",
            "source": {
                "value": "Pathfinder Lost Omens: Monsters of Myth"
            }
        },
        "resources": {},
        "saves": {
            "fortitude": {
                "saveDetail": "",
                "value": 27
            },
            "reflex": {
                "saveDetail": "",
                "value": 33
            },
            "will": {
                "saveDetail": "",
                "value": 30
            }
        },
        "traits": {
            "ci": [],
            "di": {
                "custom": "",
                "value": []
            },
            "dr": [],
            "dv": [],
            "languages": {
                "custom": "(Can't Speak Any Language)",
                "selected": [],
                "value": [
                    "hwan",
                    "senzar"
                ]
            },
            "rarity": "unique",
            "senses": {
                "value": "darkvision, jelly sense 120 feet"
            },
            "size": {
                "value": "lg"
            },
            "traits": {
                "custom": "",
                "value": [
                    "fey"
                ]
            }
        }
    },
    "flags": {},
    "img": "systems/pf2e/icons/default-icons/npc.svg",
    "items": [
        {
            "_id": "AMdWhq1FWPLVHJx3",
            "data": {
                "autoHeightenLevel": {
                    "value": null
                },
                "description": {
                    "value": ""
                },
                "displayLevels": {},
                "prepared": {
                    "flexible": false,
                    "value": "spontaneous"
                },
                "proficiency": {
                    "value": 0
                },
                "rules": [],
                "showSlotlessLevels": {
                    "value": false
                },
                "showUnpreparedSpells": {
                    "value": true
                },
                "slots": {
                    "slot0": {
                        "max": 0,
                        "prepared": [],
                        "value": 0
                    },
                    "slot1": {
                        "max": 0,
                        "prepared": [],
                        "value": 0
                    },
                    "slot10": {
                        "max": 0,
                        "prepared": [],
                        "value": 0
                    },
                    "slot11": {
                        "max": 0,
                        "prepared": [],
                        "value": 0
                    },
                    "slot2": {
                        "max": 0,
                        "prepared": [],
                        "value": 0
                    },
                    "slot3": {
                        "max": 0,
                        "prepared": [],
                        "value": 0
                    },
                    "slot4": {
                        "max": 0,
                        "prepared": [],
                        "value": 0
                    },
                    "slot5": {
                        "max": 0,
                        "prepared": [],
                        "value": 0
                    },
                    "slot6": {
                        "max": 0,
                        "prepared": [],
                        "value": 0
                    },
                    "slot7": {
                        "max": 3,
                        "prepared": [],
                        "value": 3
                    },
                    "slot8": {
                        "max": 3,
                        "prepared": [],
                        "value": 3
                    },
                    "slot9": {
                        "max": 5,
                        "prepared": [],
                        "value": 5
                    }
                },
                "slug": null,
                "source": {
                    "value": ""
                },
                "spelldc": {
                    "dc": 37,
                    "mod": 0,
                    "value": 29
                },
                "tradition": {
                    "value": "divine"
                },
                "traits": {
                    "custom": "",
                    "rarity": "common",
                    "value": []
                }
            },
            "flags": {},
            "img": "systems/pf2e/icons/default-icons/spellcastingEntry.svg",
            "name": "Spontaneous Divine Spells",
            "sort": 100000,
            "type": "spellcastingEntry"
        },
        {
            "_id": "S2SyQuDfQP88YdUu",
            "data": {
                "ability": {
                    "value": ""
                },
                "area": {
                    "areaType": "",
                    "value": ""
                },
                "areasize": {
                    "value": ""
                },
                "category": {
                    "value": "spell"
                },
                "components": {
                    "focus": false,
                    "material": true,
                    "somatic": true,
                    "verbal": true
                },
                "cost": {
                    "value": ""
                },
                "damage": {
                    "value": {}
                },
                "description": {
                    "value": "<p>You protect the target with a powerful, long-lasting energy barrier. The target gains resistance 5 to acid, cold, electricity, fire, force, negative, positive, and sonic damage.</p>\n<p>@Compendium[pf2e.spell-effects.Spell Effect: Energy Aegis]{Spell Effect: Energy Aegis}</p>\n<hr />\n<p><strong>Heightened (9th)</strong> The resistances increase to 10.</p>"
                },
                "duration": {
                    "value": "24 hours"
                },
                "hasCounteractCheck": {
                    "value": false
                },
                "level": {
                    "value": 7
                },
                "location": {
                    "heightenedLevel": 9,
                    "value": "AMdWhq1FWPLVHJx3"
                },
                "materials": {
                    "value": ""
                },
                "prepared": {
                    "value": ""
                },
                "primarycheck": {
                    "value": ""
                },
                "range": {
                    "value": "touch"
                },
                "rules": [],
                "save": {
                    "basic": "",
                    "value": ""
                },
                "school": {
                    "value": "abjuration"
                },
                "secondarycasters": {
                    "value": ""
                },
                "secondarycheck": {
                    "value": ""
                },
                "slug": "energy-aegis",
                "source": {
                    "value": "Pathfinder Core Rulebook"
                },
                "spellType": {
                    "value": "utility"
                },
                "sustained": {
                    "value": false
                },
                "target": {
                    "value": "1 creature"
                },
                "time": {
                    "value": "1 minute"
                },
                "traditions": {
                    "value": [
                        "arcane",
                        "divine",
                        "occult",
                        "primal"
                    ]
                },
                "traits": {
                    "custom": "",
                    "rarity": "common",
                    "value": []
                }
            },
            "flags": {
                "core": {
                    "sourceId": "Compendium.pf2e.spells-srd.m2xFMNyQiUKQDRaj"
                }
            },
            "img": "systems/pf2e/icons/spells/energy-aegis.webp",
            "name": "Energy Aegis",
            "sort": 200000,
            "type": "spell"
        },
        {
            "_id": "umKYOVgL3QeAPqyn",
            "data": {
                "ability": {
                    "value": ""
                },
                "area": {
                    "areaType": "",
                    "value": ""
                },
                "areasize": {
                    "value": ""
                },
                "category": {
                    "value": "spell"
                },
                "components": {
                    "focus": false,
                    "material": false,
                    "somatic": true,
                    "verbal": true
                },
                "cost": {
                    "value": ""
                },
                "damage": {
                    "value": {}
                },
                "description": {
                    "value": "<p>An infusion of positive energy grants a creature continuous healing. The target temporarily gains regeneration 15, which restores 15 Hit Points to it at the start of each of its turns. While it has regeneration, the target can't die from damage and its @Compendium[pf2e.conditionitems.Dying]{Dying} condition can't increase to a value that would kill it (this stops most creatures from going beyond dying 3), though if its @Compendium[pf2e.conditionitems.Wounded]{Wounded} value becomes 4 or higher, it stays @Compendium[pf2e.conditionitems.Unconscious]{Unconscious} until its wounds are treated. If the target takes acid or fire damage, its regeneration deactivates until after the end of its next turn. Each time the creature regains Hit Points from regeneration, it also regrows one damaged or ruined organ (if any). During the spell's duration, the creature can also reattach severed body parts by spending an Interact action to hold the body part to the area it was severed from.</p>\n<hr />\n<p><strong>Heightened (9th)</strong> The regeneration increases to 20.</p>"
                },
                "duration": {
                    "value": "1 minute"
                },
                "hasCounteractCheck": {
                    "value": false
                },
                "level": {
                    "value": 7
                },
                "location": {
                    "heightenedLevel": 8,
                    "value": "AMdWhq1FWPLVHJx3"
                },
                "materials": {
                    "value": ""
                },
                "prepared": {
                    "value": ""
                },
                "primarycheck": {
                    "value": ""
                },
                "range": {
                    "value": "touch"
                },
                "rules": [],
                "save": {
                    "basic": "",
                    "value": ""
                },
                "school": {
                    "value": "necromancy"
                },
                "secondarycasters": {
                    "value": ""
                },
                "secondarycheck": {
                    "value": ""
                },
                "slug": "regenerate",
                "source": {
                    "value": "Pathfinder Core Rulebook"
                },
                "spellType": {
                    "value": "heal"
                },
                "sustained": {
                    "value": false
                },
                "target": {
                    "value": "1 willing living creature"
                },
                "time": {
                    "value": "2"
                },
                "traditions": {
                    "value": [
                        "divine",
                        "primal"
                    ]
                },
                "traits": {
                    "custom": "",
                    "rarity": "common",
                    "value": [
                        "healing",
                        "positive"
                    ]
                }
            },
            "flags": {
                "core": {
                    "sourceId": "Compendium.pf2e.spells-srd.2Vkd1IxylPceUAAF"
                }
            },
            "img": "systems/pf2e/icons/spells/regeneration.webp",
            "name": "Regenerate",
            "sort": 300000,
            "type": "spell"
        },
        {
            "_id": "Uzpcm4cC0d0vWXkF",
            "data": {
                "ability": {
                    "value": ""
                },
                "area": {
                    "areaType": "",
                    "value": null
                },
                "areasize": {
                    "value": ""
                },
                "category": {
                    "value": "spell"
                },
                "components": {
                    "focus": false,
                    "material": false,
                    "somatic": true,
                    "verbal": true
                },
                "cost": {
                    "value": ""
                },
                "damage": {
                    "value": {}
                },
                "description": {
                    "value": "<p>You manifest an aura that prevents creatures from approaching you. When casting the spell, you can make the area any radius you choose, up to 40 feet. A creature must attempt a Will save if it's within the area when you cast the spell or as soon as it enters the area while the spell is in effect. Once a creature has attempted the save, it uses the same result for that casting of repulsion. Any restrictions on a creature's movement apply only if it voluntarily moves toward you. For example, if you move closer to a creature, it doesn't then need to move away.</p>\n<hr /><strong>Critical Success</strong> The creature's movement is not restricted.\n<p><strong>Success</strong> The creature treats each square in the area as difficult terrain when moving closer to you.</p>\n<p><strong>Failure</strong> The creature can't move closer to you within the area.</p>"
                },
                "duration": {
                    "value": "1 minute"
                },
                "hasCounteractCheck": {
                    "value": false
                },
                "level": {
                    "value": 6
                },
                "location": {
                    "heightenedLevel": 8,
                    "value": "AMdWhq1FWPLVHJx3"
                },
                "materials": {
                    "value": ""
                },
                "prepared": {
                    "value": ""
                },
                "primarycheck": {
                    "value": ""
                },
                "range": {
                    "value": "emanation up to 40-feet"
                },
                "rules": [],
                "save": {
                    "basic": "",
                    "value": "will"
                },
                "school": {
                    "value": "abjuration"
                },
                "secondarycasters": {
                    "value": ""
                },
                "secondarycheck": {
                    "value": ""
                },
                "slug": "repulsion",
                "source": {
                    "value": "Pathfinder Core Rulebook"
                },
                "spellType": {
                    "value": "save"
                },
                "sustained": {
                    "value": false
                },
                "target": {
                    "value": ""
                },
                "time": {
                    "value": "2"
                },
                "traditions": {
                    "value": [
                        "arcane",
                        "divine",
                        "occult"
                    ]
                },
                "traits": {
                    "custom": "",
                    "rarity": "common",
                    "value": [
                        "aura",
                        "mental"
                    ]
                }
            },
            "flags": {
                "core": {
                    "sourceId": "Compendium.pf2e.spells-srd.yrZA4k2VAqEP8xx7"
                }
            },
            "img": "systems/pf2e/icons/spells/repulsion.webp",
            "name": "Repulsion",
            "sort": 400000,
            "type": "spell"
        },
        {
            "_id": "icwAbuIXOBEAuDrq",
            "data": {
                "ability": {
                    "value": ""
                },
                "area": {
                    "areaType": "",
                    "value": ""
                },
                "areasize": {
                    "value": ""
                },
                "category": {
                    "value": "spell"
                },
                "components": {
                    "focus": false,
                    "material": false,
                    "somatic": true,
                    "verbal": true
                },
                "cost": {
                    "value": ""
                },
                "damage": {
                    "value": {}
                },
                "description": {
                    "value": "<p>You see things within 60 feet as they actually are. The GM rolls a secret counteract check against any illusion or transmutation in the area, but only for the purpose of determining whether you see through it (for instance, if the check succeeds against a polymorph spell, you can see the creature's true form, but you don't end the polymorph spell).</p>"
                },
                "duration": {
                    "value": "10 minutes"
                },
                "hasCounteractCheck": {
                    "value": true
                },
                "level": {
                    "value": 6
                },
                "location": {
                    "heightenedLevel": 9,
                    "value": "AMdWhq1FWPLVHJx3"
                },
                "materials": {
                    "value": ""
                },
                "prepared": {
                    "value": ""
                },
                "primarycheck": {
                    "value": ""
                },
                "range": {
                    "value": ""
                },
                "rules": [],
                "save": {
                    "basic": "",
                    "value": ""
                },
                "school": {
                    "value": "divination"
                },
                "secondarycasters": {
                    "value": ""
                },
                "secondarycheck": {
                    "value": ""
                },
                "slug": "true-seeing",
                "source": {
                    "value": "Pathfinder Core Rulebook"
                },
                "spellType": {
                    "value": "utility"
                },
                "sustained": {
                    "value": false
                },
                "target": {
                    "value": ""
                },
                "time": {
                    "value": "2"
                },
                "traditions": {
                    "value": [
                        "arcane",
                        "divine",
                        "occult",
                        "primal"
                    ]
                },
                "traits": {
                    "custom": "",
                    "rarity": "common",
                    "value": [
                        "revelation"
                    ]
                }
            },
            "flags": {
                "core": {
                    "sourceId": "Compendium.pf2e.spells-srd.uqlxMQQeSGWEVjki"
                }
            },
            "img": "systems/pf2e/icons/spells/true-seeing.webp",
            "name": "True Seeing",
            "sort": 500000,
            "type": "spell"
        },
        {
            "_id": "o9Vy2vcnvhsHzho3",
            "data": {
                "ability": {
                    "value": ""
                },
                "area": {
                    "areaType": "",
                    "value": null
                },
                "areasize": {
                    "value": ""
                },
                "category": {
                    "value": "spell"
                },
                "components": {
                    "focus": false,
                    "material": false,
                    "somatic": false,
                    "verbal": true
                },
                "cost": {
                    "value": ""
                },
                "damage": {
                    "value": {
                        "0": {
                            "applyMod": true,
                            "type": {
                                "categories": [],
                                "value": "healing"
                            },
                            "value": "4d8"
                        }
                    }
                },
                "description": {
                    "value": "<p><strong>Trigger</strong> A living creature within range would die.</p>\n<hr />\n<p>Your blessing revives a creature at the moment of its death. You prevent the target from @Compendium[pf2e.conditionitems.Dying]{Dying} and restore Hit Points to the target equal to 4d8 plus your spellcasting ability modifier. You can't use breath of life if the triggering effect was disintegrate or a death effect.</p>"
                },
                "duration": {
                    "value": ""
                },
                "hasCounteractCheck": {
                    "value": false
                },
                "level": {
                    "value": 5
                },
                "location": {
                    "heightenedLevel": 7,
                    "value": "AMdWhq1FWPLVHJx3"
                },
                "materials": {
                    "value": ""
                },
                "prepared": {
                    "value": ""
                },
                "primarycheck": {
                    "value": ""
                },
                "range": {
                    "value": "60 feet"
                },
                "rules": [],
                "save": {
                    "basic": "",
                    "value": ""
                },
                "school": {
                    "value": "necromancy"
                },
                "secondarycasters": {
                    "value": ""
                },
                "secondarycheck": {
                    "value": ""
                },
                "slug": "breath-of-life",
                "source": {
                    "value": "Pathfinder Core Rulebook"
                },
                "spellType": {
                    "value": "heal"
                },
                "sustained": {
                    "value": false
                },
                "target": {
                    "value": "the triggering creature"
                },
                "time": {
                    "value": "reaction"
                },
                "traditions": {
                    "value": [
                        "divine"
                    ]
                },
                "traits": {
                    "custom": "",
                    "rarity": "common",
                    "value": [
                        "healing",
                        "positive"
                    ]
                }
            },
            "flags": {
                "core": {
                    "sourceId": "Compendium.pf2e.spells-srd.Hnc7eGi7vyZenAIm"
                }
            },
            "img": "systems/pf2e/icons/spells/breath-of-life.webp",
            "name": "Breath of Life",
            "sort": 600000,
            "type": "spell"
        },
        {
            "_id": "ciCHdj3af5POpoN2",
            "data": {
                "ability": {
                    "value": ""
                },
                "area": {
                    "areaType": "",
                    "value": ""
                },
                "areasize": {
                    "value": ""
                },
                "category": {
                    "value": "spell"
                },
                "components": {
                    "focus": false,
                    "material": false,
                    "somatic": true,
                    "verbal": true
                },
                "cost": {
                    "value": ""
                },
                "damage": {
                    "value": {}
                },
                "description": {
                    "value": "<p>You afflict the target with a curse that makes its presence abrasive and off-putting. The target must attempt a Will save.</p>\n<hr />\n<p><strong>Critical Success</strong> The target is unaffected.</p>\n<p><strong>Success</strong> For 10 minutes, the target must roll twice and use the worse result whenever attempting a Deception, Diplomacy, Intimidation, or Performance check, and creatures they encounter have an initial attitude toward them of one step worse (for instance, @Compendium[pf2e.conditionitems.Unfriendly]{Unfriendly} instead of @Compendium[pf2e.conditionitems.Indifferent]{Indifferent}).</p>\n<p><strong>Failure</strong> As success, but the effect is permanent.</p>\n<p><strong>Critical Failure</strong> As failure, and creatures that the target encounters have an initial attitude toward them of two steps worse.</p>"
                },
                "duration": {
                    "value": ""
                },
                "hasCounteractCheck": {
                    "value": false
                },
                "level": {
                    "value": 4
                },
                "location": {
                    "heightenedLevel": 7,
                    "value": "AMdWhq1FWPLVHJx3"
                },
                "materials": {
                    "value": ""
                },
                "prepared": {
                    "value": ""
                },
                "primarycheck": {
                    "value": ""
                },
                "range": {
                    "value": "touch"
                },
                "rules": [],
                "save": {
                    "basic": "",
                    "value": "will"
                },
                "school": {
                    "value": "enchantment"
                },
                "secondarycasters": {
                    "value": ""
                },
                "secondarycheck": {
                    "value": ""
                },
                "slug": "outcasts-curse",
                "source": {
                    "value": "Pathfinder Core Rulebook"
                },
                "spellType": {
                    "value": "save"
                },
                "sustained": {
                    "value": false
                },
                "target": {
                    "value": "1 creature"
                },
                "time": {
                    "value": "2"
                },
                "traditions": {
                    "value": [
                        "arcane",
                        "divine",
                        "occult"
                    ]
                },
                "traits": {
                    "custom": "",
                    "rarity": "common",
                    "value": [
                        "curse",
                        "mental",
                        "misfortune"
                    ]
                }
            },
            "flags": {
                "core": {
                    "sourceId": "Compendium.pf2e.spells-srd.KSAEhNfZyXMO7Z7V"
                }
            },
            "img": "systems/pf2e/icons/spells/outcastss-curse.webp",
            "name": "Outcast's Curse",
            "sort": 700000,
            "type": "spell"
        },
        {
            "_id": "jH15DO7k1mUA2BSm",
            "data": {
                "ability": {
                    "value": ""
                },
                "area": {
                    "areaType": "",
                    "value": null
                },
                "areasize": {
                    "value": ""
                },
                "category": {
                    "value": "spell"
                },
                "components": {
                    "focus": false,
                    "material": false,
                    "somatic": true,
                    "verbal": true
                },
                "cost": {
                    "value": ""
                },
                "damage": {
                    "value": {}
                },
                "description": {
                    "value": "<p>You ward a creature against the effects of a single spell. Choose a spell and name it aloud as part of the verbal component. Spell immunity attempts to counteract that spell whenever spell immunity's target is the target of the named spell or in that spell's area. Successfully counteracting a spell that targets an area or multiple targets with spell immunity negates the effects only for the target affected by spell immunity.</p>"
                },
                "duration": {
                    "value": "24 hours"
                },
                "hasCounteractCheck": {
                    "value": true
                },
                "level": {
                    "value": 4
                },
                "location": {
                    "heightenedLevel": 9,
                    "value": "AMdWhq1FWPLVHJx3"
                },
                "materials": {
                    "value": ""
                },
                "prepared": {
                    "value": ""
                },
                "primarycheck": {
                    "value": ""
                },
                "range": {
                    "value": "touch"
                },
                "rules": [],
                "save": {
                    "basic": "",
                    "value": ""
                },
                "school": {
                    "value": "abjuration"
                },
                "secondarycasters": {
                    "value": ""
                },
                "secondarycheck": {
                    "value": ""
                },
                "slug": "spell-immunity",
                "source": {
                    "value": "Pathfinder Core Rulebook"
                },
                "spellType": {
                    "value": "utility"
                },
                "sustained": {
                    "value": false
                },
                "target": {
                    "value": "1 creature"
                },
                "time": {
                    "value": "2"
                },
                "traditions": {
                    "value": [
                        "arcane",
                        "divine",
                        "occult"
                    ]
                },
                "traits": {
                    "custom": "",
                    "rarity": "common",
                    "value": []
                }
            },
            "flags": {
                "core": {
                    "sourceId": "Compendium.pf2e.spells-srd.tgIhRUFtgDSELpJE"
                }
            },
            "img": "systems/pf2e/icons/spells/spell-immunity.webp",
            "name": "Spell Immunity",
            "sort": 800000,
            "type": "spell"
        },
        {
            "_id": "fYD6NH1p2Kgaosnf",
            "data": {
                "ability": {
                    "value": ""
                },
                "area": {
                    "areaType": "",
                    "value": null
                },
                "areasize": {
                    "value": ""
                },
                "category": {
                    "value": "spell"
                },
                "components": {
                    "focus": false,
                    "material": false,
                    "somatic": true,
                    "verbal": true
                },
                "cost": {
                    "value": ""
                },
                "damage": {
                    "value": {}
                },
                "description": {
                    "value": "<p>Vitality radiates outward from you, allowing others to supplicate and receive healing. Once per round, either you or an ally can use an Interact action to supplicate and lay hands upon you to regain Hit Points. Each time the beacon heals someone, it decreases in strength. It restores 4d10 Hit Points to the first creature, 4d8 Hit Points to the second, 4d6 Hit Points to the third, and 4d4 Hit Points to the fourth, after which the spell ends. You can have only one vital beacon active at a time.</p>\n<hr />\n<p><strong>Heightened (+1)</strong> The beacon restores one additional die of Hit Points each time it heals, using the same die size as the others for that step.</p>"
                },
                "duration": {
                    "value": "until your next daily preparations"
                },
                "hasCounteractCheck": {
                    "value": false
                },
                "level": {
                    "value": 4
                },
                "location": {
                    "heightenedLevel": 7,
                    "value": "AMdWhq1FWPLVHJx3"
                },
                "materials": {
                    "value": ""
                },
                "prepared": {
                    "value": ""
                },
                "primarycheck": {
                    "value": ""
                },
                "range": {
                    "value": ""
                },
                "rules": [],
                "save": {
                    "basic": "",
                    "value": ""
                },
                "school": {
                    "value": "necromancy"
                },
                "secondarycasters": {
                    "value": ""
                },
                "secondarycheck": {
                    "value": ""
                },
                "slug": "vital-beacon",
                "source": {
                    "value": "Pathfinder Core Rulebook"
                },
                "spellType": {
                    "value": "heal"
                },
                "sustained": {
                    "value": false
                },
                "target": {
                    "value": ""
                },
                "time": {
                    "value": "1 minute"
                },
                "traditions": {
                    "value": [
                        "divine",
                        "primal"
                    ]
                },
                "traits": {
                    "custom": "",
                    "rarity": "common",
                    "value": [
                        "healing",
                        "positive"
                    ]
                }
            },
            "flags": {
                "core": {
                    "sourceId": "Compendium.pf2e.spells-srd.ikSb3LRGnrwXJBVX"
                }
            },
            "img": "systems/pf2e/icons/spells/vital-beacon.webp",
            "name": "Vital Beacon",
            "sort": 900000,
            "type": "spell"
        },
        {
            "_id": "U6Bbd7KDi2DYF6qO",
            "data": {
                "ability": {
                    "value": ""
                },
                "area": {
                    "areaType": "",
                    "value": ""
                },
                "areasize": {
                    "value": ""
                },
                "category": {
                    "value": "spell"
                },
                "components": {
                    "focus": false,
                    "material": false,
                    "somatic": true,
                    "verbal": true
                },
                "cost": {
                    "value": ""
                },
                "damage": {
                    "value": {}
                },
                "description": {
                    "value": "<p>You tap into the target's inner heroism, granting it a +1 status bonus to attack rolls, Perception checks, saving throws, and skill checks.</p>\n<hr />\n<p><strong>Heightened (6th)</strong> The status bonus increases to +2.</p>\n<p><strong>Heightened (9th)</strong> The status bonus increases to +3.</p>\n<p>@Compendium[pf2e.spell-effects.Spell Effect: Heroism]{Spell Effect: Heroism}</p>"
                },
                "duration": {
                    "value": "10 minutes"
                },
                "hasCounteractCheck": {
                    "value": false
                },
                "level": {
                    "value": 3
                },
                "location": {
                    "heightenedLevel": 9,
                    "value": "AMdWhq1FWPLVHJx3"
                },
                "materials": {
                    "value": ""
                },
                "prepared": {
                    "value": ""
                },
                "primarycheck": {
                    "value": ""
                },
                "range": {
                    "value": "touch"
                },
                "rules": [],
                "save": {
                    "basic": "",
                    "value": ""
                },
                "school": {
                    "value": "enchantment"
                },
                "secondarycasters": {
                    "value": ""
                },
                "secondarycheck": {
                    "value": ""
                },
                "slug": "heroism",
                "source": {
                    "value": "Pathfinder Core Rulebook"
                },
                "spellType": {
                    "value": "utility"
                },
                "sustained": {
                    "value": false
                },
                "target": {
                    "value": "1 creature"
                },
                "time": {
                    "value": "2"
                },
                "traditions": {
                    "value": [
                        "divine",
                        "occult"
                    ]
                },
                "traits": {
                    "custom": "",
                    "rarity": "common",
                    "value": [
                        "mental"
                    ]
                }
            },
            "flags": {
                "core": {
                    "sourceId": "Compendium.pf2e.spells-srd.KqvqNAfGIE5a9wSv"
                }
            },
            "img": "systems/pf2e/icons/spells/heroism.webp",
            "name": "Heroism",
            "sort": 1000000,
            "type": "spell"
        },
        {
            "_id": "p77bqcCAI5k8j5mN",
            "data": {
                "ability": {
                    "value": ""
                },
                "area": {
                    "areaType": "",
                    "value": null
                },
                "areasize": {
                    "value": ""
                },
                "category": {
                    "value": "spell"
                },
                "components": {
                    "focus": false,
                    "material": false,
                    "somatic": true,
                    "verbal": true
                },
                "cost": {
                    "value": ""
                },
                "damage": {
                    "value": {
                        "0": {
                            "type": {
                                "categories": [],
                                "value": "fire"
                            },
                            "value": "5d6"
                        }
                    }
                },
                "description": {
                    "value": "<p>You shoot a blazing ray of light tinged with holy energy. Make a ranged spell attack. The ray deals 5d6 fire damage. If the target is a fiend or undead, you deal an extra 5d6 good damage.</p>\n<p>If the light passes through an area of magical darkness or targets a creature affected by magical darkness, searing light attempts to counteract the darkness. If you need to determine whether the light passes through an area of darkness, draw a line between yourself and the spell's target</p>\n<hr />\n<p><strong>Critical Success</strong> The target takes double fire damage, as well as double good damage if a fiend or undead.</p>\n<p><strong>Success</strong> The target takes full damage</p>\n<hr />\n<p><strong>Heightened (+1)</strong> The fire damage increases by 2d6, and the good damage against fiends and undead increases by 2d6.</p>"
                },
                "duration": {
                    "value": ""
                },
                "hasCounteractCheck": {
                    "value": true
                },
                "heightening": {
                    "damage": {
                        "0": "2d6"
                    },
                    "interval": 1,
                    "type": "interval"
                },
                "level": {
                    "value": 3
                },
                "location": {
                    "heightenedLevel": 8,
                    "value": "AMdWhq1FWPLVHJx3"
                },
                "materials": {
                    "value": ""
                },
                "prepared": {
                    "value": ""
                },
                "primarycheck": {
                    "value": ""
                },
                "range": {
                    "value": "120 feet"
                },
                "rules": [],
                "save": {
                    "basic": "",
                    "value": ""
                },
                "school": {
                    "value": "evocation"
                },
                "secondarycasters": {
                    "value": ""
                },
                "secondarycheck": {
                    "value": ""
                },
                "slug": "searing-light",
                "source": {
                    "value": "Pathfinder Core Rulebook"
                },
                "spellType": {
                    "value": "attack"
                },
                "sustained": {
                    "value": false
                },
                "target": {
                    "value": "1 creature"
                },
                "time": {
                    "value": "2"
                },
                "traditions": {
                    "value": [
                        "divine",
                        "primal"
                    ]
                },
                "traits": {
                    "custom": "",
                    "rarity": "common",
                    "value": [
                        "attack",
                        "fire",
                        "good",
                        "light"
                    ]
                }
            },
            "flags": {
                "core": {
                    "sourceId": "Compendium.pf2e.spells-srd.DyiD239dNS7RIxZE"
                }
            },
            "img": "systems/pf2e/icons/spells/searing-light.webp",
            "name": "Searing Light",
            "sort": 1100000,
            "type": "spell"
        },
        {
            "_id": "BkgNqUtqiv9Yea41",
            "data": {
                "ability": {
                    "value": ""
                },
                "area": {
                    "areaType": "",
                    "value": null
                },
                "areasize": {
                    "value": "varies"
                },
                "category": {
                    "value": "spell"
                },
                "components": {
                    "focus": false,
                    "material": false,
                    "somatic": false,
                    "verbal": false
                },
                "cost": {
                    "value": ""
                },
                "damage": {
                    "value": {
                        "0": {
                            "type": {
                                "categories": [],
                                "value": "positive"
                            },
                            "value": "1d8"
                        }
                    }
                },
                "description": {
                    "value": "<p>You channel positive energy to heal the living or damage the undead. If the target is a willing living creature, you restore 1d8 Hit Points. If the target is undead, you deal that amount of positive damage to it, and it gets a basic Fortitude save. The number of actions you spend when Casting this Spell determines its targets, range, area, and other parameters.</p>\n<hr />\n<p><strong>1 Action</strong> (somatic) The spell has a range of touch.</p>\n<p><strong>2 Actions</strong> (somatic, verbal) The spell has a range of 30 feet. If you're healing a living creature, increase the Hit Points restored by 8.</p>\n<p><strong>3 Actions</strong> (material, somatic, verbal) You disperse positive energy in a 30-foot emanation. This targets all living and undead creatures in the burst.</p>\n<hr />\n<p><strong>Heightened (+1)</strong> The amount of healing or damage increases by 1d8, and the extra healing for the 2-action version increases by 8.</p>"
                },
                "duration": {
                    "value": ""
                },
                "hasCounteractCheck": {
                    "value": false
                },
                "heightening": {
                    "damage": {
                        "0": "1d8"
                    },
                    "interval": 1,
                    "type": "interval"
                },
                "level": {
                    "value": 1
                },
                "location": {
                    "heightenedLevel": 9,
                    "value": "AMdWhq1FWPLVHJx3"
                },
                "materials": {
                    "value": ""
                },
                "prepared": {
                    "value": ""
                },
                "primarycheck": {
                    "value": ""
                },
                "range": {
                    "value": "varies"
                },
                "rules": [],
                "save": {
                    "basic": "",
                    "value": ""
                },
                "school": {
                    "value": "necromancy"
                },
                "secondarycasters": {
                    "value": ""
                },
                "secondarycheck": {
                    "value": ""
                },
                "slug": "heal",
                "source": {
                    "value": "Pathfinder Core Rulebook"
                },
                "spellType": {
                    "value": "heal"
                },
                "sustained": {
                    "value": false
                },
                "target": {
                    "value": "1 willing living creature or 1 undead"
                },
                "time": {
                    "value": "1 to 3"
                },
                "traditions": {
                    "custom": "",
                    "value": [
                        "divine",
                        "primal"
                    ]
                },
                "traits": {
                    "custom": "",
                    "rarity": "common",
                    "value": [
                        "healing",
                        "positive"
                    ]
                }
            },
            "flags": {
                "core": {
                    "sourceId": "Compendium.pf2e.spells-srd.rfZpqmj0AIIdkVIs"
                }
            },
            "img": "systems/pf2e/icons/spells/heal.webp",
            "name": "Heal",
            "sort": 1200000,
            "type": "spell"
        },
        {
            "_id": "EmKJ1Qyslg0CFCAE",
            "data": {
                "baseItem": null,
                "containerId": "null",
                "description": {
                    "value": "<p>Those who gain one of Taljjae's masks, either by defeating Taljjae or some other means, are known as its understudies and gain a fraction of its power. Each of Taljjae's masks is an 18th-level unique item with the invested and magical traits; if broken, they're automatically repaired to full HP when invested during daily preparations. The effect of a mask on a PC is noted in the mask's Understudy entry. Wearing one of Taljjae's masks also imposes Taljjae's jelly sense and jelly gluttony on the creature as long as it wears the mask.</p>\n<p>The Beast brings out its wearer's feral nature, granting it a claw melee unarmed attack that deals 1d4 slashing damage and has the agile trait, or increasing the damage die of their claw unarmed attack from 1d4 to 1d6 damage if they have a claw unarmed attack that deals 1d4 damage.</p>"
                },
                "equipped": {
                    "carryType": "worn",
                    "inSlot": false,
                    "invested": false
                },
                "equippedBulk": {
                    "value": ""
                },
                "hardness": 0,
                "hp": {
                    "brokenThreshold": 0,
                    "max": 0,
                    "value": 0
                },
                "level": {
                    "value": 18
                },
                "negateBulk": {
                    "value": "0"
                },
                "preciousMaterial": {
                    "value": null
                },
                "preciousMaterialGrade": {
                    "value": null
                },
                "price": {
                    "value": {}
                },
                "quantity": 1,
                "rules": [],
                "size": "med",
                "slug": "taljjaes-mask-the-beast",
                "source": {
                    "value": "Pathfinder Lost Omens: Monsters of Myth"
                },
                "stackGroup": null,
                "traits": {
                    "custom": "",
                    "rarity": "unique",
                    "value": [
                        "invested",
                        "magical"
                    ]
                },
                "usage": {
                    "value": "wornmask"
                },
                "weight": {
                    "value": "-"
                }
            },
            "flags": {
                "core": {
                    "sourceId": "Compendium.pf2e.equipment-srd.dPg0hrkIaCdMKQoK"
                }
            },
            "img": "systems/pf2e/icons/equipment/worn-items/other-worn-items/demon-mask.webp",
            "name": "Taljjae's Mask (The Beast)",
            "sort": 1300000,
            "type": "equipment"
        },
        {
            "_id": "UbktMWekgxFPYETV",
            "data": {
                "baseItem": null,
                "containerId": "null",
                "description": {
                    "value": "<p>Those who gain one of Taljjae's masks, either by defeating Taljjae or some other means, are known as its understudies and gain a fraction of its power. Each of Taljjae's masks is an 18th-level unique item with the invested and magical traits; if broken, they're automatically repaired to full HP when invested during daily preparations. The effect of a mask on a PC is noted in the mask's Understudy entry. Wearing one of Taljjae's masks also imposes Taljjae's jelly sense and jelly gluttony on the creature as long as it wears the mask.</p>\n<p><strong>Activate</strong> <span class=\"pf2-icon\">1</span></p>\n<p><strong>Frequency</strong> once per day</p>\n<p><strong>Effect</strong> The General grants its wearer a +3 status bonus to attack rolls with polearms for 1 minute.</p>\n<p>@Compendium[pf2e.equipment-effects.Effect: Taljjae's Mask (The General)]{Effect: Taljjae's Mask (The General)}</p>"
                },
                "equipped": {
                    "carryType": "worn",
                    "inSlot": false,
                    "invested": false
                },
                "equippedBulk": {
                    "value": ""
                },
                "hardness": 0,
                "hp": {
                    "brokenThreshold": 0,
                    "max": 0,
                    "value": 0
                },
                "level": {
                    "value": 18
                },
                "negateBulk": {
                    "value": "0"
                },
                "preciousMaterial": {
                    "value": null
                },
                "preciousMaterialGrade": {
                    "value": null
                },
                "price": {
                    "value": {}
                },
                "quantity": 1,
                "rules": [],
                "size": "med",
                "slug": "taljjaes-mask-the-general",
                "source": {
                    "value": "Pathfinder Lost Omens: Monsters of Myth"
                },
                "stackGroup": null,
                "traits": {
                    "custom": "",
                    "rarity": "unique",
                    "value": [
                        "invested",
                        "magical"
                    ]
                },
                "usage": {
                    "value": "wornmask"
                },
                "weight": {
                    "value": "-"
                }
            },
            "flags": {
                "core": {
                    "sourceId": "Compendium.pf2e.equipment-srd.JSbBiTCtFctuJFhS"
                }
            },
            "img": "systems/pf2e/icons/equipment/worn-items/other-worn-items/demon-mask.webp",
            "name": "Taljjae's Mask (The General)",
            "sort": 1400000,
            "type": "equipment"
        },
        {
            "_id": "BWnRGZI28UwRAwGd",
            "data": {
                "baseItem": null,
                "containerId": "null",
                "description": {
                    "value": "<p>Those who gain one of Taljjae's masks, either by defeating Taljjae or some other means, are known as its understudies and gain a fraction of its power. Each of Taljjae's masks is an 18th-level unique item with the invested and magical traits; if broken, they're automatically repaired to full HP when invested during daily preparations. The effect of a mask on a PC is noted in the mask's Understudy entry. Wearing one of Taljjae's masks also imposes Taljjae's jelly sense and jelly gluttony on the creature as long as it wears the mask.</p>\n<p>The <em>Grandmother</em> allows its wearer to cast 8th-level <em>@Compendium[pf2e.spells-srd.Heal]{Heal}</em> and 7th-level <em>@Compendium[pf2e.spells-srd.Breath of Life]{Breath of Life}</em>, each as a divine innate spell, once per day.</p>"
                },
                "equipped": {
                    "carryType": "worn",
                    "inSlot": false,
                    "invested": false
                },
                "equippedBulk": {
                    "value": ""
                },
                "hardness": 0,
                "hp": {
                    "brokenThreshold": 0,
                    "max": 0,
                    "value": 0
                },
                "level": {
                    "value": 18
                },
                "negateBulk": {
                    "value": "0"
                },
                "preciousMaterial": {
                    "value": null
                },
                "preciousMaterialGrade": {
                    "value": null
                },
                "price": {
                    "value": {}
                },
                "quantity": 1,
                "rules": [],
                "size": "med",
                "slug": "taljjaes-mask-the-grandmother",
                "source": {
                    "value": "Pathfinder Lost Omens: Monsters of Myth"
                },
                "stackGroup": null,
                "traits": {
                    "custom": "",
                    "rarity": "unique",
                    "value": [
                        "invested",
                        "magical"
                    ]
                },
                "usage": {
                    "value": "wornmask"
                },
                "weight": {
                    "value": "-"
                }
            },
            "flags": {
                "core": {
                    "sourceId": "Compendium.pf2e.equipment-srd.ma4BlTSjaMHrQmoz"
                }
            },
            "img": "systems/pf2e/icons/equipment/worn-items/other-worn-items/demon-mask.webp",
            "name": "Taljjae's Mask (The Grandmother)",
            "sort": 1500000,
            "type": "equipment"
        },
        {
            "_id": "gtl38XnBWZ6JWt3a",
            "data": {
                "baseItem": null,
                "containerId": "null",
                "description": {
                    "value": "<p>Those who gain one of Taljjae's masks, either by defeating Taljjae or some other means, are known as its understudies and gain a fraction of its power. Each of Taljjae's masks is an 18th-level unique item with the invested and magical traits; if broken, they're automatically repaired to full HP when invested during daily preparations. The effect of a mask on a PC is noted in the mask's Understudy entry. Wearing one of Taljjae's masks also imposes Taljjae's jelly sense and jelly gluttony on the creature as long as it wears the mask.</p>\n<p>The <em>Hermit</em> allows its wearer to cast 8th-level <em>@Compendium[pf2e.spells-srd.Spirit Blast]{Spirit Blast}</em> and 7th-level <em>@Compendium[pf2e.spells-srd.Flame Strike]{Flame Strike}</em>, each as a divine innate spell, once per day.</p>"
                },
                "equipped": {
                    "carryType": "worn",
                    "inSlot": false,
                    "invested": false
                },
                "equippedBulk": {
                    "value": ""
                },
                "hardness": 0,
                "hp": {
                    "brokenThreshold": 0,
                    "max": 0,
                    "value": 0
                },
                "level": {
                    "value": 18
                },
                "negateBulk": {
                    "value": "0"
                },
                "preciousMaterial": {
                    "value": null
                },
                "preciousMaterialGrade": {
                    "value": null
                },
                "price": {
                    "value": {}
                },
                "quantity": 1,
                "rules": [],
                "size": "med",
                "slug": "taljjaes-mask-the-hermit",
                "source": {
                    "value": "Pathfinder Lost Omens: Monsters of Myth"
                },
                "stackGroup": null,
                "traits": {
                    "custom": "",
                    "rarity": "unique",
                    "value": [
                        "invested",
                        "magical"
                    ]
                },
                "usage": {
                    "value": "wornmask"
                },
                "weight": {
                    "value": "-"
                }
            },
            "flags": {
                "core": {
                    "sourceId": "Compendium.pf2e.equipment-srd.d8w28UjKHALM2GNu"
                }
            },
            "img": "systems/pf2e/icons/equipment/worn-items/other-worn-items/demon-mask.webp",
            "name": "Taljjae's Mask (The Hermit)",
            "sort": 1600000,
            "type": "equipment"
        },
        {
            "_id": "Sxu8c5VF49Zm5wja",
            "data": {
                "baseItem": null,
                "containerId": "null",
                "description": {
                    "value": "<p>Those who gain one of Taljjae's masks, either by defeating Taljjae or some other means, are known as its understudies and gain a fraction of its power. Each of Taljjae's masks is an 18th-level unique item with the invested and magical traits; if broken, they're automatically repaired to full HP when invested during daily preparations. The effect of a mask on a PC is noted in the mask's Understudy entry. Wearing one of Taljjae's masks also imposes Taljjae's jelly sense and jelly gluttony on the creature as long as it wears the mask.</p>\n<p><strong>Activate</strong> <span class=\"pf2-icon\">1</span></p>\n<p><strong>Frequency</strong> once per day;</p>\n<p><strong>Effect</strong> The Hero grants its wearer a +3 status bonus to attack rolls with bows for 1 minute.</p>\n<p>@Compendium[pf2e.equipment-effects.Effect: Taljjae's Mask (The Hero)]{Effect: Taljjae's Mask (The Hero)}</p>"
                },
                "equipped": {
                    "carryType": "worn",
                    "inSlot": false,
                    "invested": false
                },
                "equippedBulk": {
                    "value": ""
                },
                "hardness": 0,
                "hp": {
                    "brokenThreshold": 0,
                    "max": 0,
                    "value": 0
                },
                "level": {
                    "value": 18
                },
                "negateBulk": {
                    "value": "0"
                },
                "preciousMaterial": {
                    "value": null
                },
                "preciousMaterialGrade": {
                    "value": null
                },
                "price": {
                    "value": {}
                },
                "quantity": 1,
                "rules": [],
                "size": "med",
                "slug": "taljjaes-mask-the-hero",
                "source": {
                    "value": "Pathfinder Lost Omens: Monsters of Myth"
                },
                "stackGroup": null,
                "traits": {
                    "custom": "",
                    "rarity": "unique",
                    "value": [
                        "invested",
                        "magical"
                    ]
                },
                "usage": {
                    "value": "wornmask"
                },
                "weight": {
                    "value": "-"
                }
            },
            "flags": {
                "core": {
                    "sourceId": "Compendium.pf2e.equipment-srd.2LO9eMNpQiku5UDn"
                }
            },
            "img": "systems/pf2e/icons/equipment/worn-items/other-worn-items/demon-mask.webp",
            "name": "Taljjae's Mask (The Hero)",
            "sort": 1700000,
            "type": "equipment"
        },
        {
            "_id": "2tLuaslzCHKpDhap",
            "data": {
                "baseItem": null,
                "containerId": "null",
                "description": {
                    "value": "<p>Those who gain one of Taljjae's masks, either by defeating Taljjae or some other means, are known as its understudies and gain a fraction of its power. Each of Taljjae's masks is an 18th-level unique item with the invested and magical traits; if broken, they're automatically repaired to full HP when invested during daily preparations. The effect of a mask on a PC is noted in the mask's Understudy entry. Wearing one of Taljjae's masks also imposes Taljjae's jelly sense and jelly gluttony on the creature as long as it wears the mask.</p>\n<p><strong>Activate</strong> <span class=\"pf2-icon\">2</span></p>\n<p><strong>Frequency</strong> once per 10 minutes</p>\n<p><strong>Effect</strong> You hold out a hand and attempt to take something that doesn't belong to you. You telekinetically attracts an unattended, unsecured object of up to 5 Bulk within 100 feet. If the object is in a creature's possession, you must critically succeed at an attempt to @Compendium[pf2e.actionspf2e.Disarm]{Disarm} that creature, but you can't critically fail.</p>"
                },
                "equipped": {
                    "carryType": "worn",
                    "inSlot": false,
                    "invested": false
                },
                "equippedBulk": {
                    "value": ""
                },
                "hardness": 0,
                "hp": {
                    "brokenThreshold": 0,
                    "max": 0,
                    "value": 0
                },
                "level": {
                    "value": 18
                },
                "negateBulk": {
                    "value": "0"
                },
                "preciousMaterial": {
                    "value": null
                },
                "preciousMaterialGrade": {
                    "value": null
                },
                "price": {
                    "value": {}
                },
                "quantity": 1,
                "rules": [],
                "size": "med",
                "slug": "taljjaes-mask-the-nobleman",
                "source": {
                    "value": "Pathfinder Lost Omens: Monsters of Myth"
                },
                "stackGroup": null,
                "traits": {
                    "custom": "",
                    "rarity": "unique",
                    "value": [
                        "invested",
                        "magical"
                    ]
                },
                "usage": {
                    "value": "wornmask"
                },
                "weight": {
                    "value": "-"
                }
            },
            "flags": {
                "core": {
                    "sourceId": "Compendium.pf2e.equipment-srd.4jzASWzF2riszO3U"
                }
            },
            "img": "systems/pf2e/icons/equipment/worn-items/other-worn-items/demon-mask.webp",
            "name": "Taljjae's Mask (The Nobleman)",
            "sort": 1800000,
            "type": "equipment"
        },
        {
            "_id": "dYqAxiRQuGMaDWu0",
            "data": {
                "baseItem": null,
                "containerId": "null",
                "description": {
                    "value": "<p>Those who gain one of Taljjae's masks, either by defeating Taljjae or some other means, are known as its understudies and gain a fraction of its power. Each of Taljjae's masks is an 18th-level unique item with the invested and magical traits; if broken, they're automatically repaired to full HP when invested during daily preparations. The effect of a mask on a PC is noted in the mask's Understudy entry. Wearing one of Taljjae's masks also imposes Taljjae's jelly sense and jelly gluttony on the creature as long as it wears the mask.</p>\n<p>The <em>Wanderer</em> allows its wearer to cast 7th-level <em>@Compendium[pf2e.spells-srd.Air Walk]{Air Walk}</em> and 8th-level <em>@Compendium[pf2e.spells-srd.Freedom of Movement]{Freedom of Movement}</em>, each as a divine innate spell, once per day.</p>"
                },
                "equipped": {
                    "carryType": "worn",
                    "inSlot": false,
                    "invested": false
                },
                "equippedBulk": {
                    "value": ""
                },
                "hardness": 0,
                "hp": {
                    "brokenThreshold": 0,
                    "max": 0,
                    "value": 0
                },
                "level": {
                    "value": 18
                },
                "negateBulk": {
                    "value": "0"
                },
                "preciousMaterial": {
                    "value": null
                },
                "preciousMaterialGrade": {
                    "value": null
                },
                "price": {
                    "value": {}
                },
                "quantity": 1,
                "rules": [],
                "size": "med",
                "slug": "taljjaes-mask-the-wanderer",
                "source": {
                    "value": "Pathfinder Lost Omens: Monsters of Myth"
                },
                "stackGroup": null,
                "traits": {
                    "custom": "",
                    "rarity": "unique",
                    "value": [
                        "invested",
                        "magical"
                    ]
                },
                "usage": {
                    "value": "wornmask"
                },
                "weight": {
                    "value": "-"
                }
            },
            "flags": {
                "core": {
                    "sourceId": "Compendium.pf2e.equipment-srd.nbBtszla32wRC1bp"
                }
            },
            "img": "systems/pf2e/icons/equipment/worn-items/other-worn-items/demon-mask.webp",
            "name": "Taljjae's Mask (The Wanderer)",
            "sort": 1900000,
            "type": "equipment"
        },
        {
            "_id": "zaydgkbvbo8l3joq",
            "data": {
                "attack": {
                    "value": ""
                },
                "attackEffects": {
                    "custom": "",
                    "value": []
                },
                "bonus": {
                    "value": 35
                },
                "damageRolls": {
                    "paYP2BtxbkXfGmYu": {
                        "damage": "4d6+18",
                        "damageType": "slashing"
                    }
                },
                "description": {
                    "value": ""
                },
                "rules": [],
                "slug": null,
                "source": {
                    "value": ""
                },
                "traits": {
                    "custom": "",
                    "rarity": "common",
                    "value": [
                        "agile",
                        "magical",
                        "reach-10",
                        "versatile-b"
                    ]
                },
                "weaponType": {
                    "value": "melee"
                }
            },
            "flags": {},
            "img": "systems/pf2e/icons/default-icons/melee.svg",
            "name": "Whirling Sash",
            "sort": 2000000,
            "type": "melee"
        },
        {
            "_id": "6z71izdol3e13koh",
            "data": {
                "attack": {
                    "value": ""
                },
                "attackEffects": {
                    "custom": "",
                    "value": []
                },
                "bonus": {
                    "value": 35
                },
                "damageRolls": {
                    "bV59ZadzDAYkf29W": {
                        "damage": "4d6+18",
                        "damageType": "fire"
                    }
                },
                "description": {
                    "value": ""
                },
                "rules": [],
                "slug": null,
                "source": {
                    "value": ""
                },
                "traits": {
                    "custom": "",
                    "rarity": "common",
                    "value": [
                        "fire",
                        "range-increment-60"
                    ]
                },
                "weaponType": {
                    "value": "ranged"
                }
            },
            "flags": {},
            "img": "systems/pf2e/icons/default-icons/melee.svg",
            "name": "Goblinfire",
            "sort": 2100000,
            "type": "melee"
        },
        {
            "_id": "TfDtvyUAD19259NP",
            "data": {
                "actionCategory": {
                    "value": "interaction"
                },
                "actionType": {
                    "value": "passive"
                },
                "actions": {
                    "value": null
                },
                "description": {
                    "value": "<p>@Localize[PF2E.NPC.Abilities.Glossary.Darkvision]</p>"
                },
                "requirements": {
                    "value": ""
                },
                "rules": [],
                "slug": "darkvision",
                "source": {
                    "value": ""
                },
                "traits": {
                    "custom": "",
                    "rarity": "common",
                    "value": []
                },
                "trigger": {
                    "value": ""
                },
                "weapon": {
                    "value": ""
                }
            },
            "flags": {
                "core": {
                    "sourceId": "Compendium.pf2e.bestiary-ability-glossary-srd.qCCLZhnp2HhP3Ex6"
                }
            },
            "img": "systems/pf2e/icons/actions/Passive.webp",
            "name": "Darkvision",
            "sort": 2200000,
            "type": "action"
        },
        {
            "_id": "mjcG5ZLl4rRTxraH",
            "data": {
                "actionCategory": {
                    "value": "interaction"
                },
                "actionType": {
                    "value": "passive"
                },
                "actions": {
                    "value": null
                },
                "description": {
                    "value": "<p>@Template[type:emanation|distance:60] @Compendium[pf2e.bestiary-ability-glossary-srd.Aura]{Aura}</p>\n<hr />\n<p>Serenity and a sense of ease blot out all other emotions. Creatures in the emanation must succeed at a @Check[type:will|dc:37] save or become unable to be affected by beneficial emotion effects while within the aura and for 1 minute after leaving it. The creature is then temporarily immune for 10 minutes.</p>"
                },
                "requirements": {
                    "value": ""
                },
                "rules": [],
                "slug": null,
                "source": {
                    "value": ""
                },
                "traits": {
                    "custom": "",
                    "rarity": "common",
                    "value": [
                        "aura",
                        "emotion",
                        "mental"
                    ]
                },
                "trigger": {
                    "value": ""
                }
            },
            "flags": {},
            "img": "systems/pf2e/icons/actions/Passive.webp",
            "name": "Gentle Facade",
            "sort": 2300000,
            "type": "action"
        },
        {
            "_id": "hvib7p262mdkyhpf",
            "data": {
                "actionCategory": {
                    "value": "defensive"
                },
                "actionType": {
                    "value": "reaction"
                },
                "actions": {
                    "value": null
                },
                "deathNote": true,
                "description": {
                    "value": "<p><strong>Trigger</strong> Taljjae is reduced to 0 Hit Points</p>\n<hr />\n<p><strong>Effect</strong> Taljjae retains 1 Hit Point and teleports to an empty space within 30 feet. One of its masks remains behind and is broken.</p>"
                },
                "requirements": {
                    "value": ""
                },
                "rules": [],
                "slug": null,
                "source": {
                    "value": ""
                },
                "traits": {
                    "custom": "",
                    "rarity": "common",
                    "value": [
                        "conjuration",
                        "primal",
                        "teleportation"
                    ]
                },
                "trigger": {
                    "value": ""
                }
            },
            "flags": {},
            "img": "systems/pf2e/icons/actions/Reaction.webp",
            "name": "Exit Stage",
            "sort": 2400000,
            "type": "action"
        },
        {
            "_id": "fkctckojzd3stukh",
            "data": {
                "actionCategory": {
                    "value": "defensive"
                },
                "actionType": {
                    "value": "passive"
                },
                "actions": {
                    "value": null
                },
                "description": {
                    "value": "<p>If Taljjae detects buckwheat jelly with its jelly sense, it becomes @Compendium[pf2e.conditionitems.Fascinated]{Fascinated} by the food and the creature possessing it (if applicable) and @Compendium[pf2e.conditionitems.Flat-Footed]{Flat-Footed} to all other creatures for [[/br 1d4 #Rounds]]{1d4 rounds}, or until it uses an appropriate number of Interact actions to consume the jelly (generally 2: 1 to take the jelly, and another to eat it). If there's more than one helping of jelly, the condition ends once Taljjae consumes the jelly once.</p>"
                },
                "requirements": {
                    "value": ""
                },
                "rules": [],
                "slug": null,
                "source": {
                    "value": ""
                },
                "traits": {
                    "custom": "",
                    "rarity": "common",
                    "value": []
                },
                "trigger": {
                    "value": ""
                }
            },
            "flags": {},
            "img": "systems/pf2e/icons/actions/Passive.webp",
            "name": "Jelly Gluttony",
            "sort": 2500000,
            "type": "action"
        },
        {
            "_id": "87u5s0iomu7fmxwg",
            "data": {
                "actionCategory": {
                    "value": "defensive"
                },
                "actionType": {
                    "value": "passive"
                },
                "actions": {
                    "value": ""
                },
                "description": {
                    "value": "<p>Taljjae has scent as a precise sense out to 120 feet, but only to detect buckwheat jelly, the only food Taljjae loves more than flesh.</p>"
                },
                "requirements": {
                    "value": ""
                },
                "rules": [],
                "slug": null,
                "source": {
                    "value": ""
                },
                "traits": {
                    "custom": "",
                    "rarity": "common",
                    "value": []
                },
                "trigger": {
                    "value": ""
                }
            },
            "flags": {},
            "img": "systems/pf2e/icons/actions/Passive.webp",
            "name": "Jelly Sense",
            "sort": 2600000,
            "type": "action"
        },
        {
            "_id": "3imov8thprdt3vz4",
            "data": {
                "actionCategory": {
                    "value": "offensive"
                },
                "actionType": {
                    "value": "action"
                },
                "actions": {
                    "value": 1
                },
                "description": {
                    "value": "<p><strong>Frequency</strong> once per round</p><hr />\n<p><strong>Effect</strong> Taljjae removes its current mask and dons a new one. The change refreshes Taljjae, restoring 25 Hit Points. Once Taljjae has removed a mask, it can't Change Characters back to that mask until it has worn all of its unbroken masks at least once, after which the cycle starts again. Taljjae can't don a broken mask.</p>\n<p>When Taljjae Changes Characters, it gains access to the listed abilities. Any items (such as weapons) associated with its previous mask immediately disappear and are replaced by fresh ones for its new mask, but the effects of any mask abilities it has active persist. Removing a mask and later reapplying it doesn't restore any limited-use abilities.</p>"
                },
                "requirements": {
                    "value": ""
                },
                "rules": [],
                "slug": null,
                "source": {
                    "value": ""
                },
                "traits": {
                    "custom": "",
                    "rarity": "common",
                    "value": [
                        "stance"
                    ]
                },
                "trigger": {
                    "value": ""
                }
            },
            "flags": {},
            "img": "systems/pf2e/icons/actions/OneAction.webp",
            "name": "Change Characters",
            "sort": 2700000,
            "type": "action"
        },
        {
            "_id": "hlkjwm7c72rs0red",
            "data": {
                "actionCategory": {
                    "value": "offensive"
                },
                "actionType": {
                    "value": "passive"
                },
                "actions": {
                    "value": ""
                },
                "description": {
                    "value": "<p>Taljjae has access to the critical specialization effects of any weapons it wields from one of its masks.</p>"
                },
                "requirements": {
                    "value": ""
                },
                "rules": [],
                "slug": null,
                "source": {
                    "value": ""
                },
                "traits": {
                    "custom": "",
                    "rarity": "common",
                    "value": []
                },
                "trigger": {
                    "value": ""
                }
            },
            "flags": {},
            "img": "systems/pf2e/icons/actions/Passive.webp",
            "name": "Prop Master",
            "sort": 2800000,
            "type": "action"
        },
        {
            "_id": "88km45ata0is6ltu",
            "data": {
                "actionCategory": {
                    "value": "offensive"
                },
                "actionType": {
                    "value": "free"
                },
                "actions": {
                    "value": ""
                },
                "description": {
                    "value": "<p><strong>Trigger</strong> Taljjae's turn begins <strong>Requirements</strong> Taljjae has 200 or fewer Hit Points</p><hr /><p><strong>Effect</strong> Taljjae's dance reaches a frantic climax, allowing it to change personas rapidly. Taljjae Changes Characters.</p>"
                },
                "requirements": {
                    "value": ""
                },
                "rules": [],
                "slug": null,
                "source": {
                    "value": ""
                },
                "traits": {
                    "custom": "",
                    "rarity": "common",
                    "value": []
                },
                "trigger": {
                    "value": ""
                }
            },
            "flags": {},
            "img": "systems/pf2e/icons/actions/FreeAction.webp",
            "name": "Second Act",
            "sort": 2900000,
            "type": "action"
        },
        {
            "_id": "4ddcwsb9dxw5fxh6",
            "data": {
                "description": {
                    "value": ""
                },
                "mod": {
                    "value": 35
                },
                "proficient": {
                    "value": 0
                },
                "rules": [],
                "slug": null,
                "source": {
                    "value": ""
                },
                "traits": {
                    "custom": "",
                    "rarity": "common",
                    "value": []
                }
            },
            "flags": {},
            "img": "systems/pf2e/icons/default-icons/lore.svg",
            "name": "Acrobatics",
            "sort": 3000000,
            "type": "lore"
        },
        {
            "_id": "e3zfkklp9ojb0szm",
            "data": {
                "description": {
                    "value": ""
                },
                "mod": {
                    "value": 31
                },
                "proficient": {
                    "value": 0
                },
                "rules": [],
                "slug": null,
                "source": {
                    "value": ""
                },
                "traits": {
                    "custom": "",
                    "rarity": "common",
                    "value": []
                }
            },
            "flags": {},
            "img": "systems/pf2e/icons/default-icons/lore.svg",
            "name": "Athletics",
            "sort": 3100000,
            "type": "lore"
        },
        {
            "_id": "3ou0r5mcvwvrvlvz",
            "data": {
                "description": {
                    "value": ""
                },
                "mod": {
                    "value": 38
                },
                "proficient": {
                    "value": 0
                },
                "rules": [],
                "slug": null,
                "source": {
                    "value": ""
                },
                "traits": {
                    "custom": "",
                    "rarity": "common",
                    "value": []
                }
            },
            "flags": {},
            "img": "systems/pf2e/icons/default-icons/lore.svg",
            "name": "Performance",
            "sort": 3200000,
            "type": "lore"
        },
        {
            "_id": "ljy12gi0tg3sb7oo",
            "data": {
                "description": {
                    "value": ""
                },
                "mod": {
                    "value": 31
                },
                "proficient": {
                    "value": 0
                },
                "rules": [],
                "slug": null,
                "source": {
                    "value": ""
                },
                "traits": {
                    "custom": "",
                    "rarity": "common",
                    "value": []
                }
            },
            "flags": {},
            "img": "systems/pf2e/icons/default-icons/lore.svg",
            "name": "Society",
            "sort": 3300000,
            "type": "lore"
        }
    ],
    "name": "Taljjae (The Grandmother)",
    "token": {
        "disposition": -1,
        "height": 1,
        "img": "systems/pf2e/icons/default-icons/npc.svg",
        "name": "Taljjae",
        "width": 1
    },
    "type": "npc"
}
