{
    "_id": "pCtJONJlhAugUXaG",
    "data": {
        "ability": [],
        "alignment": {
            "follower": [
                "LE",
                "NE",
                "CE"
            ],
            "own": "NE"
        },
        "description": {
            "value": "<p>The dread shadow known as Ahriman counts servants mainly among div as well as a scattering of followers throughout the mortal realm.</p>\n<p><strong>Edicts</strong> Foil rulers, the proud, and the powerful; ruin anything created by mortals</p>\n<p><strong>Anathema</strong> create arts or crafts, serve a mortal, assist in mortal aims except to subvert and corrupt them</p>"
        },
        "domains": {
            "alternate": [],
            "primary": [
                "darkness",
                "death",
                "destruction",
                "trickery"
            ]
        },
        "font": [
            "harm"
        ],
        "rules": [],
        "skill": "dec",
        "source": {
            "value": "Pathfinder Bestiary 3"
        },
        "spells": {
            "1": "Compendium.pf2e.spells-srd.6ZIKB0151LUR19Rw",
            "3": "Compendium.pf2e.spells-srd.EoKBlgf6Smt8opaU",
            "5": "Compendium.pf2e.spells-srd.GaRQlC9Yw1BGKHfN"
        },
        "weapons": [
            "whip"
        ]
    },
    "flags": {},
    "img": "systems/pf2e/icons/default-icons/deity.svg",
    "name": "Ahriman",
    "type": "deity"
}
