{
    "_id": "VRPVppdQ4W0oXeB1",
    "data": {
        "ability": [],
        "alignment": {
            "follower": [
                "LE",
                "NE"
            ],
            "own": "LE"
        },
        "description": {
            "value": "<p><strong>Alocer</strong> is a lawful evil diabolic demigod, the infernal duke of beasts, hunters, and tradition. Known also as the Pack Lord, he appears as a fire-breathing, lion-headed, heavily armored archer with eagle talons for feet. His symbol is a dragon-legged horse, said to be a representation of his favored mount.</p>\n<p><strong>Edicts</strong> hunt those who are capable of thinking for themselves, gather like-minded hunters into groups based in hunting lodges, burn places of worship devoted to Erastil or corrupt those who follow his faith</p>\n<p><strong>Anathema</strong> sleep in a place sacred to Erastil, willingly harm a lion, grant a merciful death to a creature you have wounded</p>"
        },
        "domains": {
            "alternate": [],
            "primary": [
                "might",
                "nature",
                "pain",
                "zeal"
            ]
        },
        "font": [
            "harm"
        ],
        "rules": [],
        "skill": "sur",
        "source": {
            "value": "Pathfinder One-Shot #2: Dinner at Lionlodge"
        },
        "spells": {
            "1": "Compendium.pf2e.spells-srd.Gb7SeieEvd0pL2Eh",
            "3": "Compendium.pf2e.spells-srd.4YnON9JHYqtLzccu",
            "7": "Compendium.pf2e.spells-srd.bVtkBJvGLP69qVGI"
        },
        "weapons": [
            "shortbow"
        ]
    },
    "flags": {},
    "img": "systems/pf2e/icons/default-icons/deity.svg",
    "name": "Alocer",
    "type": "deity"
}
