{
    "_id": "Xb1N5YfxboJH26Jh",
    "data": {
        "ability": [
            "str",
            "con"
        ],
        "alignment": {
            "follower": [
                "LG",
                "LN"
            ],
            "own": "LG"
        },
        "description": {
            "value": "<p>Angradd's faithful seek out and oppose evil wherever they can, and often compare themselves to a purifying flame that gains strength as it burns more foes. Against strong foes, they plan for a strategy and patiently build their strength and alliances for the chance of victory. Those worshippers who can no longer fight on the front line become trainers, preparing others to succeed them. Dwarves will offer prayers and sacrifices to Angradd if they are about to begin an offensive battle. Divine casters who revere the Forge-Fire as their patron deity have access to a special spell named planned assault, which provides them with extra protection in combat as long as they can plan ahead.</p>\n<p><strong>Edicts</strong> Seek and destroy evil, study evil to learn the best way to destroy it, train others in righteous ways</p>\n<p><strong>Anathema</strong> Allow weaker evils to survive due to the presence of larger evils, deceive others outside of tactical gain</p>"
        },
        "domains": {
            "alternate": [],
            "primary": [
                "fate",
                "fire",
                "protection",
                "zeal"
            ]
        },
        "font": [
            "heal"
        ],
        "rules": [],
        "skill": "ath",
        "source": {
            "value": "Pathfinder Lost Omens: Gods & Magic"
        },
        "spells": {
            "1": "Compendium.pf2e.spells-srd.y6rAdMK6EFlV6U0t",
            "2": "Compendium.pf2e.spells-srd.hoR6w8BqX2F35Tdx",
            "3": "Compendium.pf2e.spells-srd.sxQZ6yqTn0czJxVd"
        },
        "weapons": [
            "greataxe"
        ]
    },
    "flags": {},
    "img": "systems/pf2e/icons/default-icons/deity.svg",
    "name": "Angradd",
    "type": "deity"
}
