{
    "_id": "zRmAXj7FSlrMfDeA",
    "data": {
        "ability": [
            "int",
            "cha"
        ],
        "alignment": {
            "follower": [
                "CG",
                "N",
                "CN"
            ],
            "own": "CN"
        },
        "description": {
            "value": "<p>Bastet is the patron of rogues and bards. She is particularly popular among women, and most of her clerics are female. They usually keep cats as pets, and when these cats die, they are mummified and buried with their owners.</p>\n<p><strong>Edicts</strong> Learn secrets, tempt others into revelry, kill harmful snakes and evil spirits, heal diseases</p>\n<p><strong>Anathema</strong> Kill or abuse a house cat, abandon a child, choose to marry</p>"
        },
        "domains": {
            "alternate": [],
            "primary": [
                "nature",
                "passion",
                "protection",
                "trickery"
            ]
        },
        "font": [
            "heal"
        ],
        "rules": [],
        "skill": "dec",
        "source": {
            "value": "Pathfinder Lost Omens: Gods & Magic"
        },
        "spells": {
            "1": "Compendium.pf2e.spells-srd.gfPjmG6Fe6D3MFjl",
            "3": "Compendium.pf2e.spells-srd.1HfusQ8NDWutGvMx",
            "4": "Compendium.pf2e.spells-srd.onjZCEHs3JJJRTD0"
        },
        "weapons": [
            "claw",
            "tekko-kagi"
        ]
    },
    "flags": {},
    "img": "systems/pf2e/icons/default-icons/deity.svg",
    "name": "Bastet",
    "type": "deity"
}
