{
    "_id": "Dm8qlzpUj7g82QFv",
    "data": {
        "ability": [
            "wis",
            "cha"
        ],
        "alignment": {
            "follower": [
                "LG",
                "LN",
                "N"
            ],
            "own": "LN"
        },
        "description": {
            "value": "<p><strong>Erecura</strong> is the queen of Dis, second layer of Hell, and the wife of its ruler, the archdevil Dispater. Despite being an authority figure in Hell, her outlook and motivation are far removed from that of devils, and unclear to even her own husband.</p>\n<p><strong>Edicts</strong> Manipulate dangerous beings and opportunities to your benefit, thrive in hostile conditions, divine the future</p>\n<p><strong>Anathema</strong> Despoil nature, kill a natural plant or animal that has managed to thrive outside of its intended environment</p>"
        },
        "domains": {
            "alternate": [],
            "primary": [
                "fate",
                "secrecy",
                "trickery",
                "truth"
            ]
        },
        "font": [
            "harm",
            "heal"
        ],
        "rules": [],
        "skill": "dec",
        "source": {
            "value": "Pathfinder Lost Omens: Gods & Magic"
        },
        "spells": {
            "1": "Compendium.pf2e.spells-srd.EUMjrJJwSgsqNidi",
            "2": "Compendium.pf2e.spells-srd.c2bTWBNO1BYX4Zfg",
            "3": "Compendium.pf2e.spells-srd.EoKBlgf6Smt8opaU"
        },
        "weapons": [
            "light-mace"
        ]
    },
    "flags": {},
    "img": "systems/pf2e/icons/default-icons/deity.svg",
    "name": "Erecura",
    "type": "deity"
}
