{
    "_id": "3ffVxwgtvR1imHm8",
    "data": {
        "ability": [
            "dex",
            "cha"
        ],
        "alignment": {
            "follower": [
                "CG",
                "N",
                "CN",
                "CE"
            ],
            "own": "CN"
        },
        "description": {
            "value": "<p><strong>Gendowyn</strong> is the queen of the fey Accressiel court in the Fangwood.</p>\n<p><strong>Edicts</strong> Preserve primal areas, destroy blighted fey and agents of Cyth V'sug, protect those who placate you with offerings</p>\n<p><strong>Anathema</strong> Parley or make a deal with fiends, forgive those who deceive you, harm an innocent child</p>"
        },
        "domains": {
            "alternate": [],
            "primary": [
                "earth",
                "family",
                "luck",
                "nature"
            ]
        },
        "font": [
            "heal"
        ],
        "rules": [],
        "skill": "ste",
        "source": {
            "value": "Pathfinder Lost Omens: Gods & Magic"
        },
        "spells": {
            "1": "Compendium.pf2e.spells-srd.hs7h8f4Z1ZNdUt3s",
            "2": "Compendium.pf2e.spells-srd.YWrfKetOqDwVFut7",
            "5": "Compendium.pf2e.spells-srd.F1qxaqsEItmBura2"
        },
        "weapons": [
            "whip"
        ]
    },
    "flags": {},
    "img": "systems/pf2e/icons/default-icons/deity.svg",
    "name": "Gendowyn",
    "type": "deity"
}
