{
    "_id": "WOiSJ4IWjaRsSgRO",
    "data": {
        "ability": [
            "int",
            "wis"
        ],
        "alignment": {
            "follower": [
                "LE"
            ],
            "own": "LE"
        },
        "description": {
            "value": "<p>Once the mightiest of asura ranas, Geryon betrayed hundreds of Hell's original asura inhabitants to aid Asmodeus in claiming the plane, in the process earning himself the title the Source of Lies. His realm of Stygia, Hell's fifth layer, hews most closely to the nature of Hell before Asmodeus reshaped the plane, and it contains the sunken ruins of countless cities and libraries predating the war against Heaven. The archdevil hoards knowledge and secrets-especially that which has been forbidden- while spreading falsehoods and heresies to mislead the ignorant, and his followers revel in the same.</p>\n<p><strong>Edicts</strong> Hoard knowledge, test the boundaries of taboo, spread falsehoods to dupe the foolhardy</p>\n<p><strong>Anathema</strong> Declare knowledge heresy or forbidden, break your word</p>"
        },
        "domains": {
            "alternate": [],
            "primary": [
                "might",
                "truth",
                "water",
                "wyrmkin"
            ]
        },
        "font": [
            "harm"
        ],
        "rules": [],
        "skill": "occ",
        "source": {
            "value": "Pathfinder Lost Omens: Gods & Magic"
        },
        "spells": {
            "1": "Compendium.pf2e.spells-srd.rnNGALRtsjspFTws",
            "2": "Compendium.pf2e.spells-srd.wp09USMB3GIW1qbp",
            "3": "Compendium.pf2e.spells-srd.ZYoC630tNGutgbE0"
        },
        "weapons": [
            "war-flail"
        ]
    },
    "flags": {},
    "img": "systems/pf2e/icons/default-icons/deity.svg",
    "name": "Geryon",
    "type": "deity"
}
