{
    "_id": "rRuxBgC58PxrLzRv",
    "data": {
        "ability": [
            "str",
            "cha"
        ],
        "alignment": {
            "follower": [
                "LG",
                "NG",
                "LN",
                "N"
            ],
            "own": "LN"
        },
        "description": {
            "value": "<p><strong>Horus</strong> is the Osirian god of the sky, whose eyes are the sun and the moon, whose feathers are the stars, and whose wings are the sky. As Horakhty (meaning Horus of the Two Horizons), he is a deity of the rising and setting suns. Horus is said to be the legendary ruler of Osirion during the Age of Anguish, and is also a god of pharaohs.</p>\n<p><strong>Edicts</strong> Protect those you have authority over, maintain harmony in your community</p>\n<p><strong>Anathema</strong> Undermine a rightful ruler, serve a usurper</p>"
        },
        "domains": {
            "alternate": [],
            "primary": [
                "air",
                "moon",
                "protection",
                "sun"
            ]
        },
        "font": [
            "heal"
        ],
        "rules": [],
        "skill": "dip",
        "source": {
            "value": "Pathfinder Lost Omens: Gods & Magic"
        },
        "spells": {
            "1": "Compendium.pf2e.spells-srd.LvezN4a3kYf1OHMg",
            "3": "Compendium.pf2e.spells-srd.it4ZsAi6XgvGcodc",
            "4": "Compendium.pf2e.spells-srd.NzXpEzcZAjuDTZjK"
        },
        "weapons": [
            "khopesh"
        ]
    },
    "flags": {},
    "img": "systems/pf2e/icons/default-icons/deity.svg",
    "name": "Horus",
    "type": "deity"
}
