{
    "_id": "r5vooG7NfvA9prJK",
    "data": {
        "ability": [
            "str",
            "con"
        ],
        "alignment": {
            "follower": [
                "LG",
                "NG",
                "CG",
                "N"
            ],
            "own": "NG"
        },
        "description": {
            "value": "<p>Once a mortal farm boy from Taldor who had superhuman strength from youth, Kurgess's selfless sacrifice on the field of competition heralded his rise to godhood. Known as the Strong Man, Kurgess stands as both champion and shining example to those who seek athletic achievement and to give their all in competition, regardless of whether they are victorious or not.</p>\n<p><strong>Edicts</strong> compete to your full potential, claim victory or accept defeat with grace, seek always to better yourself, encourage others to strive toward their own potential for greatness</p>\n<p><strong>Anathema</strong> cheat at honorable contests, dishonor those who have lost or failed (including defeated or slain enemies), engage in reckless or needless destruction or bloodshed</p>\n<p><strong>Areas of Concern</strong> healthy competition, sport, and physical development</p>"
        },
        "domains": {
            "alternate": [],
            "primary": [
                "ambition",
                "might",
                "truth",
                "zeal"
            ]
        },
        "font": [
            "heal"
        ],
        "rules": [],
        "skill": "ath",
        "source": {
            "value": "Pathfinder Lost Omens: Gods & Magic"
        },
        "spells": {
            "1": "Compendium.pf2e.spells-srd.X9dkmh23lFwMjrYd",
            "2": "Compendium.pf2e.spells-srd.wzctak6BxOW8xvFV",
            "3": "Compendium.pf2e.spells-srd.o6YCGx4lycsYpww4"
        },
        "weapons": [
            "javelin"
        ]
    },
    "flags": {},
    "img": "systems/pf2e/icons/deity/Kurgess.webp",
    "name": "Kurgess",
    "type": "deity"
}
