{
    "_id": "aipkJQxP4GBsTaGq",
    "data": {
        "ability": [
            "con",
            "str"
        ],
        "alignment": {
            "follower": [
                "CE"
            ],
            "own": "CE"
        },
        "description": {
            "value": "<p>For those who revel in the corruption of the pure or who find themselves spurned and neglected by a world that despises their differences, Lamashtu offers respite among her grotesque brood. The Mother of Monsters readily accepts mortals into her fold and has made it her goal to twist mortal life toward her abhorrent ideals. Her intervention is widely known to inflict corruptions and terrible nightmares. Ostracized individuals who share her ideals will find this intervention a boon, while others treat similar events as horrible curses.</p>\n<p><strong>Edicts</strong> bring power to outcasts and the downtrodden, indoctrinate children in Lamashtu's teachings, make the beautiful monstrous, reveal the corruption and flaws in all things</p>\n<p><strong>Anathema</strong> attempt to treat a mental illness or deformity, provide succor to Lamashtu's enemies</p>\n<p><strong>Areas of Concern</strong> aberrance, monsters, and nightmares</p>"
        },
        "domains": {
            "alternate": [
                "change"
            ],
            "primary": [
                "family",
                "might",
                "nightmares",
                "trickery"
            ]
        },
        "font": [
            "harm",
            "heal"
        ],
        "rules": [],
        "skill": "sur",
        "source": {
            "value": "Pathfinder Core Rulebook"
        },
        "spells": {
            "1": "Compendium.pf2e.spells-srd.EE7Q5BHIrfWNCPtT",
            "2": "Compendium.pf2e.spells-srd.wp09USMB3GIW1qbp",
            "4": "Compendium.pf2e.spells-srd.Uqj344bezBq3ESdq"
        },
        "weapons": [
            "falchion"
        ]
    },
    "flags": {},
    "img": "systems/pf2e/icons/deity/Lamashtu.webp",
    "name": "Lamashtu",
    "type": "deity"
}
