{
    "_id": "pm8H2DbtrHM01KNV",
    "data": {
        "ability": [
            "con",
            "cha"
        ],
        "alignment": {
            "follower": [
                "NG",
                "N",
                "NE"
            ],
            "own": "N"
        },
        "description": {
            "value": "<p><strong>Edicts</strong> Comfort and encourage lovers, help the suffering escape their circumstances in life or in death</p>\n<p><strong>Anathema</strong> Dismiss or mock a creature's grief, separate lovers, torture a creature</p>"
        },
        "domains": {
            "alternate": [],
            "primary": [
                "death",
                "passion",
                "sorrow",
                "water"
            ]
        },
        "font": [
            "harm"
        ],
        "rules": [],
        "skill": "dip",
        "source": {
            "value": "Pathfinder Lost Omens: Gods & Magic"
        },
        "spells": {
            "1": "Compendium.pf2e.spells-srd.szIyEsvihc5e1w8n",
            "5": "Compendium.pf2e.spells-srd.scTRIrTfXquVYHGw"
        },
        "weapons": [
            "dagger"
        ]
    },
    "flags": {},
    "img": "systems/pf2e/icons/default-icons/deity.svg",
    "name": "Naderi",
    "type": "deity"
}
