{
    "_id": "65o189p2eUPbqaDK",
    "data": {
        "ability": [
            "dex",
            "wis"
        ],
        "alignment": {
            "follower": [
                "CG",
                "CN"
            ],
            "own": "CN"
        },
        "description": {
            "value": "<p>Called the Crownless and the Maker of Kings, Narriseminek often appears as a protean with a scar around their pate, as if left by a burning crown. Their true form, though similar, is rarely seen: an iridescent and golden protean with a halo of burning eyes but empty eye sockets. The protean lord of ascendance, keketars, and revelations rarely interacts with non-proteans, but to their protean worshippers, they offer exalted transformations and revelations that can change a being's entire outlook. Worshippers of Narriseminek, both mortal and protean, spend their time divining the future and using magic to transform their bodies-a practice they also extend to any other willing creatures who ask. Their revelations take the form of patterns emerging in otherwise random events; Narriseminek's followers reject astrology and other forms of divination based on predictable cycles.</p>\n<p><strong>Edicts</strong> Divine the future, transform the bodies of willing creatures, rebel against organized structures</p>\n<p><strong>Anathema</strong> Refuse to speak to a keketar, eschew a challenge by turning down a promotion or an advancement</p>\n<p><strong>Areas of Concern</strong> ascendance, keketars, and revelations</p>"
        },
        "domains": {
            "alternate": [],
            "primary": [
                "delirium",
                "freedom",
                "knowledge",
                "perfection"
            ]
        },
        "font": [
            "harm",
            "heal"
        ],
        "rules": [],
        "skill": "occ",
        "source": {
            "value": "Pathfinder Lost Omens: Gods & Magic"
        },
        "spells": {
            "1": "Compendium.pf2e.spells-srd.D442XMADp01qJ7Cs",
            "4": "Compendium.pf2e.spells-srd.LiGbewa9pO0yjbsY",
            "5": "Compendium.pf2e.spells-srd.OAt2ZEns1gIOCgrn"
        },
        "weapons": [
            "hatchet"
        ]
    },
    "flags": {},
    "img": "systems/pf2e/icons/default-icons/deity.svg",
    "name": "Narriseminek",
    "type": "deity"
}
