{
    "_id": "b7H379HnCOv9UZtd",
    "data": {
        "ability": [],
        "alignment": {
            "follower": [
                "NE",
                "CE"
            ],
            "own": "CE"
        },
        "description": {
            "value": "<p>It is little wonder the demon lord of necromancy's cult finds a home in my realm, and no doubt Orcus believes I owe him homage for the wizardry mastered through my own genius. Yet while his followers are capable, their numbers are few and their rosters filled with self-absorbed spellcasters who sought out undeath. Urgathoa retains her deserved primacy, especially within my lands. Don't confuse Orcus's apparent absence with impotence. No, while Kabriri gnaws, Zura revels, and Urgathoa indulges, Orcus plots. He meticulously builds his strength on other worlds and planes, waiting for an auspicious opportunity to claim supremacy over all undead. Let him scheme. I have only one rival of note and care little for having a second.</p>\n<p><strong>Edicts</strong> Become undead through choice and skill, master necromantic magic, create undead</p>\n<p><strong>Anathema</strong> Become a vampire or accidental undead, give succor to faiths that seek to destroy undead</p>"
        },
        "domains": {
            "alternate": [],
            "primary": [
                "magic",
                "might",
                "undeath",
                "zeal"
            ]
        },
        "font": [
            "harm"
        ],
        "rules": [],
        "skill": "arc",
        "source": {
            "value": "Pathfinder Book of the Dead"
        },
        "spells": {
            "1": "Compendium.pf2e.spells-srd.k34hDOfIIMAxNL4a",
            "2": "Compendium.pf2e.spells-srd.Ru9v8U9IRk3LtWx8",
            "9": "Compendium.pf2e.spells-srd.m3lcOFm400lQCUps"
        },
        "weapons": [
            "mace"
        ]
    },
    "flags": {},
    "img": "systems/pf2e/icons/default-icons/deity.svg",
    "name": "Orcus",
    "type": "deity"
}
