{
    "_id": "IZcdF1G8ZsnMotaM",
    "data": {
        "ability": [
            "dex",
            "cha"
        ],
        "alignment": {
            "follower": [
                "CE"
            ],
            "own": "CE"
        },
        "description": {
            "value": "<p>Pazuzu, King of the Wind Demons, is the demon lord of the sky, temptation, and winged creatures. He counts himself among the most ancient of demon lords, though his constant warring with @Compendium[pf2e.deities.Lamashtu]{Lamashtu} has hindered his accumulation of power to the point of denying him godhood. He is exceptionally active in meddling in mortal affairs and takes great pleasure in possessing and corrupting good-hearted folk who invoke his name. Pazuzu appears as a humanoid figure with eagle's talons, two pairs of bird wings, a scorpion tail, and an avian demonic head. He is worshipped by harpies, other evil winged creatures, and by countless champions and clerics who fell from grace at his temptations.</p>\n<p><strong>Edicts</strong> Tempt others to immoral acts, revel in flight, possess or magically influence others to cause calamities</p>\n<p><strong>Anathema</strong> Deny a flying creature the ability to ﬂy, abuse Pazuzu's name or call on Pazuzu for help, aid worshippers of Lamashtu</p>\n<p><strong>Areas of Concern</strong> the sky, temptation, and winged creatures</p>"
        },
        "domains": {
            "alternate": [],
            "primary": [
                "air",
                "swarm",
                "trickery",
                "tyranny"
            ]
        },
        "font": [
            "harm"
        ],
        "rules": [],
        "skill": "dip",
        "source": {
            "value": "Pathfinder Lost Omens: Gods & Magic"
        },
        "spells": {
            "1": "Compendium.pf2e.spells-srd.g8QqHpv2CWDwmIm1",
            "4": "Compendium.pf2e.spells-srd.A2JfEKe6BZcTG1S8"
        },
        "weapons": [
            "longsword"
        ]
    },
    "flags": {},
    "img": "systems/pf2e/icons/default-icons/deity.svg",
    "name": "Pazuzu",
    "type": "deity"
}
