{
    "_id": "1NxkZf6ndijKeufX",
    "data": {
        "ability": [
            "con",
            "cha"
        ],
        "alignment": {
            "follower": [
                "LG",
                "NG",
                "CG",
                "N"
            ],
            "own": "NG"
        },
        "description": {
            "value": "<p>Sairazul, the Crystalline Queen, is the elemental lord of caves, earth, and gems. Planar scholars who know of the benevolent lord of earth speak of Sairazul as a mother and creator who gave birth to numerous races of outsiders, including agrawghs and xiomorns. She is currently imprisoned within the Moaning Diamond, a pure gemstone encircled by eternally crying winds, unable to contact the outside world. Several of her consorts still live to this day, searching the planes for her prison in the hopes that her release will usher in an era of renewed creation across the Plane of Earth. Though the Crystalline Queen can't grant power of any kind to her followers, a handful of her children on the Plane of Earth remain faithful to their creator, and she is remembered with great reverence by Material Plane cultists who exalt creation and reproduction.</p>\n<p><strong>Edicts</strong> Shelter others within stone and earth, care for Sairazul\"s children, aid childbirths, mine responsibly</p>\n<p><strong>Anathema</strong> Damage subterranean natural wonders, collapse an earthen structure on a creature</p>\n<p><strong>Areas of Concern</strong> caves, earth, and gems</p>"
        },
        "domains": {
            "alternate": [],
            "primary": [
                "earth",
                "family",
                "toil",
                "wealth"
            ]
        },
        "font": [
            "heal"
        ],
        "rules": [],
        "skill": "nat",
        "source": {
            "value": "Pathfinder Lost Omens: Gods & Magic"
        },
        "spells": {
            "1": "Compendium.pf2e.spells-srd.0uRpypf1Hi7ahvTl",
            "2": "Compendium.pf2e.spells-srd.aXoh6OQAL57lgh0a",
            "4": "Compendium.pf2e.spells-srd.2BV2yYPfVJ5zirZt"
        },
        "weapons": [
            "pick"
        ]
    },
    "flags": {},
    "img": "systems/pf2e/icons/default-icons/deity.svg",
    "name": "Sairazul",
    "type": "deity"
}
