{
    "_id": "BrbXGyzCeORNyJT5",
    "data": {
        "ability": [
            "wis",
            "cha"
        ],
        "alignment": {
            "follower": [
                "NE",
                "CE"
            ],
            "own": "CE"
        },
        "description": {
            "value": "<p><strong>Edicts</strong> Spread doubt among the faithful, ruin the reputation of religions, provoke wrongdoers to suicide instead of allowing for redemption</p>\n<p><strong>Anathema</strong> Spread hope, offer forgiveness, sincerely honor or call upon another god</p>"
        },
        "domains": {
            "alternate": [],
            "primary": [
                "nightmares",
                "pain",
                "sorrow",
                "trickery"
            ]
        },
        "font": [
            "harm"
        ],
        "rules": [],
        "skill": "dec",
        "source": {
            "value": "Pathfinder Lost Omens: Gods & Magic"
        },
        "spells": {
            "1": "Compendium.pf2e.spells-srd.6ZIKB0151LUR19Rw",
            "5": "Compendium.pf2e.spells-srd.GP3wewkQXEPrLxYj"
        },
        "weapons": [
            "war-razor"
        ]
    },
    "flags": {},
    "img": "systems/pf2e/icons/default-icons/deity.svg",
    "name": "Sifkesh",
    "type": "deity"
}
