{
    "_id": "LLMTMgARSTlO7S9U",
    "data": {
        "ability": [
            "dex",
            "con"
        ],
        "alignment": {
            "follower": [
                "NE",
                "CE"
            ],
            "own": "NE"
        },
        "description": {
            "value": "<p><strong>Edicts</strong> Set pointless traps, spread nihilism, encourage deadly accidents</p>\n<p><strong>Anathema</strong> Spread hope, provide aid to Pharasmins</p>"
        },
        "domains": {
            "alternate": [],
            "primary": [
                "death",
                "sorrow",
                "soul",
                "undeath"
            ]
        },
        "font": [
            "harm"
        ],
        "rules": [],
        "skill": "thi",
        "source": {
            "value": "Pathfinder Lost Omens: Gods & Magic"
        },
        "spells": {
            "1": "Compendium.pf2e.spells-srd.6ZIKB0151LUR19Rw",
            "2": "Compendium.pf2e.spells-srd.1xbFBQDRs0hT5xZ9",
            "6": "Compendium.pf2e.spells-srd.0XP2XOxT9VSiXFDr"
        },
        "weapons": [
            "pick"
        ]
    },
    "flags": {},
    "img": "systems/pf2e/icons/deity/Zyphus.webp",
    "name": "Zyphus",
    "type": "deity"
}
