{
    "_id": "wCPGej4ZwdKCNtym",
    "content": "<p><strong>Deities</strong> @Compendium[pf2e.deities.Alseta]{Alseta}, @Compendium[pf2e.deities.Belial]{Belial}, @Compendium[pf2e.deities.Cyth-V'sug]{Cyth-V'sug}, @Compendium[pf2e.deities.Dagon]{Dagon}, @Compendium[pf2e.deities.Daikitsu]{Daikitsu}, @Compendium[pf2e.deities.Grandmother Spider]{Grandmother Spider}, @Compendium[pf2e.deities.Irori]{Irori}, @Compendium[pf2e.deities.Korada]{Korada}, @Compendium[pf2e.deities.Lamashtu]{Lamashtu}, @Compendium[pf2e.deities.Lymnieris]{Lymnieris}, @Compendium[pf2e.deities.Milani]{Milani}, @Compendium[pf2e.deities.Mother Vulture]{Mother Vulture}, @Compendium[pf2e.deities.Narakaas]{Narakaas}, @Compendium[pf2e.deities.Nocticula]{Nocticula}, @Compendium[pf2e.deities.Osiris]{Osiris}, @Compendium[pf2e.deities.Saloc]{Saloc}, @Compendium[pf2e.deities.The Lantern King]{The Lantern King}, @Compendium[pf2e.deities.Tlehar]{Tlehar}, @Compendium[pf2e.deities.Tsukiyo]{Tsukiyo}, @Compendium[pf2e.deities.Xhamen-Dor]{Xhamen-Dor}, @Compendium[pf2e.deities.Ydajisk]{Ydajisk}</p>\n<p><strong>Domain Spell</strong> <em>@Compendium[pf2e.spells-srd.Adapt Self]{Adapt Self}</em>; <strong>Advanced Domain Spell</strong> <em>@Compendium[pf2e.spells-srd.Adaptive Ablation]{Adaptive Ablation}</em></p>\n<p>You can restructure the physical and metaphysical.</p>",
    "flags": {},
    "name": "Change Domain",
    "permission": {
        "default": 0
    }
}
