{
    "_id": "AaY3BmDItGry4oac",
    "content": "<p><strong>Deities</strong> @Compendium[pf2e.deities.Apollyon]{Apollyon}, @Compendium[pf2e.deities.Azathoth]{Azathoth}, @Compendium[pf2e.deities.Cyth-V'sug]{Cyth-V'sug}, @Compendium[pf2e.deities.Ghlaunder]{Ghlaunder}, @Compendium[pf2e.deities.Groetus]{Groetus}, @Compendium[pf2e.deities.Kerkamoth]{Kerkamoth}, @Compendium[pf2e.deities.Mother Vulture]{Mother Vulture}, @Compendium[pf2e.deities.Nhimbaloth]{Nhimbaloth}, @Compendium[pf2e.deities.Shyka]{Shyka}, @Compendium[pf2e.deities.The Green Mother]{The Green Mother}, @Compendium[pf2e.deities.Trelmarixian]{Trelmarixian}, @Compendium[pf2e.deities.Urgathoa]{Urgathoa}, @Compendium[pf2e.deities.Xhamen-Dor]{Xhamen-Dor}</p>\n<p><strong>Domain Spell</strong> <em>@Compendium[pf2e.spells-srd.Withering Grasp]{Withering Grasp}</em>; <strong>Advanced Domain Spell</strong> <em>@Compendium[pf2e.spells-srd.Fallow Field]{Fallow Field}</em></p>\n<p>You have the power to spoil and deteriorate matter.</p>",
    "flags": {},
    "name": "Decay Domain",
    "permission": {
        "default": 0
    }
}
