{
    "_id": "M7koZH0zimcMgRDb",
    "content": "<p><strong>Deities</strong> @Compendium[pf2e.deities.Abraxas]{Abraxas}, @Compendium[pf2e.deities.Ahriman]{Ahriman}, @Compendium[pf2e.deities.Angazhan]{Angazhan}, @Compendium[pf2e.deities.Ayrzul]{Ayrzul}, @Compendium[pf2e.deities.Azathoth]{Azathoth}, @Compendium[pf2e.deities.Besmara]{Besmara}, @Compendium[pf2e.deities.Dagon]{Dagon}, @Compendium[pf2e.deities.Dahak]{Dahak}, @Compendium[pf2e.deities.Dhalavei]{Dhalavei}, @Compendium[pf2e.deities.Diomazul]{Diomazul}, @Compendium[pf2e.deities.Eiseth]{Eiseth}, @Compendium[pf2e.deities.Fumeiyoshi]{Fumeiyoshi}, @Compendium[pf2e.deities.General Susumu]{General Susumu}, @Compendium[pf2e.deities.Gorum]{Gorum}, @Compendium[pf2e.deities.Groetus]{Groetus}, @Compendium[pf2e.deities.Hei Feng]{Hei Feng}, @Compendium[pf2e.deities.Hshurha]{Hshurha}, @Compendium[pf2e.deities.Imot]{Imot}, @Compendium[pf2e.deities.Kelizandri]{Kelizandri}, @Compendium[pf2e.deities.Kerkamoth]{Kerkamoth}, @Compendium[pf2e.deities.Kostchtchie]{Kostchtchie}, @Compendium[pf2e.deities.Lady Nanbyo]{Lady Nanbyo}, @Compendium[pf2e.deities.Milani]{Milani}, @Compendium[pf2e.deities.Moloch]{Moloch}, @Compendium[pf2e.deities.Nethys]{Nethys}, @Compendium[pf2e.deities.Nurgal]{Nurgal}, @Compendium[pf2e.deities.Ragadahn]{Ragadahn}, @Compendium[pf2e.deities.Ragathiel]{Ragathiel}, @Compendium[pf2e.deities.Rovagug]{Rovagug}, @Compendium[pf2e.deities.Sekhmet]{Sekhmet}, @Compendium[pf2e.deities.Szuriel]{Szuriel}, @Compendium[pf2e.deities.Treerazer]{Treerazer}, @Compendium[pf2e.deities.Ymeri]{Ymeri}, @Compendium[pf2e.deities.Zevgavizeb]{Zevgavizeb}, @Compendium[pf2e.deities.Zon-Kuthon]{Zon-Kuthon}</p>\n<p><strong>Domain Spell</strong> <em>@Compendium[pf2e.spells-srd.Cry of Destruction]{Cry of Destruction}</em>; <strong>Advanced Domain Spell</strong> <em>@Compendium[pf2e.spells-srd.Destructive Aura]{Destructive Aura}</em></p>\n<p>You are a conduit for divine devastation.</p>",
    "flags": {},
    "name": "Destruction Domain",
    "permission": {
        "default": 0
    }
}
