{
    "_id": "unN0otycQZanf3va",
    "content": "<p><strong>Deities</strong> @Compendium[pf2e.deities.Abadar]{Abadar}, @Compendium[pf2e.deities.Asmodeus]{Asmodeus}, @Compendium[pf2e.deities.Chohar]{Chohar}, @Compendium[pf2e.deities.Dammerich]{Dammerich}, @Compendium[pf2e.deities.Dispater]{Dispater}, @Compendium[pf2e.deities.Droskar]{Droskar}, @Compendium[pf2e.deities.Dwarven Pantheon]{Dwarven Pantheon}, @Compendium[pf2e.deities.Erastil]{Erastil}, @Compendium[pf2e.deities.Iomedae]{Iomedae}, @Compendium[pf2e.deities.Kols]{Kols}, @Compendium[pf2e.deities.Magrim]{Magrim}, @Compendium[pf2e.deities.Moloch]{Moloch}, @Compendium[pf2e.deities.Ragathiel]{Ragathiel}, @Compendium[pf2e.deities.Shizuru]{Shizuru}, @Compendium[pf2e.deities.Tanagaar]{Tanagaar}, @Compendium[pf2e.deities.The Godclaw]{The Godclaw}, @Compendium[pf2e.deities.Torag]{Torag}, @Compendium[pf2e.deities.Trudd]{Trudd}, @Compendium[pf2e.deities.Vildeis]{Vildeis}, @Compendium[pf2e.deities.Yaezhing]{Yaezhing}</p>\n<p><strong>Domain Spell</strong> <em>@Compendium[pf2e.spells-srd.Oathkeeper's Insignia]{Oathkeeper's Insignia}</em>; <strong>Advanced Domain Spell</strong> <em>@Compendium[pf2e.spells-srd.Dutiful Challenge]{Dutiful Challenge}</em></p>\n<p>You defend oaths and carry out your divine missions with great dedication.</p>",
    "flags": {},
    "name": "Duty Domain",
    "permission": {
        "default": 0
    }
}
