{
    "_id": "OsM8NfP408uB6yTi",
    "content": "<p><strong>Deities</strong> @Compendium[pf2e.deities.Abraxas]{Abraxas}, @Compendium[pf2e.deities.Apsu]{Apsu}, @Compendium[pf2e.deities.Ardad Lili]{Ardad Lili}, @Compendium[pf2e.deities.Dahak]{Dahak}, @Compendium[pf2e.deities.Geryon]{Geryon}, @Compendium[pf2e.deities.Nalinivati]{Nalinivati}, @Compendium[pf2e.deities.Ragadahn]{Ragadahn}, @Compendium[pf2e.deities.Sobek]{Sobek}, @Compendium[pf2e.deities.Zevgavizeb]{Zevgavizeb}</p>\n<p><strong>Domain Spell</strong> <em>@Compendium[pf2e.spells-srd.Draconic Barrage]{Draconic Barrage}</em>; <strong>Advanced Domain Spell</strong> <em>@Compendium[pf2e.spells-srd.Roar of the Wyrm]{Roar of the Wyrm}</em></p>\n<p>You draw on the power of dragons, linnorms, and other powerful reptilian creatures.</p>",
    "flags": {},
    "name": "Wyrmkin Domain",
    "permission": {
        "default": 0
    }
}
