{
    "_id": "UZDiqc5bBJzOTxUQ",
    "data": {
        "actionCategory": {
            "value": ""
        },
        "actionType": {
            "value": "passive"
        },
        "actions": {
            "value": null
        },
        "description": {
            "value": "<p>You have unlocked deeper secrets to uncovering and hoarding lore. You gain an advanced domain spell from one domain you selected with Seeker of Truths. Increase the number of Focus Points in your focus pool by 1.</p>\n<hr />\n<p><strong>Special</strong> You can take this feat up to three times, each time selecting a different advanced domain spell from a domain you selected with Seeker of Truths.</p>"
        },
        "featType": {
            "value": "archetype"
        },
        "level": {
            "value": 12
        },
        "location": "",
        "maxTakable": 3,
        "prerequisites": {
            "value": [
                {
                    "value": "Eldritch Researcher Dedication"
                },
                {
                    "value": "Seeker of Truths"
                }
            ]
        },
        "rules": [
            {
                "key": "ActiveEffectLike",
                "mode": "add",
                "path": "data.resources.focus.max",
                "value": 1
            }
        ],
        "source": {
            "value": "Pathfinder #164: Hands of the Devil"
        },
        "traits": {
            "custom": "",
            "rarity": "common",
            "value": [
                "archetype"
            ]
        }
    },
    "flags": {},
    "img": "systems/pf2e/icons/default-icons/feats.webp",
    "name": "Advanced Seeker of Truths",
    "type": "feat"
}
