{
    "_id": "OxvZSFGOjGfcSCv8",
    "data": {
        "actionCategory": {
            "value": ""
        },
        "actionType": {
            "value": "passive"
        },
        "actions": {
            "value": null
        },
        "description": {
            "value": "<p>You gain the resonant power of one embedded <em>aeon stone</em> as if it were placed in a wayfinder. While you can embed multiple <em>aeon stones</em> in your flesh, you can gain the resonance power from only one embedded stone at a time, selected each day when you make your daily preparations.</p>\n<hr />\n<p><strong>Special</strong> At 8th level, you can take this feat again. If you do, you gain the resonance powers of up to four invested <em>aeon stones</em> instead of only one.</p>"
        },
        "featType": {
            "value": "archetype"
        },
        "level": {
            "value": 4
        },
        "location": "",
        "prerequisites": {
            "value": [
                {
                    "value": "Embed Aeon Stone"
                }
            ]
        },
        "rules": [],
        "source": {
            "value": ""
        },
        "traits": {
            "custom": "",
            "rarity": "common",
            "value": [
                "archetype"
            ]
        }
    },
    "flags": {},
    "img": "systems/pf2e/icons/features/feats/feats.webp",
    "name": "Aeon Resonance",
    "type": "feat"
}
