{
    "_id": "Cy5W8U4yN9P1EvBy",
    "data": {
        "actionCategory": {
            "value": ""
        },
        "actionType": {
            "value": "passive"
        },
        "actions": {
            "value": null
        },
        "description": {
            "value": "<p>Your healing energies empower attacks.</p>\n<p>An ally that recovers Hit Points from your <em>@Compendium[pf2e.spells-srd.Lay on Hands]{Lay on Hands}</em> gains a +1 status bonus to their attack rolls and deals 1 additional good damage on all their Strikes until the end of their next turn.</p>\n<p>@Compendium[pf2e.spell-effects.Spell Effect: Amplifying Touch]{Spell Effect: Amplifying Touch}</p>"
        },
        "featType": {
            "value": "class"
        },
        "level": {
            "value": 12
        },
        "location": "",
        "prerequisites": {
            "value": [
                {
                    "value": "devotion spell (lay on hands)"
                }
            ]
        },
        "rules": [],
        "source": {
            "value": "Pathfinder Advanced Player's Guide"
        },
        "traits": {
            "custom": "",
            "rarity": "common",
            "value": [
                "champion"
            ]
        }
    },
    "flags": {},
    "img": "systems/pf2e/icons/features/feats/feats.webp",
    "name": "Amplifying Touch",
    "type": "feat"
}
