{
    "_id": "3poGYUYCBTmbeCUs",
    "data": {
        "actionCategory": {
            "value": ""
        },
        "actionType": {
            "value": "passive"
        },
        "actions": {
            "value": null
        },
        "description": {
            "value": "<p>All your @Compendium[pf2e.actionspf2e.Strike]{Strikes }against a creature you have @Compendium[pf2e.actionspf2e.Mark for Death]{Marked for Death} have the death trait, causing the mark to be instantly killed when reduced to 0 Hit Points.</p>\n<p>When killed in this way, attempts to communicate with it, return it to life, turn it into an undead, or otherwise disturb its afterlife fail unless the effect's counteract level is higher than half your level when you killed the creature (rounded up), or originates from an artifact or a deity.</p>"
        },
        "featType": {
            "value": "archetype"
        },
        "level": {
            "value": 10
        },
        "prerequisites": {
            "value": [
                {
                    "value": "Assassin Dedication"
                }
            ]
        },
        "rules": [],
        "source": {
            "value": "Pathfinder Advanced Player's Guide"
        },
        "traits": {
            "custom": "",
            "rarity": "common",
            "value": [
                "archetype"
            ]
        }
    },
    "flags": {},
    "img": "systems/pf2e/icons/features/feats/feats.webp",
    "name": "Angel Of Death",
    "type": "feat"
}
