{
    "_id": "Dq4JSejEdCzGNeTc",
    "data": {
        "actionCategory": {
            "value": ""
        },
        "actionType": {
            "value": "passive"
        },
        "actions": {
            "value": null
        },
        "description": {
            "value": "<p><strong>Access</strong> Varisian ethnicity or New Thassilon nationality</p>\n<hr />\n<p>You have tattoos on your body corresponding to one of the ancient Thassilonian schools of magic. Choose one of the following schools of magic: abjuration (<em>@Compendium[pf2e.spells-srd.Shield]{Shield}</em>), conjuration (<em>@Compendium[pf2e.spells-srd.Tanglefoot]{Tanglefoot}</em>), enchantment (<em>@Compendium[pf2e.spells-srd.Daze]{Daze}</em>), evocation (<em>@Compendium[pf2e.spells-srd.Electric Arc]{Electric Arc}</em>), illusion (<em>@Compendium[pf2e.spells-srd.Ghost Sound]{Ghost Sound}</em>), necromancy (<em>@Compendium[pf2e.spells-srd.Chill Touch]{Chill Touch}</em>), or transmutation (<em>@Compendium[pf2e.spells-srd.Sigil]{Sigil}</em>). You can cast the associated cantrip (listed in parentheses) as an innate arcane spell at will.</p>"
        },
        "featType": {
            "value": "ancestry"
        },
        "level": {
            "value": 1
        },
        "prerequisites": {
            "value": []
        },
        "rules": [],
        "source": {
            "value": "Pathfinder Lost Omens: Character Guide"
        },
        "traits": {
            "custom": "",
            "rarity": "uncommon",
            "value": [
                "human"
            ]
        }
    },
    "flags": {},
    "img": "systems/pf2e/icons/features/feats/feats.webp",
    "name": "Arcane Tattoos",
    "type": "feat"
}
