{
    "_id": "6iOLxitjqHujH1Tj",
    "data": {
        "actionCategory": {
            "value": ""
        },
        "actionType": {
            "value": "action"
        },
        "actions": {
            "value": 3
        },
        "description": {
            "value": "<p><strong>Frequency</strong> once per day</p>\n<hr />\n<p>You modify an arrow or bolt to bring death to your target in a single potent hit. Make a bow Strike. On a hit, you deal an additional [[/r 10d10]] precision damage. On a critical hit, the target must also succeed at a Fortitude saving throw against your class DC or spell DC, whichever is higher, or be immediately slain; this save has the death and incapacitation traits.</p>"
        },
        "featType": {
            "value": "archetype"
        },
        "level": {
            "value": 18
        },
        "prerequisites": {
            "value": [
                {
                    "value": "Eldritch Archer Dedication"
                }
            ]
        },
        "rules": [],
        "source": {
            "value": "Pathfinder Advanced Player's Guide"
        },
        "traits": {
            "custom": "",
            "rarity": "common",
            "value": [
                "archetype",
                "magical",
                "necromancy"
            ]
        }
    },
    "flags": {},
    "img": "systems/pf2e/icons/features/feats/feats.webp",
    "name": "Arrow of Death",
    "type": "feat"
}
