{
    "_id": "Y5ompgSd1JGSHt0C",
    "data": {
        "actionCategory": {
            "value": ""
        },
        "actionType": {
            "value": "action"
        },
        "actions": {
            "value": 1
        },
        "description": {
            "value": "<p>You open vestigial eyes, unfurl tympanic flaps of skin, or otherwise enhance your senses. Until the start of your next turn, you gain the following benefits: you can't be flanked; when you Seek for creatures, you can scan a @Template[type:cone|distance:60] or a @Template[type:burst|distance:30] instead of the normal area; and when you Seek for hidden objects, you can search a 15-foot square instead of the normal area.</p>\n<p>@Compendium[pf2e.feat-effects.Effect: Augment Senses]{Effect: Augment Senses}</p>"
        },
        "featType": {
            "value": "ancestry"
        },
        "level": {
            "value": 13
        },
        "location": null,
        "prerequisites": {
            "value": []
        },
        "rules": [],
        "source": {
            "value": "Pathfinder Lost Omens: Ancestry Guide"
        },
        "traits": {
            "custom": "",
            "rarity": "common",
            "value": [
                "fleshwarp"
            ]
        }
    },
    "flags": {},
    "img": "systems/pf2e/icons/features/feats/feats.webp",
    "name": "Augment Senses",
    "type": "feat"
}
