{
    "_id": "gKDRnsBPBdhJB0FI",
    "data": {
        "actionCategory": {
            "value": ""
        },
        "actionType": {
            "value": "reaction"
        },
        "actions": {
            "value": null
        },
        "description": {
            "value": "<p><strong>Frequency</strong> once per day</p>\n<p><strong>Access</strong> mountain dwarf ethnicity</p>\n<p><strong>Trigger</strong> An ally within 30 feet gains the @Compendium[pf2e.conditionitems.Dying]{Dying} condition.</p>\n<hr />\n<p>You honor your ally's life, gaining temporary Hit Points equal to your level for 1 minute. As long as you have these temporary Hit Points, you gain a +1 circumstance bonus to attack and damage rolls.</p>\n<p>@Compendium[pf2e.feat-effects.Effect: Avenge in Glory]{Effect: Avenge in Glory}</p>"
        },
        "featType": {
            "value": "ancestry"
        },
        "level": {
            "value": 1
        },
        "location": "",
        "prerequisites": {
            "value": []
        },
        "rules": [],
        "source": {
            "value": "Pathfinder Lost Omens: Character Guide"
        },
        "traits": {
            "custom": "",
            "rarity": "uncommon",
            "value": [
                "dwarf"
            ]
        }
    },
    "flags": {},
    "img": "systems/pf2e/icons/features/feats/feats.webp",
    "name": "Avenge in Glory",
    "type": "feat"
}
