{
    "_id": "LTcpBbnngfuYTdB0",
    "data": {
        "actionCategory": {
            "value": ""
        },
        "actionType": {
            "value": "action"
        },
        "actions": {
            "value": 1
        },
        "description": {
            "value": "<p><strong>Frequency</strong> once every 10 minutes</p>\n<p><strong>Requirements</strong> You are adjacent to an ally with the @Compendium[pf2e.conditionitems.Dying]{Dying}</p>\n<p>condition.</p>\n<hr />\n<p>Though you know that you will eventually outlive your companions, seeing them at death's door brings clarity to your attacks. Make a Strike. Roll twice on the attack roll and use the higher result.</p>"
        },
        "featType": {
            "value": "ancestry"
        },
        "level": {
            "value": 13
        },
        "prerequisites": {
            "value": []
        },
        "rules": [],
        "source": {
            "value": "Pathfinder Advanced Player's Guide"
        },
        "traits": {
            "custom": "",
            "rarity": "common",
            "value": [
                "elf",
                "fortune"
            ]
        }
    },
    "flags": {},
    "img": "systems/pf2e/icons/features/feats/feats.webp",
    "name": "Avenge Ally",
    "type": "feat"
}
