{
    "_id": "xjwI1DlJvb7Rg6TG",
    "data": {
        "actionCategory": {
            "value": ""
        },
        "actionType": {
            "value": "passive"
        },
        "actions": {
            "value": null
        },
        "description": {
            "value": "<p>You have learned the history and origins of your people and how to connect to both your land and sea heritage.</p>\n<p>You become trained in Athletics and Nature. If you would automatically become trained in one of those skills (from your background or class, for example), you instead become trained in a skill of your choice. You also become trained in Azarketi Lore.</p>\n<hr />\n<p><em>Note: If you are already trained in the skill provided by this feat, you need to manually select an alternative skill. You also need to manually enter the granted Lore skill.</em></p>"
        },
        "featType": {
            "value": "ancestry"
        },
        "level": {
            "value": 1
        },
        "location": "",
        "prerequisites": {
            "value": []
        },
        "rules": [
            {
                "key": "ActiveEffectLike",
                "mode": "upgrade",
                "path": "data.skills.ath.rank",
                "value": 1
            },
            {
                "key": "ActiveEffectLike",
                "mode": "upgrade",
                "path": "data.skills.nat.rank",
                "value": 1
            }
        ],
        "source": {
            "value": "Pathfinder Lost Omens: Absalom, City of Lost Omens"
        },
        "traits": {
            "custom": "",
            "rarity": "common",
            "value": [
                "azarketi"
            ]
        }
    },
    "flags": {},
    "img": "systems/pf2e/icons/default-icons/feats.webp",
    "name": "Azarketi Lore",
    "type": "feat"
}
