{
    "_id": "NdgMxlz5I1ddT0Zi",
    "data": {
        "actionCategory": {
            "value": ""
        },
        "actionType": {
            "value": "passive"
        },
        "actions": {
            "value": null
        },
        "description": {
            "value": "<p>You gain a 1st- or 2nd-level oracle feat of your choice.</p>"
        },
        "featType": {
            "value": "archetype"
        },
        "level": {
            "value": 4
        },
        "location": "",
        "prerequisites": {
            "value": [
                {
                    "value": "Oracle Dedication"
                }
            ]
        },
        "rules": [
            {
                "adjustName": false,
                "allowedDrops": {
                    "all": [
                        "item:type:feat",
                        "item:trait:oracle"
                    ],
                    "label": "PF2E.SpecificRule.Prompt.LevelOneOrTwoClassFeat"
                },
                "choices": {
                    "query": "{\"data.level.value\":{\"$lte\":2},\"data.traits.value\":{\"$elemMatch\":\"oracle\"}}"
                },
                "key": "ChoiceSet",
                "prompt": "PF2E.SpecificRule.Prompt.LevelOneOrTwoClassFeat"
            },
            {
                "key": "GrantItem",
                "uuid": "{item|flags.pf2e.rulesSelections.basicMysteries}"
            }
        ],
        "source": {
            "value": "Pathfinder Advanced Player's Guide"
        },
        "traits": {
            "custom": "",
            "rarity": "common",
            "value": [
                "archetype"
            ]
        }
    },
    "flags": {},
    "img": "systems/pf2e/icons/features/feats/feats.webp",
    "name": "Basic Mysteries",
    "type": "feat"
}
