{
    "_id": "VsGdiAuVbYmDTR82",
    "data": {
        "actionCategory": {
            "value": "offensive"
        },
        "actionType": {
            "value": "action"
        },
        "actions": {
            "value": 2
        },
        "description": {
            "value": "<p><strong>Requirements</strong> You're in Powder Punch Stance.</p>\n<hr />\n<p>You ignite a pinch of black powder in a foe's face. Choose an adjacent creature. It must attempt a @Check[type:fortitude|dc:resolve(@actor.attributes.classDC.value)] save against your class DC.</p>\n<hr />\n<p><strong>Critical Success</strong> The creature is unaffected.</p>\n<p><strong>Success</strong> The creature is @Compendium[pf2e.conditionitems.Dazzled]{Dazzled} for 1 round.</p>\n<p><strong>Failure</strong> The creature is @Compendium[pf2e.conditionitems.Blinded]{Blinded} for 1 round and dazzled for 1 minute. The creature can rub its eyes as an Interact action to end this blinded condition.</p>\n<p><strong>Critical Failure</strong> The creature is blinded for 1 round and dazzled for 1 hour.</p>"
        },
        "featType": {
            "value": "archetype"
        },
        "level": {
            "value": 10
        },
        "location": null,
        "prerequisites": {
            "value": [
                {
                    "value": "Powder Punch Stance"
                }
            ]
        },
        "rules": [],
        "source": {
            "value": "Pathfinder #178: Punks in a Powder Keg"
        },
        "traits": {
            "custom": "",
            "rarity": "common",
            "value": [
                "archetype",
                "visual"
            ]
        }
    },
    "flags": {},
    "img": "systems/pf2e/icons/default-icons/feats.webp",
    "name": "Black Powder Flash",
    "type": "feat"
}
