{
    "_id": "XYaaj872JOO9CAws",
    "data": {
        "actionCategory": {
            "value": ""
        },
        "actionType": {
            "value": "action"
        },
        "actions": {
            "value": 2
        },
        "description": {
            "value": "<p><strong>Requirements</strong> You are in @Compendium[pf2e.feats-srd.Rain of Embers Stance]{Rain of Embers Stance}.</p>\n<hr />\n<p>You rush forward and latch onto your enemy with talons of hungering fire.</p>\n<p>Stride once. If you end your movement within reach of at least one enemy, you can make a fire talon Strike against that enemy that deals an additional [[/r {1d4}[persistent,fire]]] @Compendium[pf2e.conditionitems.Persistent Damage]{Persistent Fire Damage}. If it hits and deals damage, you can attempt an Athletics check to @Compendium[pf2e.actionspf2e.Grapple]{Grapple} the creature you hit.</p>"
        },
        "featType": {
            "value": "class"
        },
        "level": {
            "value": 6
        },
        "location": "",
        "prerequisites": {
            "value": [
                {
                    "value": "Rain of Embers Stance"
                }
            ]
        },
        "rules": [],
        "source": {
            "value": "Pathfinder Lost Omens: Pathfinder Society Guide"
        },
        "traits": {
            "custom": "",
            "rarity": "common",
            "value": [
                "fire",
                "flourish",
                "monk"
            ]
        }
    },
    "flags": {},
    "img": "systems/pf2e/icons/features/feats/feats.webp",
    "name": "Blazing Talon Surge",
    "type": "feat"
}
