{
    "_id": "U7dntZ2dAklzsqw8",
    "data": {
        "actionCategory": {
            "value": ""
        },
        "actionType": {
            "value": "passive"
        },
        "actions": {
            "value": null
        },
        "description": {
            "value": "<p>The Old Sun Gods share their power with you. Select the ambition, cities, darkness, dreams, family, fire, freedom, healing, moon, passion, or sun domain. You gain an initial domain spell for that domain. If you don't already have one, you gain a focus pool of 1 Focus Point, which you can regain using the Refocus activity to pray to the Old Sun Gods; if you already have a focus pool, increase the number of Focus Points in your focus pool by 1.</p>\n<p>Your Bright Lion focus spells are divine spells; you become trained in divine spell attacks and spell DCs, using Charisma as your spellcasting ability score.</p>\n<p><strong>Special</strong> You can select this feat multiple times, selecting a different domain each time and gaining its domain spell.</p>"
        },
        "featType": {
            "value": "archetype"
        },
        "level": {
            "value": 4
        },
        "location": "",
        "maxTakable": null,
        "prerequisites": {
            "value": [
                {
                    "value": "Bright Lion Dedication"
                }
            ]
        },
        "rules": [
            {
                "key": "ActiveEffectLike",
                "mode": "add",
                "path": "data.resources.focus.max",
                "value": 1
            }
        ],
        "source": {
            "value": "Pathfinder #172: Secrets of the Temple-City"
        },
        "traits": {
            "custom": "",
            "rarity": "common",
            "value": [
                "archetype"
            ]
        }
    },
    "flags": {},
    "img": "systems/pf2e/icons/features/feats/feats.webp",
    "name": "Blessing of the Sun Gods",
    "type": "feat"
}
