{
    "_id": "8cq6NO087Te3P9yw",
    "data": {
        "actionCategory": {
            "value": "offensive"
        },
        "actionType": {
            "value": "free"
        },
        "actions": {
            "value": null
        },
        "description": {
            "value": "<p><strong>Frequency</strong> once per day</p>\n<p><strong>Requirements</strong> You have cast @Compendium[pf2e.spells-srd.Animate Dead]{Animate Dead} this turn.</p>\n<hr />\n<p>You sway with the motions of your spells that animate the dead, channeling your power to sustain two at the same time. You Sustain your previous casting of animate dead, binding the necromantic energy of the two spells together with metaphysical twine. On subsequent rounds, you can Sustain both animate dead spells with a single action to Sustain the Spell. This benefit lasts until either of the spells ends.</p>"
        },
        "featType": {
            "value": "archetype"
        },
        "level": {
            "value": 8
        },
        "location": null,
        "prerequisites": {
            "value": [
                {
                    "value": "Reanimator Dedication"
                }
            ]
        },
        "rules": [],
        "source": {
            "value": "Pathfinder Book of the Dead"
        },
        "traits": {
            "custom": "",
            "rarity": "common",
            "value": [
                "archetype"
            ]
        }
    },
    "flags": {},
    "img": "systems/pf2e/icons/default-icons/feats.webp",
    "name": "Bonds of Death",
    "type": "feat"
}
