{
    "_id": "E4MS2wnRQJfyldrT",
    "data": {
        "actionCategory": {
            "value": ""
        },
        "actionType": {
            "value": "passive"
        },
        "actions": {
            "value": null
        },
        "description": {
            "value": "<p><strong>Frequency</strong> once per day</p>\n<hr />\n<p>You scatter your body and transform into a whirling storm of bones for up to 1 minute or until you spend a single action to return to your normal shape. You become Huge, gain the swarm trait, and gain a fly Speed of 40 feet. As a swarm, you have the following characteristics.</p>\n<ul>\n<li>You are immune to the @Compendium[pf2e.conditionitems.Grabbed]{Grabbed}, @Compendium[pf2e.conditionitems.Prone]{Prone}, and @Compendium[pf2e.conditionitems.Restrained]{Restrained} conditions.</li>\n<li>You have weakness 5 to area and splash damage.</li>\n<li>You can occupy the same space as other creatures and must do so to use your damaging ability.</li>\n<li>As a 2-action activity, you can deal [[/r {10d6}[bludgeoning]]]{10d6 bludgeoning damage} to all creatures sharing your space (@Check[type:reflex|dc:resolve(@actor.attributes.classOrSpellDC)|basic:true] save with a DC equal to your class DC or spell DC, whichever is higher).</li>\n<li>You can't speak, Cast Spells, use manipulate actions requiring your hands, Activate magic items, or make any Strikes with your normal body.</li>\n<li>You don't gain the swarm mind ability, so you are still affected normally by mental effects. You also retain the benefits of skeleton feats that don't require communication or the use of hands.</li>\n</ul>\n<p>@Compendium[pf2e.feat-effects.Effect: Bone Swarm]{Effect: Bone Swarm}</p>"
        },
        "featType": {
            "value": "ancestry"
        },
        "level": {
            "value": 17
        },
        "location": null,
        "prerequisites": {
            "value": []
        },
        "rules": [],
        "source": {
            "value": "Pathfinder Book of the Dead"
        },
        "traits": {
            "custom": "",
            "rarity": "common",
            "value": [
                "concentrate",
                "polymorph",
                "skeleton",
                "transmutation"
            ]
        }
    },
    "flags": {},
    "img": "systems/pf2e/icons/default-icons/feats.webp",
    "name": "Bone Swarm",
    "type": "feat"
}
