{
    "_id": "tKaesXO5nlZ2sspx",
    "data": {
        "actionCategory": {
            "value": ""
        },
        "actionType": {
            "value": "passive"
        },
        "actions": {
            "value": null
        },
        "description": {
            "value": "<p>When focused on finding your quarry, you're relentless. You gain the @Compendium[pf2e.actionspf2e.Hunt Prey]{Hunt Prey} action. You can use Hunt Prey to designate only a creature that you've seen, heard about, or learned about through some other means, such as a bounty board or wanted poster. In addition to the other benefits of Hunt Prey, you gain a +2 circumstance bonus to checks to @Compendium[pf2e.actionspf2e.Gather Information]{Gather Information} regarding your prey.</p>\n<p>If you already have Hunt Prey, you become an expert in Survival and gain the circumstance bonus to Gather Information about your prey; you can still designate a creature you're tracking during exploration, in addition to the conditions above.</p>\n<p><strong>Special</strong> You can't select another dedication feat until you have gained two other feats from the bounty hunter archetype.</p>"
        },
        "featType": {
            "value": "archetype"
        },
        "level": {
            "value": 2
        },
        "location": "",
        "prerequisites": {
            "value": [
                {
                    "value": "trained in Survival"
                }
            ]
        },
        "rules": [
            {
                "allowDuplicate": false,
                "key": "GrantItem",
                "uuid": "Compendium.pf2e.actionspf2e.Hunt Prey"
            },
            {
                "count": true,
                "domain": "all",
                "key": "RollOption",
                "option": "grants-hunt-prey",
                "priority": 99
            },
            {
                "key": "FlatModifier",
                "label": "PF2E.SpecificRule.BountyHunterDedication.GatherInfoHuntedPrey",
                "predicate": {
                    "all": [
                        "action:gather-information",
                        "hunted-prey"
                    ]
                },
                "selector": "diplomacy",
                "type": "circumstance",
                "value": 2
            },
            {
                "key": "ActiveEffectLike",
                "mode": "upgrade",
                "path": "data.skills.sur.rank",
                "predicate": {
                    "all": [
                        {
                            "gt": [
                                "grants-hunt-prey",
                                1
                            ]
                        }
                    ]
                },
                "value": 2
            }
        ],
        "source": {
            "value": "Pathfinder Advanced Player's Guide"
        },
        "traits": {
            "custom": "",
            "rarity": "common",
            "value": [
                "archetype",
                "dedication"
            ]
        }
    },
    "flags": {},
    "img": "systems/pf2e/icons/features/feats/feats.webp",
    "name": "Bounty Hunter Dedication",
    "type": "feat"
}
