{
    "_id": "Fpsd8Y8qJ3Tdbiyz",
    "data": {
        "actionCategory": {
            "value": "offensive"
        },
        "actionType": {
            "value": "free"
        },
        "actions": {
            "value": null
        },
        "description": {
            "value": "<p><strong>Trigger</strong> You Feast upon a humanoid's brain. The humanoid can't be mindless (or, if you're Feasting on a corpse, can't have been mindless while alive).</p>\n<hr />\n<p>You consume the brains of your foe, causing synapses long rotten to fire and enabling you to shake off your mental torpor. You gain a +1 status bonus on skill checks to Recall Knowledge for 1 hour. If the humanoid had a higher modifier to the skill check you're using to Recall Knowledge than you do, the status bonus increases to +2.</p>"
        },
        "featType": {
            "value": "archetype"
        },
        "level": {
            "value": 6
        },
        "location": null,
        "prerequisites": {
            "value": [
                {
                    "value": "Feast"
                }
            ]
        },
        "rules": [],
        "source": {
            "value": "Pathfinder Book of the Dead"
        },
        "traits": {
            "custom": "",
            "rarity": "common",
            "value": [
                "archetype"
            ]
        }
    },
    "flags": {},
    "img": "systems/pf2e/icons/default-icons/feats.webp",
    "name": "Brains!",
    "type": "feat"
}
