{
    "_id": "txo0xFYUfAjdmyjt",
    "data": {
        "actionCategory": {
            "value": ""
        },
        "actionType": {
            "value": "passive"
        },
        "actions": {
            "value": null
        },
        "description": {
            "value": "<p><strong>Access</strong> Defeat a member of the Butterfly Blades in a sanctioned bout.</p>\n<p>You become trained in Deception and Stealth; if you were already trained, you become an expert instead. Whenever your proficiency rank in any weapon increases to expert or beyond, you also gain that new proficiency rank with butterfly swords. You gain access to butterfly swords.</p>\n<p><strong>Special</strong> You cannot select another dedication feat until you have gained two other feats from this archetype.</p>"
        },
        "featType": {
            "value": "archetype"
        },
        "level": {
            "value": 4
        },
        "location": "",
        "prerequisites": {
            "value": [
                {
                    "value": "trained in butterfly swords"
                }
            ]
        },
        "rules": [],
        "source": {
            "value": "Pathfinder #166: Despair on Danger Island"
        },
        "traits": {
            "custom": "",
            "rarity": "uncommon",
            "value": [
                "archetype",
                "dedication"
            ]
        }
    },
    "flags": {},
    "img": "systems/pf2e/icons/default-icons/feats.webp",
    "name": "Butterfly Blade Dedication",
    "type": "feat"
}
