{
    "_id": "b7KZ7Fg5u5z2gqvt",
    "data": {
        "actionCategory": {
            "value": "offensive"
        },
        "actionType": {
            "value": "action"
        },
        "actions": {
            "value": 2
        },
        "description": {
            "value": "<p>You target a specific area of your foe's anatomy to debilitating effect. Declare a part of your foe's anatomy to target and make a ranged weapon Strike. If you hit and deal damage, the target takes one of the following effects, based on the body part you targeted. The GM should use the stated effects as a guideline when attacking creatures with stranger anatomy-for instance, applying the “arms” effect to a creature's tentacles if those are what the creature uses to attack.</p>\n<ul>\n<li><strong>Arms</strong> The target is @Compendium[pf2e.conditionitems.Enfeebled]{Enfeebled 2} until the end of your next turn. On a critical hit, it's also @Compendium[pf2e.conditionitems.Enfeebled]{Enfeebled 1} for 1 minute.</li>\n<li><strong>Head</strong> The target is @Compendium[pf2e.conditionitems.Stupefied]{Stupefied 2} until the end of your next turn. On a critical hit, it's also @Compendium[pf2e.conditionitems.Stupefied]{Stupefied 1} for 1 minute.</li>\n<li><strong>Legs</strong> The target takes a -10-foot status penalty to its Speeds until the end of your next turn. On a critical hit, it also takes a -5-foot penalty to its Speeds for 1 minute.</li>\n<li><strong>Wings</strong> If the target is flying using its wings, it immediately falls 20 feet, or 40 feet on a critical hit. The fall is gradual enough that if the target hits the ground, it takes no damage from the fall.</li>\n</ul>"
        },
        "featType": {
            "value": "class"
        },
        "level": {
            "value": 10
        },
        "location": "",
        "prerequisites": {
            "value": []
        },
        "rules": [],
        "source": {
            "value": ""
        },
        "traits": {
            "custom": "",
            "rarity": "common",
            "value": [
                "flourish",
                "gunslinger"
            ]
        }
    },
    "flags": {},
    "img": "systems/pf2e/icons/default-icons/feats.webp",
    "name": "Called Shot",
    "type": "feat"
}
