{
    "_id": "ACXWB7a38ETc32Qj",
    "data": {
        "actionCategory": {
            "value": ""
        },
        "actionType": {
            "value": "action"
        },
        "actions": {
            "value": 1
        },
        "description": {
            "value": "<p>You create a tune so catchy, your foes can't help but dance along. Attempt a Performance check against the Will DCs of all enemies in a @Template[type:emanation|distance:30].</p>\n<hr />\n<p><strong>Critical Success</strong> The target takes a -10-foot status penalty to its Speed and is @Compendium[pf2e.conditionitems.Flat-Footed]{Flat-Footed}, both for 1 round.</p>\n<p><strong>Success</strong> The target takes a -5-foot status penalty to its Speed for 1 round.</p>\n<p><strong>Critical Failure</strong> The target is temporarily immune for 1 hour.</p>"
        },
        "featType": {
            "value": "ancestry"
        },
        "level": {
            "value": 5
        },
        "location": "",
        "prerequisites": {
            "value": []
        },
        "rules": [],
        "source": {
            "value": "Pathfinder Lost Omens: Ancestry Guide"
        },
        "traits": {
            "custom": "",
            "rarity": "common",
            "value": [
                "auditory",
                "concentrate",
                "emotion",
                "mental",
                "sprite"
            ]
        }
    },
    "flags": {},
    "img": "systems/pf2e/icons/features/feats/feats.webp",
    "name": "Catchy Tune",
    "type": "feat"
}
