{
    "_id": "vtCrMziYxNyj8kP7",
    "data": {
        "actionCategory": {
            "value": ""
        },
        "actionType": {
            "value": "action"
        },
        "actions": {
            "value": 2
        },
        "description": {
            "value": "<p><strong>Frequency</strong> once per day</p>\n<hr />\n<p>With effort, you can call forth magical wings from your back, similar in appearance to those of your celestial forebears. These wings remain for 10 minutes. You gain a fly Speed equal to your Speed while you've manifested your wings.</p>\n<p>@Compendium[pf2e.feature-effects.Effect: Celestial Wings]{Effect: Celestial Wings}</p>"
        },
        "featType": {
            "value": "ancestry"
        },
        "level": {
            "value": 9
        },
        "location": "",
        "prerequisites": {
            "value": []
        },
        "rules": [],
        "source": {
            "value": "Pathfinder Advanced Player's Guide"
        },
        "traits": {
            "custom": "",
            "rarity": "common",
            "value": [
                "aasimar",
                "divine",
                "morph",
                "transmutation"
            ]
        }
    },
    "flags": {},
    "img": "systems/pf2e/icons/features/feats/feats.webp",
    "name": "Celestial Wings",
    "type": "feat"
}
