{
    "_id": "rzBC5bHAWWpjHMEw",
    "data": {
        "actionCategory": {
            "value": "defensive"
        },
        "actionType": {
            "value": "passive"
        },
        "actions": {
            "value": null
        },
        "description": {
            "value": "<p>Your exoskeleton arranges itself into an optimal defensive shape. When you use your @Compendium[pf2e.feats-srd.Ceremony of Protection]{Ceremony of Protection}, you also gain resistance to either bludgeoning, piercing, or slashing damage equal to half your level against the next Strike that hits you and deals one of those types of damage until the start of your next turn.</p>"
        },
        "featType": {
            "value": "ancestry"
        },
        "level": {
            "value": 9
        },
        "location": "",
        "prerequisites": {
            "value": [
                {
                    "value": "Ceremony of Protection"
                }
            ]
        },
        "rules": [],
        "source": {
            "value": "Pathfinder Lost Omens: The Mwangi Expanse"
        },
        "traits": {
            "custom": "",
            "rarity": "common",
            "value": [
                "conrasu"
            ]
        }
    },
    "flags": {},
    "img": "systems/pf2e/icons/default-icons/feats.webp",
    "name": "Ceremony of Fortification",
    "type": "feat"
}
