{
    "_id": "zOK6IFSz3DIBRjEw",
    "data": {
        "actionCategory": {
            "value": ""
        },
        "actionType": {
            "value": "passive"
        },
        "actions": {
            "value": null
        },
        "description": {
            "value": "<p>Your research has paid off, culminating in the legendary philosopher's stone. You learn the formula for the @Compendium[pf2e.equipment-srd.Philosopher's Stone]{Philosopher's Stone} and can add it to your formula book.</p>"
        },
        "featType": {
            "value": "class"
        },
        "level": {
            "value": 20
        },
        "location": "",
        "prerequisites": {
            "value": []
        },
        "rules": [],
        "source": {
            "value": "Pathfinder Core Rulebook"
        },
        "traits": {
            "custom": "",
            "rarity": "common",
            "value": [
                "alchemist"
            ]
        }
    },
    "flags": {},
    "img": "systems/pf2e/icons/features/feats/feats.webp",
    "name": "Craft Philosopher's Stone",
    "type": "feat"
}
