{
    "_id": "nLTTph2tgwcQghVq",
    "data": {
        "actionCategory": {
            "value": ""
        },
        "actionType": {
            "value": "passive"
        },
        "actions": {
            "value": null
        },
        "description": {
            "value": "<p>Your positive energy sets undead alight. When you use a <em>@Compendium[pf2e.spells-srd.Heal]{Heal}</em> spell to damage undead, each undead that takes damage also takes @Compendium[pf2e.conditionitems.Persistent Damage]{Persistent Fire Damage} equal to the spell's level.</p>"
        },
        "featType": {
            "value": "class"
        },
        "level": {
            "value": 8
        },
        "location": "",
        "prerequisites": {
            "value": []
        },
        "rules": [],
        "source": {
            "value": "Pathfinder Core Rulebook"
        },
        "traits": {
            "custom": "",
            "rarity": "common",
            "value": [
                "cleric"
            ]
        }
    },
    "flags": {},
    "img": "systems/pf2e/icons/features/feats/feats.webp",
    "name": "Cremate Undead",
    "type": "feat"
}
