{
    "_id": "6xBu4BewIkOIt9M0",
    "data": {
        "actionCategory": {
            "value": ""
        },
        "actionType": {
            "value": "reaction"
        },
        "actions": {
            "value": null
        },
        "description": {
            "value": "<p><strong>Trigger</strong> You are the target of a physical ranged Strike.</p>\n<p><strong>Requirements</strong> You're aware of the attack, not @Compendium[pf2e.conditionitems.Flat-Footed]{Flat-Footed} against it, and either have a hand free or are wielding a melee weapon.</p>\n<hr />\n<p>You can knock aside ranged attacks.</p>\n<p>You gain a +4 circumstance bonus to AC against the triggering attack. If the attack misses, you knocked or cut it out of the air.</p>\n<p>@Compendium[pf2e.feat-effects.Effect: Cut from the Air]{Effect: Cut from the Air}</p>"
        },
        "featType": {
            "value": "class"
        },
        "level": {
            "value": 10
        },
        "location": "",
        "prerequisites": {
            "value": []
        },
        "rules": [],
        "source": {
            "value": "Pathfinder Advanced Player's Guide"
        },
        "traits": {
            "custom": "",
            "rarity": "common",
            "value": [
                "fighter"
            ]
        }
    },
    "flags": {},
    "img": "systems/pf2e/icons/features/feats/feats.webp",
    "name": "Cut From The Air",
    "type": "feat"
}
