{
    "_id": "4M5zIlJ8EvjQDtg9",
    "data": {
        "actionCategory": {
            "value": ""
        },
        "actionType": {
            "value": "passive"
        },
        "actions": {
            "value": null
        },
        "description": {
            "value": "<p>You are a consummate student of dignity, etiquette, and fashion.</p>\n<p>You can use the Diplomacy skill to perform the special downtime activity Influence Rumor, spending at least one day of downtime to manipulate the course, tone, or content of a rumor to your benefit.</p>\n<p>The difficulty of Influencing a Rumor is determined by the GM based on the size of the community, the relative perceptiveness of the inhabitants, and the agency of other rumormongers, but it typically starts with at least DC 15 for a small village and increases to at least DC 20 for a town, at least DC 30 for a city, and at least DC 40 for a metropolis.</p>\n<p>You become trained in Deception and Society; if you were already trained, you become an expert instead.</p>\n<p><strong>Special</strong> You can't select another Dedication feat until you have gained two other feats from the dandy archetype.</p>"
        },
        "featType": {
            "value": "archetype"
        },
        "level": {
            "value": 2
        },
        "location": "",
        "prerequisites": {
            "value": [
                {
                    "value": "trained in Diplomacy"
                }
            ]
        },
        "rules": [
            {
                "key": "ActiveEffectLike",
                "mode": "upgrade",
                "path": "data.skills.dec.rank",
                "value": 1
            },
            {
                "key": "ActiveEffectLike",
                "mode": "upgrade",
                "path": "data.skills.soc.rank",
                "value": 1
            }
        ],
        "source": {
            "value": "Pathfinder Advanced Player's Guide"
        },
        "traits": {
            "custom": "",
            "rarity": "common",
            "value": [
                "archetype",
                "dedication"
            ]
        }
    },
    "flags": {},
    "img": "systems/pf2e/icons/features/feats/feats.webp",
    "name": "Dandy Dedication",
    "type": "feat"
}
