{
    "_id": "Yy9LXo2GaLT7eCOL",
    "data": {
        "actionCategory": {
            "value": ""
        },
        "actionType": {
            "value": "passive"
        },
        "actions": {
            "value": null
        },
        "description": {
            "value": "<p>You gain access to the butterfly sword's critical specialization effect. If you already had access to the critical specialization effect or you gain the effect at a later time, you also gain the critical specialization effect for knives when you critically hit with a butterfly sword. You can benefit from only one critical specialization effect at a time.</p>"
        },
        "featType": {
            "value": "archetype"
        },
        "level": {
            "value": 8
        },
        "location": "",
        "prerequisites": {
            "value": [
                {
                    "value": "Butterfly Blade Dedication"
                }
            ]
        },
        "rules": [],
        "source": {
            "value": "Pathfinder #166: Despair on Danger Island"
        },
        "traits": {
            "custom": "",
            "rarity": "common",
            "value": [
                "archetype"
            ]
        }
    },
    "flags": {},
    "img": "systems/pf2e/icons/default-icons/feats.webp",
    "name": "Deadly Butterfly",
    "type": "feat"
}
