{
    "_id": "hiABcPXvcYa9QccF",
    "data": {
        "actionCategory": {
            "value": ""
        },
        "actionType": {
            "value": "passive"
        },
        "actions": {
            "value": null
        },
        "description": {
            "value": "<p>With your intimate familiarity with the duality of positive and negative energy, you're able to stand as a bulwark against death and undeath alike. You gain resistance to negative damage equal to half your level and a +1 status bonus to saving throws against effects with the negative trait.</p>"
        },
        "featType": {
            "value": "archetype"
        },
        "level": {
            "value": 6
        },
        "location": null,
        "prerequisites": {
            "value": [
                {
                    "value": "Hallowed Necromancer Dedication"
                }
            ]
        },
        "rules": [
            {
                "key": "Resistance",
                "type": "negative",
                "value": "floor(@actor.level/2)"
            },
            {
                "key": "FlatModifier",
                "predicate": {
                    "any": [
                        "negative"
                    ]
                },
                "selector": "saving-throw",
                "type": "status",
                "value": 1
            }
        ],
        "source": {
            "value": "Pathfinder Book of the Dead"
        },
        "traits": {
            "custom": "",
            "rarity": "common",
            "value": [
                "archetype",
                "positive"
            ]
        }
    },
    "flags": {},
    "img": "systems/pf2e/icons/default-icons/feats.webp",
    "name": "Death Warden",
    "type": "feat"
}
