{
    "_id": "z1Z22gTp7J1VRLSR",
    "data": {
        "actionCategory": {
            "value": ""
        },
        "actionType": {
            "value": "passive"
        },
        "actions": {
            "value": null
        },
        "description": {
            "value": "<p>Your separate experiences in different societies have evolved into entirely separate lives. Create a second identity for yourself with a different name, history, and background. This identity must correspond to one of the ancestries whose ancestry feats you can select. You gain the trained proficiency rank in the Lore skill from the second background you chose (but you don't gain any of the background's other benefits), and you gain a +4 circumstance bonus to Deception checks when making a statement that would be true of your second identity or when disguising yourself as your second identity.</p>\n<p><strong>Special</strong> At the GM's discretion, this feat can be used against non-humanoids if they have regular contact with humanoids or you are able to disguise yourself as a member of the target's ancestry or type of creature.</p>"
        },
        "featType": {
            "value": "general"
        },
        "level": {
            "value": 1
        },
        "location": "",
        "prerequisites": {
            "value": [
                {
                    "value": "ability to select ancestry feats from multiple ancestries"
                }
            ]
        },
        "rules": [
            {
                "key": "FlatModifier",
                "label": "Different Worlds (second identity)",
                "predicate": {
                    "all": [
                        "second-identity"
                    ]
                },
                "selector": "deception",
                "type": "circumstance",
                "value": 4
            }
        ],
        "source": {
            "value": "Pathfinder #147: Tomorrow Must Burn"
        },
        "traits": {
            "custom": "",
            "rarity": "uncommon",
            "value": [
                "general"
            ]
        }
    },
    "flags": {},
    "img": "systems/pf2e/icons/features/feats/feats.webp",
    "name": "Different Worlds",
    "type": "feat"
}
