{
    "_id": "6AXAJuMEMpxU27PJ",
    "data": {
        "actionCategory": {
            "value": ""
        },
        "actionType": {
            "value": "action"
        },
        "actions": {
            "value": 2
        },
        "description": {
            "value": "<p>Your sneak attack slices through the threads binding magic to a target.</p>\n<p>Make a Strike against a flat-footed creature. If your Strike deals sneak attack damage, you attempt to counteract a single spell active on the target (your choice).</p>\n<p>Your counteract level is equal to half your level (rounded up), and your counteract check modifier is equal to your class DC - 10.</p>"
        },
        "featType": {
            "value": "class"
        },
        "level": {
            "value": 16
        },
        "location": "",
        "prerequisites": {
            "value": []
        },
        "rules": [],
        "source": {
            "value": "Pathfinder Core Rulebook"
        },
        "traits": {
            "custom": "",
            "rarity": "common",
            "value": [
                "rogue"
            ]
        }
    },
    "flags": {},
    "img": "systems/pf2e/icons/features/feats/feats.webp",
    "name": "Dispelling Slice",
    "type": "feat"
}
