{
    "_id": "PP1gfRCc1YwnQGxp",
    "data": {
        "actionCategory": {
            "value": ""
        },
        "actionType": {
            "value": "action"
        },
        "actions": {
            "value": 1
        },
        "description": {
            "value": "<p><strong>Requirements</strong> You wield two melee weapons, one in each hand.</p>\n<hr />\n<p>You split your attacks. Make two melee @Compendium[pf2e.actionspf2e.Strike]{Strikes}, one with each required weapon, each against a different foe. If the second Strike is made with a non-agile weapon, it takes a -2 penalty.</p>\n<p>Increase your multiple attack penalty only after attempting both Strikes.</p>"
        },
        "featType": {
            "value": "class"
        },
        "level": {
            "value": 8
        },
        "prerequisites": {
            "value": []
        },
        "rules": [],
        "source": {
            "value": "Pathfinder Advanced Player's Guide"
        },
        "traits": {
            "custom": "",
            "rarity": "common",
            "value": [
                "finisher",
                "swashbuckler"
            ]
        }
    },
    "flags": {},
    "img": "systems/pf2e/icons/features/feats/feats.webp",
    "name": "Dual Finisher",
    "type": "feat"
}
