{
    "_id": "nfERPRCITBp970HO",
    "data": {
        "actionCategory": {
            "value": ""
        },
        "actionType": {
            "value": "passive"
        },
        "actions": {
            "value": null
        },
        "description": {
            "value": "<p>Elves are often skeptical of their half-elven kin, and you are experienced at telling stories of your accomplishments to gain their respect. You are trained in Performance. If you would automatically become trained in Performance (from your background or class, for example), you instead become trained in a skill of your choice.</p>\n<p>You gain the @Compendium[pf2e.feats-srd.Impressive Performance]{Impressive Performance} feat. When you attempt a Performance check to @Compendium[pf2e.actionspf2e.Make an Impression]{Make an Impression} on an elf, if you roll a critical failure, you get a failure instead.</p>"
        },
        "featType": {
            "value": "ancestry"
        },
        "level": {
            "value": 1
        },
        "location": "",
        "prerequisites": {
            "value": []
        },
        "rules": [
            {
                "key": "GrantItem",
                "uuid": "Compendium.pf2e.feats-srd.Impressive Performance"
            }
        ],
        "source": {
            "value": "Pathfinder Advanced Player's Guide"
        },
        "traits": {
            "custom": "",
            "rarity": "common",
            "value": [
                "half-elf"
            ]
        }
    },
    "flags": {},
    "img": "systems/pf2e/icons/features/feats/feats.webp",
    "name": "Earned Glory",
    "type": "feat"
}
