{
    "_id": "rKZE8BA9IQHSSWoW",
    "data": {
        "actionCategory": {
            "value": ""
        },
        "actionType": {
            "value": "passive"
        },
        "actions": {
            "value": null
        },
        "description": {
            "value": "<p>With elemental forces, you make your emblazoned symbols more potent. When you Emblazon an Armament, you can choose from the following effects instead of the effects listed in that feat. These effects have the same restrictions as the base options.</p>\n<ul>\n<li><strong>Shield</strong> Choose acid, cold, electricity, fire, or sonic. The wielder gain the shield's circumstance bonus to saving throws against that damage type and can use Shield Block against damage of that type. The shield also gains resistance to that damage type equal to half your level if you have a domain spell with a trait matching that type (such as fire).</li>\n<li><strong>Weapon</strong> Choose @Compendium[pf2e.feat-effects.Effect: Emblazon Energy (Weapon, Acid)]{acid}, @Compendium[pf2e.feat-effects.Effect: Emblazon Energy (Weapon, Cold)]{cold}, @Compendium[pf2e.feat-effects.Effect: Emblazon Energy (Weapon, Electricity)]{electricity}, @Compendium[pf2e.feat-effects.Effect: Emblazon Energy (Weapon, Fire)]{fire}, or @Compendium[pf2e.feat-effects.Effect: Emblazon Energy (Weapon, Sonic)]{sonic}. The weapon deals an extra 1d4 damage of that type. Increase this extra damage to 1d6 if you have a domain spell with a trait matching that type (such as fire).</li>\n</ul>"
        },
        "featType": {
            "value": "class"
        },
        "level": {
            "value": 8
        },
        "location": "",
        "prerequisites": {
            "value": [
                {
                    "value": "Emblazon Armament"
                }
            ]
        },
        "rules": [],
        "source": {
            "value": "Pathfinder Core Rulebook"
        },
        "traits": {
            "custom": "",
            "rarity": "common",
            "value": [
                "cleric"
            ]
        }
    },
    "flags": {},
    "img": "systems/pf2e/icons/features/feats/feats.webp",
    "name": "Emblazon Energy",
    "type": "feat"
}
