{
    "_id": "pKttKO84dxzRLBIC",
    "data": {
        "actionCategory": {
            "value": ""
        },
        "actionType": {
            "value": "passive"
        },
        "actions": {
            "value": null
        },
        "description": {
            "value": "<p>Your eidolon advances its capabilities in combat. Your eidolon becomes an expert in unarmed attacks. If you are an expert in unarmored defense, your eidolon also becomes an expert in unarmored defense. If you have weapon specialization, your eidolon also gains weapon specialization.</p>"
        },
        "featType": {
            "value": "archetype"
        },
        "level": {
            "value": 12
        },
        "location": "",
        "prerequisites": {
            "value": [
                {
                    "value": "Summoner Dedication"
                }
            ]
        },
        "rules": [],
        "source": {
            "value": ""
        },
        "traits": {
            "custom": "",
            "rarity": "common",
            "value": [
                "archetype"
            ]
        }
    },
    "flags": {},
    "img": "systems/pf2e/icons/features/feats/feats.webp",
    "name": "Expert Combat Eidolon",
    "type": "feat"
}
