{
    "_id": "jwQERVkjtnlFp3Ec",
    "data": {
        "actionCategory": {
            "value": ""
        },
        "actionType": {
            "value": "passive"
        },
        "actions": {
            "value": null
        },
        "description": {
            "value": "<p>Divine power is always at your fingertips, swiftly responding to your call.</p>\n<p>When you cast <em>@Compendium[pf2e.spells-srd.Harm]{Harm}</em> or <em>@Compendium[pf2e.spells-srd.Heal]{Heal}</em> by spending 2 actions, you can get the effects of the 3-action version instead of the 2-action version. You can do this with <em>harm</em> if you have harmful font or <em>heal</em> if you have healing font (or both if you have Versatile Font).</p>"
        },
        "featType": {
            "value": "class"
        },
        "level": {
            "value": 14
        },
        "location": "",
        "prerequisites": {
            "value": [
                {
                    "value": "harmful font or healing font"
                }
            ]
        },
        "rules": [],
        "source": {
            "value": "Pathfinder Core Rulebook"
        },
        "traits": {
            "custom": "",
            "rarity": "common",
            "value": [
                "cleric"
            ]
        }
    },
    "flags": {},
    "img": "systems/pf2e/icons/features/feats/feats.webp",
    "name": "Fast Channel",
    "type": "feat"
}
