{
    "_id": "pZUmoCqxBJfZmeqm",
    "data": {
        "actionCategory": {
            "value": ""
        },
        "actionType": {
            "value": "passive"
        },
        "actions": {
            "value": null
        },
        "description": {
            "value": "<p>Wounds you inflict with your unarmed attacks fester and rot, becoming infected and difficult to heal. The DC to Treat these Wounds using Medicine increases by 5, and magically or alchemically healing these wounds requires a counteract check against your class DC or spell DC, whichever is higher. Succeeding at any of these removes the disease. The effect also ends if the creature is healed to full Hit Points by any means.</p>"
        },
        "featType": {
            "value": "archetype"
        },
        "level": {
            "value": 12
        },
        "location": null,
        "prerequisites": {
            "value": [
                {
                    "value": "Zombie Dedication"
                }
            ]
        },
        "rules": [],
        "source": {
            "value": "Pathfinder Book of the Dead"
        },
        "traits": {
            "custom": "",
            "rarity": "common",
            "value": [
                "archetype",
                "disease",
                "divine",
                "necromancy"
            ]
        }
    },
    "flags": {},
    "img": "systems/pf2e/icons/default-icons/feats.webp",
    "name": "Festering Wounds",
    "type": "feat"
}
