{
    "_id": "2pYCGPCQDHD3o7Jz",
    "data": {
        "actionCategory": {
            "value": ""
        },
        "actionType": {
            "value": "passive"
        },
        "actions": {
            "value": null
        },
        "description": {
            "value": "<p>You can call forth a blasphemous word from the fiendish realms to punish your foes.</p>\n<p>Once per day, you can cast <em>@Compendium[pf2e.spells-srd.Divine Decree]{Divine Decree}</em> as a 7th-level divine innate spell. You must choose evil for the spell, and you can Cast the Spell regardless of whether you have a deity or what their alignment is.</p>"
        },
        "featType": {
            "value": "ancestry"
        },
        "level": {
            "value": 17
        },
        "prerequisites": {
            "value": []
        },
        "rules": [],
        "source": {
            "value": "Pathfinder Advanced Player's Guide"
        },
        "traits": {
            "custom": "",
            "rarity": "common",
            "value": [
                "tiefling"
            ]
        }
    },
    "flags": {},
    "img": "systems/pf2e/icons/features/feats/feats.webp",
    "name": "Fiendish Word",
    "type": "feat"
}
