{
    "_id": "6biVVoaqqUdQmQ37",
    "data": {
        "actionCategory": {
            "value": "defensive"
        },
        "actionType": {
            "value": "reaction"
        },
        "actions": {
            "value": null
        },
        "description": {
            "value": "<p><strong>Trigger</strong> An opponent adjacent to you hits you with a melee weapon or a melee unarmed attack.</p>\n<p><strong>Frequency</strong> once per minute</p>\n<hr />\n<p>Ignoring your pain, you sear your attacker with a wave of flame. The triggering opponent takes fire damage equal to your [[/r @actor.level #fire]]{level}.</p>"
        },
        "featType": {
            "value": "class"
        },
        "level": {
            "value": 8
        },
        "location": "",
        "prerequisites": {
            "value": [
                {
                    "value": "flame order"
                }
            ]
        },
        "rules": [],
        "source": {
            "value": ""
        },
        "traits": {
            "custom": "",
            "rarity": "common",
            "value": [
                "druid",
                "evocation",
                "fire"
            ]
        }
    },
    "flags": {},
    "img": "systems/pf2e/icons/features/feats/feats.webp",
    "name": "Fiery Retort",
    "type": "feat"
}
