{
    "_id": "UotFrqA7zAxtpJdE",
    "data": {
        "actionCategory": {
            "value": ""
        },
        "actionType": {
            "value": "passive"
        },
        "actions": {
            "value": null
        },
        "description": {
            "value": "<p>You've become an expert with your chosen weapons. Your proficiency ranks for simple and martial crossbows and simple and martial firearms increase to expert.</p>"
        },
        "featType": {
            "value": "archetype"
        },
        "level": {
            "value": 12
        },
        "location": "",
        "prerequisites": {
            "value": [
                {
                    "value": "Gunslinger Dedication"
                },
                {
                    "value": "expert in any kind of weapon or unarmed attack"
                }
            ]
        },
        "rules": [],
        "source": {
            "value": ""
        },
        "traits": {
            "custom": "",
            "rarity": "common",
            "value": [
                "archetype"
            ]
        }
    },
    "flags": {},
    "img": "systems/pf2e/icons/default-icons/feats.webp",
    "name": "Firearm Expert",
    "type": "feat"
}
