{
    "_id": "pM0g4ColXTiQ3gTa",
    "data": {
        "actionCategory": {
            "value": ""
        },
        "actionType": {
            "value": "action"
        },
        "actions": {
            "value": 2
        },
        "description": {
            "value": "<p>Once per day, you can infuse a weapon you are carrying with magical energies that allow it to strike true against incorporeal undead. The weapon gains the effects of the ghost touch property rune for 10 minutes. At 10th level, you can apply this effect to two weapons instead of one.</p>"
        },
        "featType": {
            "value": "archetype"
        },
        "level": {
            "value": 6
        },
        "location": "",
        "prerequisites": {
            "value": [
                {
                    "value": "Ghost Hunter Dedication"
                }
            ]
        },
        "rules": [],
        "source": {
            "value": "Pathfinder #163: Ruins of Gauntlight"
        },
        "traits": {
            "custom": "",
            "rarity": "common",
            "value": [
                "archetype"
            ]
        }
    },
    "flags": {},
    "img": "systems/pf2e/icons/features/feats/feats.webp",
    "name": "Ghost Strike",
    "type": "feat"
}
