{
    "_id": "sL2GmYve5NXJ0wc1",
    "data": {
        "actionCategory": {
            "value": ""
        },
        "actionType": {
            "value": "passive"
        },
        "actions": {
            "value": null
        },
        "description": {
            "value": "<p>Gloom holds few terrors for you, and the pall of darkness over Nidal has made you comfortable in dim light. You gain @Compendium[pf2e.ancestryfeatures.Low-Light Vision]{Low-Light Vision}.</p>"
        },
        "featType": {
            "value": "ancestry"
        },
        "level": {
            "value": 1
        },
        "location": "",
        "prerequisites": {
            "value": [
                {
                    "value": "Nidalese ethnicity"
                }
            ]
        },
        "rules": [
            {
                "key": "Sense",
                "selector": "lowLightVision"
            }
        ],
        "source": {
            "value": "Pathfinder Lost Omens: Character Guide"
        },
        "traits": {
            "custom": "",
            "rarity": "common",
            "value": [
                "human"
            ]
        }
    },
    "flags": {},
    "img": "systems/pf2e/icons/features/feats/feats.webp",
    "name": "Gloomseer",
    "type": "feat"
}
