{
    "_id": "yTLGclKtWVFZLKIz",
    "data": {
        "actionCategory": {
            "value": ""
        },
        "actionType": {
            "value": "passive"
        },
        "actions": {
            "value": null
        },
        "description": {
            "value": "<p>You recover an additional 5 Hit Points from a successful attempt to Treat your Wounds or use Battle Medicine on you. After you or an ally use Battle Medicine on you, you become temporarily immune to that Battle Medicine for only 1 hour, instead of 1 day.</p>"
        },
        "featType": {
            "value": "skill"
        },
        "level": {
            "value": 2
        },
        "prerequisites": {
            "value": [
                {
                    "value": "Battle Medicine"
                },
                {
                    "value": "can't have a patron deity"
                }
            ]
        },
        "rules": [],
        "source": {
            "value": "Pathfinder Lost Omens: World Guide"
        },
        "traits": {
            "custom": "",
            "rarity": "common",
            "value": [
                "general",
                "skill"
            ]
        }
    },
    "flags": {},
    "img": "systems/pf2e/icons/features/feats/feats.webp",
    "name": "Godless Healing",
    "type": "feat"
}
