{
    "_id": "7GrACprIxZuarGDs",
    "data": {
        "actionCategory": {
            "value": ""
        },
        "actionType": {
            "value": "passive"
        },
        "actions": {
            "value": null
        },
        "description": {
            "value": "<p>The flesh you've consumed over the course of your existence as a ghoul has made you stronger, gifting you with strange insights from the minds of the sapient creatures you've devoured and bringing you closer to a state of undead perfection. You gain the @Compendium[pf2e.ancestryfeatures.Advanced Undead Benefits]{Advanced Undead Benefits}. In addition, you gain a +5-foot status bonus to your Speed while you're satiated.</p>"
        },
        "featType": {
            "value": "archetype"
        },
        "level": {
            "value": 6
        },
        "location": null,
        "prerequisites": {
            "value": [
                {
                    "value": "Ghoul Dedication"
                }
            ]
        },
        "rules": [
            {
                "key": "FlatModifier",
                "predicate": {
                    "all": [
                        "ghoul-satiated"
                    ]
                },
                "selector": "land-speed",
                "type": "status",
                "value": 5
            },
            {
                "key": "FlatModifier",
                "predicate": {
                    "all": [
                        "ghoul-fully-satiated"
                    ]
                },
                "selector": "land-speed",
                "type": "status",
                "value": 10
            },
            {
                "key": "GrantItem",
                "uuid": "Compendium.pf2e.ancestryfeatures.Advanced Undead Benefits"
            }
        ],
        "source": {
            "value": "Pathfinder Book of the Dead"
        },
        "traits": {
            "custom": "",
            "rarity": "common",
            "value": [
                "archetype"
            ]
        }
    },
    "flags": {},
    "img": "systems/pf2e/icons/default-icons/feats.webp",
    "name": "Grave Strength",
    "type": "feat"
}
