{
    "_id": "ErKwliHplziJY2BW",
    "data": {
        "actionCategory": {
            "value": ""
        },
        "actionType": {
            "value": "passive"
        },
        "actions": {
            "value": null
        },
        "description": {
            "value": "<p>You broaden your magical studies, allowing you to find the right path, detect objects, and conceal those objects from unscrupulous rivals.</p>\n<p>You can cast <em>@Compendium[pf2e.spells-srd.Augury]{Augury}</em>, <em>@Compendium[pf2e.spells-srd.Locate]{Locate}</em>, and <em>@Compendium[pf2e.spells-srd.Nondetection]{Nondetection}</em> as occult innate spells, each once per day. You can cast this <em>nondetection</em> spell only on an object, and it is automatically heightened to the same spell level as your cantrips from Magical Scholastics.</p>"
        },
        "featType": {
            "value": "archetype"
        },
        "level": {
            "value": 10
        },
        "prerequisites": {
            "value": [
                {
                    "value": "Archaeologist Dedication"
                },
                {
                    "value": "Magical Scholastics"
                }
            ]
        },
        "rules": [],
        "source": {
            "value": "Pathfinder Advanced Player's Guide"
        },
        "traits": {
            "custom": "",
            "rarity": "common",
            "value": [
                "archetype"
            ]
        }
    },
    "flags": {},
    "img": "systems/pf2e/icons/features/feats/feats.webp",
    "name": "Greater Magical Scholastics",
    "type": "feat"
}
