{
    "_id": "dtPXuS8MiWrz5UNK",
    "data": {
        "actionCategory": {
            "value": "offensive"
        },
        "actionType": {
            "value": "action"
        },
        "actions": {
            "value": 1
        },
        "description": {
            "value": "<p><strong>Requirements</strong> You're wielding a loaded firearm.</p>\n<hr />\n<p>Using a carefully aimed shot, you make a creature \"dance.\" You shoot at the ground near a target's feet, causing them to react involuntarily; even mindless creatures have unconscious responses to dodge an attack, and you can capitalize off those uncontrollable reflexes to achieve your aim. As they dance to the sweet tune of your pistol's retort, you ensure your foe can't use whatever nasty surprise they had planned in store for you and your allies. Make an attack roll against the Reflex DC of a target creature within your firearm's first range increment.</p>\n<hr />\n<p><strong>Critical Success</strong> The creature can't use reactions, is @Compendium[pf2e.conditionitems.Flat-Footed]{Flat-Footed}, and takes a -2 circumstance penalty to Reflex saves. These effects last until the start of its next turn.</p>\n<p><strong>Success</strong> The creature can't use reactions until the start of its next turn.</p>"
        },
        "featType": {
            "value": "archetype"
        },
        "level": {
            "value": 8
        },
        "location": "",
        "prerequisites": {
            "value": [
                {
                    "value": "Pistol Phenom Dedication"
                }
            ]
        },
        "rules": [],
        "source": {
            "value": ""
        },
        "traits": {
            "custom": "",
            "rarity": "common",
            "value": [
                "archetype"
            ]
        }
    },
    "flags": {},
    "img": "systems/pf2e/icons/default-icons/feats.webp",
    "name": "Hot Foot",
    "type": "feat"
}
