{
    "_id": "dC14a0DZqDBA9B8g",
    "data": {
        "actionCategory": {
            "value": ""
        },
        "actionType": {
            "value": "reaction"
        },
        "actions": {
            "value": null
        },
        "description": {
            "value": "<p><strong>Trigger</strong> Your attack with a firearm misfires.</p>\n<hr />\n<p>Even as your firearm misfires, you quickly draw a backup weapon. Release the misfired weapon if you so choose, and Interact to draw a one-handed weapon.</p>"
        },
        "featType": {
            "value": "class"
        },
        "level": {
            "value": 4
        },
        "location": "",
        "prerequisites": {
            "value": []
        },
        "rules": [],
        "source": {
            "value": ""
        },
        "traits": {
            "custom": "",
            "rarity": "common",
            "value": [
                "gunslinger"
            ]
        }
    },
    "flags": {},
    "img": "systems/pf2e/icons/default-icons/feats.webp",
    "name": "Instant Backup",
    "type": "feat"
}
