{
    "_id": "uAh31Hnp1EZSjd40",
    "data": {
        "actionCategory": {
            "value": ""
        },
        "actionType": {
            "value": "passive"
        },
        "actions": {
            "value": null
        },
        "description": {
            "value": "<p>Repeated exposure to fortifying additives in mutagens makes your juggernaut form impervious.</p>\n<p>Whenever you're affected by a @Compendium[pf2e.equipment-srd.Juggernaut Mutagen (Lesser)]{Juggernaut Mutagen}, you gain resistance to all physical damage equal to your Intelligence modifier (minimum 0).</p>"
        },
        "featType": {
            "value": "class"
        },
        "level": {
            "value": 12
        },
        "location": "",
        "prerequisites": {
            "value": []
        },
        "rules": [],
        "source": {
            "value": "Pathfinder Core Rulebook"
        },
        "traits": {
            "custom": "",
            "rarity": "common",
            "value": [
                "alchemist"
            ]
        }
    },
    "flags": {},
    "img": "systems/pf2e/icons/features/feats/feats.webp",
    "name": "Invincible Mutagen",
    "type": "feat"
}
