{
    "_id": "sTaeqBJCH1HQy96W",
    "data": {
        "actionCategory": {
            "value": ""
        },
        "actionType": {
            "value": "action"
        },
        "actions": {
            "value": 2
        },
        "description": {
            "value": "<p><strong>Frequency</strong> once per day</p>\n<hr />\n<p>You summon an aura of flurrying snow.</p>\n<p>For 1 minute, you gain @Compendium[pf2e.conditionitems.Concealed]{Concealment} against creatures more than 5 feet away, and any creature that ends its turn within 5 feet of you suffers [[/r {1d12}[cold]]]{1d12 cold damage} damage (basic Reflex save using your class DC or spell DC, whichever is higher).</p>\n<p>At [[/r {2d12}[cold]]]{13th} and [[/r {3d12}[cold]]]{17th} level, this damage increases by 1d12.</p>"
        },
        "featType": {
            "value": "ancestry"
        },
        "level": {
            "value": 9
        },
        "location": "",
        "prerequisites": {
            "value": [
                {
                    "value": "Snow May"
                }
            ]
        },
        "rules": [],
        "source": {
            "value": ""
        },
        "traits": {
            "custom": "",
            "rarity": "common",
            "value": [
                "changeling",
                "evocation",
                "primal"
            ]
        }
    },
    "flags": {},
    "img": "systems/pf2e/icons/features/feats/feats.webp",
    "name": "Invoke The Elements (Snow May)",
    "type": "feat"
}
