{
    "_id": "Ig431EeRy3FKMmMq",
    "data": {
        "actionCategory": {
            "value": ""
        },
        "actionType": {
            "value": "passive"
        },
        "actions": {
            "value": null
        },
        "description": {
            "value": "<p>You can recall all sorts of information. You gain the @Compendium[pf2e.classfeatures.Keen Recollection]{Keen Recollection} class feature.</p>"
        },
        "featType": {
            "value": "archetype"
        },
        "level": {
            "value": 6
        },
        "location": "",
        "prerequisites": {
            "value": [
                {
                    "value": "Investigator Dedication"
                }
            ]
        },
        "rules": [
            {
                "key": "GrantItem",
                "uuid": "Compendium.pf2e.classfeatures.Keen Recollection"
            }
        ],
        "source": {
            "value": "Pathfinder Advanced Player's Guide"
        },
        "traits": {
            "custom": "",
            "rarity": "common",
            "value": [
                "archetype"
            ]
        }
    },
    "flags": {},
    "img": "systems/pf2e/icons/features/feats/feats.webp",
    "name": "Keen Recollection",
    "type": "feat"
}
