{
    "_id": "d8RfatiK9UOQANLz",
    "data": {
        "actionCategory": {
            "value": ""
        },
        "actionType": {
            "value": "passive"
        },
        "actions": {
            "value": null
        },
        "description": {
            "value": "<p>You've learned how to move as one with crowds and hide among them, vanishing into a busy street in the blink of an eye. You move at full Speed in crowds and can use cover from crowds to Hide and Sneak, gaining a +2 circumstance bonus on your Stealth checks when in a crowd of at least 10 creatures and a +4 circumstance bonus on your Stealth checks when in a crowd of at least 100 creatures.</p>\n<p>@Compendium[pf2e.feat-effects.Effect: Lost in the Crowd (10 Creatures)]{Effect: Lost in the Crowd (10 Creatures)}</p>\n<p>@Compendium[pf2e.feat-effects.Effect: Lost in the Crowd (100 Creatures)]{Effect: Lost in the Crowd (100 Creatures)}</p>"
        },
        "featType": {
            "value": "archetype"
        },
        "level": {
            "value": 4
        },
        "location": "",
        "prerequisites": {
            "value": [
                {
                    "value": "Lion Blade Dedication"
                }
            ]
        },
        "rules": [],
        "source": {
            "value": "Pathfinder Lost Omens: World Guide"
        },
        "traits": {
            "custom": "",
            "rarity": "common",
            "value": [
                "archetype"
            ]
        }
    },
    "flags": {},
    "img": "systems/pf2e/icons/features/feats/feats.webp",
    "name": "Lost in the Crowd",
    "type": "feat"
}
