{
    "_id": "b1eGMNjBY3iqIt2S",
    "data": {
        "actionCategory": {
            "value": ""
        },
        "actionType": {
            "value": "passive"
        },
        "actions": {
            "value": null
        },
        "description": {
            "value": "<p>Your eidolon gains more magic. Choose one 2nd-level spell and one 1st-level spell of your eidolon's tradition. Your eidolon can cast them each once per day as innate spells. At every even level after you take this feat, your eidolon can swap one of these innate spells for a new innate spell that's 2 or more levels lower than your highest-level spell slot.</p>"
        },
        "featType": {
            "value": "class"
        },
        "level": {
            "value": 8
        },
        "location": "",
        "prerequisites": {
            "value": [
                {
                    "value": "Magical Understudy"
                }
            ]
        },
        "rules": [],
        "source": {
            "value": ""
        },
        "traits": {
            "custom": "",
            "rarity": "common",
            "value": [
                "evolution",
                "summoner"
            ]
        }
    },
    "flags": {},
    "img": "systems/pf2e/icons/features/feats/feats.webp",
    "name": "Magical Adept",
    "type": "feat"
}
