{
    "_id": "jI4Eoi6m0ogjXkGK",
    "data": {
        "actionCategory": {
            "value": ""
        },
        "actionType": {
            "value": "passive"
        },
        "actions": {
            "value": null
        },
        "description": {
            "value": "<p>You master the most powerful spells that enchant and deceive. You learn a 7th-level occult spell. At 18th level, you learn an 8th-level spell, and at 20th level, you learn a 9th-level spell. Each of these spells must come from either the enchantment or illusion school. You cast these spells as occult innate spells. You become a master with spell attack rolls and spell DCs for occult spells.</p>"
        },
        "featType": {
            "value": "archetype"
        },
        "level": {
            "value": 16
        },
        "location": "",
        "prerequisites": {
            "value": [
                {
                    "value": "Expert Captivator Spellcasting"
                }
            ]
        },
        "rules": [],
        "source": {
            "value": ""
        },
        "traits": {
            "custom": "",
            "rarity": "common",
            "value": [
                "archetype"
            ]
        }
    },
    "flags": {},
    "img": "systems/pf2e/icons/default-icons/feats.webp",
    "name": "Master Captivator Spellcasting",
    "type": "feat"
}
