{
    "_id": "t8CAK8ylu23PUxbn",
    "data": {
        "actionCategory": {
            "value": ""
        },
        "actionType": {
            "value": "passive"
        },
        "actions": {
            "value": null
        },
        "description": {
            "value": "<p>Your proficiency rank in Perception increases to master.</p>"
        },
        "featType": {
            "value": "archetype"
        },
        "level": {
            "value": 12
        },
        "location": "",
        "prerequisites": {
            "value": [
                {
                    "value": "Investigator Dedication"
                },
                {
                    "value": "expert in Perception"
                }
            ]
        },
        "rules": [
            {
                "key": "ActiveEffectLike",
                "mode": "upgrade",
                "path": "data.attributes.perception.rank",
                "value": 3
            }
        ],
        "source": {
            "value": "Pathfinder Advanced Player's Guide"
        },
        "traits": {
            "custom": "",
            "rarity": "common",
            "value": [
                "archetype"
            ]
        }
    },
    "flags": {},
    "img": "systems/pf2e/icons/features/feats/feats.webp",
    "name": "Master Spotter (Investigator)",
    "type": "feat"
}
