{
    "_id": "opP9j7RP7JPyt8Zj",
    "data": {
        "actionCategory": {
            "value": ""
        },
        "actionType": {
            "value": "passive"
        },
        "actions": {
            "value": null
        },
        "description": {
            "value": "<p>You've raised your megafauna companion to be a more powerful force on the battlefield than most of its kind. The companion you gained through the Mammoth Lord Dedication feat becomes a mature animal companion, granting it additional capabilities. During an encounter, even if you don't use the @Compendium[pf2e.actionspf2e.Command an Animal]{Command an Animal} action, your megafauna animal companion can still use 1 action on your turn to Stride or Strike.</p>"
        },
        "featType": {
            "value": "archetype"
        },
        "level": {
            "value": 6
        },
        "location": null,
        "prerequisites": {
            "value": [
                {
                    "value": "Mammoth Lord Dedication"
                }
            ]
        },
        "rules": [],
        "source": {
            "value": "Pathfinder #177: Burning Tundra"
        },
        "traits": {
            "custom": "",
            "rarity": "common",
            "value": [
                "archetype"
            ]
        }
    },
    "flags": {},
    "img": "systems/pf2e/icons/features/feats/feats.webp",
    "name": "Mature Megafauna Companion",
    "type": "feat"
}
