{
    "_id": "MJg24e9fJd7OASvF",
    "data": {
        "actionCategory": {
            "value": ""
        },
        "actionType": {
            "value": "passive"
        },
        "actions": {
            "value": null
        },
        "description": {
            "value": "<p>You become an expert in Medicine.</p>\n<p>When you succeed with @Compendium[pf2e.feats-srd.Battle Medicine]{Battle Medicine} or @Compendium[pf2e.actionspf2e.Treat Wounds]{Treat Wounds}, the target regains 5 additional HP at DC 20, 10 HP at DC 30, or 15 HP at DC 40.</p>\n<p>Once per day, you can use Battle Medicine on a creature that's temporarily immune. If you're a master in Medicine, you can do so once per hour.</p>\n<hr />\n<p><strong>Special</strong> You can't select another dedication feat until you gain two other feats from the medicarchetype.</p>"
        },
        "featType": {
            "value": "archetype"
        },
        "level": {
            "value": 2
        },
        "location": "",
        "prerequisites": {
            "value": [
                {
                    "value": "trained in Medicine"
                },
                {
                    "value": "Battle Medicine"
                }
            ]
        },
        "rules": [
            {
                "key": "ActiveEffectLike",
                "mode": "upgrade",
                "path": "data.skills.med.rank",
                "value": 2
            }
        ],
        "source": {
            "value": "Pathfinder Advanced Player's Guide"
        },
        "traits": {
            "custom": "",
            "rarity": "common",
            "value": [
                "archetype",
                "dedication"
            ]
        }
    },
    "flags": {},
    "img": "systems/pf2e/icons/features/feats/feats.webp",
    "name": "Medic Dedication",
    "type": "feat"
}
