{
    "_id": "2yq3l8e2Vzz34yRV",
    "data": {
        "actionCategory": {
            "value": ""
        },
        "actionType": {
            "value": "passive"
        },
        "actions": {
            "value": null
        },
        "description": {
            "value": "<p>You understand how to defend yourself and others against your prey. When you grant bonuses from @Compendium[pf2e.feats-srd.Monster Hunter]{Monster Hunter}, you and your allies also each gain a +1 circumstance bonus to your next saving throw against that particular creature and to your AC against that creature's next attack against you.</p>\n<p>@Compendium[pf2e.feat-effects.Effect: Monster Warden]{Effect: Monster Warden}</p>"
        },
        "featType": {
            "value": "class"
        },
        "level": {
            "value": 2
        },
        "location": "",
        "prerequisites": {
            "value": [
                {
                    "value": "Monster Hunter"
                }
            ]
        },
        "rules": [],
        "source": {
            "value": "Pathfinder Core Rulebook"
        },
        "traits": {
            "custom": "",
            "rarity": "common",
            "value": [
                "ranger"
            ]
        }
    },
    "flags": {},
    "img": "systems/pf2e/icons/features/feats/feats.webp",
    "name": "Monster Warden",
    "type": "feat"
}
