{
    "_id": "SWNmYaj0OSPhhIqO",
    "data": {
        "actionCategory": {
            "value": ""
        },
        "actionType": {
            "value": "action"
        },
        "actions": {
            "value": 1
        },
        "description": {
            "value": "<p>Select one unarmed attack you gained with Living Weapon. The damage die for that attack increases by one step until the end of your turn. In addition, choose to either have the attack gain a reach of 10 feet until the end of your turn or for you to gain a +1 status bonus to attack rolls with the chosen unarmed attack until the end of your turn.</p>\n<p>@Compendium[pf2e.feat-effects.Effect: Mutate Weapon]{Effect: Mutate Weapon}</p>"
        },
        "featType": {
            "value": "ancestry"
        },
        "level": {
            "value": 5
        },
        "location": null,
        "prerequisites": {
            "value": [
                {
                    "value": "Living Weapon"
                }
            ]
        },
        "rules": [],
        "source": {
            "value": "Pathfinder Lost Omens: Ancestry Guide"
        },
        "traits": {
            "custom": "",
            "rarity": "common",
            "value": [
                "fleshwarp"
            ]
        }
    },
    "flags": {},
    "img": "systems/pf2e/icons/features/feats/feats.webp",
    "name": "Mutate Weapon",
    "type": "feat"
}
