{
    "_id": "6ON8DjFXSMITZleX",
    "data": {
        "actionCategory": {
            "value": ""
        },
        "actionType": {
            "value": "action"
        },
        "actions": {
            "value": 3
        },
        "description": {
            "value": "<p>You attempt to reduce panic. Attempt a Diplomacy check, comparing it to the Will DC of creatures in a @Template[type:emanation|distance:10] around you who are @Compendium[pf2e.conditionitems.Frightened]{Frightened}. Each of them is temporarily immune for 1 hour.</p>\n<hr />\n<p><strong>Critical Success</strong> Reduce the creature's frightened value by 2.</p>\n<p><strong>Success</strong> Reduce the creature's frightened value by 1.</p>"
        },
        "featType": {
            "value": "skill"
        },
        "level": {
            "value": 1
        },
        "prerequisites": {
            "value": [
                {
                    "value": "trained in Diplomacy"
                }
            ]
        },
        "rules": [],
        "source": {
            "value": "Pathfinder Advanced Player's Guide"
        },
        "traits": {
            "custom": "",
            "rarity": "common",
            "value": [
                "auditory",
                "concentrate",
                "emotion",
                "general",
                "linguistic",
                "mental",
                "skill"
            ]
        }
    },
    "flags": {},
    "img": "systems/pf2e/icons/features/feats/feats.webp",
    "name": "No Cause For Alarm",
    "type": "feat"
}
