{
    "_id": "6QOcQ8ooP1vjQACX",
    "data": {
        "actionCategory": {
            "value": ""
        },
        "actionType": {
            "value": "action"
        },
        "actions": {
            "value": 1
        },
        "description": {
            "value": "<p>You can alter offensive spells to be less deadly. If your next action is to @Compendium[pf2e.actionspf2e.Cast a Spell]{Cast a Spell} that deals damage and doesn't have the death or negative trait, that spell gains the nonlethal trait.</p>"
        },
        "featType": {
            "value": "class"
        },
        "level": {
            "value": 2
        },
        "prerequisites": {
            "value": []
        },
        "rules": [],
        "source": {
            "value": "Pathfinder Advanced Player's Guide"
        },
        "traits": {
            "custom": "",
            "rarity": "common",
            "value": [
                "manipulate",
                "metamagic",
                "wizard"
            ]
        }
    },
    "flags": {},
    "img": "systems/pf2e/icons/features/feats/feats.webp",
    "name": "Nonlethal Spell",
    "type": "feat"
}
