{
    "_id": "3QLWe5oS9jGJ0Oq4",
    "data": {
        "actionCategory": {
            "value": ""
        },
        "actionType": {
            "value": "passive"
        },
        "actions": {
            "value": null
        },
        "description": {
            "value": "<p>Thanks to the time you've spent wandering through wild and untamed environments, you've gained an intuitive sense about creatures. You sometimes notice them before they attack, or spot them nearby even if they weren't planning on attacking. You can attempt a check to notice hidden creatures attempting to Avoid Notice nearby even if you aren't actively Searching for them. You still need to meet any other requirements to notice a particular creature.</p>"
        },
        "featType": {
            "value": "archetype"
        },
        "level": {
            "value": 4
        },
        "prerequisites": {
            "value": [
                {
                    "value": "Pathfinder Agent Dedication"
                }
            ]
        },
        "rules": [],
        "source": {
            "value": "Pathfinder Lost Omens: Pathfinder Society Guide"
        },
        "traits": {
            "custom": "",
            "rarity": "common",
            "value": [
                "archetype"
            ]
        }
    },
    "flags": {},
    "img": "systems/pf2e/icons/features/feats/feats.webp",
    "name": "Observant Explorer",
    "type": "feat"
}
