{
    "_id": "Gcliatty0MGYbTVV",
    "data": {
        "actionCategory": {
            "value": ""
        },
        "actionType": {
            "value": "free"
        },
        "actions": {
            "value": null
        },
        "description": {
            "value": "<p><strong>Trigger</strong> You are about to roll initiative.</p>\n<hr />\n<p>You have a flash of insight about impending danger related to one ally, and you can shout or gesture to warn that ally of the threat a moment before it materializes. One ally of your choice can roll twice for initiative and use the better result; this is a fortune effect. If you are legendary in Religion, you receive two visions and can warn two allies, granting them both this benefit.</p>\n<p>You are momentarily thrown off by the divine insight, however, and you must roll twice for your initiative roll and use the worse result. This is a misfortune effect. The two effects are tied together; if you would avoid the misfortune effect for any reason, or if any of your allies would negate their fortune effect, your Oracular Warning does nothing. Depending on whether you use gestures or call out, this action gains either the visual or auditory trait, respectively.</p>"
        },
        "featType": {
            "value": "class"
        },
        "level": {
            "value": 10
        },
        "prerequisites": {
            "value": []
        },
        "rules": [],
        "source": {
            "value": "Pathfinder Advanced Player's Guide"
        },
        "traits": {
            "custom": "",
            "rarity": "common",
            "value": [
                "divination",
                "divine",
                "oracle"
            ]
        }
    },
    "flags": {},
    "img": "systems/pf2e/icons/features/feats/feats.webp",
    "name": "Oracular Warning",
    "type": "feat"
}
