{
    "_id": "E5ewlRE6Mh9ZqUMu",
    "data": {
        "actionCategory": {
            "value": "offensive"
        },
        "actionType": {
            "value": "free"
        },
        "actions": {
            "value": null
        },
        "description": {
            "value": "<p>If the next action you take is to Manifest your Eidolon as a three-action activity, or to Cast a three-action summoning Spell, the creature appears in an explosion.</p>\n<p>All creatures in a @Template[type:emanation|distance:10] around the creature you summoned or manifested take [[/r {1d4}[fire]]]{1d4 fire damage per spell level} for a summoning spell, or [[/r ((floor(@actor.level/2))d4)[fire]]]{1d4 damage per 2 levels} for Manifesting your Eidolon.</p>\n<p>If the creature you summoned or manifested has the acid, cold, electricity, fire, sonic, or water trait, the damage is that type instead (or cold damage for the water trait). If the creature has more than one of these traits, you choose which damage type to deal.</p>"
        },
        "featType": {
            "value": "class"
        },
        "level": {
            "value": 6
        },
        "location": "",
        "prerequisites": {
            "value": []
        },
        "rules": [],
        "source": {
            "value": ""
        },
        "traits": {
            "custom": "",
            "rarity": "common",
            "value": [
                "concentrate",
                "manipulate",
                "metamagic",
                "summoner"
            ]
        }
    },
    "flags": {},
    "img": "systems/pf2e/icons/features/feats/feats.webp",
    "name": "Ostentatious Arrival",
    "type": "feat"
}
