{
    "_id": "7fyWKASX6uNByJF5",
    "data": {
        "actionCategory": {
            "value": ""
        },
        "actionType": {
            "value": "action"
        },
        "actions": {
            "value": 3
        },
        "description": {
            "value": "<p><strong>Frequency</strong> once per 10 minutes</p>\n<hr />\n<p>Filtering your form through the substance of an object, you can pass through walls, doors, and more. You Fly up to your Speed. During this movement, you can try to move through one object. Attempt an Acrobatics check as you try to enter its space. The DC is typically 30 to move through a wall of up to 5 feet, 15 for an ordinary door, and 10 for thinner structures like windows; the GM might set the DC higher for especially dense materials like adamantine or lead, or for barriers that are magically reinforced. You can't Pass Through an obstacle made of magical force, such as a <em>@Compendium[pf2e.spells-srd.Wall of Force]{Wall of Force}</em>.</p>\n<p>@Check[type:acrobatics|dc:30]{Move through wall}</p>\n<p>@Check[type:acrobatics|dc:15]{Move through door}</p>\n<p>@Check[type:acrobatics|dc:10]{Move through window}</p>\n<p><strong>Success</strong> You move through the object, treating the square within it as difficult terrain. If you end your turn inside an object, you can move out of it only if you Pass Through again or use some other means of moving through a solid object. As normal for being incorporeal, starting your turn inside an object makes you @Compendium[pf2e.conditionitems.Slowed]{Slowed 1} for that turn.</p>\n<p><strong>Failure</strong> Your movement ends, and you trigger reactions as if you moved out of the square you started in.</p>"
        },
        "featType": {
            "value": "archetype"
        },
        "level": {
            "value": 10
        },
        "location": null,
        "prerequisites": {
            "value": [
                {
                    "value": "master in Acrobatics"
                },
                {
                    "value": "Ghost Dedication"
                }
            ]
        },
        "rules": [],
        "source": {
            "value": "Pathfinder Book of the Dead"
        },
        "traits": {
            "custom": "",
            "rarity": "common",
            "value": [
                "archetype"
            ]
        }
    },
    "flags": {},
    "img": "systems/pf2e/icons/default-icons/feats.webp",
    "name": "Pass Through",
    "type": "feat"
}
