{
    "_id": "Z30nSkai5UmZCyKu",
    "data": {
        "actionCategory": {
            "value": ""
        },
        "actionType": {
            "value": "passive"
        },
        "actions": {
            "value": null
        },
        "description": {
            "value": "<p>Flashes of your life become clearer and more frequent, allowing you to apply skills you developed while alive. You become trained in a skill of your choice and gain the @Compendium[pf2e.feats-srd.Additional Lore]{Additional Lore} feat for a Lore subcategory tied to your life.</p>"
        },
        "featType": {
            "value": "ancestry"
        },
        "level": {
            "value": 5
        },
        "location": null,
        "prerequisites": {
            "value": []
        },
        "rules": [
            {
                "key": "GrantItem",
                "uuid": "Compendium.pf2e.feats-srd.Additional Lore"
            },
            {
                "choices": [
                    {
                        "label": "PF2E.SkillAcr",
                        "predicate": {
                            "all": [
                                "skill:acr:rank:0"
                            ]
                        },
                        "value": "acr"
                    },
                    {
                        "label": "PF2E.SkillArc",
                        "predicate": {
                            "all": [
                                "skill:arc:rank:0"
                            ]
                        },
                        "value": "arc"
                    },
                    {
                        "label": "PF2E.SkillAth",
                        "predicate": {
                            "all": [
                                "skill:ath:rank:0"
                            ]
                        },
                        "value": "ath"
                    },
                    {
                        "label": "PF2E.SkillCra",
                        "predicate": {
                            "all": [
                                "skill:cra:rank:0"
                            ]
                        },
                        "value": "cra"
                    },
                    {
                        "label": "PF2E.SkillDec",
                        "predicate": {
                            "all": [
                                "skill:dec:rank:0"
                            ]
                        },
                        "value": "dec"
                    },
                    {
                        "label": "PF2E.SkillDip",
                        "predicate": {
                            "all": [
                                "skill:dip:rank:0"
                            ]
                        },
                        "value": "dip"
                    },
                    {
                        "label": "PF2E.SkillItm",
                        "predicate": {
                            "all": [
                                "skill:itm:rank:0"
                            ]
                        },
                        "value": "itm"
                    },
                    {
                        "label": "PF2E.SkillMed",
                        "predicate": {
                            "all": [
                                "skill:arc:rank:0"
                            ]
                        },
                        "value": "med"
                    },
                    {
                        "label": "PF2E.SkillNat",
                        "predicate": {
                            "all": [
                                "skill:nat:rank:0"
                            ]
                        },
                        "value": "nat"
                    },
                    {
                        "label": "PF2E.SkillOcc",
                        "predicate": {
                            "all": [
                                "skill:occ:rank:0"
                            ]
                        },
                        "value": "occ"
                    },
                    {
                        "label": "PF2E.SkillPrf",
                        "predicate": {
                            "all": [
                                "skill:prf:rank:0"
                            ]
                        },
                        "value": "prf"
                    },
                    {
                        "label": "PF2E.SkillRel",
                        "predicate": {
                            "all": [
                                "skill:rel:rank:0"
                            ]
                        },
                        "value": "rel"
                    },
                    {
                        "label": "PF2E.SkillSoc",
                        "predicate": {
                            "all": [
                                "skill:soc:rank:0"
                            ]
                        },
                        "value": "soc"
                    },
                    {
                        "label": "PF2E.SkillSte",
                        "predicate": {
                            "all": [
                                "skill:ste:rank:0"
                            ]
                        },
                        "value": "ste"
                    },
                    {
                        "label": "PF2E.SkillSur",
                        "predicate": {
                            "all": [
                                "skill:sur:rank:0"
                            ]
                        },
                        "value": "sur"
                    },
                    {
                        "label": "PF2E.SkillThi",
                        "predicate": {
                            "all": [
                                "skill:thi:rank:0"
                            ]
                        },
                        "value": "thi"
                    }
                ],
                "flag": "skillChoice",
                "key": "ChoiceSet",
                "prompt": "PF2E.SpecificRule.Prompt.Skill"
            },
            {
                "key": "ActiveEffectLike",
                "mode": "add",
                "path": "data.skills.{item|flags.pf2e.rulesSelections.skillChoice}.rank",
                "value": 1
            }
        ],
        "source": {
            "value": "Pathfinder Book of the Dead"
        },
        "traits": {
            "custom": "",
            "rarity": "common",
            "value": [
                "skeleton"
            ]
        }
    },
    "flags": {},
    "img": "systems/pf2e/icons/default-icons/feats.webp",
    "name": "Past Life",
    "type": "feat"
}
