{
    "_id": "wGaxWwJhIXbMJft1",
    "data": {
        "actionCategory": {
            "value": ""
        },
        "actionType": {
            "value": "passive"
        },
        "actions": {
            "value": null
        },
        "description": {
            "value": "<p>You can prepare incredible numbers of snares each day out of simple ingredients. Double the number of prepared snares granted by Snarecrafter Dedication.</p>"
        },
        "featType": {
            "value": "archetype"
        },
        "level": {
            "value": 12
        },
        "prerequisites": {
            "value": [
                {
                    "value": "Snarecrafter Dedication"
                }
            ]
        },
        "rules": [
            {
                "key": "ActiveEffectLike",
                "mode": "add",
                "path": "data.crafting.entries.snareCrafting.maxSlots",
                "value": {
                    "brackets": [
                        {
                            "end": 2,
                            "start": 1,
                            "value": 4
                        },
                        {
                            "end": 3,
                            "start": 3,
                            "value": 6
                        },
                        {
                            "start": 4,
                            "value": 8
                        }
                    ],
                    "field": "actor|data.skills.cra.rank"
                }
            }
        ],
        "source": {
            "value": "Pathfinder Advanced Player's Guide"
        },
        "traits": {
            "custom": "",
            "rarity": "common",
            "value": [
                "archetype"
            ]
        }
    },
    "flags": {},
    "img": "systems/pf2e/icons/features/feats/feats.webp",
    "name": "Plentiful Snares",
    "type": "feat"
}
