{
    "_id": "vu0R9VfRZ6RWTczZ",
    "data": {
        "actionCategory": {
            "value": ""
        },
        "actionType": {
            "value": "passive"
        },
        "actions": {
            "value": null
        },
        "description": {
            "value": "<p>After extensive practice with the Swords, you're comfortable enough with your shield to move at a normal pace with it raised. You may use the Defend exploration activity while traveling at your full travel speed instead of half your travel speed.</p>"
        },
        "featType": {
            "value": "archetype"
        },
        "level": {
            "value": 10
        },
        "prerequisites": {
            "value": [
                {
                    "value": "Swordmaster Dedication"
                }
            ]
        },
        "rules": [],
        "source": {
            "value": "Pathfinder Lost Omens: Pathfinder Society Guide"
        },
        "traits": {
            "custom": "",
            "rarity": "common",
            "value": [
                "archetype"
            ]
        }
    },
    "flags": {},
    "img": "systems/pf2e/icons/features/feats/feats.webp",
    "name": "Practiced Defender",
    "type": "feat"
}
