{
    "_id": "cErltcAC7OVnIyO1",
    "data": {
        "actionCategory": {
            "value": ""
        },
        "actionType": {
            "value": "action"
        },
        "actions": {
            "value": 1
        },
        "description": {
            "value": "<p>By observing an opponent, you can get a sense of their next move and prepare to counter or resist it.</p>\n<p>Choose one target and attempt a Perception check to @Compendium[pf2e.actionspf2e.Sense Motive]{Sense Motive} against the foe's Deception DC or a hard DC of the foe's level, whichever is higher.</p>\n<hr />\n<p><strong>Critical Success</strong> You precisely discern the target's strategy, gaining a +2 circumstance bonus to AC against the creature until the start of your next turn and a +2 circumstance bonus to your next saving throw against the creature before the start of your next turn.</p>\n<p>@Compendium[pf2e.feat-effects.Effect: Predictable! (Critical Success)]{Effect: Predictable! (Critical Success)}</p>\n<p><strong>Success</strong> You deduce the gist of the target's strategy; as critical success, except the circumstance bonus is only +1.</p>\n<p>@Compendium[pf2e.feat-effects.Effect: Predictable!]{Effect: Predictable!}</p>\n<p><strong>F</strong><strong>ailure</strong> You fail to discern the target's strategy and gain no benefit.</p>\n<p><strong>Critical Failure</strong> You misinterpret the target's strategy and take a -1 circumstance penalty to AC against the creature until the start of your next turn, and a -1 circumstance penalty to your next saving throw against the creature before the start of your next turn.</p>\n<p>@Compendium[pf2e.feat-effects.Effect: Predictable! (Critical Failure)]{Effect: Predictable! (Critical Failure)}</p>"
        },
        "featType": {
            "value": "class"
        },
        "level": {
            "value": 4
        },
        "location": "",
        "prerequisites": {
            "value": []
        },
        "rules": [],
        "source": {
            "value": ""
        },
        "traits": {
            "custom": "",
            "rarity": "common",
            "value": [
                "rogue"
            ]
        }
    },
    "flags": {},
    "img": "systems/pf2e/icons/features/feats/feats.webp",
    "name": "Predictable!",
    "type": "feat"
}
