{
    "_id": "WQa6PxkOgyvRpaaM",
    "data": {
        "actionCategory": {
            "value": ""
        },
        "actionType": {
            "value": "reaction"
        },
        "actions": {
            "value": null
        },
        "description": {
            "value": "<p><strong>Trigger</strong> You successfully @Compendium[pf2e.actionspf2e.Seek]{Seek} a hidden or undetected creature.</p>\n<hr />\n<p>You give a throaty growl to attempt to @Compendium[pf2e.actionspf2e.Demoralize]{Demoralize} a creature you just found. You don't take the -4 penalty for not sharing a language with the creature.</p>"
        },
        "featType": {
            "value": "ancestry"
        },
        "level": {
            "value": 9
        },
        "location": "",
        "prerequisites": {
            "value": [
                {
                    "value": "expert in Intimidation"
                }
            ]
        },
        "rules": [],
        "source": {
            "value": "Pathfinder Lost Omens: Ancestry Guide"
        },
        "traits": {
            "custom": "",
            "rarity": "common",
            "value": [
                "catfolk"
            ]
        }
    },
    "flags": {},
    "img": "systems/pf2e/icons/features/feats/feats.webp",
    "name": "Predator's Growl",
    "type": "feat"
}
