{
    "_id": "DmcJtpMBSh3R5MHI",
    "data": {
        "actionCategory": {
            "value": ""
        },
        "actionType": {
            "value": "free"
        },
        "actions": {
            "value": null
        },
        "description": {
            "value": "<p><strong>Trigger</strong> You roll initiative.</p>\n<hr />\n<p>Your instincts kick in and you take on an aggressive stance. You use @Compendium[pf2e.actionspf2e.Change Shape (Beastkin)]{Change Shape} to enter your hybrid form or a new form granted by a beastkin feat.</p>"
        },
        "featType": {
            "value": "ancestry"
        },
        "level": {
            "value": 1
        },
        "location": "",
        "prerequisites": {
            "value": []
        },
        "rules": [],
        "source": {
            "value": ""
        },
        "traits": {
            "custom": "",
            "rarity": "common",
            "value": [
                "beastkin"
            ]
        }
    },
    "flags": {},
    "img": "systems/pf2e/icons/features/feats/feats.webp",
    "name": "Quick Change (Beastkin)",
    "type": "feat"
}
