{
    "_id": "2XmdYW8OsAvjGDG3",
    "data": {
        "actionCategory": {
            "value": ""
        },
        "actionType": {
            "value": "action"
        },
        "actions": {
            "value": 1
        },
        "description": {
            "value": "<p>Your biological circuitry emits light like a torch, casting bright light in a 20-foot radius (and dim light for the next 20 feet). The light shuts off when you take this action again or are knocked @Compendium[pf2e.conditionitems.Unconscious]{Unconscious}.</p>\n<p>@Compendium[pf2e.feat-effects.Effect: Radiant Circuitry]{Effect: Radiant Circuitry}</p>"
        },
        "featType": {
            "value": "ancestry"
        },
        "level": {
            "value": 1
        },
        "location": null,
        "prerequisites": {
            "value": []
        },
        "rules": [],
        "source": {
            "value": "Pathfinder Lost Omens: Ancestry Guide"
        },
        "traits": {
            "custom": "",
            "rarity": "common",
            "value": [
                "android",
                "concentrate",
                "light"
            ]
        }
    },
    "flags": {},
    "img": "systems/pf2e/icons/features/feats/feats.webp",
    "name": "Radiant Circuitry",
    "type": "feat"
}
