{
    "_id": "R00qiDE5pBctgtyU",
    "data": {
        "actionCategory": {
            "value": ""
        },
        "actionType": {
            "value": "passive"
        },
        "actions": {
            "value": null
        },
        "description": {
            "value": "<p>You become trained in Survival; if you were already trained in Survival, you instead become trained in another skill of your choice. You become trained in ranger class DC. You can use the @Compendium[pf2e.actionspf2e.Hunt Prey]{Hunt Prey} action.</p>\n<hr />\n<p><strong>Special</strong> You cannot select another dedication feat until you have gained two other feats from the ranger archetype.</p>"
        },
        "featType": {
            "value": "archetype"
        },
        "level": {
            "value": 2
        },
        "location": "",
        "prerequisites": {
            "value": [
                {
                    "value": "Dexterity 14"
                }
            ]
        },
        "rules": [
            {
                "allowDuplicate": false,
                "key": "GrantItem",
                "uuid": "Compendium.pf2e.actionspf2e.Hunt Prey"
            },
            {
                "count": true,
                "domain": "all",
                "key": "RollOption",
                "option": "grants-hunt-prey",
                "priority": 99
            },
            {
                "key": "ActiveEffectLike",
                "mode": "upgrade",
                "path": "data.skills.sur.rank",
                "value": 1
            },
            {
                "key": "ActiveEffectLike",
                "mode": "add",
                "path": "data.custom.modifiers.ranger-dedication-count",
                "value": 1
            }
        ],
        "source": {
            "value": "Pathfinder Core Rulebook"
        },
        "traits": {
            "custom": "",
            "rarity": "common",
            "value": [
                "archetype",
                "dedication",
                "multiclass"
            ]
        }
    },
    "flags": {},
    "img": "systems/pf2e/icons/features/feats/feats.webp",
    "name": "Ranger Dedication",
    "type": "feat"
}
