{
    "_id": "Yec6UwJf5FLvAbZ4",
    "data": {
        "actionCategory": {
            "value": ""
        },
        "actionType": {
            "value": "reaction"
        },
        "actions": {
            "value": null
        },
        "description": {
            "value": "<p><strong>Trigger</strong> An opponent casts a spell and you critically succeed at a saving throw against it.</p>\n<p><strong>Requirements</strong> You have a shield raised or are benefiting from Dueling Parry or Twin Parry.</p>\n<hr />\n<p>You attempt to counteract the triggering spell using powerful magical techniques observed in the Kortos Mounts. Use your attack roll modifier with your shield or parrying weapon for your counteract check. If you counteract the spell, it is reflected upon the caster. If the spell targeted individual creatures, it targets the caster only. If the spell targeted an area centered on a point, the new area is centered on the caster. If the spell was a cone or line, the cone or line emanates from you toward the caster. If the spell has a save DC, it uses your class DC, and if it requires a spell attack roll, use the same attack roll modifier as the counteract check.</p>"
        },
        "featType": {
            "value": "class"
        },
        "level": {
            "value": 20
        },
        "location": "",
        "prerequisites": {
            "value": [
                {
                    "value": "Dueling Riposte, Mirror Shield, or Twin Riposte"
                }
            ]
        },
        "rules": [],
        "source": {
            "value": "Pathfinder #156: The Apocalypse Prophet"
        },
        "traits": {
            "custom": "",
            "rarity": "uncommon",
            "selected": {
                "fighter": "Fighter"
            },
            "value": [
                "fighter"
            ]
        }
    },
    "flags": {},
    "img": "systems/pf2e/icons/features/feats/feats.webp",
    "name": "Reflecting Riposte",
    "type": "feat"
}
