{
    "_id": "OliKxFIqzky2o6vk",
    "data": {
        "actionCategory": {
            "value": ""
        },
        "actionType": {
            "value": "reaction"
        },
        "actions": {
            "value": null
        },
        "description": {
            "value": "<p><strong>Requirements</strong> The ally hasn't acted in the current combat.</p>\n<p><strong>Trigger</strong> An ally's turn begins.</p>\n<hr />\n<p>You announce the triggering ally with a litany of their legendary achievements, spurring them to action. The target is @Compendium[pf2e.conditionitems.Quickened]{Quickened} this turn and can spend the extra action to Stride, Strike, Demoralize, Feint, or Perform.</p>"
        },
        "featType": {
            "value": "class"
        },
        "level": {
            "value": 20
        },
        "location": "",
        "prerequisites": {
            "value": []
        },
        "rules": [],
        "source": {
            "value": "Pathfinder #156: The Apocalypse Prophet"
        },
        "traits": {
            "custom": "",
            "rarity": "uncommon",
            "value": [
                "auditory",
                "bard"
            ]
        }
    },
    "flags": {},
    "img": "systems/pf2e/icons/default-icons/feats.webp",
    "name": "Ringmaster's Introduction",
    "type": "feat"
}
