{
    "_id": "kpn4R65YlD38iAIS",
    "data": {
        "actionCategory": {
            "value": ""
        },
        "actionType": {
            "value": "passive"
        },
        "actions": {
            "value": null
        },
        "description": {
            "value": "<p>You can temporarily revert to a less conspicuous form without diminishing your senses. You take the form of an ordinary specimen of the type of plant or fungus that most closely resembles you, reverting to your body's appearance just before your spirit joined with it. This otherwise has the effects of <em>@Compendium[pf2e.spells-srd.Tree Shape]{Tree Shape}</em>, except that your size remains Small.</p>"
        },
        "featType": {
            "value": "ancestry"
        },
        "level": {
            "value": 5
        },
        "prerequisites": {
            "value": []
        },
        "rules": [],
        "source": {
            "value": "Pathfinder Lost Omens: Character Guide"
        },
        "traits": {
            "custom": "",
            "rarity": "common",
            "value": [
                "leshy",
                "polymorph",
                "primal",
                "transmutation"
            ]
        }
    },
    "flags": {},
    "img": "systems/pf2e/icons/features/feats/feats.webp",
    "name": "Ritual Reversion",
    "type": "feat"
}
