{
    "_id": "23F2oqjL7SAMW3Ud",
    "data": {
        "actionCategory": {
            "value": ""
        },
        "actionType": {
            "value": "passive"
        },
        "actions": {
            "value": null
        },
        "description": {
            "value": "<p>You were born to a jiang-shi, one of the so-called hopping vampires found most often in Tian-Xia. Your parent had a supernatural obsession with counting small objects, which manifests in you as a preternatural gift for linguistics and mathematics. You are trained in Society and gain the @Compendium[pf2e.feats-srd.Eye For Numbers]{Eye For Numbers} skill feat. If you would automatically become trained in Society (from your background or class, for example), you instead become trained in a skill of your choice.</p>"
        },
        "featType": {
            "value": "ancestry"
        },
        "level": {
            "value": 1
        },
        "location": null,
        "onlyLevel1": true,
        "prerequisites": {
            "value": []
        },
        "rules": [
            {
                "key": "ActiveEffectLike",
                "mode": "upgrade",
                "path": "data.skills.soc.rank",
                "value": 1
            },
            {
                "key": "GrantItem",
                "uuid": "Compendium.pf2e.feats-srd.Eye For Numbers"
            }
        ],
        "source": {
            "value": "Pathfinder Lost Omens: Ancestry Guide"
        },
        "traits": {
            "custom": "",
            "rarity": "common",
            "value": [
                "dhampir",
                "lineage"
            ]
        }
    },
    "flags": {},
    "img": "systems/pf2e/icons/features/feats/feats.webp",
    "name": "Ru-shi",
    "type": "feat"
}
