{
    "_id": "vKzAIJuyr9SU2JzU",
    "data": {
        "actionCategory": {
            "value": ""
        },
        "actionType": {
            "value": "passive"
        },
        "actions": {
            "value": null
        },
        "description": {
            "value": "<p>You establish a safe house-a secure space in which to hide your secrets from the outside world.</p>\n<p>This safe house is roughly the size of a 10-foot cube. It's in a location you have access to, and it can be part of a larger building or structure, like a hidden room or an underground cave.</p>\n<p>The safe house protects objects and people inside it from magical detection. This has the effects of <em>@Compendium[pf2e.spells-srd.Nondetection]{Nondetection}</em>, using your Deception modifier for the counteract DC and half your level rounded up for the counteract level.</p>\n<p>Setting up or moving your safe house takes a week of downtime.</p>\n<p>The size of the safe house expands to four 10-foot cubes if you're an expert in Deception, eight cubes if you're a master, and 16 cubes if you're legendary.</p>"
        },
        "featType": {
            "value": "archetype"
        },
        "level": {
            "value": 4
        },
        "prerequisites": {
            "value": [
                {
                    "value": "Vigilante Dedication"
                }
            ]
        },
        "rules": [],
        "source": {
            "value": "Pathfinder Advanced Player's Guide"
        },
        "traits": {
            "custom": "",
            "rarity": "common",
            "value": [
                "archetype"
            ]
        }
    },
    "flags": {},
    "img": "systems/pf2e/icons/features/feats/feats.webp",
    "name": "Safe House",
    "type": "feat"
}
