{
    "_id": "roItUHUbBqhHfwJr",
    "data": {
        "actionCategory": {
            "value": ""
        },
        "actionType": {
            "value": "action"
        },
        "actions": {
            "value": 1
        },
        "description": {
            "value": "<p>Your shots zip around corners and fly at impossible angles to reach your target. Make a bow Strike against a foe you can see; the ammunition travels to your target, even around corners. You ignore the target's @Compendium[pf2e.conditionitems.Concealed]{Concealed} condition and all cover.</p>"
        },
        "featType": {
            "value": "archetype"
        },
        "level": {
            "value": 14
        },
        "prerequisites": {
            "value": [
                {
                    "value": "Eldritch Archer Dedication"
                }
            ]
        },
        "rules": [],
        "source": {
            "value": "Pathfinder Advanced Player's Guide"
        },
        "traits": {
            "custom": "",
            "rarity": "common",
            "value": [
                "archetype",
                "divination",
                "magical"
            ]
        }
    },
    "flags": {},
    "img": "systems/pf2e/icons/features/feats/feats.webp",
    "name": "Seeker Arrow",
    "type": "feat"
}
