{
    "_id": "eGgSGU1LOaRNRYR7",
    "data": {
        "actionCategory": {
            "value": "interaction"
        },
        "actionType": {
            "value": "action"
        },
        "actions": {
            "value": 1
        },
        "description": {
            "value": "<p>You attach a piece of your shadow to a spell to cloud the senses and cause mischief. If the next action you take is to Cast a Spell that has the shadow trait, choose one creature affected by the spell. This creature either gains a +2 status bonus to Stealth or takes a -2 status penalty to Perception (your choice). This lasts for 1 round. This choice and the effect occur after resolving any checks for the spell's initial effects. If the chosen creature is your enemy, it's affected only if your spell attack roll succeeded or if it failed its saving throw.</p>\n<p>The effects of <em>Shadow Spell</em> end if you use <em>Shadow Spell</em> again.</p>"
        },
        "featType": {
            "value": "archetype"
        },
        "level": {
            "value": 8
        },
        "location": "",
        "prerequisites": {
            "value": [
                {
                    "value": "Shadowcaster Dedication"
                }
            ]
        },
        "rules": [],
        "source": {
            "value": ""
        },
        "traits": {
            "custom": "",
            "rarity": "common",
            "value": [
                "metamagic",
                "shadow"
            ]
        }
    },
    "flags": {},
    "img": "systems/pf2e/icons/features/feats/feats.webp",
    "name": "Shadow Spell",
    "type": "feat"
}
