{
    "_id": "ACeqRSWr4CEwLZgO",
    "data": {
        "actionCategory": {
            "value": ""
        },
        "actionType": {
            "value": "passive"
        },
        "actions": {
            "value": null
        },
        "description": {
            "value": "<p>Thousands of years ago, your ancestors made a pact with @Compendium[pf2e.deities.Zon-Kuthon]{Zon-Kuthon}. He has not forgotten, even if you might wish he had. You can take 1 damage to mix blood and shadows to cast 5th-level <em>@Compendium[pf2e.spells-srd.Creation]{Creation}</em> as an innate divine spell. You can use this ability as often as you wish, but you can have only one such object in existence at a time. If the object encounters bright light, the spell ends and the object dissolves into shadows.</p>"
        },
        "featType": {
            "value": "ancestry"
        },
        "level": {
            "value": 13
        },
        "prerequisites": {
            "value": [
                {
                    "value": "Nidalese ethnicity"
                }
            ]
        },
        "rules": [],
        "source": {
            "value": "Pathfinder Lost Omens: Character Guide"
        },
        "traits": {
            "custom": "",
            "rarity": "common",
            "value": [
                "human"
            ]
        }
    },
    "flags": {},
    "img": "systems/pf2e/icons/features/feats/feats.webp",
    "name": "Shadow Pact",
    "type": "feat"
}
