{
    "_id": "F7Ao9p17ocf3JVvy",
    "data": {
        "actionCategory": {
            "value": ""
        },
        "actionType": {
            "value": "passive"
        },
        "actions": {
            "value": null
        },
        "description": {
            "value": "<p>You can focus the shadows into a powerful blast. You can cast <em>@Compendium[pf2e.spells-srd.Shadow Blast]{Shadow Blast}</em> as an innate occult spell once per day. Its level is always 1 level lower than the level of your shadowdancer focus spells. You become an expert in occult spell attack rolls and DCs.</p>"
        },
        "featType": {
            "value": "archetype"
        },
        "level": {
            "value": 14
        },
        "prerequisites": {
            "value": [
                {
                    "value": "Shadow Magic"
                }
            ]
        },
        "rules": [],
        "source": {
            "value": "Pathfinder Advanced Player's Guide"
        },
        "traits": {
            "custom": "",
            "rarity": "common",
            "value": [
                "archetype"
            ]
        }
    },
    "flags": {},
    "img": "systems/pf2e/icons/features/feats/feats.webp",
    "name": "Shadow Power",
    "type": "feat"
}
