{
    "_id": "nbWkPLiUxagX8dCw",
    "data": {
        "actionCategory": {
            "value": ""
        },
        "actionType": {
            "value": "passive"
        },
        "actions": {
            "value": null
        },
        "description": {
            "value": "<p>A lifetime of experience helps you see through disguises. When you come within 10 feet of a creature that is transformed into another form or is Impersonating a specific creature, the GM rolls a secret Perception check for you to realize that the creature is transformed, even if you didn't spend an action to Seek against that creature.</p>"
        },
        "featType": {
            "value": "ancestry"
        },
        "level": {
            "value": 1
        },
        "location": "",
        "prerequisites": {
            "value": []
        },
        "rules": [],
        "source": {
            "value": "Pathfinder Lost Omens: Ancestry Guide"
        },
        "traits": {
            "custom": "",
            "rarity": "common",
            "value": [
                "kitsune"
            ]
        }
    },
    "flags": {},
    "img": "systems/pf2e/icons/features/feats/feats.webp",
    "name": "Shapechanger's Intuition",
    "type": "feat"
}
