{
    "_id": "jdrdkxqautAtszCX",
    "data": {
        "actionCategory": {
            "value": ""
        },
        "actionType": {
            "value": "passive"
        },
        "actions": {
            "value": null
        },
        "description": {
            "value": "<p>Your eidolon shares innate spells with you. You can cast the innate spells your eidolon gained from Magical Understudy, Magical Adept, and Magical Master. You and your eidolon share the same daily uses of these innate spells.</p>"
        },
        "featType": {
            "value": "class"
        },
        "level": {
            "value": 14
        },
        "location": "",
        "prerequisites": {
            "value": [
                {
                    "value": "Magical Understudy"
                }
            ]
        },
        "rules": [],
        "source": {
            "value": ""
        },
        "traits": {
            "custom": "",
            "rarity": "common",
            "value": [
                "summoner"
            ]
        }
    },
    "flags": {},
    "img": "systems/pf2e/icons/features/feats/feats.webp",
    "name": "Share Eidolon Magic",
    "type": "feat"
}
