{
    "_id": "4bB3N36DmqllGJNx",
    "data": {
        "actionCategory": {
            "value": ""
        },
        "actionType": {
            "value": "passive"
        },
        "actions": {
            "value": null
        },
        "description": {
            "value": "<p>You can save your shield from total destruction, even after a devastating attack. If a shield would be destroyed due to damage taken during your @Compendium[pf2e.feats-srd.Shield Block]{Shield Block}, the shield remains intact at 1 Hit Point instead.</p>\n<p>Its construction is weakened until you take the time to repair it, preventing you from using Shield Salvation to save the same shield until your next preparations.</p>"
        },
        "featType": {
            "value": "archetype"
        },
        "level": {
            "value": 12
        },
        "prerequisites": {
            "value": [
                {
                    "value": "Bastion Dedication"
                }
            ]
        },
        "rules": [],
        "source": {
            "value": "Pathfinder Advanced Player's Guide"
        },
        "traits": {
            "custom": "",
            "rarity": "common",
            "value": [
                "archetype"
            ]
        }
    },
    "flags": {},
    "img": "systems/pf2e/icons/features/feats/feats.webp",
    "name": "Shield Salvation",
    "type": "feat"
}
