{
    "_id": "plhQDES7yb6xDAXL",
    "data": {
        "actionCategory": {
            "value": ""
        },
        "actionType": {
            "value": "passive"
        },
        "actions": {
            "value": null
        },
        "description": {
            "value": "<p>Unique in Golarion's history, the Shory people developed fighting styles dedicated to combat in the air. You gain a +2 circumstance bonus to Acrobatics checks to Maneuver in Flight and a +5-foot status bonus to your fly Speed whenever you are flying via magic.</p>"
        },
        "featType": {
            "value": "ancestry"
        },
        "level": {
            "value": 13
        },
        "prerequisites": {
            "value": [
                {
                    "value": "Garundi, Mauxi, or Tian-Yae ethnicity"
                },
                {
                    "value": "Shory Aeromancer or ability to cast fly"
                }
            ]
        },
        "rules": [],
        "source": {
            "value": "Pathfinder Lost Omens: Character Guide"
        },
        "traits": {
            "custom": "",
            "rarity": "common",
            "value": [
                "human"
            ]
        }
    },
    "flags": {},
    "img": "systems/pf2e/icons/features/feats/feats.webp",
    "name": "Shory Aerialist",
    "type": "feat"
}
