{
    "_id": "JlGZFW3mCNxWPKvX",
    "data": {
        "actionCategory": {
            "value": ""
        },
        "actionType": {
            "value": "action"
        },
        "actions": {
            "value": 1
        },
        "description": {
            "value": "<p>You've learned how to cast many of your spells without speaking the words of power you would normally need to provide.</p>\n<p>If the next action you use is Casting a Spell that has a verbal component and at least one other component, you can remove the verbal component. This makes the spell quieter and allows you to cast it in areas where sound can't carry. However, the spell still has visual manifestations, so this doesn't make the spell any less obvious to someone who sees you casting it.</p>\n<p>When you use Silent Spell, you can choose to gain the benefits of @Compendium[pf2e.feats-srd.Conceal Spell]{Conceal Spell}, and you don't need to attempt a Deception check because the spell has no verbal components.</p>"
        },
        "featType": {
            "value": "class"
        },
        "level": {
            "value": 4
        },
        "location": "",
        "prerequisites": {
            "value": [
                {
                    "value": "Conceal Spell"
                }
            ]
        },
        "rules": [],
        "source": {
            "value": "Pathfinder Core Rulebook"
        },
        "traits": {
            "custom": "",
            "rarity": "common",
            "value": [
                "concentrate",
                "metamagic",
                "wizard"
            ]
        }
    },
    "flags": {},
    "img": "systems/pf2e/icons/features/feats/feats.webp",
    "name": "Silent Spell",
    "type": "feat"
}
