{
    "_id": "SS8JSDB2P0SFX1KH",
    "data": {
        "actionCategory": {
            "value": ""
        },
        "actionType": {
            "value": "action"
        },
        "actions": {
            "value": null
        },
        "description": {
            "value": "<p>Your mask holds the legacy of Black Heron, the Wings of Knowledge, who united the aeromancers of the Shory Empire. You can harness residual magical power to fly. You gain a fly Speed equal to your Speed. Immediately after you Cast a non-cantrip Spell that targets only you, your fly Speed doubles until your next turn.</p>"
        },
        "featType": {
            "value": "archetype"
        },
        "level": {
            "value": 20
        },
        "location": "",
        "prerequisites": {
            "value": [
                {
                    "value": "Druid Dedication or Wizard Dedication"
                }
            ]
        },
        "rarity": {
            "value": "common"
        },
        "rules": [
            {
                "key": "BaseSpeed",
                "selector": "fly",
                "value": "@actor.attributes.speed.value"
            }
        ],
        "source": {
            "value": "Pathfinder #174: Shadows of the Ancients"
        },
        "traits": {
            "custom": "",
            "rarity": "rare",
            "value": [
                "rare",
                "archetype",
                "druid",
                "wizard"
            ]
        },
        "usage": {
            "value": ""
        }
    },
    "flags": {},
    "img": "systems/pf2e/icons/features/feats/feats.webp",
    "name": "Sky Master Mask",
    "type": "feat"
}
