{
    "_id": "sIN6t7nCWdI5u1HK",
    "data": {
        "actionCategory": {
            "value": "offensive"
        },
        "actionType": {
            "value": "action"
        },
        "actions": {
            "value": 2
        },
        "description": {
            "value": "<p><strong>Cost</strong> 1 spirit wisp or spirit remnant from your spirit dwelling</p>\n<p><strong>Requirements</strong> You are holding your spirit dwelling.</p>\n<hr />\n<p>You purify a spirit by coaxing it to release its anguish in a final cathartic howl. This deals sonic damage to all creatures in a @Template[type:cone|distance:30], with a @Check[type:will|dc:resolve(@actor.attributes.classOrSpellDC)|basic:true] save against your class DC or spell DC, whichever is higher. If you expend a spirit wisp, this deals [[/r {1d4}[sonic]]]{1d4 sonic damage} per level you have. If you expend a spirit remnant, this deals [[/r {1d6}[sonic]]]{1d6 sonic damage} per level of the incorporeal undead or haunt from which you gained the remnant.</p>"
        },
        "featType": {
            "value": "archetype"
        },
        "level": {
            "value": 8
        },
        "location": null,
        "prerequisites": {
            "value": [
                {
                    "value": "Exorcist Dedication"
                }
            ]
        },
        "rules": [],
        "source": {
            "value": "Pathfinder Book of the Dead"
        },
        "traits": {
            "custom": "",
            "rarity": "common",
            "value": [
                "archetype",
                "evocation",
                "sonic"
            ]
        }
    },
    "flags": {},
    "img": "systems/pf2e/icons/default-icons/feats.webp",
    "name": "Spirit's Anguish",
    "type": "feat"
}
