{
    "_id": "SzkpazSZ0pi1WZsH",
    "data": {
        "actionCategory": {
            "value": "defensive"
        },
        "actionType": {
            "value": "reaction"
        },
        "actions": {
            "value": null
        },
        "description": {
            "value": "<p><strong>Trigger</strong> A creature grabs, immobilizes, or restrains you.</p>\n<hr />\n<p>You're used to slipping out of a bigger creature's grasp or escaping a child's overly enthusiastic hug. You attempt to @Compendium[pf2e.actionspf2e.Escape]{Escape}.</p>"
        },
        "featType": {
            "value": "ancestry"
        },
        "level": {
            "value": 13
        },
        "location": "",
        "prerequisites": {
            "value": []
        },
        "rules": [],
        "source": {
            "value": ""
        },
        "traits": {
            "custom": "",
            "rarity": "common",
            "value": [
                "poppet"
            ]
        }
    },
    "flags": {},
    "img": "systems/pf2e/icons/default-icons/feats.webp",
    "name": "Squirm Free",
    "type": "feat"
}
