{
    "_id": "tFUo2tsdreWBxMfs",
    "data": {
        "actionCategory": {
            "value": ""
        },
        "actionType": {
            "value": "action"
        },
        "actions": {
            "value": null
        },
        "description": {
            "value": "<p>Like Azure Leopard, the Patient Warden, your mask makes you most at home in the night and teaches you how to use the darkness to hunt. You gain greater darkvision. Immediately after you Cast a non-cantrip Spell with the shadow or darkness trait, you can attempt to @Compendium[pf2e.actionspf2e.Hide]{Hide} or @Compendium[pf2e.actionspf2e.Sneak]{Sneak} as a free action. You must still meet the usual requirements of the action you choose, such as having cover or concealment to Hide and being undetected or @Compendium[pf2e.conditionitems.Hidden]{Hidden} to Sneak.</p>"
        },
        "featType": {
            "value": "archetype"
        },
        "level": {
            "value": 20
        },
        "location": "",
        "prerequisites": {
            "value": [
                {
                    "value": "Druid Dedication or Wizard Dedication"
                }
            ]
        },
        "rarity": {
            "value": "common"
        },
        "rules": [
            {
                "key": "Sense",
                "label": "PF2E.SensesGreaterDarkvision",
                "selector": "greaterDarkvision"
            }
        ],
        "source": {
            "value": "Pathfinder #174: Shadows of the Ancients"
        },
        "traits": {
            "custom": "",
            "rarity": "rare",
            "value": [
                "rare",
                "archetype",
                "druid",
                "wizard"
            ]
        },
        "usage": {
            "value": ""
        }
    },
    "flags": {},
    "img": "systems/pf2e/icons/features/feats/feats.webp",
    "name": "Stalking Feline Mask",
    "type": "feat"
}
