{
    "_id": "A0keRhzNlcB1u4gD",
    "data": {
        "actionCategory": {
            "value": "offensive"
        },
        "actionType": {
            "value": "action"
        },
        "actions": {
            "value": 2
        },
        "description": {
            "value": "<p>You've modified your dynamo with Stasian coils, allowing you to make a powerful attack that crackles with electricity. Make a dynamo Strike. On a success, the Strike deals an additional [[/r {1d12}[electricity]]]{1d12 electricity damage} to the target, as well as [[/r {1d4}[electricity]]]{1d4 electricity damage} to up to two other foes within 10 feet as sparks leap across the gaps. If you critically fail your dynamo Strike, you take [[/r {1d12}[electricity]]]{1d12 electricity damage}. This counts as two attacks when calculating your multiple attack penalty. At 18th level, the additional electricity damage to the target increases to 2d12, and the additional electricity damage to the other foes increases to [[/r 2d4]]{2d4}. Reduce the operational time of your sterling dynamo by 1 hour.</p>"
        },
        "featType": {
            "value": "archetype"
        },
        "level": {
            "value": 8
        },
        "location": "",
        "prerequisites": {
            "value": [
                {
                    "value": "Sterling Dynamo Dedication"
                },
                {
                    "value": "Access: You are from Ustalav."
                }
            ]
        },
        "rules": [],
        "source": {
            "value": ""
        },
        "traits": {
            "custom": "",
            "rarity": "uncommon",
            "value": [
                "archetype"
            ]
        }
    },
    "flags": {},
    "img": "systems/pf2e/icons/default-icons/feats.webp",
    "name": "Stasian Smash",
    "type": "feat"
}
