{
    "_id": "eCzIiTjI4mQFYe9D",
    "data": {
        "actionCategory": {
            "value": ""
        },
        "actionType": {
            "value": "passive"
        },
        "actions": {
            "value": null
        },
        "description": {
            "value": "<p>Your eidolon changes to make it particularly effective as your mount. While you ride it, you get your full number of actions each round instead of reducing them to 2. This applies only when you ride your eidolon, not when anyone else does. Your eidolon still must be at least one size category larger than you to ride it. Since you work together to move, your eidolon's move actions while you're mounted gain the tandem trait.</p>"
        },
        "featType": {
            "value": "class"
        },
        "level": {
            "value": 2
        },
        "location": "",
        "prerequisites": {
            "value": []
        },
        "rules": [],
        "source": {
            "value": ""
        },
        "traits": {
            "custom": "",
            "rarity": "common",
            "value": [
                "evolution",
                "summoner"
            ]
        }
    },
    "flags": {},
    "img": "systems/pf2e/icons/features/feats/feats.webp",
    "name": "Steed Form",
    "type": "feat"
}
