{
    "_id": "P1dk0LTWkQ1LT1ai",
    "data": {
        "actionCategory": {
            "value": ""
        },
        "actionType": {
            "value": "passive"
        },
        "actions": {
            "value": null
        },
        "description": {
            "value": "<p>You were born to one of the moroi, the most common vampires, and you share their supernatural fortitude and power of persuasion.</p>\n<p>When you have the @Compendium[pf2e.conditionitems.Drained]{Drained} condition, calculate the penalty to your Fortitude saves and your Hit Point reduction as though the condition value were 1 lower.</p>\n<p>You are trained Diplomacy. If you would automatically be trained in it, you instead become trained in a skill of your choice.</p>"
        },
        "featType": {
            "value": "ancestry"
        },
        "level": {
            "value": 1
        },
        "location": null,
        "onlyLevel1": true,
        "prerequisites": {
            "value": []
        },
        "rules": [
            {
                "key": "ActiveEffectLike",
                "mode": "upgrade",
                "path": "data.skills.dip.rank",
                "value": 1
            }
        ],
        "source": {
            "value": "Pathfinder Advanced Player's Guide"
        },
        "traits": {
            "custom": "",
            "rarity": "common",
            "value": [
                "dhampir",
                "lineage"
            ]
        }
    },
    "flags": {},
    "img": "systems/pf2e/icons/features/feats/feats.webp",
    "name": "Svetocher",
    "type": "feat"
}
