{
    "_id": "VP2CWUTZ9Edg82uz",
    "data": {
        "actionCategory": {
            "value": "offensive"
        },
        "actionType": {
            "value": "action"
        },
        "actions": {
            "value": 1
        },
        "description": {
            "value": "<p>Your undead physiology allows you to leap quickly toward or away from your opponent. You @Compendium[pf2e.actionspf2e.Leap]{Leap}. This movement doesn't trigger reactions.</p>\n<p>If you are satiated, you can choose to end your satiation to instead @Compendium[pf2e.actionspf2e.High Jump]{High Jump} or @Compendium[pf2e.actionspf2e.Long Jump]{Long Jump} without triggering reactions, as you take a quick, enormous jump before any foe can react to your movement.</p>"
        },
        "featType": {
            "value": "archetype"
        },
        "level": {
            "value": 4
        },
        "location": null,
        "prerequisites": {
            "value": [
                {
                    "value": "Ghoul Dedication"
                }
            ]
        },
        "rules": [],
        "source": {
            "value": "Pathfinder Book of the Dead"
        },
        "traits": {
            "custom": "",
            "rarity": "common",
            "value": [
                "archetype"
            ]
        }
    },
    "flags": {},
    "img": "systems/pf2e/icons/default-icons/feats.webp",
    "name": "Swift Leap",
    "type": "feat"
}
