{
    "_id": "yVC5pVZaWczYWGTa",
    "data": {
        "actionCategory": {
            "value": ""
        },
        "actionType": {
            "value": "passive"
        },
        "actions": {
            "value": null
        },
        "description": {
            "value": "<p>You have come to see the overlap between two deities' teachings. Choose a second deity. You must meet their alignment requirements, and you are subject to their edicts and anathema. If you are a cloistered cleric, select one of that deity's domains, gaining the benefits of the Expanded Domain Initiate feat with that domain. If you are a warpriest, you gain the favored weapon of that deity as a second favored weapon, and it gains the benefits of feats and abilities you have that affect your deity's favored weapon, such as @Compendium[pf2e.feats-srd.Deadly Simplicity]{Deadly Simplicity}. If you have a different doctrine than cloistered cleric or warpriest, either apply whichever of the above options is most appropriate for your doctrine, or, at the GM's discretion, add a benefit from the second deity more closely tied to your doctrine.</p>"
        },
        "featType": {
            "value": "class"
        },
        "level": {
            "value": 1
        },
        "prerequisites": {
            "value": [
                {
                    "value": "you follow a deity"
                }
            ]
        },
        "rules": [],
        "source": {
            "value": "Pathfinder Lost Omens: Gods & Magic"
        },
        "traits": {
            "custom": "",
            "rarity": "common",
            "value": [
                "cleric"
            ]
        }
    },
    "flags": {},
    "img": "systems/pf2e/icons/features/feats/feats.webp",
    "name": "Syncretism",
    "type": "feat"
}
