{
    "_id": "SheifYobjKqyK3Fv",
    "data": {
        "actionCategory": {
            "value": "interaction"
        },
        "actionType": {
            "value": "action"
        },
        "actions": {
            "value": 1
        },
        "description": {
            "value": "<p>You tamper with a foe's weapon or armor, using a free hand. Choose either a weapon held by an enemy in your reach or a suit of armor worn by an enemy in your reach. Attempt a Crafting check against the enemy's Reflex DC.</p>\n<hr />\n<p><strong>Critical Success</strong> Your tampering is incredibly effective. If you tampered with a weapon, the enemy takes a -2 circumstance penalty to attack rolls and damage rolls with that weapon. If you tampered with armor, the armor hampers the enemy's movement, making the enemy @Compendium[pf2e.conditionitems.Flat-Footed]{Flat-Footed} and inflicting a -10-foot penalty to its Speeds. The effect lasts until the enemy Interacts to remove it, regardless of which one you used.</p>\n<p><strong>Success</strong> Your tampering is temporarily effective. As critical success, but the effect ends at the start of your next turn, even if the enemy doesn't Interact to end it.</p>\n<p><strong>Critical Failure</strong> Your tampering backfires dramatically, creating a small explosion from your own tools or gear. You take [[/r {@actor.level}[fire]]]{fire damage equal to your level}.</p>"
        },
        "featType": {
            "value": "class"
        },
        "level": {
            "value": 1
        },
        "location": "",
        "prerequisites": {
            "value": []
        },
        "rules": [],
        "source": {
            "value": ""
        },
        "traits": {
            "custom": "",
            "rarity": "common",
            "value": [
                "inventor",
                "manipulate"
            ]
        }
    },
    "flags": {},
    "img": "systems/pf2e/icons/default-icons/feats.webp",
    "name": "Tamper",
    "type": "feat"
}
