{
    "_id": "GLbl3qoWCvvjJr4S",
    "data": {
        "actionCategory": {
            "value": ""
        },
        "actionType": {
            "value": "reaction"
        },
        "actions": {
            "value": null
        },
        "description": {
            "value": "<p><strong>Trigger</strong> You critically hit an adjacent enemy.</p>\n<hr />\n<p>Your vicious Strike pulls you close, giving you the opportunity to grab your foe. Attempt to @Compendium[pf2e.actionspf2e.Grapple]{Grapple} the triggering enemy.</p>"
        },
        "featType": {
            "value": "class"
        },
        "level": {
            "value": 10
        },
        "location": null,
        "prerequisites": {
            "value": []
        },
        "rules": [],
        "source": {
            "value": "Pathfinder Advanced Player's Guide"
        },
        "traits": {
            "custom": "",
            "rarity": "common",
            "value": [
                "barbarian",
                "rage"
            ]
        }
    },
    "flags": {},
    "img": "systems/pf2e/icons/features/feats/feats.webp",
    "name": "Tangle Of Battle",
    "type": "feat"
}
