{
    "_id": "YndH82FX7KLawNBW",
    "data": {
        "actionCategory": {
            "value": "interaction"
        },
        "actionType": {
            "value": "passive"
        },
        "actions": {
            "value": null
        },
        "description": {
            "value": "<p>Escaping your nets is no simple task. The Athletics DC to Force Open or Escape your nets increases from 16 to 18. After a creature you grabbed with a net Escapes or Forces Open the net, stray strands of the net cling to the creature, causing them to remain @Compendium[pf2e.conditionitems.Flat-Footed]{Flat-Footed} until the beginning of their next turn.</p>"
        },
        "featType": {
            "value": "ancestry"
        },
        "level": {
            "value": 5
        },
        "location": "",
        "prerequisites": {
            "value": []
        },
        "rules": [],
        "source": {
            "value": "Pathfinder Lost Omens: The Mwangi Expanse"
        },
        "traits": {
            "custom": "",
            "rarity": "common",
            "value": [
                "grippli"
            ]
        }
    },
    "flags": {},
    "img": "systems/pf2e/icons/default-icons/feats.webp",
    "name": "Tenacious Net",
    "type": "feat"
}
