{
    "_id": "1SvBUzVH5tp0lmn5",
    "data": {
        "actionCategory": {
            "value": ""
        },
        "actionType": {
            "value": "action"
        },
        "actions": {
            "value": 1
        },
        "description": {
            "value": "<p><strong>Requirements</strong> You are wielding two weapons, each in a different hand</p>\n<hr />\n<p>You lash out with both your weapons in a sudden frenzy. Strike twice, once with each weapon.</p>"
        },
        "featType": {
            "value": "class"
        },
        "level": {
            "value": 14
        },
        "prerequisites": {
            "value": []
        },
        "rules": [],
        "source": {
            "value": "Pathfinder Core Rulebook"
        },
        "traits": {
            "custom": "",
            "rarity": "common",
            "value": [
                "fighter",
                "flourish",
                "press"
            ]
        }
    },
    "flags": {},
    "img": "systems/pf2e/icons/features/feats/feats.webp",
    "name": "Two-Weapon Flurry",
    "type": "feat"
}
