{
    "_id": "1RygexXEjCKuR3Ps",
    "data": {
        "actionCategory": {
            "value": ""
        },
        "actionType": {
            "value": "passive"
        },
        "actions": {
            "value": null
        },
        "description": {
            "value": "<p>Your spirit has endured many challenges over its long existence, and you are certain you can overcome whatever hardships life throws your way. You gain a +1 circumstance bonus to saves against emotion effects. If you roll a success on a saving throw against an emotion effect, you get a critical success instead.</p>"
        },
        "featType": {
            "value": "ancestry"
        },
        "level": {
            "value": 1
        },
        "prerequisites": {
            "value": []
        },
        "rules": [
            {
                "key": "FlatModifier",
                "predicate": {
                    "all": [
                        "emotion"
                    ]
                },
                "selector": "saving-throw",
                "type": "circumstance",
                "value": 1
            },
            {
                "key": "Note",
                "predicate": {
                    "all": [
                        "emotion"
                    ]
                },
                "selector": "saving-throw",
                "text": "<p class='compact-text'><strong>{item|name}</strong> When you roll a success on a save against an emotion effect, you get a critical success instead.</p>"
            },
            {
                "adjustment": {
                    "success": "one-degree-better"
                },
                "key": "AdjustDegreeOfSuccess",
                "predicate": {
                    "all": [
                        "emotion"
                    ]
                },
                "selector": "saving-throw",
                "type": "save"
            }
        ],
        "source": {
            "value": "Pathfinder Lost Omens: Character Guide"
        },
        "traits": {
            "custom": "",
            "rarity": "common",
            "value": [
                "leshy"
            ]
        }
    },
    "flags": {},
    "img": "systems/pf2e/icons/features/feats/feats.webp",
    "name": "Undaunted",
    "type": "feat"
}
