{
    "_id": "AqVyKiIjISDBFRA0",
    "data": {
        "actionCategory": {
            "value": "defensive"
        },
        "actionType": {
            "value": "reaction"
        },
        "actions": {
            "value": null
        },
        "description": {
            "value": "<p><strong>Frequency</strong> once per hour</p>\n<p><strong>Trigger</strong> You would be reduced to 0 HP.</p>\n<hr />\n<p>You're relentless and nigh unkillable, shrugging off blows that should destroy you, though they might make your body start to fall apart. You are reduced to 1 HP instead of 0 HP. You must succeed at a @Check[type:flat|dc:6] or your body deteriorates.</p>"
        },
        "featType": {
            "value": "archetype"
        },
        "level": {
            "value": 8
        },
        "location": null,
        "prerequisites": {
            "value": [
                {
                    "value": "Zombie Dedication"
                }
            ]
        },
        "rules": [],
        "source": {
            "value": "Pathfinder Book of the Dead"
        },
        "traits": {
            "custom": "",
            "rarity": "common",
            "value": [
                "archetype"
            ]
        }
    },
    "flags": {},
    "img": "systems/pf2e/icons/default-icons/feats.webp",
    "name": "Unkillable",
    "type": "feat"
}
