{
    "_id": "LhqWrgeBH2sdRxND",
    "data": {
        "actionCategory": {
            "value": ""
        },
        "actionType": {
            "value": "passive"
        },
        "actions": {
            "value": null
        },
        "description": {
            "value": "<p>You put your connection to the material world farther behind you. Your fly Speed no longer restricts the height you can fly. When you use @Compendium[pf2e.feats-srd.Ghost Flight]{Ghost Flight}, instead of its normal effect, you gain a +10-foot status bonus to your fly Speed for 10 minutes.</p>"
        },
        "featType": {
            "value": "archetype"
        },
        "level": {
            "value": 14
        },
        "location": null,
        "prerequisites": {
            "value": [
                {
                    "value": "Ghost Dedication"
                }
            ]
        },
        "rules": [],
        "source": {
            "value": "Pathfinder Book of the Dead"
        },
        "traits": {
            "custom": "",
            "rarity": "common",
            "value": [
                "archetype"
            ]
        }
    },
    "flags": {},
    "img": "systems/pf2e/icons/default-icons/feats.webp",
    "name": "Unlimited Ghost Flight",
    "type": "feat"
}
