{
    "_id": "Lbpm0OrQb4u2LVtj",
    "data": {
        "actionCategory": {
            "value": ""
        },
        "actionType": {
            "value": "reaction"
        },
        "actions": {
            "value": null
        },
        "description": {
            "value": "<p><strong>Frequency</strong> once per hour</p>\n<p><strong>Trigger</strong> You take damage or cast a primal spell.</p>\n<hr />\n<p>The life-giving properties of the <em>aeon orbs</em> flourish within you. Small plants or fungi magically appear on all surfaces in a @Template[type:emanation|distance:60] around you. This life withers after 1 day unless the environment can support it. You can choose one of the following options each time you use this feat.</p>\n<ul>\n<li>You can cause any number of 5-foot squares in the area to be light undergrowth, which is difficult terrain and provides lesser cover.</li>\n<li>You can cause a tree or giant mushroom to appear in any unoccupied location in the area; it occupies an entire 5-foot square and provides standard cover. The tree or mushroom has 5 Hardness and 50 Hit Points.</li>\n</ul>"
        },
        "featType": {
            "value": "class"
        },
        "level": {
            "value": 20
        },
        "prerequisites": {
            "value": []
        },
        "rules": [],
        "source": {
            "value": "Pathfinder #156: The Apocalypse Prophet"
        },
        "traits": {
            "custom": "",
            "rarity": "uncommon",
            "selected": {
                "druid": "Druid"
            },
            "value": [
                "druid"
            ]
        }
    },
    "flags": {},
    "img": "systems/pf2e/icons/features/feats/feats.webp",
    "name": "Verdant Presence",
    "type": "feat"
}
