{
    "_id": "BoqMvGy1jXpsaBbo",
    "data": {
        "actionCategory": {
            "value": ""
        },
        "actionType": {
            "value": "passive"
        },
        "actions": {
            "value": null
        },
        "description": {
            "value": "<p><strong>Access</strong> Ulfen ethnicity</p>\n<hr />\n<p>You trained with shields and weapons as soon as you were old enough to hold them, eager to win honor and glory for yourself. You gain the @Compendium[pf2e.feats-srd.Shield Block]{Shield Block} reaction and are trained in your choice of the battle axe or longsword.</p>"
        },
        "featType": {
            "value": "ancestry"
        },
        "level": {
            "value": 1
        },
        "location": "",
        "prerequisites": {
            "value": []
        },
        "rules": [
            {
                "key": "GrantItem",
                "uuid": "Compendium.pf2e.feats-srd.Shield Block"
            }
        ],
        "source": {
            "value": "Pathfinder Lost Omens: Character Guide"
        },
        "traits": {
            "custom": "",
            "rarity": "uncommon",
            "value": [
                "human"
            ]
        }
    },
    "flags": {},
    "img": "systems/pf2e/icons/features/feats/feats.webp",
    "name": "Viking Shieldbearer",
    "type": "feat"
}
