{
    "_id": "2MHzEh1KUQEbhjUf",
    "data": {
        "actionCategory": {
            "value": ""
        },
        "actionType": {
            "value": "action"
        },
        "actions": {
            "value": 1
        },
        "description": {
            "value": "<p><strong>Requirements</strong> You gained @Compendium[pf2e.classfeatures.Panache]{Panache} this turn.</p>\n<hr />\n<p>Your ego swells, granting you a temporary reprieve from your pain. You gain temporary Hit Points equal to your level plus your Charisma modifier that last until the start of your next turn.</p>\n<p>@Compendium[pf2e.feat-effects.Effect: Vivacious Bravado]{Effect: Vivacious Bravado}</p>"
        },
        "featType": {
            "value": "class"
        },
        "level": {
            "value": 8
        },
        "location": "",
        "prerequisites": {
            "value": []
        },
        "rules": [],
        "source": {
            "value": "Pathfinder Advanced Player's Guide"
        },
        "traits": {
            "custom": "",
            "rarity": "common",
            "value": [
                "swashbuckler"
            ]
        }
    },
    "flags": {},
    "img": "systems/pf2e/icons/features/feats/feats.webp",
    "name": "Vivacious Bravado",
    "type": "feat"
}
