{
    "_id": "yoXU4CqZtzgKXdlB",
    "data": {
        "actionCategory": {
            "value": ""
        },
        "actionType": {
            "value": "passive"
        },
        "actions": {
            "value": null
        },
        "description": {
            "value": "<p><strong>Major Curse</strong> Asmodeus has taken note of the chaos you have wrought. You receive an ancient wound that feels older than time itself. You become permanently @Compendium[pf2e.conditionitems.Drained]{Drained 4}, and nothing short of another intercession can remove the condition.</p>\n<p>Your wound aches fiercely whenever you perform a particularly chaotic act, causing you to become @Compendium[pf2e.conditionitems.Sickened]{Sickened 1}.</p>"
        },
        "featType": {
            "value": "curse"
        },
        "level": {
            "value": 0
        },
        "prerequisites": {
            "value": []
        },
        "rules": [],
        "source": {
            "value": ""
        },
        "traits": {
            "custom": "",
            "rarity": "common",
            "value": []
        }
    },
    "flags": {},
    "img": "systems/pf2e/icons/deity/Asmodeus.webp",
    "name": "Asmodeus - Major Curse",
    "type": "feat"
}
