{
    "_id": "aV1I9VmMQBaFU9M9",
    "data": {
        "actionCategory": {
            "value": ""
        },
        "actionType": {
            "value": "passive"
        },
        "actions": {
            "value": null
        },
        "description": {
            "value": "<p><strong>Moderate Boon</strong> Your eyes glow red like embers and your skin takes on a crimson tone. You gain @Compendium[pf2e.ancestryfeatures.Darkvision]{Darkvision} and fire resistance 5.</p>"
        },
        "featType": {
            "value": "deityboon"
        },
        "level": {
            "value": 0
        },
        "prerequisites": {
            "value": []
        },
        "rules": [],
        "source": {
            "value": ""
        },
        "traits": {
            "custom": "",
            "rarity": "common",
            "value": []
        }
    },
    "flags": {},
    "img": "systems/pf2e/icons/deity/Asmodeus.webp",
    "name": "Asmodeus - Moderate Boon",
    "type": "feat"
}
