{
    "_id": "CjRUOscsOwCmai8D",
    "data": {
        "actionCategory": {
            "value": ""
        },
        "actionType": {
            "value": "passive"
        },
        "actions": {
            "value": null
        },
        "description": {
            "value": "<p><strong>Moderate Curse</strong> Misfortune follows you in your travels and requires acts of contrition or benevolence to keep at bay.</p>\n<p>You must always roll twice and take the worst result when attempting a check. This is a misfortune effect.</p>\n<p>You can express your remorse and ignore this effect for [[/br 1d4 #rounds]]{1d4 rounds} by spending an action, which has the concentrate trait.</p>\n<p>If you perform a truly selfless act of compassion, you ignore this effect for 1 day.</p>"
        },
        "featType": {
            "value": "curse"
        },
        "level": {
            "value": 0
        },
        "prerequisites": {
            "value": []
        },
        "rules": [],
        "source": {
            "value": ""
        },
        "traits": {
            "custom": "",
            "rarity": "common",
            "value": []
        }
    },
    "flags": {},
    "img": "systems/pf2e/icons/deity/Desna.webp",
    "name": "Desna - Moderate Curse",
    "type": "feat"
}
