{
    "_id": "tFnPBYcAZ0X3GbI5",
    "data": {
        "actionCategory": {
            "value": ""
        },
        "actionType": {
            "value": "passive"
        },
        "actions": {
            "value": null
        },
        "description": {
            "value": "<p><strong>Moderate Boon(Daily)</strong> You spread Lamashtu's nightmares everywhere you go. You can cast <em>@Compendium[pf2e.spells-srd.Confusion]{Confusion}</em> once per day as an divine innate spell.</p>"
        },
        "featType": {
            "value": "deityboon"
        },
        "level": {
            "value": 0
        },
        "prerequisites": {
            "value": []
        },
        "rules": [],
        "source": {
            "value": ""
        },
        "traits": {
            "custom": "",
            "rarity": "common",
            "value": []
        }
    },
    "flags": {},
    "img": "systems/pf2e/icons/deity/Lamashtu.webp",
    "name": "Lamashtu - Moderate Boon",
    "type": "feat"
}
