{
    "_id": "HdPVL76QiDhsLCA9",
    "data": {
        "actionCategory": {
            "value": ""
        },
        "actionType": {
            "value": "passive"
        },
        "actions": {
            "value": null
        },
        "description": {
            "value": "<p><strong>Moderate Boon (Single Use)</strong> Nethys grants you insight into the secrets of magic. Add one spell from a different tradition of magic to your spell list. You still must learn it or add it to your repertoire normally.</p>"
        },
        "featType": {
            "value": "deityboon"
        },
        "level": {
            "value": 0
        },
        "prerequisites": {
            "value": []
        },
        "rules": [],
        "source": {
            "value": ""
        },
        "traits": {
            "custom": "",
            "rarity": "common",
            "value": []
        }
    },
    "flags": {},
    "img": "systems/pf2e/icons/deity/Nethys.webp",
    "name": "Nethys - Moderate Boon",
    "type": "feat"
}
