{
    "_id": "hUSknn3LYmT7eKzT",
    "data": {
        "actionCategory": {
            "value": ""
        },
        "actionType": {
            "value": "passive"
        },
        "actions": {
            "value": null
        },
        "description": {
            "value": "<p><strong>Moderate Boon</strong> Your poisons are everlasting.</p>\n<p>If your Strike with a poisoned weapon critically fails, or succeeds but fails to deal slashing or piercing damage, the poison is not spent. The poison is still spent once successfully applied to a creature.</p>"
        },
        "featType": {
            "value": "deityboon"
        },
        "level": {
            "value": 0
        },
        "prerequisites": {
            "value": []
        },
        "rules": [],
        "source": {
            "value": ""
        },
        "traits": {
            "custom": "",
            "rarity": "common",
            "value": []
        }
    },
    "flags": {},
    "img": "systems/pf2e/icons/deity/Norgorber.webp",
    "name": "Norgorber - Moderate Boon",
    "type": "feat"
}
