{
    "_id": "1n84AqLtsdT8I64W",
    "data": {
        "description": {
            "value": "<p>You infuse yourself with the corrupting death and pure malevolence of Abaddon, transforming into a Large daemon battle form. You must have enough space to expand into or the spell is lost. When you cast this spell you choose either ceustodaemon, leukodaemon, meladaemon, or piscodaemon. The battle form is Medium if you choose ceustodaemon. While in this form, you gain the daemon and fiend traits. You have hands in this battle form and can use manipulate actions. You can Dismiss the spell.</p>\n<p>You gain the following statistics and abilities regardless of the form that you choose:</p>\n<ul>\n<li>AC = 21 + your level. Ignore your armor check's penalty and Speed reduction.</li>\n<li>15 temporary Hit Points and weakness 5 to good.</li>\n<li>A +2 status bonus to all saving throws against death effects.</li>\n<li>Resistance 10 to poison.</li>\n<li>Darkvision.</li>\n<li>One or more attacks specific to the battle form you use. You're trained with them. Your attack modifier is +21, and you use the listed damage. These attacks are Strength based (for the purpose of the enfeebled condition, for example). If your unarmed attack modifier is higher, you can use it instead.</li>\n<li>Athletics modifier of +23, unless your own modifier is higher.</li>\n</ul>\n<p>You also gain specific abilities based on the type of Daemon you choose:</p>\n<ul>\n<li><strong>Ceustodaemon</strong> Speed 25 feet;\n<ul>\n<li><strong>Melee</strong> <span class=\"pf2-icon\">1</span> jaws (reach 10 feet), <strong>Damage</strong> 2d10+10 piercing plus 1d6 evil;</li>\n<li><strong>Melee</strong> <span class=\"pf2-icon\">1</span> claw (agile, reach 10 feet), <strong>Damage</strong> 2d6 slashing plus 1d6 evil;</li>\n<li>any successful jaws or claw Strike deals an additional 1d6 damage, and you take the same amount of damage.</li>\n</ul>\n</li>\n</ul>"
        },
        "duration": {
            "expiry": "turn-start",
            "sustained": false,
            "unit": "minutes",
            "value": 1
        },
        "level": {
            "value": 6
        },
        "rules": [
            {
                "key": "FlatModifier",
                "predicate": {
                    "all": [
                        "battle-form",
                        "death-effects"
                    ]
                },
                "selector": "saving-throw",
                "type": "status",
                "value": 2
            },
            {
                "hasHands": true,
                "key": "BattleForm",
                "overrides": {
                    "armorClass": {
                        "modifier": "21 + @actor.level"
                    },
                    "resistances": [
                        {
                            "type": "poison",
                            "value": 10
                        }
                    ],
                    "senses": {
                        "darkvision": {}
                    },
                    "size": "lg",
                    "skills": {
                        "ath": {
                            "modifier": 23
                        }
                    },
                    "speeds": {
                        "land": 25
                    },
                    "strikes": {
                        "claw": {
                            "ability": "str",
                            "baseType": "claw",
                            "category": "unarmed",
                            "damage": {
                                "damageType": "slashing",
                                "dice": 2,
                                "die": "d6"
                            },
                            "group": "brawling",
                            "label": "PF2E.Weapon.Base.claw",
                            "modifier": 21,
                            "traits": [
                                "reach-10",
                                "unarmed",
                                "agile"
                            ]
                        },
                        "jaws": {
                            "ability": "str",
                            "baseType": "jaws",
                            "category": "unarmed",
                            "damage": {
                                "damageType": "piercing",
                                "dice": 2,
                                "die": "d10",
                                "modifier": 10
                            },
                            "group": "brawling",
                            "label": "PF2E.Weapon.Base.jaws",
                            "modifier": 21,
                            "traits": [
                                "unarmed",
                                "reach-10"
                            ]
                        }
                    },
                    "tempHP": 15,
                    "weaknesses": [
                        {
                            "type": "good",
                            "value": 5
                        }
                    ]
                }
            },
            {
                "key": "Note",
                "predicate": {
                    "all": [
                        "battle-form"
                    ]
                },
                "selector": "strike-damage",
                "text": "<p class=\"compact-text\"><strong>Daemon Form (Ceustodaemon)</strong> any successful jaws or claw Strike deals an additional [[/r {1d6}]]{1d6 damage}, and you take the same amount of damage</p>"
            },
            {
                "damageType": "evil",
                "diceNumber": 1,
                "dieSize": "d6",
                "key": "DamageDice",
                "predicate": {
                    "all": [
                        "battle-form"
                    ]
                },
                "selector": "strike-damage"
            }
        ],
        "source": {
            "value": "Pathfinder Secrets of Magic"
        },
        "start": {
            "initiative": null,
            "value": 0
        },
        "target": null,
        "tokenIcon": {
            "show": true
        },
        "traits": {
            "custom": "",
            "rarity": "common",
            "value": []
        }
    },
    "flags": {},
    "img": "systems/pf2e/icons/spells/daemon-form.webp",
    "name": "Spell Effect: Daemon Form (Ceustodaemon)",
    "type": "effect"
}
