{
    "_id": "mAofA4oy3cRdT71K",
    "data": {
        "badge": null,
        "description": {
            "value": "<p>You wrap the target in shadows, granting them a +1 status bonus to Stealth checks to @Compendium[pf2e.actionspf2e.Hide]{Hide} while in dim light or darkness.</p>\n<p>In addition, the shadows mask the creature's features. While the creature is in dim light or darkness, other creatures must succeed at a @Compendium[pf2e.actionspf2e.Seek]{Seek} action against the spell's DC to discern details about the target's appearance. For example, without using Seek, other creatures can determine the target's general shape (such as humanoid), but they would need to Seek to determine the target's precise appearance or any other identifying information.</p>\n<p>Creatures with darkvision can still see the target and their features normally. The target's normal appearance is revealed in bright light.</p>\n<hr />\n<p><strong>Heightened (4th)</strong> The status bonus is +2. Creatures with darkvision can no longer discern details about the target while the target is in dim light or darkness without Seeking, though creatures with greater darkvision can still determine these details.</p>\n<p><strong>Heightened (6th)</strong> As 4th level, except the status bonus is +3 and creatures without darkvision can't determine even general details about the target while the target is in dim light or darkness unless they successfully Seek the target; these creatures see a vague shadow instead. Even on a successful Seek, they only determine general features, though they can see details on a critical success.</p>\n<p><strong>Heightened (8th)</strong> As 6th level, except the status bonus is +4 and even creatures with greater darkvision must Seek to discern details about the target while the target is in dim light or darkness.</p>"
        },
        "duration": {
            "expiry": "turn-start",
            "sustained": false,
            "unit": "minutes",
            "value": 10
        },
        "level": {
            "value": 2
        },
        "rules": [
            {
                "key": "FlatModifier",
                "predicate": {
                    "all": [
                        "action:hide"
                    ]
                },
                "selector": "stealth",
                "type": "status",
                "value": {
                    "brackets": [
                        {
                            "end": 3,
                            "value": 1
                        },
                        {
                            "end": 5,
                            "start": 4,
                            "value": 2
                        },
                        {
                            "end": 7,
                            "start": 6,
                            "value": 3
                        },
                        {
                            "start": 8,
                            "value": 4
                        }
                    ]
                }
            }
        ],
        "source": {
            "value": "Pathfinder #172: Secrets of the Temple-City"
        },
        "start": {
            "initiative": null,
            "value": 0
        },
        "target": null,
        "tokenIcon": {
            "show": true
        },
        "traits": {
            "custom": "",
            "rarity": "common",
            "value": []
        }
    },
    "flags": {},
    "img": "systems/pf2e/icons/spells/prenumbral-disguise.webp",
    "name": "Spell Effect: Penumbral Disguise",
    "type": "effect"
}
