{
    "_id": "GhNVAYtoF5hK3AlD",
    "data": {
        "description": {
            "value": "<p>Granted by failing the save against <em>@Compendium[pf2e.spells-srd.Touch of Corruption]{Touch of Corruption}</em>.</p>"
        },
        "duration": {
            "expiry": "turn-start",
            "sustained": false,
            "unit": "rounds",
            "value": 1
        },
        "level": {
            "value": 1
        },
        "rules": [
            {
                "key": "FlatModifier",
                "label": "Touch of Corruption",
                "selector": "ac",
                "type": "status",
                "value": -2
            }
        ],
        "source": {
            "value": ""
        },
        "start": {
            "initiative": null,
            "value": 0
        },
        "target": null,
        "tokenIcon": {
            "show": true
        },
        "traits": {
            "custom": "",
            "rarity": "common",
            "value": []
        }
    },
    "flags": {},
    "img": "systems/pf2e/icons/spells/touch-of-corruption.webp",
    "name": "Spell Effect: Touch of Corruption",
    "type": "effect"
}
