{
    "_id": "dXq7z633ve4E0nlX",
    "data": {
        "badge": null,
        "description": {
            "value": "<p>Granted by <em>@Compendium[pf2e.spells-srd.Regenerate]{Regenerate}</em>.</p>"
        },
        "duration": {
            "expiry": "turn-end",
            "sustained": false,
            "unit": "minutes",
            "value": 1
        },
        "level": {
            "value": 7
        },
        "rules": [
            {
                "deactivatedBy": [
                    "acid",
                    "fire"
                ],
                "key": "FastHealing",
                "type": "regeneration",
                "value": {
                    "brackets": [
                        {
                            "end": 8,
                            "start": 7,
                            "value": 15
                        },
                        {
                            "start": 9,
                            "value": 20
                        }
                    ],
                    "field": "item|data.level.value"
                }
            }
        ],
        "source": {
            "value": ""
        },
        "start": {
            "initiative": null,
            "value": 0
        },
        "target": null,
        "tokenIcon": {
            "show": true
        },
        "traits": {
            "custom": "",
            "rarity": "common",
            "value": []
        }
    },
    "flags": {},
    "img": "systems/pf2e/icons/spells/regeneration.webp",
    "name": "Spell Effect: Regenerate",
    "type": "effect"
}
