{
    "_id": "mzDgsuuo5wCgqyxR",
    "data": {
        "badge": null,
        "description": {
            "value": "<p>You wrap the targeted creatures in thin, sickly green shrouds that sap information from attackers. The shroud settles about each target's shoulders, granting a +1 status bonus to AC and a +2 status bonus to Stealth checks, both only while the target is in dim light or darkness.</p>"
        },
        "duration": {
            "expiry": "turn-start",
            "sustained": false,
            "unit": "unlimited",
            "value": -1
        },
        "level": {
            "value": 5
        },
        "rules": [
            {
                "domain": "all",
                "key": "RollOption",
                "label": "In an Area of Dim Light or Darkness",
                "option": "mireclock-darkness",
                "toggleable": true
            },
            {
                "key": "FlatModifier",
                "predicate": {
                    "all": [
                        "mirecloak-darkness"
                    ]
                },
                "selector": "ac",
                "type": "status",
                "value": 1
            },
            {
                "key": "FlatModifier",
                "predicate": {
                    "any": [
                        "mirecloak-darkness",
                        "environment:lighting:lowLight",
                        "environment:lighting:darkness"
                    ]
                },
                "selector": "stealth",
                "type": "status",
                "value": 2
            }
        ],
        "source": {
            "value": "Pathfinder #171: Hurricane's Howl"
        },
        "start": {
            "initiative": null,
            "value": 0
        },
        "target": null,
        "tokenIcon": {
            "show": true
        },
        "traits": {
            "custom": "",
            "rarity": "common",
            "value": []
        }
    },
    "flags": {},
    "img": "systems/pf2e/icons/spells/mirecloak.webp",
    "name": "Spell Effect: Mirecloak",
    "type": "effect"
}
