{
    "_id": "iqtjMVl6rGQhX2k8",
    "data": {
        "description": {
            "value": "<p>Granted by casting <em>@Compendium[pf2e.spells-srd.Elemental Motion]{Elemental Motion}</em> if Air is your element.</p>"
        },
        "duration": {
            "expiry": "turn-start",
            "sustained": false,
            "unit": "minutes",
            "value": 1
        },
        "level": {
            "value": 3
        },
        "rules": [
            {
                "key": "BaseSpeed",
                "selector": "fly",
                "value": "@actor.attributes.speed.value"
            },
            {
                "key": "FlatModifier",
                "selector": "speed",
                "type": "status",
                "value": {
                    "brackets": [
                        {
                            "end": 8,
                            "start": 6,
                            "value": 10
                        },
                        {
                            "start": 9,
                            "value": 20
                        }
                    ],
                    "field": "item|data.level.value"
                }
            }
        ],
        "source": {
            "value": ""
        },
        "start": {
            "initiative": null,
            "value": 0
        },
        "target": null,
        "tokenIcon": {
            "show": true
        },
        "traits": {
            "custom": "",
            "rarity": "common",
            "value": []
        }
    },
    "flags": {},
    "img": "systems/pf2e/icons/spells/elemental-motion.webp",
    "name": "Spell Effect: Elemental Motion (Air)",
    "type": "effect"
}
