{
    "_id": "iiV80Kexj6vPmzqU",
    "data": {
        "description": {
            "value": "<p>The target isn't affected by severe or extreme cold, and when it rolls a success on an Acrobatics check to Balance on ice and snow, it gets a critical success instead.</p>"
        },
        "duration": {
            "expiry": "turn-start",
            "sustained": false,
            "unit": "hours",
            "value": 1
        },
        "level": {
            "value": 2
        },
        "rules": [
            {
                "adjustment": {
                    "success": "one-degree-better"
                },
                "key": "AdjustDegreeOfSuccess",
                "predicate": {
                    "all": [
                        "action:balance"
                    ],
                    "any": [
                        "terrain:snow",
                        "terrain:ice"
                    ]
                },
                "selector": "acrobatics",
                "type": "skill"
            }
        ],
        "source": {
            "value": ""
        },
        "start": {
            "initiative": null,
            "value": 0
        },
        "target": null,
        "tokenIcon": {
            "show": true
        },
        "traits": {
            "custom": "",
            "rarity": "common",
            "value": []
        }
    },
    "flags": {},
    "img": "systems/pf2e/icons/spells/rapid-adaptation.webp",
    "name": "Spell Effect: Rapid Adaptation (Arctic)",
    "type": "effect"
}
