{
    "_id": "NXzo2kdgVixIZ2T1",
    "data": {
        "description": {
            "value": "<p>Granted by <em>@Compendium[pf2e.spells-srd.Apex Companion]{Apex Companion}</em>.</p>\n<p>Your animal companion gains the following statistics and abilities while in its apex form.</p>\n<ul>\n<li>Your animal companion becomes Huge and its attacks have 15-foot reach. It must have enough space to expand into or the spell is lost.</li>\n<li>30 temporary Hit Points.</li>\n<li>Darkvision.</li>\n<li>+10-foot status bonus to its Speeds.</li>\n</ul>\n<p><em>Note: this effect will <strong>not</strong> increase your animal companion's damage dice by one step, and will not apply the deadly d12 trait to their attack.</em></p>"
        },
        "duration": {
            "expiry": "turn-start",
            "sustained": false,
            "unit": "minutes",
            "value": 1
        },
        "level": {
            "value": 10
        },
        "rules": [
            {
                "key": "CreatureSize",
                "value": "huge"
            },
            {
                "key": "Sense",
                "label": "PF2E.SensesDarkvision",
                "selector": "darkvision"
            },
            {
                "key": "TempHP",
                "value": 30
            },
            {
                "key": "FlatModifier",
                "selector": "speed",
                "type": "status",
                "value": 10
            }
        ],
        "source": {
            "value": ""
        },
        "start": {
            "initiative": null,
            "value": 0
        },
        "target": null,
        "tokenIcon": {
            "show": true
        },
        "traits": {
            "custom": "",
            "rarity": "common",
            "value": []
        }
    },
    "flags": {},
    "img": "systems/pf2e/icons/spells/apex-companion.webp",
    "name": "Spell Effect: Apex Companion",
    "type": "effect"
}
