{
    "_id": "54i6ithgmhDk7Dne",
    "data": {
        "attributes": {
            "ac": {
                "value": 25
            },
            "hardness": 0,
            "hasHealth": true,
            "hp": {
                "details": "",
                "max": 1,
                "temp": 0,
                "tempmax": 0,
                "value": 1
            },
            "stealth": {
                "details": "<p>(expert)</p>",
                "value": 15
            }
        },
        "creatureType": "",
        "details": {
            "description": "<p>A hidden string connected to precariously stacked bricks causes the cubby to collapse in on itself when the string is pulled.</p>",
            "disable": "<p>Thievery DC 20 to cut the string without setting off the trap</p>",
            "isComplex": false,
            "level": {
                "value": 6
            },
            "reset": "",
            "routine": ""
        },
        "saves": {
            "fortitude": {
                "saveDetail": "",
                "value": 0
            },
            "reflex": {
                "saveDetail": "",
                "value": 0
            },
            "will": {
                "saveDetail": "",
                "value": 0
            }
        },
        "source": {
            "value": ""
        },
        "statusEffects": [],
        "traits": {
            "ci": [],
            "di": {
                "custom": "",
                "selected": {},
                "value": [
                    "precision",
                    "critical-hits",
                    "object-immunities"
                ]
            },
            "dr": [],
            "dv": [],
            "rarity": "common",
            "size": {
                "value": "med"
            },
            "traits": {
                "custom": "",
                "value": [
                    "mechanical",
                    "trap"
                ]
            }
        }
    },
    "flags": {},
    "img": "systems/pf2e/icons/default-icons/hazard.svg",
    "items": [
        {
            "_id": "5vpT5j3f28sZPdRn",
            "data": {
                "actionCategory": {
                    "value": "offensive"
                },
                "actionType": {
                    "value": "reaction"
                },
                "actions": {
                    "value": null
                },
                "description": {
                    "value": "<p><strong>Trigger</strong> A creature touches the sickle in the cubby</p>\n<p><strong>Effect</strong> The heavy bricks above the cubby collapse, leaving the sickle unscathed but dealing [[/r {4d6+10}[bludgeoning]]]{4d6+10 bludgeoning damage} (@Check[type:reflex|dc:26|basic:true] save) to the triggering creature.</p>"
                },
                "requirements": {
                    "value": ""
                },
                "rules": [],
                "slug": null,
                "source": {
                    "value": ""
                },
                "traits": {
                    "custom": "",
                    "rarity": "common",
                    "value": []
                },
                "trigger": {
                    "value": ""
                },
                "weapon": {
                    "value": ""
                }
            },
            "flags": {},
            "img": "systems/pf2e/icons/actions/Reaction.webp",
            "name": "Collapse",
            "sort": 100000,
            "type": "action"
        }
    ],
    "name": "Rigged Cubby",
    "token": {
        "disposition": 0,
        "height": 1,
        "img": "systems/pf2e/icons/default-icons/hazard.svg",
        "name": "Rigged Cubby",
        "width": 1
    },
    "type": "hazard"
}
