{
    "_id": "R03LRl2RBbsm6EcF",
    "author": "j8qxwRz5RJ4kkzp9",
    "command": "game.pf2e.actions.treatPoison({ event: event });",
    "flags": {},
    "img": "icons/svg/dice-target.svg",
    "name": "Treat Poison: Medicine",
    "permission": {
        "default": 1
    },
    "scope": "global",
    "type": "script"
}
