{
    "_id": "nfBn8QB6HVdzpTFV",
    "data": {
        "actionCategory": {
            "value": ""
        },
        "actionType": {
            "value": "passive"
        },
        "actions": {
            "value": null
        },
        "description": {
            "value": "<p>As stewards of the natural order, druids find affronts to nature anathema. If you perform enough acts that are anathema to nature, you lose your magical abilities that come from the druid class, including your primal spellcasting and the benefits of your order. These abilities can be regained only if you demonstrate your repentance by conducting an <em>@Compendium[pf2e.spells-srd.Atone]{Atone}</em> ritual.</p>\n<p>The following acts are anathema to all druids:</p>\n<ul>\n<li>Using metal armor or shields.</li>\n<li>Despoiling natural places.</li>\n<li>Teaching the Druidic language to non-druids.</li>\n</ul>\n<p>Each druidic order also has additional anathema acts, detailed in the order's entry.</p>\n<p>See specific orders for more information.</p>"
        },
        "featType": {
            "value": "classfeature"
        },
        "level": {
            "value": 1
        },
        "location": "",
        "prerequisites": {
            "value": []
        },
        "rules": [],
        "source": {
            "value": ""
        },
        "traits": {
            "custom": "",
            "rarity": "common",
            "value": [
                "druid"
            ]
        }
    },
    "flags": {},
    "img": "systems/pf2e/icons/features/classes/anathema(druid).webp",
    "name": "Anathema (Druid)",
    "type": "feat"
}
