{
    "_id": "7WBZ2kkhZ7JorWu2",
    "data": {
        "actionCategory": {
            "value": ""
        },
        "actionType": {
            "value": "passive"
        },
        "actions": {
            "value": null
        },
        "description": {
            "value": "<p>The touch of undeath runs through your blood. Your family tree might contain powerful undead, like a vampire, or perhaps you died and returned a bit different.</p>\n<p><strong>Spell List</strong> divine</p>\n<p><strong>Bloodline Skills</strong> Intimidation, Religion</p>\n<p><strong>Granted Spells</strong> cantrip <em>@Compendium[pf2e.spells-srd.Chill Touch]{Chill Touch}</em>, 1st: <em>@Compendium[pf2e.spells-srd.Harm]{Harm}</em>, 2nd: <em>@Compendium[pf2e.spells-srd.False Life]{False Life}</em>, 3rd: <em>@Compendium[pf2e.spells-srd.Bind Undead]{Bind Undead}</em>, 4th: <em>@Compendium[pf2e.spells-srd.Talking Corpse]{Talking Corpse}</em>, 5th: <em>@Compendium[pf2e.spells-srd.Cloudkill]{Cloudkill}</em>, 6th: <em>@Compendium[pf2e.spells-srd.Vampiric Exsanguination]{Vampiric Exsanguination}</em>, 7th: <em>@Compendium[pf2e.spells-srd.Finger of Death]{Finger of Death}</em>, 8th: <em>@Compendium[pf2e.spells-srd.Horrid Wilting]{Horrid Wilting}</em>, 9th: <em>@Compendium[pf2e.spells-srd.Wail of the Banshee]{Wail of the Banshee}</em></p>\n<p><strong>Bloodline Spells</strong> initial: <em>@Compendium[pf2e.spells-srd.Undeath's Blessing]{Undeath's Blessing}</em>, advanced: <em>@Compendium[pf2e.spells-srd.Drain Life]{Drain Life}</em>, greater: <em>@Compendium[pf2e.spells-srd.Grasping Grave]{Grasping Grave}</em></p>\n<p><strong>Blood Magic</strong> Necromantic energy flows through you or one target. Either you gain temporary Hit Points equal to the spell's level for 1 round, or a target takes 1 negative damage per spell level (if the spell already deals initial negative damage, combine this with the spell's initial damage before determining weaknesses and resistances).</p>"
        },
        "featType": {
            "value": "classfeature"
        },
        "level": {
            "value": 1
        },
        "location": "",
        "prerequisites": {
            "value": []
        },
        "rules": [
            {
                "key": "ActiveEffectLike",
                "mode": "upgrade",
                "path": "data.resources.focus.max",
                "predicate": {
                    "all": [
                        "class:sorcerer"
                    ]
                },
                "priority": 10,
                "value": 1
            },
            {
                "key": "ActiveEffectLike",
                "mode": "upgrade",
                "path": "data.skills.itm.rank",
                "value": 1
            },
            {
                "key": "ActiveEffectLike",
                "mode": "upgrade",
                "path": "data.skills.rel.rank",
                "value": 1
            },
            {
                "key": "ActiveEffectLike",
                "mode": "override",
                "path": "data.proficiencies.aliases.sorcerer",
                "priority": 39,
                "value": "divine"
            }
        ],
        "source": {
            "value": ""
        },
        "traits": {
            "custom": "",
            "rarity": "common",
            "value": [
                "sorcerer"
            ]
        }
    },
    "flags": {},
    "img": "systems/pf2e/icons/features/classes/undead.webp",
    "name": "Bloodline: Undead",
    "type": "feat"
}
