{
    "_id": "VmPIJomEdmgGrCMS",
    "data": {
        "actionCategory": {
            "value": ""
        },
        "actionType": {
            "value": "passive"
        },
        "actions": {
            "value": null
        },
        "description": {
            "value": "<p>You can extend the magic of spells you store with Spellstrike. After you make a Spellstrike with a spell cast from a spell slot, you retain an echo of the spell, stored in your body. The next time you Spellstrike, you can cast the same spell again without expending a spell slot.</p>\n<p>If you choose to cast a different spell with Spellstrike, or you go 1 minute without using the stored spell, the stored spell dissipates harmlessly.</p>"
        },
        "featType": {
            "value": "classfeature"
        },
        "level": {
            "value": 19
        },
        "location": "",
        "prerequisites": {
            "value": []
        },
        "rules": [],
        "source": {
            "value": ""
        },
        "traits": {
            "custom": "",
            "rarity": "common",
            "value": [
                "magus"
            ]
        }
    },
    "flags": {},
    "img": "systems/pf2e/icons/features/classes/double-spellstrike.webp",
    "name": "Double Spellstrike",
    "type": "feat"
}
