{
    "_id": "VDot7CDcXElxmkkz",
    "data": {
        "actionCategory": {
            "value": ""
        },
        "actionType": {
            "value": "passive"
        },
        "actions": {
            "value": null
        },
        "description": {
            "value": "<p>You summon the fury of a mighty dragon and manifest incredible abilities. Perhaps your culture reveres draconic majesty, or you gained your connection by drinking or bathing in dragon's blood or after watching a marauding wyrm burn your village. Select a type of dragon from Table 3-4: Dragon Instincts to be your instinct's dragon type. Chromatic dragons tend to be evil, and metallic dragons tend to be good.</p>\n<h2>Table 3-4: Dragon Instincts</h2>\n<table class=\"pf2-table\">\n<thead>\n<tr>\n<th>Dragon</th>\n<th>Type</th>\n<th>Breath Weapon</th>\n</tr>\n</thead>\n<tbody>\n<tr>\n<td>@Compendium[pf2e.classfeatures.Black Dragon Instinct]{Black}</td>\n<td>Chromatic</td>\n<td>Line of Acid</td>\n</tr>\n<tr>\n<td>@Compendium[pf2e.classfeatures.Blue Dragon Instinct]{Blue}</td>\n<td>Chromatic</td>\n<td>Line of Electricity</td>\n</tr>\n<tr>\n<td>@Compendium[pf2e.classfeatures.Green Dragon Instinct]{Green}</td>\n<td>Chromatic</td>\n<td>Cone of Poison</td>\n</tr>\n<tr>\n<td>@Compendium[pf2e.classfeatures.Red Dragon Instinct]{Red}</td>\n<td>Chromatic</td>\n<td>Cone of Fire</td>\n</tr>\n<tr>\n<td>@Compendium[pf2e.classfeatures.White Dragon Instinct]{White}</td>\n<td>Chromatic</td>\n<td>Cone of Cold</td>\n</tr>\n<tr>\n<td>@Compendium[pf2e.classfeatures.Brass Dragon Instinct]{Brass}</td>\n<td>Metallic</td>\n<td>Line of Fire</td>\n</tr>\n<tr>\n<td>@Compendium[pf2e.classfeatures.Bronze Dragon Instinct]{Bronze}</td>\n<td>Metallic</td>\n<td>Line of Electricity</td>\n</tr>\n<tr>\n<td>@Compendium[pf2e.classfeatures.Copper Dragon Instinct]{Copper}</td>\n<td>Metallic</td>\n<td>Line of Acid</td>\n</tr>\n<tr>\n<td>@Compendium[pf2e.classfeatures.Gold Dragon Instinct]{Gold}</td>\n<td>Metallic</td>\n<td>Cone of Fire</td>\n</tr>\n<tr>\n<td>@Compendium[pf2e.classfeatures.Silver Dragon Instinct]{Silver}</td>\n<td>Metallic</td>\n<td>Cone of Cold</td>\n</tr>\n</tbody>\n</table>\n<h2 class=\"title\">Anathema</h2>\n<p>Letting a personal insult against you slide is anathema to your instinct. Choose whether your character respects or abhors your dragon type. If you respect it, defying such a dragon is anathema, and if you abhor it, failing to defeat such a dragon you come across is anathema.</p>\n<h2 class=\"title\">Draconic Rage (Instinct Ability)</h2>\n<p>While raging, you can increase the additional damage from Rage from 2 to 4 and change its damage type to match that of your dragon's breath weapon instead of the damage type for your weapon or unarmed attack. If you do this, your Rage action gains the arcane and evocation traits, as well as the trait matching the damage type.</p>\n<h2 class=\"title\">Specialization Ability</h2>\n<p>When you use draconic rage, you increase the additional damage from Rage from 4 to 8. If you have greater weapon specialization, instead increase the damage from Rage when using draconic rage from 8 to 16.</p>\n<h2 class=\"title\">Raging Resistance</h2>\n<p>You resist piercing damage and the damage type of your dragon's breath weapon.</p>"
        },
        "featType": {
            "value": "classfeature"
        },
        "level": {
            "value": 1
        },
        "location": "",
        "prerequisites": {
            "value": []
        },
        "rules": [
            {
                "adjustName": false,
                "allowedDrops": {
                    "all": [
                        "item:level:1",
                        "item:trait:barbarian",
                        "item:type:feature"
                    ],
                    "label": "level 1 barbarian class feature"
                },
                "choices": [
                    {
                        "value": "Compendium.pf2e.classfeatures.Black Dragon Instinct"
                    },
                    {
                        "value": "Compendium.pf2e.classfeatures.Blue Dragon Instinct"
                    },
                    {
                        "value": "Compendium.pf2e.classfeatures.Brass Dragon Instinct"
                    },
                    {
                        "value": "Compendium.pf2e.classfeatures.Bronze Dragon Instinct"
                    },
                    {
                        "value": "Compendium.pf2e.classfeatures.Copper Dragon Instinct"
                    },
                    {
                        "value": "Compendium.pf2e.classfeatures.Gold Dragon Instinct"
                    },
                    {
                        "value": "Compendium.pf2e.classfeatures.Green Dragon Instinct"
                    },
                    {
                        "value": "Compendium.pf2e.classfeatures.Red Dragon Instinct"
                    },
                    {
                        "value": "Compendium.pf2e.classfeatures.Silver Dragon Instinct"
                    },
                    {
                        "value": "Compendium.pf2e.classfeatures.White Dragon Instinct"
                    }
                ],
                "flag": "dragonChoice",
                "key": "ChoiceSet",
                "prompt": "Select a Dragon."
            },
            {
                "key": "GrantItem",
                "uuid": "{item|flags.pf2e.rulesSelections.dragonChoice}"
            }
        ],
        "source": {
            "value": ""
        },
        "traits": {
            "custom": "",
            "rarity": "common",
            "value": [
                "barbarian"
            ]
        }
    },
    "flags": {},
    "img": "systems/pf2e/icons/features/classes/choice-feature.webp",
    "name": "Dragon Instinct",
    "type": "feat"
}
