{
    "_id": "Zb7DuGbFoLEp0H1K",
    "data": {
        "actionCategory": {
            "value": ""
        },
        "actionType": {
            "value": "passive"
        },
        "actions": {
            "value": null
        },
        "description": {
            "value": "<p>You gain the fifth benefit of your doctrine:</p>\n<ul>\n<li>@Compendium[pf2e.classfeatures.Fifth Doctrine (Cloistered Cleric)]{Cloistered Cleric}</li>\n<li>@Compendium[pf2e.classfeatures.Fifth Doctrine (Warpriest)]{Warpriest}</li>\n</ul>"
        },
        "featType": {
            "value": "classfeature"
        },
        "level": {
            "value": 15
        },
        "location": "",
        "prerequisites": {
            "value": []
        },
        "rules": [
            {
                "key": "GrantItem",
                "predicate": {
                    "all": [
                        "feature:cloistered-cleric"
                    ]
                },
                "uuid": "Compendium.pf2e.classfeatures.Fifth Doctrine (Cloistered Cleric)"
            },
            {
                "key": "GrantItem",
                "predicate": {
                    "all": [
                        "feature:warpriest"
                    ]
                },
                "uuid": "Compendium.pf2e.classfeatures.Fifth Doctrine (Warpriest)"
            }
        ],
        "source": {
            "value": ""
        },
        "traits": {
            "custom": "",
            "rarity": "common",
            "value": [
                "cleric"
            ]
        }
    },
    "flags": {},
    "img": "systems/pf2e/icons/features/classes/choice-feature.webp",
    "name": "Fifth Doctrine",
    "type": "feat"
}
