{
    "_id": "jIAgXe2FetAKBwt7",
    "data": {
        "actionCategory": {
            "value": ""
        },
        "actionType": {
            "value": "passive"
        },
        "actions": {
            "value": null
        },
        "description": {
            "value": "<p>While you're always creating inventions, there's one that represents your preeminent work, the one that you hope- with refinement-might change the world. Choose one of the below innovations. Your innovation's level is equal to your level. If your innovation is destroyed, you can spend 1 day of downtime and attempt a Crafting check with a high DC for your level; on a success, you rebuild it. An innovation only works due to your constant maintenance and tinkering, and therefore has no market Price.</p>\n<p>The innovations you can choose from in this book are as follows.</p>\n<h3>Armor</h3>\n<p>Your innovation is a cutting-edge suit of medium armor with a variety of attached gizmos and devices. Choose one of the sets of statistics on Table 2-2: Innovation Armor Statistics for your innovation armor (or choose another set of innovation armor statistics to which you have access).</p>\n<p>Your innovation armor can have fundamental and property runes added to it in the same way as ordinary armor. Because of the unique features of your innovation, everyone except you is untrained in it, even if they would normally be trained (or better) in medium armor. Choose one initial armor modification to apply to your innovation, either from the following or from other initial armor modifications to which you have access.</p>\n<ul>\n<li><strong>Harmonic Oscillator</strong> You designed your armor to inaudibly thrum at just the right frequency to create interference against force and sound waves. You gain resistance equal to 3 + half your level to force and sonic damage. When under the effects of Overdrive, the resistance increases by 2.</li>\n<li><strong>Metallic Reactance</strong> The metals in your armor are carefully alloyed to ground electricity and protect from acidic chemical reactions. You gain resistance equal to 3 + half your level to acid and electricity damage. When under the effects of Overdrive, the resistance increases by 2.</li>\n<li><strong>Muscular Exoskeleton (Power Suit Only)</strong> Your armor supports your muscles with a carefully crafted exoskeleton. When you send your armor into overdrive, the exoskeleton supplements your feats of athletics as well. When under the effects of Overdrive, you gain a +1 circumstance bonus to Athletics checks; if you're a master in Crafting, this increases to a +2 circumstance bonus.</li>\n<li><strong>Otherworldly Protection</strong> Just because you use science doesn't mean you can't build your armor with carefully chosen materials and gizmos designed to protect against otherworldly attacks. You gain resistance equal to 3 + half your level to negative damage, or to positive damage if you have negative healing (such as if you're a dhampir). You gain the same amount of resistance to any types of alignment damage-good, evil, chaotic, lawful-that can damage you (note that creatures don't take a given type of alignment damage unless they are of the opposing alignment; for instance, you can take evil damage only if you are good in alignment).</li>\n<li><strong>Phlogistonic Regulator</strong> A layer of insulation within your armor protects you from rapid temperature fluctuations. You gain resistance equal to half your level to cold and fire damage. When under the effects of Overdrive, the resistance increases by 2.</li>\n<li><strong>Speed Boosters</strong> You have boosters in your armor that increase your Speed. You gain a +5-foot status bonus to your Speed, which increases to a +10-foot status bonus when under the effects of Overdrive.</li>\n<li><strong>Subtle Dampeners (Subterfuge Suit Only)</strong> You've designed your armor to help you blend in and dampen noise slightly. When you send your armor into overdrive, the dampeners increase their effect, improving your Stealth. When under the effects of Overdrive, you gain a +1 circumstance bonus to Stealth checks. If you're a master in Crafting, this increases to a +2 circumstance bonus.</li>\n</ul>\n<table class=\"pf2-table\">\n<thead>\n<tr>\n<th>Medium Armor</th>\n<th>AC Bonus</th>\n<th>Dex Cap</th>\n<th>Check Penalty</th>\n<th>Speed Penalty</th>\n<th>Strength</th>\n<th>Bulk</th>\n<th>Group</th>\n<th>Armor Traits</th>\n</tr>\n</thead>\n<tbody>\n<tr>\n<td>Power Suit</td>\n<td>+4</td>\n<td>+1</td>\n<td>-2</td>\n<td>-5 feet</td>\n<td>16</td>\n<td>2</td>\n<td>composite</td>\n<td>-</td>\n</tr>\n<tr>\n<td>Subterfuge Suit</td>\n<td>+1</td>\n<td>+4</td>\n<td>-1</td>\n<td>-</td>\n<td>10</td>\n<td>1</td>\n<td>composite</td>\n<td>-</td>\n</tr>\n</tbody>\n</table>\n<h3>Construct</h3>\n<p>Your innovation is a mechanical creature, such as a clockwork construct made of cogs and gears. It's a prototype construct companion, and you can adjust most of its base statistics by taking feats at higher levels, such as Advanced Companion. If you use the Overdrive action, your construct gains the same Overdrive benefits you do, and it also takes the same amount of fire damage on a critical failure.</p>\n<p>You know how to spend additional time directing, controlling, or programming your construct innovation for a more complex plan of action. You can spend 2 actions to Command instead of 1 when commanding your construct companion; your construct companion can then use an additional action (normally 3 actions, rather than 2).</p>\n<p>Choose one initial construct modification to apply to your innovation, either from the following or from other initial construct modifications to which you have access. These modifications alter the construct's abilities or form.</p>\n<ul>\n<li><strong>Accelerated Mobility</strong> Actuated legs, efficient gears in the wheels or treads, or add-on boosters make your construct faster. Your innovation's Speed increases to 40 feet.</li>\n<li><strong>Amphibious Construction</strong> Increased buoyancy, rudders, and a means of propulsion like a fluked tail or powerful propeller make your construct able to travel in water. Your innovation gains a swim Speed of 25 feet.</li>\n<li><strong>Increased Size</strong> You built your construct innovation bigger than most. Your construct is Large. If you have this modification and your construct innovation becomes an advanced construct companion or otherwise gains the ability to become Large, you can immediately change increased size to a different initial construct modification.</li>\n<li><strong>Manual Dexterity</strong> Your construct innovation has articulated hands or similar appendages with significant manual dexterity. It can perform manipulate actions with up to two of its limbs. As normal for a companion, it still can't wield weapons or held items that don't have the companion trait, and it can't activate items.</li>\n<li><strong>Projectile Launcher</strong> Your construct has a mounted dart launcher, embedded cannon, or similar armament. Your innovation gains a ranged unarmed attack that deals 1d4 bludgeoning or piercing damage (you choose when you pick this modification). The attack has the propulsive trait and a range increment of 30 feet.</li>\n<li><strong>Sensory Array</strong> Additional sensory devices give your innovation low-light vision and darkvision, as well as imprecise tremorsense out to a range of 30 feet.</li>\n<li><strong>Wonder Gears</strong> You map specialized skills into your construct's crude intelligence. Your innovation becomes trained in Intimidation, Stealth, and Survival.</li>\n</ul>\n<h3>Weapon</h3>\n<p>Your innovation is an impossible-looking weapon augmented by numerous unusual mechanisms. It begins with the same statistics as a level 0 common simple or martial weapon of your choice, or another level 0 simple or martial weapon to which you have access. You can instead use the statistics of a 1st-level common simple or martial weapon of your choice, or another 1st-level simple or martial weapon to which you have access, but you must pay the monetary Price for the weapon. An innovation weapon can have fundamental and property runes added to it in the same way as an ordinary weapon. Because of the unique features of your innovation, everyone except you is untrained in it, even if they would normally be trained (or better) in simple or martial weapons. If you use the Overdrive action, you can choose to change the additional damage from Overdrive to fire damage. Choose one initial weapon modification to apply to your innovation, either from the following or from other initial weapon modifications to which you have access. These modifications grant additional weapon traits, sometimes with extra abilities. A modification might give your weapon the versatile trait with a damage type that the weapon could already deal, either from its base damage type or from an existing versatile trait. In that case, if you select that modification, you can instead choose to give the weapon the versatile trait for a different damage type: bludgeoning, piercing, or slashing.</p>\n<ul>\n<li><strong>Blunt Shot (Ranged Only)</strong> Your weapon innovation can file the edges off your ammunition and adjust the blunt force of the shot to deliver a bludgeoning attack when necessary, as well as to avoid striking a lethal blow with an otherwise deadly shot. Your innovation gains the nonlethal and versatile B traits. You can choose whether to apply the nonlethal trait on each attack with your innovation.</li>\n<li><strong>Complex Simplicity (Simple Weapon Only)</strong> Increase your innovation's weapon damage die by one step (d4 to d6, d6 to d8, d8 to d10, d10 to d12). In addition, it gains one of the following traits of your choice: versatile B, versatile P, or versatile S.</li>\n<li><strong>Dynamic Weighting (One-handed Melee Weapon Only; Can't Have the Agile, Attached, or Free-hand Trait)</strong> Your weapon's modified weight distribution can increase power in exchange for taking more hands to wield. Your innovation gains the two-hand trait, with a damage die one size higher than the weapon's normal weapon damage die size (for instance, a longsword would gain the two-hand d10 trait). Your innovation also gains the versatile B trait.</li>\n<li><strong>Entangling Form (Melee Only)</strong> You've altered your weapon to including tangling wires or straps, or to have a flexible construction. Your innovation gains the grapple and trip traits.</li>\n<li><strong>Hampering Spikes (Melee Only)</strong> You've added long, snagging spikes to your weapon, which you can use to impede your foes' movement. Your innovation gains the hampering and versatile P traits.</li>\n<li><strong>Hefty Composition (Melee Only)</strong> Blunt surfaces and sturdy construction make your weapon hefty and mace-like. Your innovation gains the shove and versatile B traits.</li>\n<li><strong>Modular Head</strong> You've constructed a multi-purpose, adjustable striking surface for your weapon, or you've made special ammunition you can swiftly alter. Your innovation gains the modular trait for bludgeoning, piercing, and slashing. When you Interact to use the modular trait, you can also choose to give the weapon the nonlethal trait if it doesn't currently have it, or to remove that trait if it's currently nonlethal.</li>\n<li><strong>Pacification Tools (Melee Only)</strong> Softer materials make your weapon suited to knock out instead of kill, and special protrusions let you catch weapons and disarm your foes. Your innovation gains the disarm and nonlethal traits. You can choose whether to apply the nonlethal trait on each attack with your innovation.</li>\n<li><strong>Razor Prongs (Melee Only)</strong> You can knock down and slash your foes with sharp, curved blades added to your weapon. Your innovation gains the trip and versatile S traits.</li>\n<li><strong>Segmented Frame</strong> Hinges, clamps, and telescoping parts make your innovation collapsible and adjustable. It gains the modular trait for bludgeoning, piercing, and slashing. You can Interact to collapse the item down to light Bulk or to return it to your normal form. When it's collapsed to light Bulk, it has the concealable trait, which grants you a +2 circumstance bonus to Stealth checks and DCs to hide or conceal the weapon.</li>\n</ul>"
        },
        "featType": {
            "value": "classfeature"
        },
        "level": {
            "value": 1
        },
        "location": "",
        "prerequisites": {
            "value": []
        },
        "rules": [],
        "source": {
            "value": ""
        },
        "traits": {
            "custom": "",
            "rarity": "common",
            "value": [
                "inventor"
            ]
        }
    },
    "flags": {},
    "img": "systems/pf2e/icons/features/classes/innovation.webp",
    "name": "Innovation",
    "type": "feat"
}
