{
    "_id": "AIOBWGOS4nkfH3kW",
    "data": {
        "actionCategory": {
            "value": ""
        },
        "actionType": {
            "value": "passive"
        },
        "actions": {
            "value": null
        },
        "description": {
            "value": "<p>As a bard, you select one muse at 1st level. This muse leads you to great things, and might be a physical creature, a deity, a philosophy, or a captivating mystery.</p>\n<ul>\n<li>@Compendium[pf2e.classfeatures.Enigma]{Enigma}</li>\n<li>@Compendium[pf2e.classfeatures.Maestro]{Maestro}</li>\n<li>@Compendium[pf2e.classfeatures.Polymath]{Polymath}</li>\n<li>@Compendium[pf2e.classfeatures.Warrior]{Warrior}</li>\n</ul>"
        },
        "featType": {
            "value": "classfeature"
        },
        "level": {
            "value": 1
        },
        "location": "",
        "prerequisites": {
            "value": []
        },
        "rules": [
            {
                "adjustName": false,
                "allowedDrops": {
                    "all": [
                        "item:level:1",
                        "item:trait:bard",
                        "item:type:feature"
                    ],
                    "label": "1st-level Bard class feature"
                },
                "choices": [
                    {
                        "value": "Compendium.pf2e.classfeatures.Enigma"
                    },
                    {
                        "value": "Compendium.pf2e.classfeatures.Maestro"
                    },
                    {
                        "value": "Compendium.pf2e.classfeatures.Polymath"
                    },
                    {
                        "value": "Compendium.pf2e.classfeatures.Warrior"
                    }
                ],
                "key": "ChoiceSet",
                "prompt": "Select a muse."
            },
            {
                "key": "GrantItem",
                "uuid": "{item|flags.pf2e.rulesSelections.muses}"
            }
        ],
        "source": {
            "value": ""
        },
        "traits": {
            "custom": "",
            "rarity": "common",
            "value": [
                "bard"
            ]
        }
    },
    "flags": {},
    "img": "systems/pf2e/icons/features/classes/choice-feature.webp",
    "name": "Muses",
    "type": "feat"
}
