{
    "_id": "571c1aGnvNVwfF6b",
    "data": {
        "actionCategory": {
            "value": ""
        },
        "actionType": {
            "value": "passive"
        },
        "actions": {
            "value": null
        },
        "description": {
            "value": "<p>You now fully grasp the nature of the divine power behind your mystery, allowing you to work magic akin to miracles. Add two common 10th-level divine spells to your repertoire. You gain a single 10th-level spell slot you can use to cast one of those two spells using oracle spellcasting.</p>\n<p>You don't gain more 10th-level spells as you level up, unlike other spell slots, and you can't use 10th-level slots with abilities that give you more spell slots or that let you cast spells without expending spell slots. You can take the @Compendium[pf2e.feats-srd.Oracular Providence]{Oracular Providence} feat to gain a second slot.</p>"
        },
        "featType": {
            "value": "classfeature"
        },
        "level": {
            "value": 19
        },
        "location": "",
        "prerequisites": {
            "value": []
        },
        "rules": [],
        "source": {
            "value": ""
        },
        "traits": {
            "custom": "",
            "rarity": "common",
            "value": [
                "oracle"
            ]
        }
    },
    "flags": {},
    "img": "systems/pf2e/icons/features/classes/oracular-clarity.webp",
    "name": "Oracular Clarity",
    "type": "feat"
}
