{
    "_id": "nocYmxbi4rqCC2qS",
    "data": {
        "actionCategory": {
            "value": ""
        },
        "actionType": {
            "value": "passive"
        },
        "actions": {
            "value": null
        },
        "description": {
            "value": "<p>Each patron has a theme, regardless of their nature or identity. This theme describes the forces over which the patron grants a witch influence. Some patrons are multifaceted, granting different themes and teaching different lessons to different witches. Your patron's theme determines the following.</p>\n<ul>\n<li><strong>Spell List</strong> You use this magical tradition and spell list.</li>\n<li><strong>Patron Skill</strong> You become trained in the listed skill.</li>\n<li><strong>Hex Cantrip</strong> You gain this special hex cantrip.</li>\n<li><strong>Granted Spell</strong> Your familiar automatically learns the spell listed here, in addition to those you gain through witch spellcasting.</li>\n</ul>"
        },
        "featType": {
            "value": "classfeature"
        },
        "level": {
            "value": 1
        },
        "location": "",
        "prerequisites": {
            "value": []
        },
        "rules": [],
        "source": {
            "value": ""
        },
        "traits": {
            "custom": "",
            "rarity": "common",
            "value": [
                "witch"
            ]
        }
    },
    "flags": {},
    "img": "systems/pf2e/icons/features/classes/patreon-theme.webp",
    "name": "Patron Theme",
    "type": "feat"
}
