{
    "_id": "RkofVX55ciXZyfAA",
    "data": {
        "actionCategory": {
            "value": ""
        },
        "actionType": {
            "value": "passive"
        },
        "actions": {
            "value": null
        },
        "description": {
            "value": "<p>You make shots others find impossible. Your proficiency rank for your gunslinger class DC increases to master. When using a ranged weapon in which you have master or greater proficiency, you ignore the penalty for attacking within the weapon's second and third range increments.</p>"
        },
        "featType": {
            "value": "classfeature"
        },
        "level": {
            "value": 17
        },
        "location": "",
        "prerequisites": {
            "value": []
        },
        "rules": [
            {
                "key": "ActiveEffectLike",
                "mode": "upgrade",
                "path": "data.attributes.classDC.rank",
                "value": 3
            },
            {
                "domain": "ranged-attack-roll",
                "key": "RollOption",
                "option": "ignore-range-penalty:3",
                "phase": "beforeRoll",
                "predicate": {
                    "all": [
                        {
                            "gte": [
                                "weapon:proficiency:rank",
                                3
                            ]
                        }
                    ]
                }
            }
        ],
        "source": {
            "value": ""
        },
        "traits": {
            "custom": "",
            "rarity": "common",
            "value": [
                "gunslinger"
            ]
        }
    },
    "flags": {},
    "img": "systems/pf2e/icons/features/classes/shootists-edge.webp",
    "name": "Shootist's Edge",
    "type": "feat"
}
