{
    "_id": "SCYSjUbMmw8JD9P9",
    "data": {
        "actionCategory": {
            "value": ""
        },
        "actionType": {
            "value": "passive"
        },
        "actions": {
            "value": null
        },
        "description": {
            "value": "<p>A deep distrust of magic drives you to forgo and counter the metaphysical nonsense of spellcasters. Whether you're a member of a superstitious family or culture that distrusts magic, a warrior in constant battle against wizards and witches, a survivor of a magical accident that instilled an intense aversion in your mind and body, or a scion of a bloodline known for its magic resistance, your rage is inimical to magic.</p>\n<p>This makes you an excellent mage hunter but slow to trust practitioners of magical arts. Your extremely restrictive anathema grants you powers beyond those of other instincts.</p>\n<h2>Anathema</h2>\n<p>Willingly accepting the effects of magic spells (including from scrolls, wands, and the like), even from your allies, is anathema to your instinct. You can still drink potions and invest and activate most magic items you find, though items that cast spells are subject to the same restrictions as all other spells. If an ally insists on using magic on you despite your unwillingness, and you have no reason to believe they will stop, continuing to travel with that ally of your own free will counts as willingly accepting their spells (as do similar circumstances) and thus is also anathema to your instinct.</p>\n<h2>Superstitious Resiliance (Instinct Ability)</h2>\n<p>While raging, you gain a +2 status bonus to all saves against magic. Increase your damage from Rage from 2 to 4 against creatures that can cast spells. Once every 10 minutes, when you Rage, you regain Hit Points equal to the temporary Hit Points you gain from that Rage action.</p>\n<h2>Specialization Ability 7th</h2>\n<p>Increase the damage from Rage from 4 to 8 against creatures that can cast spells. If you have greater raging specialization, instead increase the damage from Rage to 12 against creatures with spells and 8 against other creatures.</p>\n<h2>Raging Resistance 9th</h2>\n<p>Choose two associated magical traditions: arcane and occult, arcane and primal, divine and occult, or divine and primal. The resistance from your raging resistance class feature applies against all damage you take from spells cast with these two traditions of magic, regardless of the type of damage dealt by the spell.</p>"
        },
        "featType": {
            "value": "classfeature"
        },
        "level": {
            "value": 1
        },
        "location": "",
        "prerequisites": {
            "value": []
        },
        "rules": [
            {
                "key": "FlatModifier",
                "label": "PF2E.TraitRage",
                "predicate": {
                    "all": [
                        "rage"
                    ],
                    "not": [
                        "barbarian-dedication"
                    ]
                },
                "selector": "ac",
                "value": -1
            },
            {
                "key": "FlatModifier",
                "label": "Superstition Instinct (vs. magic)",
                "predicate": {
                    "all": [
                        "magic",
                        "rage"
                    ],
                    "not": [
                        "barbarian-dedication"
                    ]
                },
                "selector": "saving-throw",
                "slug": "superstition-saves",
                "type": "status",
                "value": 2
            },
            {
                "domain": "all",
                "key": "RollOption",
                "label": "Target is a spellcaster",
                "option": "target:caster",
                "toggleable": true
            },
            {
                "key": "FlatModifier",
                "label": "PF2E.TraitRage",
                "predicate": {
                    "all": [
                        "target:caster",
                        "rage"
                    ],
                    "not": [
                        "agile",
                        "ranged",
                        "barbarian-dedication"
                    ]
                },
                "selector": "strike-damage",
                "slug": "caster-rage",
                "value": {
                    "brackets": [
                        {
                            "end": 6,
                            "value": 4
                        },
                        {
                            "end": 14,
                            "start": 7,
                            "value": 8
                        },
                        {
                            "start": 15,
                            "value": 12
                        }
                    ]
                }
            },
            {
                "key": "FlatModifier",
                "label": "PF2E.TraitRage",
                "predicate": {
                    "all": [
                        "target:caster",
                        "rage",
                        "agile"
                    ],
                    "not": [
                        "ranged",
                        "barbarian-dedication"
                    ]
                },
                "selector": "strike-damage",
                "slug": "caster-rage-agile",
                "value": {
                    "brackets": [
                        {
                            "end": 6,
                            "value": 2
                        },
                        {
                            "end": 14,
                            "start": 7,
                            "value": 4
                        },
                        {
                            "start": 15,
                            "value": 6
                        }
                    ]
                }
            },
            {
                "key": "FlatModifier",
                "label": "PF2E.TraitRage",
                "predicate": {
                    "all": [
                        "rage"
                    ],
                    "not": [
                        "agile",
                        "target:caster",
                        "ranged",
                        "barbarian-dedication"
                    ]
                },
                "selector": "strike-damage",
                "slug": "normal-rage",
                "value": {
                    "brackets": [
                        {
                            "end": 14,
                            "value": 2
                        },
                        {
                            "start": 15,
                            "value": 8
                        }
                    ]
                }
            },
            {
                "key": "FlatModifier",
                "label": "PF2E.TraitRage",
                "predicate": {
                    "all": [
                        "rage",
                        "agile"
                    ],
                    "not": [
                        "target:caster",
                        "ranged",
                        "barbarian-dedication"
                    ]
                },
                "selector": "strike-damage",
                "slug": "normal-rage-agile",
                "value": {
                    "brackets": [
                        {
                            "end": 14,
                            "value": 1
                        },
                        {
                            "start": 15,
                            "value": 4
                        }
                    ]
                }
            },
            {
                "key": "FlatModifier",
                "label": "Superstition Instinct (vs. magic)",
                "predicate": {
                    "all": [
                        "magic",
                        "rage",
                        "instinct-ability"
                    ]
                },
                "selector": "saving-throw",
                "slug": "superstition-saves-dedication",
                "type": "status",
                "value": 2
            },
            {
                "key": "FlatModifier",
                "label": "PF2E.TraitRage",
                "predicate": {
                    "all": [
                        "target:caster",
                        "rage",
                        "instinct-ability"
                    ],
                    "not": [
                        "agile",
                        "ranged"
                    ]
                },
                "selector": "strike-damage",
                "slug": "caster-rage-dedication",
                "value": 4
            },
            {
                "key": "FlatModifier",
                "label": "PF2E.TraitRage",
                "predicate": {
                    "all": [
                        "target:caster",
                        "rage",
                        "agile",
                        "instinct-ability"
                    ],
                    "not": [
                        "ranged"
                    ]
                },
                "selector": "strike-damage",
                "slug": "caster-rage-dedication-agile",
                "value": 2
            },
            {
                "key": "FlatModifier",
                "label": "PF2E.TraitRage",
                "predicate": {
                    "all": [
                        "rage",
                        "instinct-ability"
                    ],
                    "not": [
                        "agile",
                        "target:caster",
                        "ranged"
                    ]
                },
                "selector": "strike-damage",
                "slug": "normal-rage-dedication",
                "value": 2
            },
            {
                "key": "FlatModifier",
                "label": "PF2E.TraitRage",
                "predicate": {
                    "all": [
                        "rage",
                        "agile",
                        "instinct-ability"
                    ],
                    "not": [
                        "target:caster",
                        "ranged"
                    ]
                },
                "selector": "strike-damage",
                "slug": "normal-rage-dedication-agile",
                "value": 1
            }
        ],
        "source": {
            "value": ""
        },
        "traits": {
            "custom": "",
            "rarity": "common",
            "value": [
                "barbarian"
            ]
        }
    },
    "flags": {},
    "img": "systems/pf2e/icons/features/classes/superstition-instinct.webp",
    "name": "Superstition Instinct",
    "type": "feat"
}
