{
    "_id": "QWXvksGJhOjXbBqi",
    "data": {
        "actionCategory": {
            "value": ""
        },
        "actionType": {
            "value": "passive"
        },
        "actions": {
            "value": null
        },
        "description": {
            "value": "<p>You practice a style of shooting that relies on unerring accuracy and perfect placement of your first shot. You keep hidden or at a distance, staying out of the fray and bringing unseen death to your foes.</p>\n<p><strong>Slinger's Reload</strong> @Compendium[pf2e.actionspf2e.Covered Reload]{Covered Reload}</p>\n<p><strong>Deeds</strong> <em>Initial</em> @Compendium[pf2e.actionspf2e.One Shot, One Kill]{One Shot, One Kill}; <em>Advanced</em> @Compendium[pf2e.actionspf2e.Vital Shot]{Vital Shot}; <em>Greater</em> @Compendium[pf2e.actionspf2e.Ghost Shot]{Ghost Shot}</p>\n<p><strong>Way Skill</strong> Stealth</p>"
        },
        "featType": {
            "value": "classfeature"
        },
        "level": {
            "value": 1
        },
        "location": "",
        "prerequisites": {
            "value": []
        },
        "rules": [
            {
                "key": "GrantItem",
                "predicate": {
                    "all": [
                        "class:gunslinger"
                    ]
                },
                "uuid": "Compendium.pf2e.actionspf2e.Covered Reload"
            },
            {
                "key": "GrantItem",
                "predicate": {
                    "all": [
                        "class:gunslinger"
                    ]
                },
                "uuid": "Compendium.pf2e.actionspf2e.One Shot, One Kill"
            },
            {
                "key": "ActiveEffectLike",
                "mode": "upgrade",
                "path": "data.skills.ste.rank",
                "value": 1
            }
        ],
        "source": {
            "value": ""
        },
        "traits": {
            "custom": "",
            "rarity": "common",
            "value": [
                "gunslinger"
            ]
        }
    },
    "flags": {},
    "img": "systems/pf2e/icons/features/classes/way-of-the-sniper.webp",
    "name": "Way of the Sniper",
    "type": "feat"
}
