{
    "_id": "i6563IU7x4L9oRgC",
    "data": {
        "actionCategory": {
            "value": ""
        },
        "actionType": {
            "value": "passive"
        },
        "actions": {
            "value": null
        },
        "description": {
            "value": "<p>You fully understand your weapons. Your proficiency ranks for simple weapons, martial weapons, and unarmed attacks increase to master.</p>"
        },
        "featType": {
            "value": "classfeature"
        },
        "level": {
            "value": 13
        },
        "location": "",
        "prerequisites": {
            "value": []
        },
        "rules": [
            {
                "key": "ActiveEffectLike",
                "mode": "upgrade",
                "path": "data.martial.simple.rank",
                "value": 3
            },
            {
                "key": "ActiveEffectLike",
                "mode": "upgrade",
                "path": "data.martial.unarmed.rank",
                "value": 3
            },
            {
                "key": "ActiveEffectLike",
                "mode": "upgrade",
                "path": "data.martial.martial.rank",
                "value": 3
            }
        ],
        "source": {
            "value": ""
        },
        "traits": {
            "custom": "",
            "rarity": "common",
            "value": [
                "champion",
                "investigator",
                "magus",
                "ranger",
                "swashbuckler"
            ]
        }
    },
    "flags": {},
    "img": "systems/pf2e/icons/features/classes/weapon-mastery.webp",
    "name": "Weapon Mastery",
    "type": "feat"
}
