{
    "_id": "F5BHEav90oOJ2LwN",
    "data": {
        "actionCategory": {
            "value": ""
        },
        "actionType": {
            "value": "passive"
        },
        "actions": {
            "value": null
        },
        "description": {
            "value": "<p>You've dedicated yourself to learning the intricacies of your weapons. Your proficiency ranks for simple weapons, martial weapons, and unarmed attacks increase to expert.</p>\n<hr />\n<p>You gain access to the critical specialization effects of all weapons for which you have expert proficiency.</p>"
        },
        "featType": {
            "value": "classfeature"
        },
        "level": {
            "value": 5
        },
        "location": "",
        "prerequisites": {
            "value": []
        },
        "rules": [
            {
                "key": "Note",
                "outcome": [
                    "criticalSuccess"
                ],
                "predicate": {
                    "any": [
                        "proficiency:expert",
                        "proficiency:master",
                        "proficiency:legendary"
                    ]
                },
                "selector": "axe-weapon-group-damage",
                "text": "<p class='compact-text'>@Localize[PF2E.WeaponDescriptionAxe]</p>"
            },
            {
                "key": "Note",
                "outcome": [
                    "criticalSuccess"
                ],
                "predicate": {
                    "any": [
                        "proficiency:expert",
                        "proficiency:master",
                        "proficiency:legendary"
                    ]
                },
                "selector": "bomb-weapon-group-damage",
                "text": "<p class='compact-text'>@Localize[PF2E.WeaponDescriptionBomb]</p>"
            },
            {
                "key": "Note",
                "outcome": [
                    "criticalSuccess"
                ],
                "predicate": {
                    "any": [
                        "proficiency:expert",
                        "proficiency:master",
                        "proficiency:legendary"
                    ]
                },
                "selector": "bow-weapon-group-damage",
                "text": "<p class='compact-text'>@Localize[PF2E.WeaponDescriptionBow]</p>"
            },
            {
                "key": "Note",
                "outcome": [
                    "criticalSuccess"
                ],
                "predicate": {
                    "any": [
                        "proficiency:expert",
                        "proficiency:master",
                        "proficiency:legendary"
                    ]
                },
                "selector": "brawling-weapon-group-damage",
                "text": "<p class='compact-text'>@Localize[PF2E.WeaponDescriptionBrawling]</p>"
            },
            {
                "key": "Note",
                "outcome": [
                    "criticalSuccess"
                ],
                "predicate": {
                    "any": [
                        "proficiency:expert",
                        "proficiency:master",
                        "proficiency:legendary"
                    ]
                },
                "selector": "club-weapon-group-damage",
                "text": "<p class='compact-text'>@Localize[PF2E.WeaponDescriptionClub]</p>"
            },
            {
                "key": "Note",
                "outcome": [
                    "criticalSuccess"
                ],
                "predicate": {
                    "any": [
                        "proficiency:expert",
                        "proficiency:master",
                        "proficiency:legendary"
                    ]
                },
                "selector": "dart-weapon-group-damage",
                "text": "<p class='compact-text'>@Localize[PF2E.WeaponDescriptionDart]</p>"
            },
            {
                "key": "Note",
                "outcome": [
                    "criticalSuccess"
                ],
                "predicate": {
                    "any": [
                        "proficiency:expert",
                        "proficiency:master",
                        "proficiency:legendary"
                    ]
                },
                "selector": "flail-weapon-group-damage",
                "text": "<p class='compact-text'>@Localize[PF2E.WeaponDescriptionFlail]</p>"
            },
            {
                "key": "Note",
                "outcome": [
                    "criticalSuccess"
                ],
                "predicate": {
                    "any": [
                        "proficiency:expert",
                        "proficiency:master",
                        "proficiency:legendary"
                    ]
                },
                "selector": "hammer-weapon-group-damage",
                "text": "<p class='compact-text'>@Localize[PF2E.WeaponDescriptionHammer]</p>"
            },
            {
                "key": "Note",
                "outcome": [
                    "criticalSuccess"
                ],
                "predicate": {
                    "any": [
                        "proficiency:expert",
                        "proficiency:master",
                        "proficiency:legendary"
                    ]
                },
                "selector": "knife-weapon-group-damage",
                "text": "<p class='compact-text'>@Localize[PF2E.WeaponDescriptionKnife]</p>"
            },
            {
                "key": "Note",
                "outcome": [
                    "criticalSuccess"
                ],
                "predicate": {
                    "any": [
                        "proficiency:expert",
                        "proficiency:master",
                        "proficiency:legendary"
                    ]
                },
                "selector": "pick-weapon-group-damage",
                "text": "<p class='compact-text'>@Localize[PF2E.WeaponDescriptionPick]</p>"
            },
            {
                "key": "Note",
                "outcome": [
                    "criticalSuccess"
                ],
                "predicate": {
                    "any": [
                        "proficiency:expert",
                        "proficiency:master",
                        "proficiency:legendary"
                    ]
                },
                "selector": "polearm-weapon-group-damage",
                "text": "<p class='compact-text'>@Localize[PF2E.WeaponDescriptionPolearm]</p>"
            },
            {
                "key": "Note",
                "outcome": [
                    "criticalSuccess"
                ],
                "predicate": {
                    "any": [
                        "proficiency:expert",
                        "proficiency:master",
                        "proficiency:legendary"
                    ]
                },
                "selector": "shield-weapon-group-damage",
                "text": "<p class='compact-text'>@Localize[PF2E.WeaponDescriptionShield]</p>"
            },
            {
                "key": "Note",
                "outcome": [
                    "criticalSuccess"
                ],
                "predicate": {
                    "any": [
                        "proficiency:expert",
                        "proficiency:master",
                        "proficiency:legendary"
                    ]
                },
                "selector": "sling-weapon-group-damage",
                "text": "<p class='compact-text'>@Localize[PF2E.WeaponDescriptionSling]</p>"
            },
            {
                "key": "Note",
                "outcome": [
                    "criticalSuccess"
                ],
                "predicate": {
                    "any": [
                        "proficiency:expert",
                        "proficiency:master",
                        "proficiency:legendary"
                    ]
                },
                "selector": "spear-weapon-group-damage",
                "text": "<p class='compact-text'>@Localize[PF2E.WeaponDescriptionSpear]</p>"
            },
            {
                "key": "Note",
                "outcome": [
                    "criticalSuccess"
                ],
                "predicate": {
                    "any": [
                        "proficiency:expert",
                        "proficiency:master",
                        "proficiency:legendary"
                    ]
                },
                "selector": "sword-weapon-group-damage",
                "text": "<p class='compact-text'>@Localize[PF2E.WeaponDescriptionSword]</p>"
            },
            {
                "key": "ActiveEffectLike",
                "mode": "upgrade",
                "path": "data.martial.simple.rank",
                "value": 2
            },
            {
                "key": "ActiveEffectLike",
                "mode": "upgrade",
                "path": "data.martial.martial.rank",
                "value": 2
            },
            {
                "key": "ActiveEffectLike",
                "mode": "upgrade",
                "path": "data.martial.unarmed.rank",
                "value": 2
            },
            {
                "key": "Note",
                "outcome": [
                    "criticalSuccess"
                ],
                "predicate": {
                    "any": [
                        "proficiency:expert",
                        "proficiency:master",
                        "proficiency:legendary"
                    ]
                },
                "selector": "firearm-weapon-group-damage",
                "text": "<p class='compact-text'>@Localize[PF2E.WeaponDescriptionFirearm]</p>"
            }
        ],
        "source": {
            "value": ""
        },
        "traits": {
            "custom": "",
            "rarity": "common",
            "value": [
                "swashbuckler"
            ]
        }
    },
    "flags": {},
    "img": "systems/pf2e/icons/features/classes/weapon-expertise.webp",
    "name": "Weapon Expertise (Swashbuckler)",
    "type": "feat"
}
