{
    "_id": "v8UNEJR5IDKi8yqa",
    "data": {
        "actionCategory": {
            "value": ""
        },
        "actionType": {
            "value": "passive"
        },
        "actions": {
            "value": null
        },
        "description": {
            "value": "<p>You have become thoroughly familiar with the tools of your trade. You gain expert proficiency in simple weapons as well as the @Compendium[pf2e.equipment-srd.Rapier]{Rapier}, @Compendium[pf2e.equipment-srd.Sap]{Sap}, @Compendium[pf2e.equipment-srd.Shortbow]{Shortbow}, @Compendium[pf2e.equipment-srd.Shortsword]{Shortsword}, and unarmed attacks. When you critically succeed at an attack roll against a flat-footed creature while using an agile or finesse simple weapon or unarmed attack, or when using any of the listed weapons, you apply the critical specialization effect for that weapon or unarmed attack.</p>"
        },
        "featType": {
            "value": "classfeature"
        },
        "level": {
            "value": 5
        },
        "location": "",
        "prerequisites": {
            "value": []
        },
        "rules": [
            {
                "key": "Note",
                "outcome": [
                    "criticalSuccess"
                ],
                "predicate": {
                    "all": [
                        "target:condition:flat-footed",
                        "weapon:category:simple"
                    ],
                    "any": [
                        "finesse",
                        "agile"
                    ]
                },
                "selector": "axe-weapon-group-damage",
                "text": "<p class=\"compact-text\">@Localize[PF2E.WeaponDescriptionAxe]</p>"
            },
            {
                "key": "Note",
                "outcome": [
                    "criticalSuccess"
                ],
                "predicate": {
                    "all": [
                        "target:condition:flat-footed",
                        "weapon:category:simple"
                    ],
                    "any": [
                        "finesse",
                        "agile"
                    ]
                },
                "selector": "bow-weapon-group-damage",
                "text": "<p class=\"compact-text\">@Localize[PF2E.WeaponDescriptionBow]</p>"
            },
            {
                "key": "Note",
                "outcome": [
                    "criticalSuccess"
                ],
                "predicate": {
                    "all": [
                        "target:condition:flat-footed"
                    ]
                },
                "selector": "shortbow-damage",
                "text": "<p class=\"compact-text\">@Localize[PF2E.WeaponDescriptionBow]</p>"
            },
            {
                "key": "Note",
                "outcome": [
                    "criticalSuccess"
                ],
                "predicate": {
                    "all": [
                        "target:condition:flat-footed",
                        "weapon:category:simple"
                    ],
                    "any": [
                        "finesse",
                        "agile"
                    ]
                },
                "selector": "brawling-weapon-group-damage",
                "text": "<p class=\"compact-text\">@Localize[PF2E.WeaponDescriptionBrawling]</p>"
            },
            {
                "key": "Note",
                "outcome": [
                    "criticalSuccess"
                ],
                "predicate": {
                    "all": [
                        "target:condition:flat-footed",
                        "weapon:category:simple"
                    ],
                    "any": [
                        "finesse",
                        "agile"
                    ]
                },
                "selector": "club-weapon-group-damage",
                "text": "<p class=\"compact-text\">@Localize[PF2E.WeaponDescriptionClub]</p>"
            },
            {
                "key": "Note",
                "outcome": [
                    "criticalSuccess"
                ],
                "predicate": {
                    "all": [
                        "target:condition:flat-footed"
                    ]
                },
                "selector": "sap-damage",
                "text": "<p class=\"compact-text\">@Localize[PF2E.WeaponDescriptionClub]</p>"
            },
            {
                "key": "Note",
                "outcome": [
                    "criticalSuccess"
                ],
                "predicate": {
                    "all": [
                        "target:condition:flat-footed",
                        "weapon:category:simple"
                    ],
                    "any": [
                        "finesse",
                        "agile"
                    ]
                },
                "selector": "dart-weapon-group-damage",
                "text": "<p class=\"compact-text\">@Localize[PF2E.WeaponDescriptionDart]</p>"
            },
            {
                "key": "Note",
                "outcome": [
                    "criticalSuccess"
                ],
                "predicate": {
                    "all": [
                        "target:condition:flat-footed",
                        "weapon:category:simple"
                    ],
                    "any": [
                        "finesse",
                        "agile"
                    ]
                },
                "selector": "flail-weapon-group-damage",
                "text": "<p class=\"compact-text\">@Localize[PF2E.WeaponDescriptionFlail]</p>"
            },
            {
                "key": "Note",
                "outcome": [
                    "criticalSuccess"
                ],
                "predicate": {
                    "all": [
                        "target:condition:flat-footed",
                        "weapon:category:simple"
                    ],
                    "any": [
                        "finesse",
                        "agile"
                    ]
                },
                "selector": "hammer-weapon-group-damage",
                "text": "<p class=\"compact-text\">@Localize[PF2E.WeaponDescriptionHammer]</p>"
            },
            {
                "key": "Note",
                "outcome": [
                    "criticalSuccess"
                ],
                "predicate": {
                    "all": [
                        "target:condition:flat-footed",
                        "weapon:category:simple"
                    ],
                    "any": [
                        "finesse",
                        "agile"
                    ]
                },
                "selector": "knife-weapon-group-damage",
                "text": "<p class=\"compact-text\">@Localize[PF2E.WeaponDescriptionKnife]</p>"
            },
            {
                "key": "Note",
                "outcome": [
                    "criticalSuccess"
                ],
                "predicate": {
                    "all": [
                        "target:condition:flat-footed",
                        "weapon:category:simple"
                    ],
                    "any": [
                        "finesse",
                        "agile"
                    ]
                },
                "selector": "pick-weapon-group-damage",
                "text": "<p class=\"compact-text\">@Localize[PF2E.WeaponDescriptionPick]</p>"
            },
            {
                "key": "Note",
                "outcome": [
                    "criticalSuccess"
                ],
                "predicate": {
                    "all": [
                        "target:condition:flat-footed",
                        "weapon:category:simple"
                    ],
                    "any": [
                        "finesse",
                        "agile"
                    ]
                },
                "selector": "polearm-weapon-group-damage",
                "text": "<p class=\"compact-text\">@Localize[PF2E.WeaponDescriptionPolearm]</p>"
            },
            {
                "key": "Note",
                "outcome": [
                    "criticalSuccess"
                ],
                "predicate": {
                    "all": [
                        "target:condition:flat-footed",
                        "weapon:category:simple"
                    ],
                    "any": [
                        "finesse",
                        "agile"
                    ]
                },
                "selector": "shield-weapon-group-damage",
                "text": "<p class=\"compact-text\">@Localize[PF2E.WeaponDescriptionShield]</p>"
            },
            {
                "key": "Note",
                "outcome": [
                    "criticalSuccess"
                ],
                "predicate": {
                    "all": [
                        "target:condition:flat-footed",
                        "weapon:category:simple"
                    ],
                    "any": [
                        "finesse",
                        "agile"
                    ]
                },
                "selector": "sling-weapon-group-damage",
                "text": "<p class=\"compact-text\">@Localize[PF2E.WeaponDescriptionSling]</p>"
            },
            {
                "key": "Note",
                "outcome": [
                    "criticalSuccess"
                ],
                "predicate": {
                    "all": [
                        "target:condition:flat-footed",
                        "weapon:category:simple"
                    ],
                    "any": [
                        "finesse",
                        "agile"
                    ]
                },
                "selector": "spear-weapon-group-damage",
                "text": "<p class=\"compact-text\">@Localize[PF2E.WeaponDescriptionSpear]</p>"
            },
            {
                "key": "Note",
                "outcome": [
                    "criticalSuccess"
                ],
                "predicate": {
                    "all": [
                        "target:condition:flat-footed",
                        "weapon:category:simple"
                    ],
                    "any": [
                        "finesse",
                        "agile"
                    ]
                },
                "selector": "sword-weapon-group-damage",
                "text": "<p class=\"compact-text\">@Localize[PF2E.WeaponDescriptionSword]</p>"
            },
            {
                "key": "Note",
                "outcome": [
                    "criticalSuccess"
                ],
                "predicate": {
                    "all": [
                        "target:condition:flat-footed"
                    ]
                },
                "selector": "rapier-damage",
                "text": "<p class=\"compact-text\">@Localize[PF2E.WeaponDescriptionSword]</p>"
            },
            {
                "key": "Note",
                "outcome": [
                    "criticalSuccess"
                ],
                "predicate": {
                    "all": [
                        "target:condition:flat-footed"
                    ]
                },
                "selector": "shortsword-damage",
                "text": "<p class=\"compact-text\">@Localize[PF2E.WeaponDescriptionSword]</p>"
            },
            {
                "key": "ActiveEffectLike",
                "mode": "upgrade",
                "path": "data.martial.simple.rank",
                "value": 2
            },
            {
                "key": "ActiveEffectLike",
                "mode": "upgrade",
                "path": "data.martial.weapon-base-rapier.rank",
                "value": 2
            },
            {
                "key": "ActiveEffectLike",
                "mode": "upgrade",
                "path": "data.martial.weapon-base-sap.rank",
                "value": 2
            },
            {
                "key": "ActiveEffectLike",
                "mode": "upgrade",
                "path": "data.martial.weapon-base-shortbow.rank",
                "value": 2
            },
            {
                "key": "ActiveEffectLike",
                "mode": "upgrade",
                "path": "data.martial.weapon-base-shortsword.rank",
                "value": 2
            },
            {
                "key": "ActiveEffectLike",
                "mode": "upgrade",
                "path": "data.martial.unarmed.rank",
                "value": 2
            },
            {
                "key": "Note",
                "outcome": [
                    "criticalSuccess"
                ],
                "predicate": {
                    "all": [
                        "target:condition:flat-footed"
                    ]
                },
                "selector": "unarmed-damage",
                "text": "<p class=\"compact-text\">@Localize[PF2E.WeaponDescriptionBrawling]</p>"
            },
            {
                "key": "Note",
                "outcome": [
                    "criticalSuccess"
                ],
                "predicate": {
                    "all": [
                        "target:condition:flat-footed",
                        "weapon:category:simple"
                    ],
                    "any": [
                        "finesse",
                        "agile"
                    ]
                },
                "selector": "firearm-weapon-group-damage",
                "text": "<p class=\"compact-text\">@Localize[PF2E.WeaponDescriptionFirearm]</p>"
            }
        ],
        "source": {
            "value": ""
        },
        "traits": {
            "custom": "",
            "rarity": "common",
            "value": [
                "rogue"
            ]
        }
    },
    "flags": {},
    "img": "systems/pf2e/icons/features/classes/weapon-tricks.webp",
    "name": "Weapon Tricks",
    "type": "feat"
}
