{
    "_id": "x5hIMfjmsDlpQWyt",
    "data": {
        "actionCategory": {
            "value": "interaction"
        },
        "actionType": {
            "value": "passive"
        },
        "actions": {
            "value": null
        },
        "description": {
            "value": "<p><strong>Overcome</strong> @Check[type:deception|dc:35], @Check[type:society|dc:37], @Check[type:stealth|dc:35]</p>\n<hr />\n<p>Sometimes the best option for crossing a crowded party is to act natural and join the crowd.</p>\n<p>If a PC successfully Blends In, roll a secret @Check[type:perception|dc:34|traits:secret] for them to notice that something seems off about one of the guests. On a success, inform them about the Dispel a Disguise Opportunity.</p>"
        },
        "requirements": {
            "value": ""
        },
        "rules": [],
        "source": {
            "value": "Pathfinder #149: Against the Scarlet Triad"
        },
        "traits": {
            "custom": "",
            "rarity": "common",
            "value": [
                "exploration"
            ]
        },
        "trigger": {
            "value": ""
        }
    },
    "flags": {},
    "img": "systems/pf2e/icons/actions/Passive.webp",
    "name": "Blend In",
    "type": "action"
}
