{
    "_id": "OxRT8qhujKG9Rhb2",
    "data": {
        "actionCategory": {
            "value": "interaction"
        },
        "actionType": {
            "value": "passive"
        },
        "actions": {
            "value": null
        },
        "description": {
            "value": "<p><strong>Requirements</strong> Crafting (master), Medicine (master), or hired medic; organized specialists</p>\n<hr />\n<p>Choose a single room in Citadel Altaerein to serve as a dedicated infirmary. Once complete, the infirmary fulfills the healer's tools requirement for Medicine skill actions and grants a +2 circumstance bonus to Medicine checks made on site. This upgrade requires 20 days of work and a @Check[type:crafting|dc:25] or @Check[type:medicine|dc:25] check.</p>"
        },
        "requirements": {
            "value": ""
        },
        "rules": [],
        "source": {
            "value": "Pathfinder #146: Cult of Cinders"
        },
        "traits": {
            "custom": "",
            "rarity": "common",
            "value": [
                "downtime",
                "manipulate"
            ]
        },
        "trigger": {
            "value": ""
        }
    },
    "flags": {},
    "img": "systems/pf2e/icons/actions/Passive.webp",
    "name": "Build Infirmary",
    "type": "action"
}
