{
    "_id": "WlXmO2kwyWGgAuOv",
    "data": {
        "actionCategory": {
            "value": "interaction"
        },
        "actionType": {
            "value": "action"
        },
        "actions": {
            "value": 1
        },
        "description": {
            "value": "<p>By interpreting a regent's personality, drawing upon what you know about dwarven tradition, and making educated guesses, you surmise what sorts of skills are most valued by the dwarven regent's guild-and thus infer what types of skills would most likely curry that regent's favor. Deduce Traditions requires a successful @Check[type:perception|dc:30] or a successful @Check[type:society|dc:25] check to yield accurate results.</p>\n<hr />\n<p><strong>Critical Success</strong> You learn one of the guild's favored skills and learn what that regent's Skepticism value is.</p>\n<p><strong>Success</strong> You learn one of the guild's favored skills.</p>\n<p><strong>Failure</strong> You learn none of the guild's favored skills.</p>\n<p><strong>Critical Failure</strong> You learn an incorrect favored skill.</p>"
        },
        "requirements": {
            "value": ""
        },
        "rules": [],
        "source": {
            "value": "Pathfinder #148: Fires of the Haunted City"
        },
        "traits": {
            "custom": "",
            "rarity": "common",
            "value": [
                "concentrate",
                "linguistic",
                "secret"
            ]
        },
        "trigger": {
            "value": ""
        }
    },
    "flags": {},
    "img": "systems/pf2e/icons/actions/OneAction.webp",
    "name": "Deduce Traditions",
    "type": "action"
}
