{
    "_id": "52zcawpATnCLh4J9",
    "data": {
        "actionCategory": {
            "value": "interaction"
        },
        "actionType": {
            "value": "action"
        },
        "actions": {
            "value": 1
        },
        "deathNote": false,
        "description": {
            "value": "<p><strong>Requirements</strong> You or another performer has failed or critically failed a trick check during the current act.</p>\n<hr />\n<p>You give the signal for the circus's clown troupe to come onstage and rescue a botched trick. A failed trick becomes a success instead, or if it was a critical failure, it is instead a failure. The clowns can be sent in only once per act, and only one trick check is affected.</p>"
        },
        "requirements": {
            "value": ""
        },
        "rules": [],
        "source": {
            "value": "Pathfinder #151: The Show Must Go On"
        },
        "traits": {
            "custom": "",
            "rarity": "common",
            "value": [
                "circus"
            ]
        },
        "trigger": {
            "value": ""
        }
    },
    "flags": {},
    "img": "systems/pf2e/icons/actions/OneAction.webp",
    "name": "Send in the Clowns",
    "type": "action"
}
