{
    "_id": "O4MWAxAYxNkndVnt",
    "data": {
        "actionCategory": {
            "value": "interaction"
        },
        "actionType": {
            "value": "action"
        },
        "actions": {
            "value": null
        },
        "description": {
            "value": "<p>While traveling overland, you use your knowledge of the area or natural terrain to navigate and find the best possible route by taking advantage of a game trail, swift water current, or other natural shortcut. Attempt a DC 20 (DC 22 in Subtier 7–8) Nature, Scouting Lore, or relevant Lore check (such as Numeria Lore). Only one PC who uses this activity can attempt the check; others can attempt to Aid (DC 20).</p>\n<table class=\"pf2-table\">\n<thead>\n<tr>\n<th>Tier 1-2</th>\n<th>Tier 3-4</th>\n</tr>\n</thead>\n<tbody>\n<tr>\n<td>\n<p>@Check[type:nature|dc:20]</p>\n</td>\n<td>@Check[type:nature|dc:22]</td>\n</tr>\n<tr>\n<td>@Check[type:scouting-lore|dc:20]{Scouting Lore}</td>\n<td>@Check[type:scouting-lore|dc:22]</td>\n</tr>\n<tr>\n<td>@Check[type:numeria-lore|dc:20]{Numeria Lore}</td>\n<td>@Check[type:numeria-lore|dc:22]{Numeria Lore}</td>\n</tr>\n</tbody>\n</table>\n<p><strong>Critical Success</strong> You find a path that saves huge amounts of time. Earn 2 Exploration Points.</p>\n<p><strong>Success</strong> You find a shortcut. Earn 1 Exploration Point.</p>\n<p><strong>Critical Failure</strong> You stumble into particularly treacherous terrain. Lose 1 Exploration Point.</p>"
        },
        "requirements": {
            "value": ""
        },
        "rules": [],
        "source": {
            "value": "Pathfinder Society Scenario 1-24: Lightning Strikes, Stars Fall"
        },
        "traits": {
            "custom": "",
            "rarity": "common",
            "value": [
                "concentrate",
                "exploration",
                "move"
            ]
        },
        "trigger": {
            "value": ""
        }
    },
    "flags": {},
    "img": "systems/pf2e/icons/default-icons/mystery-man.svg",
    "name": "Shortcut Through the Wastes",
    "type": "action"
}
