{
    "_id": "DC9b8mG1KdyXZkLp",
    "data": {
        "abilities": {
            "cha": {
                "mod": 2
            },
            "con": {
                "mod": 2
            },
            "dex": {
                "mod": 5
            },
            "int": {
                "mod": -2
            },
            "str": {
                "mod": 2
            },
            "wis": {
                "mod": 2
            }
        },
        "attributes": {
            "ac": {
                "details": "",
                "value": 21
            },
            "allSaves": {
                "value": ""
            },
            "hp": {
                "details": "",
                "max": 75,
                "temp": 0,
                "value": 75
            },
            "initiative": {
                "ability": "perception"
            },
            "perception": {
                "value": 10
            },
            "speed": {
                "otherSpeeds": [
                    {
                        "type": "climb",
                        "value": "20"
                    }
                ],
                "value": "20"
            }
        },
        "details": {
            "alignment": {
                "value": "N"
            },
            "blurb": "",
            "creatureType": "Plant",
            "level": {
                "value": 4
            },
            "privateNotes": "",
            "publicNotes": "<p>Calathgars are mysterious predatory plants that grow in the depths of the densest frozen forests, realms where icicles rarely melt from snow-cloaked trees. A calathgar's blue flowers grow from 3 to 5 feet across (with specimens as wide as 10 feet reported), while the plant itself stands just under 4 feet in height and weighs up to 50 pounds when heavy with seeds.</p>\n<p>Calathgars' psyches are alien to most sapient creatures. They have little interest in emotion, culture, or ambition, yet they have nearly flawless memories and can share experiences with other calathgars by scent (imprecise) as easily as humanoids can pass on information by speech. While calathgars themselves can't speak, they can typically be reasoned with-though like most protective parents, an incensed calathgar defending its young is rarely in a mood to listen.</p>",
            "source": {
                "value": "Pathfinder Bestiary 2"
            }
        },
        "resources": {},
        "saves": {
            "fortitude": {
                "saveDetail": "",
                "value": 10
            },
            "reflex": {
                "saveDetail": "",
                "value": 13
            },
            "will": {
                "saveDetail": "",
                "value": 10
            }
        },
        "traits": {
            "attitude": {
                "value": "hostile"
            },
            "ci": [],
            "di": {
                "custom": "",
                "value": [
                    "cold"
                ]
            },
            "dr": [],
            "dv": [
                {
                    "label": "Fire",
                    "type": "fire",
                    "value": "5"
                },
                {
                    "label": "Slashing",
                    "type": "slashing",
                    "value": "5"
                }
            ],
            "languages": {
                "custom": "Can't Speak",
                "selected": [],
                "value": [
                    "sylvan"
                ]
            },
            "rarity": "common",
            "senses": {
                "value": "darkvision, scent 30 feet"
            },
            "size": {
                "value": "sm"
            },
            "traits": {
                "custom": "",
                "value": [
                    "cold",
                    "plant"
                ]
            }
        }
    },
    "flags": {},
    "img": "systems/pf2e/icons/default-icons/npc.svg",
    "items": [
        {
            "_id": "8JPlEU0ps7X2hfP6",
            "data": {
                "attack": {
                    "value": ""
                },
                "attackEffects": {
                    "value": []
                },
                "bonus": {
                    "value": 13
                },
                "damageRolls": {
                    "6jtqjitcb7rbc4i6aqqh": {
                        "damage": "2d6+4",
                        "damageType": "bludgeoning"
                    },
                    "bff47yltgms7ls4fqt7e": {
                        "damage": "1d6",
                        "damageType": "cold"
                    }
                },
                "description": {
                    "value": ""
                },
                "rules": [],
                "slug": null,
                "source": {
                    "value": ""
                },
                "traits": {
                    "custom": "",
                    "rarity": "common",
                    "value": [
                        "finesse"
                    ]
                },
                "weaponType": {
                    "value": "melee"
                }
            },
            "flags": {},
            "img": "systems/pf2e/icons/default-icons/melee.svg",
            "name": "Flower",
            "sort": 100000,
            "type": "melee"
        },
        {
            "_id": "ELI8vuFBdrN99fE3",
            "data": {
                "attack": {
                    "value": ""
                },
                "attackEffects": {
                    "value": []
                },
                "bonus": {
                    "value": 13
                },
                "damageRolls": {
                    "hp3hheadiy88iwq7fca9": {
                        "damage": "2d4+4",
                        "damageType": "slashing"
                    },
                    "io70pw7bl1m9vybi1656": {
                        "damage": "1d4",
                        "damageType": "cold"
                    }
                },
                "description": {
                    "value": ""
                },
                "rules": [],
                "slug": null,
                "source": {
                    "value": ""
                },
                "traits": {
                    "custom": "",
                    "rarity": "common",
                    "value": [
                        "agile",
                        "finesse"
                    ]
                },
                "weaponType": {
                    "value": "melee"
                }
            },
            "flags": {},
            "img": "systems/pf2e/icons/default-icons/melee.svg",
            "name": "Tendril",
            "sort": 200000,
            "type": "melee"
        },
        {
            "_id": "7TyKfwJXlkKJmSp1",
            "data": {
                "actionCategory": {
                    "value": "interaction"
                },
                "actionType": {
                    "value": "passive"
                },
                "actions": {
                    "value": null
                },
                "description": {
                    "value": "<p>@Localize[PF2E.NPC.Abilities.Glossary.Darkvision]</p>"
                },
                "requirements": {
                    "value": ""
                },
                "rules": [],
                "slug": "darkvision",
                "source": {
                    "value": ""
                },
                "traits": {
                    "custom": "",
                    "rarity": "common",
                    "value": []
                },
                "trigger": {
                    "value": ""
                },
                "weapon": {
                    "value": ""
                }
            },
            "flags": {
                "core": {
                    "sourceId": "Compendium.pf2e.bestiary-ability-glossary-srd.qCCLZhnp2HhP3Ex6"
                }
            },
            "img": "systems/pf2e/icons/actions/Passive.webp",
            "name": "Darkvision",
            "sort": 300000,
            "type": "action"
        },
        {
            "_id": "s9PF3C48raLmLaNG",
            "data": {
                "actionCategory": {
                    "value": "interaction"
                },
                "actionType": {
                    "value": "passive"
                },
                "actions": {
                    "value": null
                },
                "description": {
                    "value": "<p>@Localize[PF2E.NPC.Abilities.Glossary.Scent]</p>"
                },
                "requirements": {
                    "value": ""
                },
                "rules": [],
                "slug": "scent",
                "source": {
                    "value": ""
                },
                "traits": {
                    "custom": "",
                    "rarity": "common",
                    "value": []
                },
                "trigger": {
                    "value": ""
                },
                "weapon": {
                    "value": ""
                }
            },
            "flags": {
                "core": {
                    "sourceId": "Compendium.pf2e.bestiary-ability-glossary-srd.rqfnQ5VHT5hxm25r"
                }
            },
            "img": "systems/pf2e/icons/actions/Passive.webp",
            "name": "Scent",
            "sort": 400000,
            "type": "action"
        },
        {
            "_id": "rdri6pl6hY1glOfy",
            "data": {
                "actionCategory": {
                    "value": "defensive"
                },
                "actionType": {
                    "value": "passive"
                },
                "actions": {
                    "value": null
                },
                "description": {
                    "value": "<p>Calathgars are healed by cold. Anytime a calathgar would take cold damage, it instead regains [[/r {1d6}[healing]]]{1d6 Hit Points} (regardless of the amount of damage the cold effect would have caused).</p>\n<p>In severe cold or colder environments,9 calathgars gain @Compendium[pf2e.bestiary-ability-glossary-srd.Fast Healing]{Fast Healing} 1.</p>"
                },
                "requirements": {
                    "value": ""
                },
                "rules": [],
                "slug": null,
                "source": {
                    "value": ""
                },
                "traits": {
                    "custom": "",
                    "rarity": "common",
                    "value": []
                },
                "trigger": {
                    "value": ""
                },
                "weapon": {
                    "value": ""
                }
            },
            "flags": {},
            "img": "systems/pf2e/icons/actions/Passive.webp",
            "name": "Cold Healing",
            "sort": 500000,
            "type": "action"
        },
        {
            "_id": "UbbiLTnNP4WGrar5",
            "data": {
                "actionCategory": {
                    "value": "defensive"
                },
                "actionType": {
                    "value": "passive"
                },
                "actions": {
                    "value": null
                },
                "deathNote": true,
                "description": {
                    "value": "<p>When a calathgar is reduced to 0 Hit Points, it immediately decays and dies, transforming into a 5-foot patch of mold (or a 10-foot patch of mold if it was killed by fire damage). This patch of mold persists for 1 minute, during which time it deals [[/r {3d6}[cold]]]{3d6 cold damage} to any creature that begins its turn in this area, or [[/r {1d6}[cold]]]{1d6 cold damage} to any creature that begins its turn in an adjacent square. The mold patch decays away after an hour, but it can be destroyed before then (treat each 5-foot square as an object with Hardness 0, 10 Hit Points, BT 5, immunity to cold, piercing, and slashing damage; the mold deals half its regular cold damage once it's broken).</p>"
                },
                "requirements": {
                    "value": ""
                },
                "rules": [],
                "slug": null,
                "source": {
                    "value": ""
                },
                "traits": {
                    "custom": "",
                    "rarity": "common",
                    "value": []
                },
                "trigger": {
                    "value": ""
                },
                "weapon": {
                    "value": ""
                }
            },
            "flags": {},
            "img": "systems/pf2e/icons/actions/Passive.webp",
            "name": "Mold Mulch",
            "sort": 600000,
            "type": "action"
        },
        {
            "_id": "s23ZMm1sJc7XLyKW",
            "data": {
                "actionCategory": {
                    "value": "offensive"
                },
                "actionType": {
                    "value": "action"
                },
                "actions": {
                    "value": 2
                },
                "description": {
                    "value": "<p>The calathgar expels thorny, frozen seeds in a @Template[type:cone|distance:15], dealing [[/r {1d6}[piercing]]]{1d6 piercing damage} and [[/r {4d6}[cold]]]{4d6 cold damage} (@Check[type:reflex|dc:20|basic:true] save).</p>\n<p>In mild cold or colder environments, these seeds cling to living creatures they strike, dealing [[/r {1d4}[persistent,cold]]] @Compendium[pf2e.conditionitems.Persistent Damage]{Persistent Cold Damage}.</p>\n<p>The calathgar can't use Seed Spray again for [[/br 1d4 #rounds]]{1d4 rounds}.</p>"
                },
                "requirements": {
                    "value": ""
                },
                "rules": [],
                "slug": null,
                "source": {
                    "value": ""
                },
                "traits": {
                    "custom": "",
                    "rarity": "common",
                    "value": [
                        "cold",
                        "evocation",
                        "primal"
                    ]
                },
                "trigger": {
                    "value": ""
                },
                "weapon": {
                    "value": ""
                }
            },
            "flags": {},
            "img": "systems/pf2e/icons/actions/TwoActions.webp",
            "name": "Seed Spray",
            "sort": 700000,
            "type": "action"
        },
        {
            "_id": "CcUJFERkKvRuIMAs",
            "data": {
                "description": {
                    "value": ""
                },
                "mod": {
                    "value": 13
                },
                "proficient": {
                    "value": 0
                },
                "rules": [],
                "slug": null,
                "source": {
                    "value": ""
                },
                "traits": {
                    "custom": "",
                    "rarity": "common",
                    "value": []
                }
            },
            "flags": {},
            "img": "systems/pf2e/icons/default-icons/lore.svg",
            "name": "Stealth",
            "sort": 800000,
            "type": "lore"
        },
        {
            "_id": "0nbllSjgpyGsghXe",
            "data": {
                "description": {
                    "value": ""
                },
                "mod": {
                    "value": 10
                },
                "proficient": {
                    "value": 0
                },
                "rules": [],
                "slug": null,
                "source": {
                    "value": ""
                },
                "traits": {
                    "custom": "",
                    "rarity": "common",
                    "value": []
                }
            },
            "flags": {},
            "img": "systems/pf2e/icons/default-icons/lore.svg",
            "name": "Survival",
            "sort": 900000,
            "type": "lore"
        }
    ],
    "name": "Calathgar",
    "token": {
        "disposition": -1,
        "height": 1,
        "img": "systems/pf2e/icons/default-icons/npc.svg",
        "name": "Calathgar",
        "width": 1
    },
    "type": "npc"
}
