{
    "_id": "R0dyG06kbNYiCqRW",
    "data": {
        "abilities": {
            "cha": {
                "mod": 6
            },
            "con": {
                "mod": 6
            },
            "dex": {
                "mod": 6
            },
            "int": {
                "mod": 5
            },
            "str": {
                "mod": 9
            },
            "wis": {
                "mod": 9
            }
        },
        "attributes": {
            "ac": {
                "details": "",
                "value": 40
            },
            "allSaves": {
                "value": "+1 status on all saves vs. magical"
            },
            "hp": {
                "details": "regeneration 15 (deactivated by acid or fire)",
                "max": 295,
                "temp": 0,
                "value": 295
            },
            "initiative": {
                "ability": "perception"
            },
            "perception": {
                "value": 32
            },
            "speed": {
                "otherSpeeds": [
                    {
                        "type": "fly",
                        "value": "40"
                    },
                    {
                        "type": "swim",
                        "value": "50"
                    }
                ],
                "value": "40"
            }
        },
        "details": {
            "alignment": {
                "value": "CE"
            },
            "blurb": "",
            "creatureType": "Fiend, Giant, Humanoid",
            "level": {
                "value": 17
            },
            "privateNotes": "",
            "publicNotes": "<p>Among the most powerful yai are those who emulate the form of storm giants. Rather than lord over their giant-kin like most oni, though, water yai prefer to lurk alone in the world's oceans (or, much more rarely, large and remote fresh-water lakes). When a water yai must interact with mortals beneath the waves, they prefer to do so while disguised as a storm giant. Water yai pursue the acquisition of material wealth and riches above all other interests, garbing themselves in richly colored, magically waterproofed kimonos and adorning their monstrous faces with all manner of jewelry. These yai can infuse their kimonos with eerie magical properties, and in combat, they can also fire bolts of electricity from their third eye.</p>",
            "source": {
                "value": "Pathfinder Bestiary 2"
            }
        },
        "resources": {
            "focus": {
                "max": 1,
                "value": 1
            }
        },
        "saves": {
            "fortitude": {
                "saveDetail": "",
                "value": 27
            },
            "reflex": {
                "saveDetail": "",
                "value": 29
            },
            "will": {
                "saveDetail": "",
                "value": 34
            }
        },
        "traits": {
            "attitude": {
                "value": "hostile"
            },
            "ci": [],
            "di": {
                "custom": "",
                "value": [
                    "electricity"
                ]
            },
            "dr": [],
            "dv": [],
            "languages": {
                "custom": "",
                "selected": [],
                "value": [
                    "common",
                    "jotun"
                ]
            },
            "rarity": "common",
            "senses": {
                "value": "greater darkvision"
            },
            "size": {
                "value": "huge"
            },
            "traits": {
                "custom": "",
                "value": [
                    "fiend",
                    "giant",
                    "humanoid",
                    "oni",
                    "water"
                ]
            }
        }
    },
    "flags": {},
    "img": "systems/pf2e/icons/default-icons/npc.svg",
    "items": [
        {
            "_id": "3KyuJoHTxD577UTr",
            "data": {
                "autoHeightenLevel": {
                    "value": null
                },
                "description": {
                    "value": ""
                },
                "displayLevels": {},
                "prepared": {
                    "flexible": false,
                    "value": "innate"
                },
                "proficiency": {
                    "value": 0
                },
                "rules": [],
                "showSlotlessLevels": {
                    "value": true
                },
                "showUnpreparedSpells": {
                    "value": false
                },
                "slots": {
                    "slot0": {
                        "max": 0,
                        "prepared": [],
                        "value": 0
                    },
                    "slot1": {
                        "max": 0,
                        "prepared": [],
                        "value": 0
                    },
                    "slot10": {
                        "max": 0,
                        "prepared": [],
                        "value": 0
                    },
                    "slot11": {
                        "max": 0,
                        "prepared": [],
                        "value": 0
                    },
                    "slot2": {
                        "max": 0,
                        "prepared": [],
                        "value": 0
                    },
                    "slot3": {
                        "max": 0,
                        "prepared": [],
                        "value": 0
                    },
                    "slot4": {
                        "max": 0,
                        "prepared": [],
                        "value": 0
                    },
                    "slot5": {
                        "max": 0,
                        "prepared": [],
                        "value": 0
                    },
                    "slot6": {
                        "max": 0,
                        "prepared": [],
                        "value": 0
                    },
                    "slot7": {
                        "max": 0,
                        "prepared": [],
                        "value": 0
                    },
                    "slot8": {
                        "max": 0,
                        "prepared": [],
                        "value": 0
                    },
                    "slot9": {
                        "max": 0,
                        "prepared": [],
                        "value": 0
                    }
                },
                "slug": null,
                "source": {
                    "value": ""
                },
                "spelldc": {
                    "dc": 38,
                    "mod": 0,
                    "value": 28
                },
                "tradition": {
                    "value": "primal"
                },
                "traits": {
                    "custom": "",
                    "rarity": "common",
                    "value": []
                }
            },
            "flags": {},
            "img": "systems/pf2e/icons/default-icons/spellcastingEntry.svg",
            "name": "Primal Innate Spells",
            "sort": 100000,
            "type": "spellcastingEntry"
        },
        {
            "_id": "bBvElJOqG1OLTvkg",
            "data": {
                "ability": {
                    "value": ""
                },
                "area": {
                    "areaType": "",
                    "value": null
                },
                "areasize": {
                    "value": ""
                },
                "category": {
                    "value": "spell"
                },
                "components": {
                    "focus": false,
                    "material": false,
                    "somatic": true,
                    "verbal": true
                },
                "cost": {
                    "value": ""
                },
                "damage": {
                    "value": {
                        "0": {
                            "type": {
                                "categories": [],
                                "value": "electricity"
                            },
                            "value": "11d12"
                        }
                    }
                },
                "description": {
                    "value": "<p>You discharge a powerful bolt of lightning at the target, dealing 8d12 electricity damage. The target must attempt a basic Reflex save. The electricity arcs to another creature within 30 feet of the first target, jumps to another creature within 30 feet of that target, and so on. You can end the chain at any point. You can't target the same creature more than once, and you must have line of effect to all targets. Roll the damage only once, and apply it to each target (halving or doubling as appropriate for its saving throw outcome). The chain ends if any one of the targets critically succeeds at its save.</p>\n<hr />\n<p><strong>Heightened (+1)</strong> The damage increases by 1d12.</p>"
                },
                "duration": {
                    "value": ""
                },
                "hasCounteractCheck": {
                    "value": false
                },
                "heightening": {
                    "damage": {
                        "0": "1d12"
                    },
                    "interval": 1,
                    "type": "interval"
                },
                "level": {
                    "value": 9
                },
                "location": {
                    "value": "3KyuJoHTxD577UTr"
                },
                "materials": {
                    "value": ""
                },
                "prepared": {
                    "value": ""
                },
                "primarycheck": {
                    "value": ""
                },
                "range": {
                    "value": "500 feet"
                },
                "rules": [],
                "save": {
                    "basic": "basic",
                    "value": "reflex"
                },
                "school": {
                    "value": "evocation"
                },
                "secondarycasters": {
                    "value": ""
                },
                "secondarycheck": {
                    "value": ""
                },
                "slug": "chain-lightning",
                "source": {
                    "value": ""
                },
                "spellType": {
                    "value": "save"
                },
                "sustained": {
                    "value": false
                },
                "target": {
                    "value": "1 creature, plus any number of additional creatures"
                },
                "time": {
                    "value": "2"
                },
                "traditions": {
                    "value": [
                        "arcane",
                        "primal"
                    ]
                },
                "traits": {
                    "custom": "",
                    "rarity": "common",
                    "value": [
                        "electricity"
                    ]
                }
            },
            "flags": {
                "core": {
                    "sourceId": "Compendium.pf2e.spells-srd.TDNlDWbYb58Y55Da"
                }
            },
            "img": "systems/pf2e/icons/spells/chain-lightning.webp",
            "name": "Chain Lightning",
            "sort": 200000,
            "type": "spell"
        },
        {
            "_id": "DokJPfWj2cEd5X6v",
            "data": {
                "ability": {
                    "value": ""
                },
                "area": {
                    "areaType": "",
                    "value": null
                },
                "areasize": {
                    "value": ""
                },
                "category": {
                    "value": "spell"
                },
                "components": {
                    "focus": false,
                    "material": false,
                    "somatic": true,
                    "verbal": true
                },
                "cost": {
                    "value": ""
                },
                "damage": {
                    "value": {
                        "0": {
                            "type": {
                                "categories": [],
                                "value": "negative"
                            },
                            "value": "11d10"
                        }
                    }
                },
                "description": {
                    "value": "<p>You pull the moisture from the targets' bodies, dealing 10d10 negative damage. Creatures made of water (such as water elementals) and plant creatures use the outcome for one degree of success worse than the result of their saving throw. Creatures whose bodies contain no significant moisture (such as earth elementals) are immune to horrid wilting.</p>\n<hr />\n<p><strong>Heightened (+1)</strong> The damage increases by 1d10.</p>"
                },
                "duration": {
                    "value": ""
                },
                "hasCounteractCheck": {
                    "value": false
                },
                "heightening": {
                    "damage": {
                        "0": "1d10"
                    },
                    "interval": 1,
                    "type": "interval"
                },
                "level": {
                    "value": 9
                },
                "location": {
                    "value": "3KyuJoHTxD577UTr"
                },
                "materials": {
                    "value": ""
                },
                "prepared": {
                    "value": ""
                },
                "primarycheck": {
                    "value": ""
                },
                "range": {
                    "value": "500 feet"
                },
                "rules": [],
                "save": {
                    "basic": "basic",
                    "value": "fortitude"
                },
                "school": {
                    "value": "necromancy"
                },
                "secondarycasters": {
                    "value": ""
                },
                "secondarycheck": {
                    "value": ""
                },
                "slug": "horrid-wilting",
                "source": {
                    "value": ""
                },
                "spellType": {
                    "value": "save"
                },
                "sustained": {
                    "value": false
                },
                "target": {
                    "value": "any number of living creatures"
                },
                "time": {
                    "value": "2"
                },
                "traditions": {
                    "value": [
                        "arcane",
                        "primal"
                    ]
                },
                "traits": {
                    "custom": "",
                    "rarity": "common",
                    "value": [
                        "negative"
                    ]
                }
            },
            "flags": {
                "core": {
                    "sourceId": "Compendium.pf2e.spells-srd.M0jQlpQYUr0pp2Sv"
                }
            },
            "img": "systems/pf2e/icons/spells/horrid-wilting.webp",
            "name": "Horrid Wilting",
            "sort": 300000,
            "type": "spell"
        },
        {
            "_id": "A1Jg6isNRXtE1HSR",
            "data": {
                "ability": {
                    "value": ""
                },
                "area": {
                    "areaType": "",
                    "value": null
                },
                "areasize": {
                    "value": ""
                },
                "category": {
                    "value": "spell"
                },
                "components": {
                    "focus": false,
                    "material": false,
                    "somatic": true,
                    "verbal": true
                },
                "cost": {
                    "value": ""
                },
                "damage": {
                    "value": {}
                },
                "description": {
                    "value": "<p>The target can walk on the surface of water and other liquids without falling through. It can go underwater if it wishes, but in that case it must Swim normally. This spell doesn't grant the ability to breathe underwater.</p>\n<hr />\n<p><strong>Heightened (4th)</strong> The spell's range increases to 30 feet, the duration increases to 1 hour, and you can target up to 10 creatures.</p>"
                },
                "duration": {
                    "value": "10 minutes"
                },
                "hasCounteractCheck": {
                    "value": false
                },
                "level": {
                    "value": 9
                },
                "location": {
                    "value": "3KyuJoHTxD577UTr"
                },
                "materials": {
                    "value": ""
                },
                "prepared": {
                    "value": ""
                },
                "primarycheck": {
                    "value": ""
                },
                "range": {
                    "value": "touch"
                },
                "rules": [],
                "save": {
                    "basic": "",
                    "value": ""
                },
                "school": {
                    "value": "transmutation"
                },
                "secondarycasters": {
                    "value": ""
                },
                "secondarycheck": {
                    "value": ""
                },
                "slug": "water-walk",
                "source": {
                    "value": ""
                },
                "spellType": {
                    "value": "utility"
                },
                "sustained": {
                    "value": false
                },
                "target": {
                    "value": "1 creature"
                },
                "time": {
                    "value": "2"
                },
                "traditions": {
                    "value": [
                        "arcane",
                        "divine",
                        "primal"
                    ]
                },
                "traits": {
                    "custom": "",
                    "rarity": "common",
                    "value": []
                }
            },
            "flags": {
                "core": {
                    "sourceId": "Compendium.pf2e.spells-srd.Seaah9amXg70RKw2"
                }
            },
            "img": "systems/pf2e/icons/spells/water-walk.webp",
            "name": "Water Walk (Constant)",
            "sort": 400000,
            "type": "spell"
        },
        {
            "_id": "UK2QC8TMC5DHG3Tb",
            "data": {
                "ability": {
                    "value": ""
                },
                "area": {
                    "areaType": "line",
                    "value": "60"
                },
                "areasize": {
                    "value": "60-foot line"
                },
                "category": {
                    "value": "spell"
                },
                "components": {
                    "focus": false,
                    "material": false,
                    "somatic": true,
                    "verbal": true
                },
                "cost": {
                    "value": ""
                },
                "damage": {
                    "value": {
                        "0": {
                            "type": {
                                "categories": [],
                                "value": "bludgeoning"
                            },
                            "value": "16d6"
                        }
                    }
                },
                "description": {
                    "value": "<p>A swirling torrent of water manifests along a straight line, battering those that are its path and possibly pushing them away from you. The torrent deals 8d6 bludgeoning damage. Each creature in the area must attempt a basic Fortitude save. Creatures that fail the save are also knocked back 5 feet (10 feet on a critical failure).</p>\n<hr />\n<p><strong>Heightened (+1)</strong> The damage increases by 2d6.</p>"
                },
                "duration": {
                    "value": ""
                },
                "hasCounteractCheck": {
                    "value": false
                },
                "heightening": {
                    "damage": {
                        "0": "2d6"
                    },
                    "interval": 1,
                    "type": "interval"
                },
                "level": {
                    "value": 8
                },
                "location": {
                    "value": "3KyuJoHTxD577UTr"
                },
                "materials": {
                    "value": ""
                },
                "prepared": {
                    "value": ""
                },
                "primarycheck": {
                    "value": ""
                },
                "range": {
                    "value": ""
                },
                "rules": [],
                "save": {
                    "basic": "",
                    "value": "fortitude"
                },
                "school": {
                    "value": "evocation"
                },
                "secondarycasters": {
                    "value": ""
                },
                "secondarycheck": {
                    "value": ""
                },
                "slug": "hydraulic-torrent",
                "source": {
                    "value": ""
                },
                "spellType": {
                    "value": "save"
                },
                "sustained": {
                    "value": false
                },
                "target": {
                    "value": ""
                },
                "time": {
                    "value": "2"
                },
                "traditions": {
                    "value": [
                        "primal"
                    ]
                },
                "traits": {
                    "custom": "",
                    "rarity": "common",
                    "value": [
                        "water"
                    ]
                }
            },
            "flags": {
                "core": {
                    "sourceId": "Compendium.pf2e.spells-srd.Y3G6Y6EDgCY0s3fq"
                }
            },
            "img": "systems/pf2e/icons/spells/hydraulic-torrent.webp",
            "name": "Hydraulic Torrent",
            "sort": 500000,
            "type": "spell"
        },
        {
            "_id": "cOqmT9M74QEp6QXX",
            "data": {
                "ability": {
                    "value": ""
                },
                "area": {
                    "areaType": "",
                    "value": null
                },
                "areasize": {
                    "value": "50 feet long by 50 feet wide"
                },
                "category": {
                    "value": "spell"
                },
                "components": {
                    "focus": false,
                    "material": false,
                    "somatic": true,
                    "verbal": true
                },
                "cost": {
                    "value": ""
                },
                "damage": {
                    "value": {}
                },
                "description": {
                    "value": "<p>By imposing your will upon the water, you can raise or lower the level of water in the chosen area by 10 feet. Water creatures in the area are subjected to the effects of <em>@Compendium[pf2e.spells-srd.Slow]{Slow}</em>.</p>"
                },
                "duration": {
                    "value": ""
                },
                "hasCounteractCheck": {
                    "value": false
                },
                "level": {
                    "value": 5
                },
                "location": {
                    "value": "3KyuJoHTxD577UTr"
                },
                "materials": {
                    "value": ""
                },
                "prepared": {
                    "value": ""
                },
                "primarycheck": {
                    "value": ""
                },
                "range": {
                    "value": "500 feet"
                },
                "rules": [],
                "save": {
                    "basic": "",
                    "value": ""
                },
                "school": {
                    "value": "evocation"
                },
                "secondarycasters": {
                    "value": ""
                },
                "secondarycheck": {
                    "value": ""
                },
                "slug": "control-water",
                "source": {
                    "value": ""
                },
                "spellType": {
                    "value": "utility"
                },
                "sustained": {
                    "value": false
                },
                "target": {
                    "value": ""
                },
                "time": {
                    "value": "2"
                },
                "traditions": {
                    "value": [
                        "arcane",
                        "primal"
                    ]
                },
                "traits": {
                    "custom": "",
                    "rarity": "common",
                    "value": [
                        "water"
                    ]
                }
            },
            "flags": {
                "core": {
                    "sourceId": "Compendium.pf2e.spells-srd.zfn5RqAdF63neqpP"
                }
            },
            "img": "systems/pf2e/icons/spells/control-water.webp",
            "name": "Control Water (At will)",
            "sort": 600000,
            "type": "spell"
        },
        {
            "_id": "Rc2s4opWwN3H4nTw",
            "data": {
                "ability": {
                    "value": ""
                },
                "area": {
                    "areaType": "",
                    "value": null
                },
                "areasize": {
                    "value": ""
                },
                "category": {
                    "value": "spell"
                },
                "components": {
                    "focus": false,
                    "material": false,
                    "somatic": true,
                    "verbal": true
                },
                "cost": {
                    "value": ""
                },
                "damage": {
                    "value": {}
                },
                "description": {
                    "value": "<p>To the target, your words are honey and your visage seems bathed in a dreamy haze. It must attempt a Will save, with a +4 circumstance bonus if you or your allies recently threatened it or used hostile actions against it.</p>\n<p>You can Dismiss the spell. If you use hostile actions against the target, the spell ends. When the spell ends, the target doesn't necessarily realize it was charmed unless its friendship with you or the actions you convinced it to take clash with its expectations, meaning you could potentially convince the target to continue being your friend via mundane means.</p>\n<hr />\n<p><strong>Critical Success</strong> The target is unaffected and aware you tried to charm it.</p>\n<p><strong>Success</strong> The target is unaffected but thinks your spell was something harmless instead of charm, unless it identifies the spell.</p>\n<p><strong>Failure</strong> The target's attitude becomes @Compendium[pf2e.conditionitems.Friendly]{Friendly} toward you. If it was Friendly, it becomes @Compendium[pf2e.conditionitems.Helpful]{Helpful}. It can't use hostile actions against you.</p>\n<p><strong>Critical Failure</strong> The target's attitude becomes Helpful toward you, and it can't use hostile actions against you.</p>\n<hr />\n<p><strong>Heightened (4th)</strong> The duration lasts until the next time you make your daily preparations.</p>\n<p><strong>Heightened (8th)</strong> The duration lasts until the next time you make your daily preparations, and you can target up to 10 creatures.</p>"
                },
                "duration": {
                    "value": "1 hour"
                },
                "hasCounteractCheck": {
                    "value": false
                },
                "level": {
                    "value": 4
                },
                "location": {
                    "uses": {
                        "max": 3,
                        "value": 3
                    },
                    "value": "3KyuJoHTxD577UTr"
                },
                "materials": {
                    "value": ""
                },
                "prepared": {
                    "value": ""
                },
                "primarycheck": {
                    "value": ""
                },
                "range": {
                    "value": "30 feet"
                },
                "rules": [],
                "save": {
                    "basic": "",
                    "value": "will"
                },
                "school": {
                    "value": "enchantment"
                },
                "secondarycasters": {
                    "value": ""
                },
                "secondarycheck": {
                    "value": ""
                },
                "slug": "charm",
                "source": {
                    "value": ""
                },
                "spellType": {
                    "value": "save"
                },
                "sustained": {
                    "value": false
                },
                "target": {
                    "value": "1 creature"
                },
                "time": {
                    "value": "2"
                },
                "traditions": {
                    "value": [
                        "arcane",
                        "occult",
                        "primal"
                    ]
                },
                "traits": {
                    "custom": "",
                    "rarity": "common",
                    "value": [
                        "emotion",
                        "incapacitation",
                        "mental"
                    ]
                }
            },
            "flags": {
                "core": {
                    "sourceId": "Compendium.pf2e.spells-srd.vLA0q0WOK2YPuJs6"
                }
            },
            "img": "systems/pf2e/icons/spells/charm.webp",
            "name": "Charm",
            "sort": 700000,
            "type": "spell"
        },
        {
            "_id": "ht0WtsqaB8Vgc9wP",
            "data": {
                "ability": {
                    "value": ""
                },
                "area": {
                    "areaType": "burst",
                    "value": 20
                },
                "areasize": {
                    "value": "20-foot burst"
                },
                "category": {
                    "value": "spell"
                },
                "components": {
                    "focus": false,
                    "material": true,
                    "somatic": true,
                    "verbal": true
                },
                "cost": {
                    "value": ""
                },
                "damage": {
                    "value": {}
                },
                "description": {
                    "value": "<p>You create a shroud of darkness that prevents light from penetrating or emanating within the area. Light does not enter the area and any non-magical light sources, such as a torch or lantern, do not emanate any light while inside the area, even if their light radius would extend beyond the darkness. This also suppresses magical light of your darkness spell's level or lower. Light can't pass through, so creatures in the area can't see outside. From outside, it appears as a globe of pure darkness.</p>\n<hr />\n<p><strong>Heightened (4th)</strong> Even creatures with darkvision (but not greater darkvision) can barely see through the darkness. They treat targets seen through the darkness as @Compendium[pf2e.conditionitems.Concealed]{Concealed}.</p>"
                },
                "duration": {
                    "value": "1 minute"
                },
                "hasCounteractCheck": {
                    "value": false
                },
                "level": {
                    "value": 4
                },
                "location": {
                    "value": "3KyuJoHTxD577UTr"
                },
                "materials": {
                    "value": ""
                },
                "prepared": {
                    "value": ""
                },
                "primarycheck": {
                    "value": ""
                },
                "range": {
                    "value": "120 feet"
                },
                "rules": [],
                "save": {
                    "basic": "",
                    "value": ""
                },
                "school": {
                    "value": "evocation"
                },
                "secondarycasters": {
                    "value": ""
                },
                "secondarycheck": {
                    "value": ""
                },
                "slug": "darkness",
                "source": {
                    "value": ""
                },
                "spellType": {
                    "value": "utility"
                },
                "sustained": {
                    "value": false
                },
                "target": {
                    "value": ""
                },
                "time": {
                    "value": "3"
                },
                "traditions": {
                    "value": [
                        "arcane",
                        "divine",
                        "occult",
                        "primal"
                    ]
                },
                "traits": {
                    "custom": "",
                    "rarity": "common",
                    "value": [
                        "darkness"
                    ]
                }
            },
            "flags": {
                "core": {
                    "sourceId": "Compendium.pf2e.spells-srd.4GE2ZdODgIQtg51c"
                }
            },
            "img": "systems/pf2e/icons/spells/darkness.webp",
            "name": "Darkness",
            "sort": 800000,
            "type": "spell"
        },
        {
            "_id": "QX2KJ9zKwYbtaPba",
            "data": {
                "ability": {
                    "value": ""
                },
                "area": {
                    "areaType": "",
                    "value": null
                },
                "areasize": {
                    "value": ""
                },
                "category": {
                    "value": "spell"
                },
                "components": {
                    "focus": false,
                    "material": true,
                    "somatic": true,
                    "verbal": false
                },
                "cost": {
                    "value": ""
                },
                "damage": {
                    "value": {}
                },
                "description": {
                    "value": "<p>Cloaked in illusion, the target becomes @Compendium[pf2e.conditionitems.Invisible]{Invisible}. This makes it @Compendium[pf2e.conditionitems.Undetected]{Undetected} to all creatures, though the creatures can attempt to find the target, making it @Compendium[pf2e.conditionitems.Hidden]{Hidden} to them instead. If the target uses a hostile action, the spell ends after that hostile action is completed.</p>\n<hr />\n<p><strong>Heightened (4th)</strong> The spell lasts 1 minute, but it doesn't end if the target uses a hostile action.</p>"
                },
                "duration": {
                    "value": "10 minutes"
                },
                "hasCounteractCheck": {
                    "value": false
                },
                "level": {
                    "value": 2
                },
                "location": {
                    "value": "3KyuJoHTxD577UTr"
                },
                "materials": {
                    "value": ""
                },
                "prepared": {
                    "value": ""
                },
                "primarycheck": {
                    "value": ""
                },
                "range": {
                    "value": "touch"
                },
                "rules": [],
                "save": {
                    "basic": "",
                    "value": ""
                },
                "school": {
                    "value": "illusion"
                },
                "secondarycasters": {
                    "value": ""
                },
                "secondarycheck": {
                    "value": ""
                },
                "slug": "invisibility",
                "source": {
                    "value": ""
                },
                "spellType": {
                    "value": "utility"
                },
                "sustained": {
                    "value": false
                },
                "target": {
                    "value": "1 creature"
                },
                "time": {
                    "value": "2"
                },
                "traditions": {
                    "value": [
                        "arcane",
                        "occult"
                    ]
                },
                "traits": {
                    "custom": "",
                    "rarity": "common",
                    "value": []
                }
            },
            "flags": {
                "core": {
                    "sourceId": "Compendium.pf2e.spells-srd.XXqE1eY3w3z6xJCB"
                }
            },
            "img": "systems/pf2e/icons/spells/invisibility.webp",
            "name": "Invisibility (At will) (Self only)",
            "sort": 900000,
            "type": "spell"
        },
        {
            "_id": "ZbNsXG0791f7GcKW",
            "data": {
                "MAP": {
                    "value": ""
                },
                "baseItem": "longspear",
                "bonus": {
                    "value": 0
                },
                "bonusDamage": {
                    "value": 0
                },
                "category": "simple",
                "containerId": null,
                "damage": {
                    "damageType": "piercing",
                    "dice": 1,
                    "die": "d8",
                    "value": ""
                },
                "description": {
                    "value": "<p>This very long spear, sometimes called a pike, is purely for thrusting rather than throwing. Used by many soldiers and city watch for crowd control and defense against charging enemies, it must be wielded with two hands.</p>"
                },
                "equipped": {
                    "carryType": "worn",
                    "handsHeld": 0,
                    "invested": null
                },
                "equippedBulk": {
                    "value": ""
                },
                "group": "spear",
                "hardness": 0,
                "hp": {
                    "brokenThreshold": 0,
                    "max": 0,
                    "value": 0
                },
                "level": {
                    "value": 0
                },
                "negateBulk": {
                    "value": "0"
                },
                "potencyRune": {
                    "value": 2
                },
                "preciousMaterial": {
                    "value": ""
                },
                "preciousMaterialGrade": {
                    "value": ""
                },
                "price": {
                    "value": {
                        "sp": 5
                    }
                },
                "property1": {
                    "critDamage": "",
                    "critDamageType": "",
                    "critDice": null,
                    "critDie": "",
                    "criticalConditionType": "",
                    "criticalConditionValue": null,
                    "damageType": "",
                    "dice": null,
                    "die": "",
                    "strikeConditionType": "",
                    "strikeConditionValue": null,
                    "value": ""
                },
                "propertyRune1": {
                    "value": ""
                },
                "propertyRune2": {
                    "value": ""
                },
                "propertyRune3": {
                    "value": ""
                },
                "propertyRune4": {
                    "value": ""
                },
                "quantity": 1,
                "range": null,
                "reload": {
                    "value": ""
                },
                "rules": [],
                "size": "med",
                "slug": "longspear",
                "source": {
                    "value": ""
                },
                "specific": {
                    "value": false
                },
                "splashDamage": {
                    "value": 0
                },
                "stackGroup": null,
                "strikingRune": {
                    "value": "greaterStriking"
                },
                "traits": {
                    "custom": "",
                    "rarity": "common",
                    "value": [
                        "reach"
                    ]
                },
                "usage": {
                    "value": "held-in-two-hands"
                },
                "weight": {
                    "value": "2"
                }
            },
            "flags": {
                "core": {
                    "sourceId": "Compendium.pf2e.equipment-srd.aXuJh4i8HqSu6NYV"
                }
            },
            "img": "systems/pf2e/icons/equipment/weapons/longspear.webp",
            "name": "+2 Greater Striking Longspear",
            "sort": 1000000,
            "type": "weapon"
        },
        {
            "_id": "00kCy3dtoRU8EnP9",
            "data": {
                "attack": {
                    "value": ""
                },
                "attackEffects": {
                    "value": []
                },
                "bonus": {
                    "value": 35
                },
                "damageRolls": {
                    "tjcf5lmdfjw0zdpyxzta": {
                        "damage": "3d8+15",
                        "damageType": "piercing"
                    },
                    "8fligepp7t2fztpgei7q": {
                        "damage": "2d6",
                        "damageType": "electricity"
                    }
                },
                "description": {
                    "value": ""
                },
                "rules": [],
                "slug": null,
                "source": {
                    "value": ""
                },
                "traits": {
                    "custom": "",
                    "rarity": "common",
                    "value": [
                        "evil",
                        "magical",
                        "reach-20"
                    ]
                },
                "weaponType": {
                    "value": "melee"
                }
            },
            "flags": {},
            "img": "systems/pf2e/icons/default-icons/melee.svg",
            "name": "Longspear",
            "sort": 1100000,
            "type": "melee"
        },
        {
            "_id": "ISU9cvmrd38iqIo6",
            "data": {
                "attack": {
                    "value": ""
                },
                "attackEffects": {
                    "value": [
                        "enveloping-kimono"
                    ]
                },
                "bonus": {
                    "value": 33
                },
                "damageRolls": {
                    "o1fmeksru2x8b1x2y9cc": {
                        "damage": "3d12+12",
                        "damageType": "electricity"
                    }
                },
                "description": {
                    "value": ""
                },
                "rules": [],
                "slug": null,
                "source": {
                    "value": ""
                },
                "traits": {
                    "custom": "",
                    "rarity": "common",
                    "value": [
                        "electricity",
                        "evil",
                        "magical",
                        "reach-15"
                    ]
                },
                "weaponType": {
                    "value": "melee"
                }
            },
            "flags": {},
            "img": "systems/pf2e/icons/default-icons/melee.svg",
            "name": "Kimono",
            "sort": 1200000,
            "type": "melee"
        },
        {
            "_id": "DryXaAfUqz1HN8lZ",
            "data": {
                "attack": {
                    "value": ""
                },
                "attackEffects": {
                    "value": []
                },
                "bonus": {
                    "value": 33
                },
                "damageRolls": {
                    "qelgwtmhgaeagjvu9gby": {
                        "damage": "3d8+15",
                        "damageType": "bludgeoning"
                    },
                    "kyjv886qocm6ft085ni8": {
                        "damage": "2d6",
                        "damageType": "electricity"
                    }
                },
                "description": {
                    "value": ""
                },
                "rules": [],
                "slug": null,
                "source": {
                    "value": ""
                },
                "traits": {
                    "custom": "",
                    "rarity": "common",
                    "value": [
                        "agile",
                        "evil",
                        "magical",
                        "reach-15"
                    ]
                },
                "weaponType": {
                    "value": "melee"
                }
            },
            "flags": {},
            "img": "systems/pf2e/icons/default-icons/melee.svg",
            "name": "Fist",
            "sort": 1300000,
            "type": "melee"
        },
        {
            "_id": "8qNsivFnCww0jFZo",
            "data": {
                "attack": {
                    "value": ""
                },
                "attackEffects": {
                    "custom": "Flat-Footed for 1 round",
                    "value": []
                },
                "bonus": {
                    "value": 30
                },
                "damageRolls": {
                    "u38koo7t45xvx1sn902c": {
                        "damage": "3d12+12",
                        "damageType": "electricity"
                    }
                },
                "description": {
                    "value": ""
                },
                "rules": [],
                "slug": null,
                "source": {
                    "value": ""
                },
                "traits": {
                    "custom": "",
                    "rarity": "common",
                    "value": [
                        "electricity",
                        "evil",
                        "magical",
                        "range-increment-60"
                    ]
                },
                "weaponType": {
                    "value": "ranged"
                }
            },
            "flags": {},
            "img": "systems/pf2e/icons/default-icons/melee.svg",
            "name": "Electric Missile",
            "sort": 1400000,
            "type": "melee"
        },
        {
            "_id": "mTsKSxGS9jWZPCar",
            "data": {
                "actionCategory": {
                    "value": "interaction"
                },
                "actionType": {
                    "value": "passive"
                },
                "actions": {
                    "value": null
                },
                "description": {
                    "value": "<p>@Localize[PF2E.NPC.Abilities.Glossary.GreaterDarkvision]</p>"
                },
                "requirements": {
                    "value": ""
                },
                "rules": [],
                "slug": "greater-darkvision",
                "source": {
                    "value": ""
                },
                "traits": {
                    "custom": "",
                    "rarity": "common",
                    "value": []
                },
                "trigger": {
                    "value": ""
                },
                "weapon": {
                    "value": ""
                }
            },
            "flags": {
                "core": {
                    "sourceId": "Compendium.pf2e.bestiary-ability-glossary-srd.4Ho2xMPEC05aSxzr"
                }
            },
            "img": "systems/pf2e/icons/actions/Passive.webp",
            "name": "Greater Darkvision",
            "sort": 1500000,
            "type": "action"
        },
        {
            "_id": "QTxOTyLCST6Zaqb3",
            "data": {
                "actionCategory": {
                    "value": "interaction"
                },
                "actionType": {
                    "value": "passive"
                },
                "actions": {
                    "value": null
                },
                "description": {
                    "value": "<p>@Localize[PF2E.NPC.Abilities.Glossary.AtWillSpells]</p>"
                },
                "requirements": {
                    "value": ""
                },
                "rules": [],
                "slug": "at-will-spells",
                "source": {
                    "value": ""
                },
                "traits": {
                    "custom": "",
                    "rarity": "common",
                    "value": []
                },
                "trigger": {
                    "value": ""
                },
                "weapon": {
                    "value": ""
                }
            },
            "flags": {
                "core": {
                    "sourceId": "Compendium.pf2e.bestiary-ability-glossary-srd.2YRDYVnC1eljaXKK"
                }
            },
            "img": "systems/pf2e/icons/actions/Passive.webp",
            "name": "At-Will Spells",
            "sort": 1600000,
            "type": "action"
        },
        {
            "_id": "RMCsutKfNLtikzWK",
            "data": {
                "actionCategory": {
                    "value": "interaction"
                },
                "actionType": {
                    "value": "passive"
                },
                "actions": {
                    "value": null
                },
                "description": {
                    "value": "<hr />\n<p>@Localize[PF2E.NPC.Abilities.Glossary.ConstantSpells]</p>"
                },
                "requirements": {
                    "value": ""
                },
                "rules": [],
                "slug": "constant-spells",
                "source": {
                    "value": ""
                },
                "traits": {
                    "custom": "",
                    "rarity": "common",
                    "value": []
                },
                "trigger": {
                    "value": ""
                },
                "weapon": {
                    "value": ""
                }
            },
            "flags": {
                "core": {
                    "sourceId": "Compendium.pf2e.bestiary-ability-glossary-srd.kakyXBG5WA8c6Zfd"
                }
            },
            "img": "systems/pf2e/icons/actions/Passive.webp",
            "name": "Constant Spells",
            "sort": 1700000,
            "type": "action"
        },
        {
            "_id": "tlcUEtC6qZlc69zv",
            "data": {
                "actionCategory": {
                    "value": "defensive"
                },
                "actionType": {
                    "value": "passive"
                },
                "actions": {
                    "value": null
                },
                "description": {
                    "value": ""
                },
                "requirements": {
                    "value": ""
                },
                "rules": [
                    {
                        "key": "FlatModifier",
                        "predicate": {
                            "any": [
                                "magical",
                                "arcane",
                                "primal",
                                "occult",
                                "divine"
                            ]
                        },
                        "selector": "saving-throw",
                        "type": "status",
                        "value": 1
                    }
                ],
                "slug": null,
                "source": {
                    "value": ""
                },
                "traits": {
                    "custom": "",
                    "rarity": "common",
                    "value": []
                },
                "trigger": {
                    "value": ""
                },
                "weapon": {
                    "value": ""
                }
            },
            "flags": {},
            "img": "systems/pf2e/icons/actions/Passive.webp",
            "name": "+1 Status Bonus on Saves vs Magic",
            "sort": 1800000,
            "type": "action"
        },
        {
            "_id": "X8BOiH4KPnC3n94o",
            "data": {
                "actionCategory": {
                    "value": "defensive"
                },
                "actionType": {
                    "value": "passive"
                },
                "actions": {
                    "value": null
                },
                "description": {
                    "value": "<p>@Localize[PF2E.NPC.Abilities.Glossary.Regeneration]</p>"
                },
                "requirements": {
                    "value": ""
                },
                "rules": [],
                "slug": "regeneration",
                "source": {
                    "value": ""
                },
                "traits": {
                    "custom": "",
                    "rarity": "common",
                    "value": []
                },
                "trigger": {
                    "value": ""
                },
                "weapon": {
                    "value": ""
                }
            },
            "flags": {
                "core": {
                    "sourceId": "Compendium.pf2e.bestiary-ability-glossary-srd.lR9R5Vld8Eu2Dha5"
                }
            },
            "img": "systems/pf2e/icons/actions/Passive.webp",
            "name": "Regeneration 15 (acid or fire)",
            "sort": 1900000,
            "type": "action"
        },
        {
            "_id": "hbf277SQgtMCjjWF",
            "data": {
                "actionCategory": {
                    "value": "defensive"
                },
                "actionType": {
                    "value": "reaction"
                },
                "actions": {
                    "value": null
                },
                "description": {
                    "value": "<p>@Localize[PF2E.NPC.Abilities.Glossary.AttackOfOpportunity]</p>"
                },
                "requirements": {
                    "value": ""
                },
                "rules": [],
                "slug": "attack-of-opportunity",
                "source": {
                    "value": ""
                },
                "traits": {
                    "custom": "",
                    "rarity": "common",
                    "value": []
                },
                "trigger": {
                    "value": ""
                },
                "weapon": {
                    "value": ""
                }
            },
            "flags": {
                "core": {
                    "sourceId": "Compendium.pf2e.bestiary-ability-glossary-srd.hFtNbo1LKYCoDy2O"
                }
            },
            "img": "systems/pf2e/icons/actions/Reaction.webp",
            "name": "Attack of Opportunity",
            "sort": 2000000,
            "type": "action"
        },
        {
            "_id": "i2d0NrqSfbRm2l1Y",
            "data": {
                "actionCategory": {
                    "value": "defensive"
                },
                "actionType": {
                    "value": "reaction"
                },
                "actions": {
                    "value": null
                },
                "description": {
                    "value": "<p><strong>Trigger</strong> A creature within 100 feet casts a fire spell</p>\n<p><strong>Effect</strong> The water yai flourishes their kimono and attempts a Performance check to counteract the spell before it comes into effect. If the yai counters the spell, the triggering creature takes [[/r {9d6}[electricity]]]{9d6 electricity damage} from electrified water that sprays from the kimono (@Check[type:reflex|dc:35|basic:true] save).</p>"
                },
                "requirements": {
                    "value": ""
                },
                "rules": [],
                "slug": null,
                "source": {
                    "value": ""
                },
                "traits": {
                    "custom": "",
                    "rarity": "common",
                    "value": []
                },
                "trigger": {
                    "value": ""
                },
                "weapon": {
                    "value": ""
                }
            },
            "flags": {},
            "img": "systems/pf2e/icons/actions/Reaction.webp",
            "name": "Shocking Douse",
            "sort": 2100000,
            "type": "action"
        },
        {
            "_id": "H97yITJBuctoMctx",
            "data": {
                "actionCategory": {
                    "value": "offensive"
                },
                "actionType": {
                    "value": "action"
                },
                "actions": {
                    "value": 1
                },
                "description": {
                    "value": "<p>The water yai takes on the appearance of a @Compendium[pf2e.pathfinder-bestiary.Storm Giant]{Storm Giant}. This doesn't change their Speed or Strike attack and damage. The yai can also turn into a puddle of water, with the effects of <em>@Compendium[pf2e.spells-srd.Gaseous Form]{Gaseous Form}</em> except they retain their land Speed, double their swim Speed, and can't fly.</p>\n<hr />\n<p>@Localize[PF2E.NPC.Abilities.Glossary.ChangeShape]</p>"
                },
                "requirements": {
                    "value": ""
                },
                "rules": [],
                "slug": "change-shape",
                "source": {
                    "value": ""
                },
                "traits": {
                    "custom": "",
                    "rarity": "common",
                    "value": [
                        "concentrate",
                        "polymorph",
                        "primal",
                        "transmutation"
                    ]
                },
                "trigger": {
                    "value": ""
                },
                "weapon": {
                    "value": ""
                }
            },
            "flags": {
                "core": {
                    "sourceId": "Compendium.pf2e.bestiary-ability-glossary-srd.eQM5hQ1W3d1uen97"
                }
            },
            "img": "systems/pf2e/icons/actions/OneAction.webp",
            "name": "Change Shape",
            "sort": 2200000,
            "type": "action"
        },
        {
            "_id": "kSySgkElvNOAzAXn",
            "data": {
                "actionCategory": {
                    "value": "offensive"
                },
                "actionType": {
                    "value": "action"
                },
                "actions": {
                    "value": 1
                },
                "description": {
                    "value": "<p><strong>Requirements</strong> The water yai's last action was a successful kimono Strike</p>\n<p><strong>Effect</strong> The water yai extends a portion of their kimono to attempt to envelop a creature within 15 feet. The water yai must attempt a Performance check against the creature's Reflex DC.</p>\n<hr />\n<p><strong>Critical Success</strong> The creature takes [[/r {20d6}[electricity]]]{20d6 electricity damage} and is @Compendium[pf2e.conditionitems.Grabbed]{Grabbed} until the end of its next turn.</p>\n<p><strong>Success</strong> As critical success, but only [[/r {10d6}[electricity]]]{10d6 electricity damage}.</p>\n<p><strong>Failure</strong> The target takes [[/r {5d6}[electricity]]]{5d6 electricity damage} but is not grabbed.</p>\n<p><strong>Critical Failure</strong> The target is unaffected.</p>"
                },
                "requirements": {
                    "value": ""
                },
                "rules": [],
                "slug": null,
                "source": {
                    "value": ""
                },
                "traits": {
                    "custom": "",
                    "rarity": "common",
                    "value": [
                        "electricity",
                        "manipulate",
                        "primal",
                        "transmutation",
                        "water"
                    ]
                },
                "trigger": {
                    "value": ""
                },
                "weapon": {
                    "value": ""
                }
            },
            "flags": {},
            "img": "systems/pf2e/icons/actions/OneAction.webp",
            "name": "Enveloping Kimono",
            "sort": 2300000,
            "type": "action"
        },
        {
            "_id": "jBm94o5VVoS6T03h",
            "data": {
                "description": {
                    "value": ""
                },
                "mod": {
                    "value": 30
                },
                "proficient": {
                    "value": 0
                },
                "rules": [],
                "slug": null,
                "source": {
                    "value": ""
                },
                "traits": {
                    "custom": "",
                    "rarity": "common",
                    "value": []
                }
            },
            "flags": {},
            "img": "systems/pf2e/icons/default-icons/lore.svg",
            "name": "Acrobatics",
            "sort": 2400000,
            "type": "lore"
        },
        {
            "_id": "L57VsS35eaK0PaYs",
            "data": {
                "description": {
                    "value": ""
                },
                "mod": {
                    "value": 29
                },
                "proficient": {
                    "value": 0
                },
                "rules": [],
                "slug": null,
                "source": {
                    "value": ""
                },
                "traits": {
                    "custom": "",
                    "rarity": "common",
                    "value": []
                }
            },
            "flags": {},
            "img": "systems/pf2e/icons/default-icons/lore.svg",
            "name": "Arcana",
            "sort": 2500000,
            "type": "lore"
        },
        {
            "_id": "yBBRJMvPIRMMTO7z",
            "data": {
                "description": {
                    "value": ""
                },
                "mod": {
                    "value": 33
                },
                "proficient": {
                    "value": 0
                },
                "rules": [],
                "slug": null,
                "source": {
                    "value": ""
                },
                "traits": {
                    "custom": "",
                    "rarity": "common",
                    "value": []
                }
            },
            "flags": {},
            "img": "systems/pf2e/icons/default-icons/lore.svg",
            "name": "Athletics",
            "sort": 2600000,
            "type": "lore"
        },
        {
            "_id": "KFrIa9XdpqJcOI2y",
            "data": {
                "description": {
                    "value": ""
                },
                "mod": {
                    "value": 32
                },
                "proficient": {
                    "value": 0
                },
                "rules": [],
                "slug": null,
                "source": {
                    "value": ""
                },
                "traits": {
                    "custom": "",
                    "rarity": "common",
                    "value": []
                }
            },
            "flags": {},
            "img": "systems/pf2e/icons/default-icons/lore.svg",
            "name": "Deception",
            "sort": 2700000,
            "type": "lore"
        },
        {
            "_id": "ysH9ZLP3KzgWnYuJ",
            "data": {
                "description": {
                    "value": ""
                },
                "mod": {
                    "value": 32
                },
                "proficient": {
                    "value": 0
                },
                "rules": [],
                "slug": null,
                "source": {
                    "value": ""
                },
                "traits": {
                    "custom": "",
                    "rarity": "common",
                    "value": []
                }
            },
            "flags": {},
            "img": "systems/pf2e/icons/default-icons/lore.svg",
            "name": "Intimidation",
            "sort": 2800000,
            "type": "lore"
        },
        {
            "_id": "v0d6yBRuTzXd8lR4",
            "data": {
                "description": {
                    "value": ""
                },
                "mod": {
                    "value": 29
                },
                "proficient": {
                    "value": 0
                },
                "rules": [],
                "slug": null,
                "source": {
                    "value": ""
                },
                "traits": {
                    "custom": "",
                    "rarity": "common",
                    "value": []
                }
            },
            "flags": {},
            "img": "systems/pf2e/icons/default-icons/lore.svg",
            "name": "Nature",
            "sort": 2900000,
            "type": "lore"
        },
        {
            "_id": "SIDo3lAYeCiSCUBF",
            "data": {
                "description": {
                    "value": ""
                },
                "mod": {
                    "value": 33
                },
                "proficient": {
                    "value": 0
                },
                "rules": [],
                "slug": null,
                "source": {
                    "value": ""
                },
                "traits": {
                    "custom": "",
                    "rarity": "common",
                    "value": []
                }
            },
            "flags": {},
            "img": "systems/pf2e/icons/default-icons/lore.svg",
            "name": "Performance",
            "sort": 3000000,
            "type": "lore"
        }
    ],
    "name": "Water Yai",
    "token": {
        "disposition": -1,
        "height": 3,
        "img": "systems/pf2e/icons/default-icons/npc.svg",
        "name": "Water Yai",
        "width": 3
    },
    "type": "npc"
}
