{
    "_id": "922SDayUnipK4wlx",
    "data": {
        "description": {
            "value": "<p>Your body languishes when you aren't bringing harm to your foes.</p>\n<p>You take a -2 status penalty to AC and saving throws, but each time you make a Strike, you can suspend these penalties until the start of your next turn.</p>\n<hr />\n<p><em>Note: The effects of this curse are applied automatically.</em></p>"
        },
        "duration": {
            "expiry": "turn-start",
            "sustained": false,
            "unit": "unlimited",
            "value": -1
        },
        "level": {
            "value": 1
        },
        "rules": [
            {
                "domain": "all",
                "key": "RollOption",
                "label": "Battle Mystery, Made a Strike",
                "option": "battle-mystery",
                "toggleable": true
            },
            {
                "key": "FlatModifier",
                "label": "Minor Battle Curse",
                "predicate": {
                    "not": [
                        "battle-mystery"
                    ]
                },
                "selector": "ac",
                "type": "status",
                "value": -2
            },
            {
                "key": "FlatModifier",
                "label": "Minor Battle Curse",
                "predicate": {
                    "not": [
                        "battle-mystery"
                    ]
                },
                "selector": "saving-throw",
                "type": "status",
                "value": -2
            }
        ],
        "source": {
            "value": ""
        },
        "start": {
            "initiative": null,
            "value": 0
        },
        "target": null,
        "tokenIcon": {
            "show": true
        },
        "traits": {
            "custom": "",
            "rarity": "common",
            "value": []
        }
    },
    "flags": {},
    "img": "systems/pf2e/icons/features/classes/battle-mystery.webp",
    "name": "Effect: Minor Battle Curse",
    "type": "effect"
}
