{
    "_id": "yfbP64r4a9e5oyli",
    "data": {
        "description": {
            "value": "<p>The corruption of sin weakens a target's defenses. A target takes a -1 status penalty to AC for 1 round.</p>"
        },
        "duration": {
            "expiry": "turn-start",
            "sustained": false,
            "unit": "rounds",
            "value": 1
        },
        "level": {
            "value": 1
        },
        "rules": [
            {
                "key": "FlatModifier",
                "selector": "ac",
                "type": "status",
                "value": -1
            }
        ],
        "source": {
            "value": ""
        },
        "start": {
            "initiative": null,
            "value": 0
        },
        "target": null,
        "tokenIcon": {
            "show": true
        },
        "traits": {
            "custom": "",
            "rarity": "common",
            "value": []
        }
    },
    "flags": {},
    "img": "systems/pf2e/icons/features/classes/demonic.webp",
    "name": "Effect: Demonic Blood Magic (Target)",
    "type": "effect"
}
