{
    "_id": "eb4FXf62NYArTqek",
    "data": {
        "ability": {
            "value": ""
        },
        "area": {
            "areaType": "",
            "value": null
        },
        "areasize": {
            "value": ""
        },
        "category": {
            "value": "focus"
        },
        "components": {
            "material": true,
            "somatic": true,
            "verbal": false
        },
        "cost": {
            "value": ""
        },
        "damage": {
            "value": {}
        },
        "description": {
            "value": "<p>You transform the target to make it match your artisanal and artistic vision. If you have expert proficiency in Crafting, the item grants a +1 item bonus to attack rolls if it's a weapon or skill checks if it's a skill tool. The target is a beautiful and impressive piece for its new quality, but the effect is obviously temporary, so its monetary value doesn't change. When you cast this spell, any previous artistic flourish you had cast ends.</p>\n<hr />\n<p><strong>Heightened (7th)</strong> If you have master proficiency in Crafting, the item grants a +2 item bonus instead.</p>\n<p><strong>Heightened (10th)</strong> If you have legendary proficiency in Crafting, the item grants a +3 item bonus instead.</p>"
        },
        "duration": {
            "value": "10 minutes"
        },
        "hasCounteractCheck": {
            "value": false
        },
        "level": {
            "value": 4
        },
        "location": {
            "value": ""
        },
        "materials": {
            "value": ""
        },
        "prepared": {
            "value": ""
        },
        "primarycheck": {
            "value": ""
        },
        "range": {
            "value": "15 feet"
        },
        "rules": [],
        "save": {
            "basic": "",
            "value": ""
        },
        "school": {
            "value": "transmutation"
        },
        "secondarycasters": {
            "value": ""
        },
        "secondarycheck": {
            "value": ""
        },
        "source": {
            "value": "Pathfinder Core Rulebook"
        },
        "spellType": {
            "value": "utility"
        },
        "sustained": {
            "value": false
        },
        "target": {
            "value": "1 item or work of art that fits entirely within the range"
        },
        "time": {
            "value": "2"
        },
        "traditions": {
            "value": []
        },
        "traits": {
            "custom": "",
            "rarity": "uncommon",
            "value": [
                "cleric"
            ]
        }
    },
    "flags": {},
    "img": "systems/pf2e/icons/spells/artistic-flourish.webp",
    "name": "Artistic Flourish",
    "type": "spell"
}
