{
    "_id": "yafsV0ni7rFgqJBj",
    "data": {
        "ability": {
            "value": ""
        },
        "area": {
            "areaType": "",
            "value": ""
        },
        "category": {
            "value": "spell"
        },
        "components": {
            "focus": false,
            "material": false,
            "somatic": true,
            "verbal": true
        },
        "cost": {
            "value": ""
        },
        "damage": {
            "applyMod": false,
            "value": {
                "0": {
                    "applyMod": false,
                    "type": {
                        "subtype": "",
                        "value": "sonic"
                    },
                    "value": "2d6"
                }
            }
        },
        "description": {
            "value": "<p>You entwine magic with your voice, causing your taunts and jibes to physically harm your enemies. You can attack with your words once when you finish Casting the Spell, and can repeat the attack once on each of your subsequent turns by taking a single action, which has the attack, concentrate, and linguistic traits. After your third attack total, the spell ends.</p>\n<p>When you attack with biting words, make a ranged spell attack roll against a creature within 30 feet, dealing 2d6 sonic damage if you hit (or double damage on a critical hit).</p>\n<hr />\n<p><strong>Heightened (+1)</strong> The damage increases by 2d6.</p>"
        },
        "duration": {
            "value": "1 minute"
        },
        "hasCounteractCheck": {
            "value": false
        },
        "heightening": {
            "damage": {
                "0": "2d6"
            },
            "interval": 1,
            "type": "interval"
        },
        "level": {
            "value": 1
        },
        "location": {
            "value": ""
        },
        "materials": {
            "value": ""
        },
        "prepared": {
            "value": ""
        },
        "range": {
            "value": "30 feet"
        },
        "rules": [],
        "save": {
            "basic": "",
            "value": ""
        },
        "school": {
            "value": "evocation"
        },
        "source": {
            "value": "Pathfinder Secrets of Magic"
        },
        "spellType": {
            "value": "attack"
        },
        "sustained": {
            "value": false
        },
        "target": {
            "value": "1 creature"
        },
        "time": {
            "value": "2"
        },
        "traditions": {
            "custom": "",
            "value": [
                "occult"
            ]
        },
        "traits": {
            "custom": "",
            "rarity": "common",
            "value": [
                "attack",
                "auditory",
                "linguistic",
                "sonic"
            ]
        }
    },
    "flags": {},
    "img": "systems/pf2e/icons/spells/biting-words.webp",
    "name": "Biting Words",
    "type": "spell"
}
