{
    "_id": "tf4PMMMzR5xxJDun",
    "data": {
        "ability": {
            "value": ""
        },
        "area": {
            "areaType": "",
            "value": ""
        },
        "category": {
            "value": "focus"
        },
        "components": {
            "focus": false,
            "material": false,
            "somatic": true,
            "verbal": true
        },
        "cost": {
            "value": ""
        },
        "damage": {
            "value": {}
        },
        "description": {
            "value": "<p>You wrap the target in purifying flames. You can attempt to counteract a single poison or non-curse effect imparting the @Compendium[pf2e.conditionitems.Clumsy]{Clumsy}, @Compendium[pf2e.conditionitems.Dazzled]{Dazzled}, @Compendium[pf2e.conditionitems.Enfeebled]{Enfeebled}, @Compendium[pf2e.conditionitems.Fatigued]{Fatigued}, @Compendium[pf2e.conditionitems.Frightened]{Frightened}, @Compendium[pf2e.conditionitems.Paralyzed]{Paralyzed}, @Compendium[pf2e.conditionitems.Sickened]{Sickened}, or @Compendium[pf2e.conditionitems.Stupefied]{Stupefied}condition. The target can choose to empower the flames with their life force, becoming @Compendium[pf2e.conditionitems.Drained]{Drained 1} (or increasing their drained value by 1, if already under the condition) to grant you a +1 circumstance bonus to your counteract check.</p>"
        },
        "duration": {
            "value": ""
        },
        "hasCounteractCheck": {
            "value": true
        },
        "level": {
            "value": 5
        },
        "location": {
            "value": ""
        },
        "materials": {
            "value": ""
        },
        "prepared": {
            "value": ""
        },
        "range": {
            "value": "touch"
        },
        "rules": [],
        "save": {
            "basic": "",
            "value": ""
        },
        "school": {
            "value": "necromancy"
        },
        "source": {
            "value": "Pathfinder #168: King of the Mountain"
        },
        "spellType": {
            "value": "heal"
        },
        "sustained": {
            "value": false
        },
        "target": {
            "value": "1 creature"
        },
        "time": {
            "value": "2"
        },
        "traditions": {
            "value": []
        },
        "traits": {
            "custom": "",
            "rarity": "uncommon",
            "value": [
                "fire",
                "healing",
                "sorcerer"
            ]
        }
    },
    "flags": {},
    "img": "systems/pf2e/icons/spells/cleansing-flames.webp",
    "name": "Cleansing Flames",
    "type": "spell"
}
