{
    "_id": "MraZBLJ4Be3ogmWL",
    "data": {
        "ability": {
            "value": ""
        },
        "area": {
            "value": ""
        },
        "areasize": {
            "value": ""
        },
        "category": {
            "value": "focus"
        },
        "components": {
            "material": false,
            "somatic": true,
            "verbal": false
        },
        "cost": {
            "value": ""
        },
        "damage": {
            "value": {
                "0": {
                    "type": {
                        "categories": [],
                        "value": "cold"
                    },
                    "value": "1d4"
                }
            }
        },
        "description": {
            "value": "<p>Freezing sleet and heavy snowfall collect on the target's feet and legs, dealing [[/r {1d4}[cold]]]{1d4 cold damage} and other effects depending on its Reflex save. Once this spell ends, the target becomes temporarily immune for 1 minute.</p>\n<hr />\n<p><strong>Critical Success</strong> The target is unaffected.</p>\n<p><strong>Success</strong> The target takes half damage.</p>\n<p><strong>Failure</strong> The target takes full damage, and takes a -5-foot circumstance penalty to its Speeds until the spell ends</p>\n<p><strong>Critical Failure</strong> The target takes double damage and a -10-foot circumstance penalty to its Speeds until the spell ends.</p>\n<hr />\n<p><strong>Heightened (+1)</strong> The damage increases by [[/r {1d4}[cold]]].</p>"
        },
        "duration": {
            "value": "sustained, up to 1 minute"
        },
        "hasCounteractCheck": {
            "value": false
        },
        "heightening": {
            "damage": {
                "0": "1d4"
            },
            "interval": 1,
            "type": "interval"
        },
        "level": {
            "value": 1
        },
        "location": {
            "value": ""
        },
        "materials": {
            "value": ""
        },
        "prepared": {
            "value": ""
        },
        "primarycheck": {
            "value": ""
        },
        "range": {
            "value": "30 feet"
        },
        "rules": [],
        "save": {
            "basic": "basic",
            "value": "reflex"
        },
        "school": {
            "value": "conjuration"
        },
        "secondarycasters": {
            "value": ""
        },
        "secondarycheck": {
            "value": ""
        },
        "source": {
            "value": "Pathfinder Advanced Player's Guide"
        },
        "spellType": {
            "value": "save"
        },
        "sustained": {
            "value": false
        },
        "target": {
            "value": "1 creature"
        },
        "time": {
            "value": "1"
        },
        "traditions": {
            "value": []
        },
        "traits": {
            "custom": "",
            "rarity": "uncommon",
            "value": [
                "cantrip",
                "cold",
                "hex",
                "witch"
            ]
        }
    },
    "flags": {},
    "img": "systems/pf2e/icons/spells/clinging-ice.webp",
    "name": "Clinging Ice",
    "type": "spell"
}
