{
    "_id": "Z3kJty995FkrsZRb",
    "data": {
        "ability": {
            "value": ""
        },
        "area": {
            "areaType": "",
            "value": ""
        },
        "category": {
            "value": "focus"
        },
        "components": {
            "focus": false,
            "material": false,
            "somatic": true,
            "verbal": true
        },
        "cost": {
            "value": ""
        },
        "damage": {
            "value": {
                "0": {
                    "applyMod": false,
                    "type": {
                        "categories": [],
                        "subtype": "",
                        "value": "fire"
                    },
                    "value": "4d8"
                }
            }
        },
        "description": {
            "value": "<p>You ignite a creature in lasting flames. The fire deals 4d8 fire damage and [[/r {2d6}[persistent,fire]]] @Compendium[pf2e.conditionitems.Persistent Damage]{Persistent Fire Damage} to the creature, which must attempt a Fortitude save.</p>\n<hr />\n<p><strong>Critical Success</strong> The creature is unaffected.</p>\n<p><strong>Success</strong> The creature takes half damage and takes no persistent damage.</p>\n<p><strong>Failure</strong> The creature takes full damage, as well as full persistent damage.</p>\n<p><strong>Critical Failure</strong> The creature takes double damage, as well as double persistent damage.</p>\n<hr />\n<p><strong>Heightened (+1)</strong> Increase the initial damage by 1d8 and the persistent damage by [[/r {1d6}[fire]]].</p>"
        },
        "duration": {
            "value": ""
        },
        "hasCounteractCheck": {
            "value": false
        },
        "heightening": {
            "damage": {
                "0": "1d8"
            },
            "interval": 1,
            "type": "interval"
        },
        "level": {
            "value": 3
        },
        "location": {
            "value": ""
        },
        "materials": {
            "value": ""
        },
        "prepared": {
            "value": ""
        },
        "range": {
            "value": "120 feet"
        },
        "rules": [],
        "save": {
            "basic": "",
            "value": "fortitude"
        },
        "school": {
            "value": "evocation"
        },
        "source": {
            "value": "Pathfinder Secrets of Magic"
        },
        "spellType": {
            "value": "save"
        },
        "sustained": {
            "value": false
        },
        "target": {
            "value": "1 creature"
        },
        "time": {
            "value": "2"
        },
        "traditions": {
            "value": []
        },
        "traits": {
            "custom": "",
            "rarity": "uncommon",
            "value": [
                "fire"
            ]
        }
    },
    "flags": {},
    "img": "systems/pf2e/icons/spells/combustion.webp",
    "name": "Combustion",
    "type": "spell"
}
