{
    "_id": "IHUs4qn27RrdFQ5Y",
    "data": {
        "ability": {
            "value": ""
        },
        "area": {
            "areaType": "",
            "value": ""
        },
        "category": {
            "value": "spell"
        },
        "components": {
            "focus": false,
            "material": false,
            "somatic": true,
            "verbal": true
        },
        "cost": {
            "value": ""
        },
        "damage": {
            "value": {}
        },
        "description": {
            "value": "<p>You recreate your form entirely out of cosmic energy, transforming into a Large battle form. You must have enough space to expand into, or the spell is lost. When you cast this spell, choose to take on the powers of the moon or the sun. You have hands in this battle form and can use manipulate actions. You can Dismiss the spell.</p>\n<p>You gain the following statistics and abilities regardless of the form that you choose:</p>\n<ul>\n<li>AC = 21 + your level. Ignore your armor check's penalty and Speed reduction.</li>\n<li>20 temporary Hit Points.</li>\n<li>Darkvision.</li>\n<li>One or more attacks specific to the battle form you use. You're trained with them. Your attack modifier is +25, and you use the listed damage. The melee attacks are Strength based (for the purpose of the enfeebled condition, for example), and the ranged attacks are Dexterity based. If your unarmed attack modifier is higher, you can use it instead.</li>\n<li>Athletics modifier of +25, unless your own is higher.</li>\n</ul>\n<p>You also gain specific abilities based on the stellar body:</p>\n<ul>\n<li><strong>Moon</strong> Speed 30 feet, fly 50 feet;\n<ul>\n<li><strong>Melee</strong> <span class=\"pf2-icon\">1</span> fist (agile, reach 10 feet), <strong>Damage</strong> 2d4+10 bludgeoning plus 1d6 fire;</li>\n<li><strong>Ranged</strong> <span class=\"pf2-icon\">1</span> moonbeam (range 90 feet), <strong>Damage</strong> 2d4+10 fire; this form's fire damage is silver for resistances, weaknesses, and the like;</li>\n<li>On a critical hit with either Strike, the target is @Compendium[pf2e.conditionitems.Stupefied]{Stupefied 2} for 1 round.</li>\n</ul>\n</li>\n</ul>\n<p>@Compendium[pf2e.spell-effects.Spell Effect: Cosmic Form (Moon)]{Spell Effect: Cosmic Form (Moon)}</p>\n<ul>\n<li><strong>Sun</strong> Speed 30 feet, fly 50 feet;\n<ul>\n<li><strong>Melee</strong> <span class=\"pf2-icon\">1</span> fist (agile, reach 10 feet), <strong>Damage</strong> 2d6+10 fire plus 1d6 persistent fire;</li>\n<li><strong>Ranged</strong> <span class=\"pf2-icon\">1</span> sunbeam (range 90 feet), <strong>Damage</strong> 1d6+10 fire plus 1d6 persistent fire;</li>\n<li>On a critical hit with either Strike, the target is @Compendium[pf2e.conditionitems.Dazzled]{Dazzled} for 1 round.</li>\n</ul>\n</li>\n</ul>\n<p>@Compendium[pf2e.spell-effects.Spell Effect: Cosmic Form (Sun)]{Spell Effect: Cosmic Form (Sun)}</p>"
        },
        "duration": {
            "value": "1 minute"
        },
        "hasCounteractCheck": {
            "value": false
        },
        "level": {
            "value": 7
        },
        "location": {
            "value": ""
        },
        "materials": {
            "value": ""
        },
        "prepared": {
            "value": ""
        },
        "range": {
            "value": ""
        },
        "rules": [],
        "save": {
            "basic": "",
            "value": ""
        },
        "school": {
            "value": "transmutation"
        },
        "source": {
            "value": "Pathfinder Secrets of Magic"
        },
        "spellType": {
            "value": "utility"
        },
        "sustained": {
            "value": false
        },
        "target": {
            "value": ""
        },
        "time": {
            "value": "2"
        },
        "traditions": {
            "custom": "",
            "value": [
                "divine",
                "primal"
            ]
        },
        "traits": {
            "custom": "",
            "rarity": "common",
            "value": [
                "polymorph"
            ]
        }
    },
    "flags": {},
    "img": "systems/pf2e/icons/spells/cosmic-form.webp",
    "name": "Cosmic Form",
    "type": "spell"
}
