{
    "_id": "B3eLlbaPxOYHcs1o",
    "data": {
        "ability": {
            "value": ""
        },
        "area": {
            "areaType": "",
            "value": ""
        },
        "areasize": {
            "value": ""
        },
        "category": {
            "value": "spell"
        },
        "components": {
            "focus": false,
            "material": false,
            "somatic": true,
            "verbal": true
        },
        "cost": {
            "value": ""
        },
        "damage": {
            "value": {}
        },
        "description": {
            "value": "<p>You curse the target with rapid aging or erosion.. The effect depends on whether the target is an object, a construct, or a living creature. Artifacts and objects and constructs made of precious materials (as determined by the GM), are immune.</p>\n<hr />\n<p><strong>• Object</strong> If the object is attended, its bearer can attempt a Fortitude save. If the bearer fails or the object is unattended, the object immediately takes [[/r 4d6]] damage (applying Hardness normally) and the item is cursed with an unlimited duration. Until the curse ends, the item becomes shoddy and can't be @Compendium[pf2e.actionspf2e.Repair]{Repaired}, and the curse attempts to counteract any spell that would restore the object's Hit Points. <em>@Compendium[pf2e.spells-srd.Remove Curse]{Remove Curse}</em> can target an item affected by this spell.</p>\n<p><strong>• Construct</strong> The construct takes [[/r 4d6]] damage (basic Fortitude save). On a failure, for 1 hour the construct is @Compendium[pf2e.conditionitems.Clumsy]{Clumsy 1}, is @Compendium[pf2e.conditionitems.Enfeebled]{Enfeebled 1}, and can't be Repaired, and the curse attempts to counteract any spell that would restore the construct's Hit Points. On a critical failure, these effects have an unlimited duration.</p>\n<p><strong>• Living Creature</strong> The living creature must attempt a Fortitude save. Ageless creatures are immune.</p>\n<hr />\n<p><strong>Critical Success</strong> The living creature is unaffected.</p>\n<p><strong>Success</strong> The living creature briefly ages, becoming @Compendium[pf2e.conditionitems.Clumsy]{Clumsy 1} and @Compendium[pf2e.conditionitems.Enfeebled]{Enfeebled 1} for 1 round.</p>\n<p><strong>Failure</strong> As success, with a duration of 1 hour.</p>\n<p><strong>Critical Failure</strong> As success, with an unlimited duration.</p>\n<hr />\n<p><strong>Heightened (+1)</strong> The damage increases by [[/r 1d6]].</p>"
        },
        "duration": {
            "value": "varies"
        },
        "hasCounteractCheck": {
            "value": true
        },
        "level": {
            "value": 3
        },
        "location": {
            "value": ""
        },
        "materials": {
            "value": ""
        },
        "prepared": {
            "value": false
        },
        "primarycheck": {
            "value": ""
        },
        "range": {
            "value": "touch"
        },
        "rules": [],
        "save": {
            "basic": "",
            "value": "fortitude"
        },
        "school": {
            "value": "transmutation"
        },
        "secondarycasters": {
            "value": ""
        },
        "secondarycheck": {
            "value": ""
        },
        "source": {
            "value": "Pathfinder Advanced Player's Guide"
        },
        "spellType": {
            "value": "save"
        },
        "sustained": {
            "value": false
        },
        "target": {
            "value": "1 Large or smaller object, construct, or living creature"
        },
        "time": {
            "value": "2"
        },
        "traditions": {
            "custom": "",
            "value": [
                "arcane",
                "occult",
                "primal"
            ]
        },
        "traits": {
            "custom": "",
            "rarity": "common",
            "value": [
                "curse",
                "negative"
            ]
        }
    },
    "flags": {},
    "img": "systems/pf2e/icons/spells/curse-of-lost-time.webp",
    "name": "Curse Of Lost Time",
    "type": "spell"
}
