{
    "_id": "zjYQyuBNT5VjV4mz",
    "data": {
        "ability": {
            "value": ""
        },
        "area": {
            "areaType": "",
            "value": ""
        },
        "category": {
            "value": "spell"
        },
        "components": {
            "focus": false,
            "material": false,
            "somatic": true,
            "verbal": true
        },
        "cost": {
            "value": ""
        },
        "damage": {
            "value": {}
        },
        "description": {
            "value": "<p>You channel the primal forces of nature to transform into a Large battle form, specifically that of a powerful and terrifying elephant or similar creature, such as a mammoth, mastodon, or anancus. This spell has the effects of <em>@Compendium[pf2e.spells-srd.Dinosaur Form]{Dinosaur Form}</em>, except you gain the following specific abilities instead of the form-specific abilities of dinosaur form.</p>\n<ul>\n<li>Speed 40 feet;</li>\n<li><strong>Melee</strong> <span class=\"pf2-icon\">1</span> foot, <strong>Damage</strong> 2d8 bludgeoning.</li>\n<li><strong>Melee</strong> <span class=\"pf2-icon\">1</span> trunk (reach 10 feet), <strong>Effect</strong> grabbing trunk;</li>\n<li><strong>Melee</strong> <span class=\"pf2-icon\">1</span> tusk (reach 10 feet), <strong>Damage</strong> 2d6 piercing.</li>\n</ul>\n<p><strong>Grabbing Trunk</strong> A creature up to two sizes smaller that's hit by your trunk is @Compendium[pf2e.conditionitems.Grabbed]{Grabbed}. If you succeed at your @Compendium[pf2e.actionspf2e.Grapple]{Grapple} check against a creature grabbed by your trunk, you can reposition the creature to another space within your trunk's reach.</p>\n<hr />\n<p><strong>Heightened (5th)</strong> Your elephant form is Huge; your trunk and tusk attacks have 15-foot reach, and your foot attack has 10-foot reach. You instead gain 20 temporary HP, an attack modifier of +18, a damage bonus of +6, double the damage dice, and Athletics +21.</p>\n<p><strong>Heightened (7th)</strong> Your elephant form is Gargantuan; your trunk and tusk attacks have 20-foot reach, and your foot attack has 15-foot reach. Your AC is 21 + your level and you instead gain 25 temporary HP, an attack modifier of +25, a damage bonus of +15, double the damage dice, and Athletics +25.</p>"
        },
        "duration": {
            "value": "1 minute"
        },
        "hasCounteractCheck": {
            "value": false
        },
        "level": {
            "value": 4
        },
        "location": {
            "value": ""
        },
        "materials": {
            "value": ""
        },
        "range": {
            "value": ""
        },
        "rules": [],
        "save": {
            "basic": "",
            "value": ""
        },
        "school": {
            "value": "transmutation"
        },
        "source": {
            "value": "Pathfinder #177: Burning Tundra"
        },
        "spellType": {
            "value": "utility"
        },
        "sustained": {
            "value": false
        },
        "target": {
            "value": ""
        },
        "time": {
            "value": "2"
        },
        "traditions": {
            "custom": "",
            "value": [
                "primal"
            ]
        },
        "traits": {
            "custom": "",
            "rarity": "uncommon",
            "value": [
                "polymorph"
            ]
        }
    },
    "flags": {},
    "img": "systems/pf2e/icons/spells/elephant-form.webp",
    "name": "Elephant Form",
    "type": "spell"
}
