{
    "_id": "0qA4MfMkFklOz2Lk",
    "data": {
        "ability": {
            "value": ""
        },
        "area": {
            "value": ""
        },
        "areasize": {
            "value": ""
        },
        "category": {
            "value": "focus"
        },
        "components": {
            "material": false,
            "somatic": true,
            "verbal": false
        },
        "cost": {
            "value": ""
        },
        "damage": {
            "value": {
                "0": {
                    "type": {
                        "categories": [],
                        "value": "mental"
                    },
                    "value": "6d4"
                }
            }
        },
        "description": {
            "value": "<p><strong>Trigger</strong> A creature within range becomes frightened.</p>\n<hr />\n<p>You open your mouth wide and inhale sharply; you draw in the bravery, self-confidence, and hope to which the frightened target clings and then strip away the target's false assumption that these fragile emotions can save them from the oblivion of terror.</p>\n<p>You deal [[/r {6d4}[mental]]]{6d4 mental damage} to the creature, which must attempt a Will saving throw.</p>\n<hr />\n<p><strong>Critical Success</strong> The creature is unaffected.</p>\n<p><strong>Success</strong> The creature's frightened condition increases by 1, and it takes half damage.</p>\n<p><strong>Failure</strong> The creature's frightened condition increases by 2, and it takes full damage; you regain Hit Points equal to half the damage the target takes.</p>\n<p><strong>Critical Failure</strong> The creature's frightened condition increases by 3 and it takes double damage; you regain Hit Points equal to half the damage the target takes.</p>\n<hr />\n<p>Heightened (+1) The damage increases by 2d4.</p>"
        },
        "duration": {
            "value": "varies"
        },
        "hasCounteractCheck": {
            "value": false
        },
        "heightening": {
            "damage": {
                "0": "2d4"
            },
            "interval": 2,
            "type": "interval"
        },
        "level": {
            "value": 4
        },
        "location": {
            "value": ""
        },
        "materials": {
            "value": ""
        },
        "prepared": {
            "value": ""
        },
        "range": {
            "value": "30 feet"
        },
        "rules": [],
        "save": {
            "basic": "",
            "value": "will"
        },
        "school": {
            "value": "necromancy"
        },
        "source": {
            "value": "Pathfinder #165: Eyes of Empty Death"
        },
        "spellType": {
            "value": "utility"
        },
        "sustained": {
            "value": false
        },
        "target": {
            "value": "the triggering creature"
        },
        "time": {
            "value": "Reaction"
        },
        "traditions": {
            "custom": "",
            "value": []
        },
        "traits": {
            "custom": "",
            "rarity": "uncommon",
            "value": [
                "fear",
                "mental"
            ]
        }
    },
    "flags": {},
    "img": "systems/pf2e/icons/spells/fearful-feast.webp",
    "name": "Fearful Feast",
    "type": "spell"
}
