{
    "_id": "9mPEoOPN0AMuixIv",
    "data": {
        "ability": {
            "value": ""
        },
        "area": {
            "areaType": "",
            "value": ""
        },
        "category": {
            "value": "focus"
        },
        "components": {
            "focus": false,
            "material": false,
            "somatic": true,
            "verbal": false
        },
        "cost": {
            "value": ""
        },
        "damage": {
            "applyMod": false,
            "value": {
                "0": {
                    "applyMod": false,
                    "type": {
                        "subtype": "",
                        "value": "force"
                    },
                    "value": "1d4+1"
                }
            }
        },
        "description": {
            "value": "<p>You briefly turn your attack into pure force to bypass your opponent's defenses. Choose a target within your reach, or within the reach of a melee weapon you're wielding. If you can use @Compendium[pf2e.actionspf2e.Spellstrike]{Spellstrike} with a ranged weapon (with the starlit span hybrid study, for example), you can target a creature in the first range increment of your ranged weapon. For an instant, you transform your weapon or unarmed attack into a spike of pure force, replacing all its normal statistics and abilities. The force fang automatically deals 1d4+1 force damage to the target.</p>\n<hr />\n<p><strong>Heightened (+2)</strong> The damage increases by 1d4+1.</p>\n<p data-visibility=\"owner\"><em>Note: Conflux spells refresh Spellstrike.</em></p>"
        },
        "duration": {
            "value": ""
        },
        "hasCounteractCheck": {
            "value": false
        },
        "heightening": {
            "damage": {
                "0": "1d4+1"
            },
            "interval": 2,
            "type": "interval"
        },
        "level": {
            "value": 1
        },
        "location": {
            "value": ""
        },
        "materials": {
            "value": ""
        },
        "range": {
            "value": "varies"
        },
        "rules": [],
        "save": {
            "basic": "",
            "value": ""
        },
        "school": {
            "value": "evocation"
        },
        "source": {
            "value": "Pathfinder Secrets of Magic"
        },
        "spellType": {
            "value": "utility"
        },
        "sustained": {
            "value": false
        },
        "target": {
            "value": "1 creature"
        },
        "time": {
            "value": "1"
        },
        "traditions": {
            "value": []
        },
        "traits": {
            "custom": "",
            "rarity": "uncommon",
            "value": [
                "force",
                "magus"
            ]
        }
    },
    "flags": {},
    "img": "systems/pf2e/icons/spells/force-fang.webp",
    "name": "Force Fang",
    "type": "spell"
}
