{
    "_id": "pLEhF3f7KRxFo0vp",
    "data": {
        "ability": {
            "value": ""
        },
        "area": {
            "areaType": "burst",
            "value": "30"
        },
        "category": {
            "value": "spell"
        },
        "components": {
            "focus": false,
            "material": false,
            "somatic": false,
            "verbal": true
        },
        "cost": {
            "value": ""
        },
        "damage": {
            "value": {}
        },
        "description": {
            "value": "<p>You sing a prayer for war, inspiring valor in allies who hear your song. Allied creatures who can hear and understand you gain a +1 status bonus to attack rolls, Fortitude saves, and Will saves against mental effects.</p>\n<hr />\n<p><strong>Heightened (7th)</strong> The status bonus increases to +2.</p>\n<p><strong>Heightened (10th)</strong> The status bonus increases to +3.</p>\n<hr />\n<p>@Compendium[pf2e.spell-effects.Spell Effect: Girzanje's March]{Spell Effect: Girzanje's March}</p>"
        },
        "duration": {
            "value": "sustained up to 1 minute"
        },
        "hasCounteractCheck": {
            "value": false
        },
        "level": {
            "value": 4
        },
        "location": {
            "value": ""
        },
        "materials": {
            "value": ""
        },
        "range": {
            "value": ""
        },
        "rules": [],
        "save": {
            "basic": "",
            "value": ""
        },
        "school": {
            "value": "enchantment"
        },
        "source": {
            "value": "Pathfinder #171: Hurricane's Howl"
        },
        "spellType": {
            "value": "utility"
        },
        "sustained": {
            "value": false
        },
        "target": {
            "value": ""
        },
        "time": {
            "value": "2"
        },
        "traditions": {
            "value": [
                "divine",
                "occult"
            ]
        },
        "traits": {
            "custom": "",
            "rarity": "uncommon",
            "value": [
                "auditory",
                "linguistic",
                "mental"
            ]
        }
    },
    "flags": {},
    "img": "systems/pf2e/icons/spells/girzanjes-march.webp",
    "name": "Girzanje's March",
    "type": "spell"
}
