{
    "_id": "PVXqMko4yGgw90uo",
    "data": {
        "ability": {
            "value": ""
        },
        "area": {
            "value": ""
        },
        "areasize": {
            "value": ""
        },
        "category": {
            "value": "focus"
        },
        "components": {
            "material": false,
            "somatic": true,
            "verbal": true
        },
        "cost": {
            "value": ""
        },
        "damage": {
            "value": {}
        },
        "description": {
            "value": "<p>You surround your target with wondrous illusions of their greatest desires, which distract them from reality. The target must attempt a Will save.</p>\n<hr />\n<p><strong>Critical Success</strong> The target disbelieves the illusion and is unaffected.</p>\n<p><strong>Success</strong> For 1 round, the target is @Compendium[pf2e.conditionitems.Stupefied]{Stupefied 2} and takes a -2 status penalty to any checks it makes to determine the effects of reactions.</p>\n<p><strong>Failure</strong> For 1 minute, the target is @Compendium[pf2e.conditionitems.Stupefied]{Stupefied 2} and can't use reactions.</p>\n<p><strong>Critical Failure</strong> As failure, and all spaces are difficult terrain for the target.</p>\n<hr />\n<p><strong>Heightened (+2)</strong> You can target one additional creature.</p>"
        },
        "duration": {
            "value": "varies"
        },
        "hasCounteractCheck": {
            "value": false
        },
        "level": {
            "value": 3
        },
        "location": {
            "value": ""
        },
        "materials": {
            "value": ""
        },
        "prepared": {
            "value": ""
        },
        "primarycheck": {
            "value": ""
        },
        "range": {
            "value": "60 feet"
        },
        "rules": [],
        "save": {
            "basic": "",
            "value": "will"
        },
        "school": {
            "value": "illusion"
        },
        "secondarycasters": {
            "value": ""
        },
        "secondarycheck": {
            "value": ""
        },
        "source": {
            "value": "Pathfinder Advanced Player's Guide"
        },
        "spellType": {
            "value": "save"
        },
        "sustained": {
            "value": false
        },
        "target": {
            "value": "1 creature"
        },
        "time": {
            "value": "2"
        },
        "traditions": {
            "value": []
        },
        "traits": {
            "custom": "",
            "rarity": "uncommon",
            "value": [
                "emotion",
                "mental",
                "sorcerer"
            ]
        }
    },
    "flags": {},
    "img": "systems/pf2e/icons/spells/hearts-desire.webp",
    "name": "Heart's Desire",
    "type": "spell"
}
