{
    "_id": "v4KzRPol5XQOOmk0",
    "data": {
        "ability": {
            "value": ""
        },
        "area": {
            "areaType": "",
            "value": ""
        },
        "areasize": {
            "value": ""
        },
        "category": {
            "value": "spell"
        },
        "components": {
            "focus": false,
            "material": false,
            "somatic": true,
            "verbal": true
        },
        "cost": {
            "value": ""
        },
        "damage": {
            "value": {
                "0": {
                    "applyMod": false,
                    "type": {
                        "categories": [],
                        "subtype": "",
                        "value": "fire"
                    },
                    "value": "4d6"
                },
                "ga830svjq2s25ahf": {
                    "applyMod": false,
                    "type": {
                        "categories": [],
                        "subtype": "persistent",
                        "value": "fire"
                    },
                    "value": "2d4"
                }
            }
        },
        "description": {
            "value": "<p>This spell heats the targeted metal to become red-hot for a moment. This is usually harmless to an unattended metal item, which doesn't get a saving throw, though the GM might rule that flammable materials connected to the object catch fire or melt. If you target an item worn or carried by a creature, or you target a creature made primarily of metal, the heat deals [[/r {4d6}[fire]]]{4d6 fire damage} and [[/r {2d4}[persistent,fire]]] @Compendium[pf2e.conditionitems.Persistent Damage]{Persistent Fire Damage} to the creature, which must attempt a Reflex saving throw.</p>\n<p>If you target an item held by the creature, the creature can @Compendium[pf2e.actionspf2e.Release]{Release} the item to improve their degree of success by one step from the result of their saving throw. The persistent damage is associated with the object and damages whichever creature is holding or wearing it. It has no effect if no one is holding the item, but you continue to attempt flat checks to end the persistent damage as normal, since the item remains hot and can sear someone who picks it up.</p>\n<hr />\n<p><strong>Critical Success</strong> The creature is unaffected.</p>\n<p><strong>Success</strong> The creature takes half damage and the object deals no persistent fire damage.</p>\n<p><strong>Failure</strong> The creature takes full damage and the object deals full persistent damage.</p>\n<p><strong>Critical Failure</strong> As failure, but the creature takes double damage and the object deals double persistent damage.</p>\n<hr />\n<p><strong>Heightened (+1)</strong> The initial damage increases by 2d6 and the persistent damage increases by 1d4.</p>"
        },
        "duration": {
            "value": ""
        },
        "hasCounteractCheck": {
            "value": false
        },
        "heightening": {
            "damage": {
                "0": "2d6",
                "ga830svjq2s25ahf": "1d4"
            },
            "interval": 1,
            "type": "interval"
        },
        "level": {
            "value": 2
        },
        "location": {
            "value": ""
        },
        "materials": {
            "value": ""
        },
        "prepared": {
            "value": false
        },
        "primarycheck": {
            "value": ""
        },
        "range": {
            "value": "30 feet"
        },
        "rules": [],
        "save": {
            "basic": "",
            "value": "reflex"
        },
        "school": {
            "value": "evocation"
        },
        "secondarycasters": {
            "value": ""
        },
        "secondarycheck": {
            "value": ""
        },
        "source": {
            "value": "Pathfinder Advanced Player's Guide"
        },
        "spellType": {
            "value": "utility"
        },
        "sustained": {
            "value": false
        },
        "target": {
            "value": "1 metal item or metal creature"
        },
        "time": {
            "value": "2"
        },
        "traditions": {
            "value": [
                "arcane",
                "primal"
            ]
        },
        "traits": {
            "custom": "",
            "rarity": "common",
            "value": [
                "fire"
            ]
        }
    },
    "flags": {},
    "img": "systems/pf2e/icons/spells/heat-metal.webp",
    "name": "Heat Metal",
    "type": "spell"
}
