{
    "_id": "2gQYrCPwBmwau26O",
    "data": {
        "ability": {
            "value": ""
        },
        "area": {
            "areaType": "",
            "value": ""
        },
        "areasize": {
            "value": ""
        },
        "category": {
            "value": "focus"
        },
        "components": {
            "focus": false,
            "material": false,
            "somatic": true,
            "verbal": false
        },
        "cost": {
            "value": ""
        },
        "damage": {
            "value": {}
        },
        "description": {
            "value": "<p>You forge a connection of life energy between you and your target, distributing harm between both of you. When you first Cast the Spell, the target recovers [[/r {1d4}[healing]]]{1d4 Hit Points}.</p>\n<p>The first time each round that the target takes damage, reduce the damage it takes by 3 (to a minimum of 0 damage). You lose 3 Hit Points each time, or the total damage dealt, if less than 3; this damage ignores any immunities or resistances you have and can't otherwise be mitigated in any way.</p>\n<p>The spell ends immediately if you fall @Compendium[pf2e.conditionitems.Unconscious]{Unconscious}. You can @Compendium[pf2e.actionspf2e.Dismiss]{Dismiss} the spell.</p>\n<hr />\n<p><strong>Heightened (3rd)</strong> You can target 2 creatures other than you. Increase the initial healing to [[/r {3d4}[healing]]]{3d4 Hit Points} and the maximum damage reduced and Hit Points lost to 5.</p>\n<p><strong>Heightened (6th)</strong> You can target 3 creatures other than you. Increase the initial healing to [[/r {6d4}[healing]]]{6d4 Hit Points} and the maximum damage reduced and Hit Points lost to 10.</p>\n<p><strong>Heightened (9th)</strong> You can target 4 creatures other than you. Increase the initial healing to [[/r {9d4}[healing]]]{9d4 Hit Points} and the maximum damage reduced and Hit Points lost to 15.</p>"
        },
        "duration": {
            "value": "1 minute"
        },
        "hasCounteractCheck": {
            "value": false
        },
        "heightening": {
            "levels": {
                "3": {
                    "target": {
                        "value": "2 creatures other than you"
                    }
                },
                "6": {
                    "target": {
                        "value": "3 creatures other than you"
                    }
                },
                "9": {
                    "target": {
                        "value": "4 creatures other than you"
                    }
                }
            },
            "type": "fixed"
        },
        "level": {
            "value": 1
        },
        "location": {
            "value": ""
        },
        "materials": {
            "value": ""
        },
        "prepared": {
            "value": ""
        },
        "primarycheck": {
            "value": ""
        },
        "range": {
            "value": "30 feet"
        },
        "rules": [],
        "save": {
            "basic": "",
            "value": ""
        },
        "school": {
            "value": "necromancy"
        },
        "secondarycasters": {
            "value": ""
        },
        "secondarycheck": {
            "value": ""
        },
        "source": {
            "value": "Pathfinder Advanced Player's Guide"
        },
        "spellType": {
            "value": "heal"
        },
        "sustained": {
            "value": false
        },
        "target": {
            "value": "1 creature other than you"
        },
        "time": {
            "value": "1"
        },
        "traditions": {
            "custom": "",
            "value": []
        },
        "traits": {
            "custom": "",
            "rarity": "uncommon",
            "value": [
                "cursebound",
                "healing",
                "oracle",
                "positive"
            ]
        }
    },
    "flags": {},
    "img": "systems/pf2e/icons/spells/life-link.webp",
    "name": "Life Link",
    "type": "spell"
}
