{
    "_id": "9kOI14Jep97TzGO7",
    "data": {
        "ability": {
            "value": ""
        },
        "area": {
            "areaType": "",
            "value": ""
        },
        "areasize": {
            "value": ""
        },
        "category": {
            "value": "focus"
        },
        "components": {
            "focus": false,
            "material": false,
            "somatic": true,
            "verbal": true
        },
        "cost": {
            "value": ""
        },
        "damage": {
            "value": {}
        },
        "description": {
            "value": "<p>You transcend your physical form, becoming a beacon of healing energy. Your body exudes bright light like a torch. You gain resistance 5 to precision damage and weakness 5 to negative damage, and your unarmed Strikes deal an extra [[/r {1d4}[positive]]]{1d4 positive damage}.</p>\n<p>You can touch a living creature with an @Compendium[pf2e.actionspf2e.Interact]{Interact} action to restore [[/r {6d8}[healing]]]{6d8 Hit Points} to it, and when a creature touches you with an Interact action you can allow it to gain the same healing; either way, the creature becomes temporarily immune to life-giving form's healing for 1 minute. This is a positive healing effect. You can't heal yourself with life-giving form. A creature harmed by positive damage (such as an undead) that touches you or damages you with an unarmed attack or non-reach melee weapon instead takes [[/r {3d4}[positive]]]{3d4 positive damage}, and it doesn't become temporarily immune.</p>\n<p>You can @Compendium[pf2e.actionspf2e.Dismiss]{Dismiss} this spell.</p>\n<hr />\n<p><strong>Heightened (+1)</strong> Increase the Hit Points restored with an Interact action by [[/r 1d8]], the positive damage by 1, and the resistance and weakness by 1.</p>\n<p>@Compendium[pf2e.spell-effects.Spell Effect: Life-Giving Form]{Spell Effect: Life-Giving Form}</p>"
        },
        "duration": {
            "value": "1 minute"
        },
        "hasCounteractCheck": {
            "value": false
        },
        "level": {
            "value": 6
        },
        "location": {
            "value": ""
        },
        "materials": {
            "value": ""
        },
        "prepared": {
            "value": ""
        },
        "primarycheck": {
            "value": ""
        },
        "range": {
            "value": ""
        },
        "rules": [],
        "save": {
            "basic": "",
            "value": ""
        },
        "school": {
            "value": "necromancy"
        },
        "secondarycasters": {
            "value": ""
        },
        "secondarycheck": {
            "value": ""
        },
        "source": {
            "value": "Pathfinder Advanced Player's Guide"
        },
        "spellType": {
            "value": "utility"
        },
        "sustained": {
            "value": false
        },
        "target": {
            "value": ""
        },
        "time": {
            "value": "2"
        },
        "traditions": {
            "custom": "",
            "value": []
        },
        "traits": {
            "custom": "",
            "rarity": "uncommon",
            "value": [
                "cursebound",
                "healing",
                "light",
                "oracle",
                "positive"
            ]
        }
    },
    "flags": {},
    "img": "systems/pf2e/icons/spells/life-giving-form.webp",
    "name": "Life-Giving Form",
    "type": "spell"
}
