{
    "_id": "ZMY58Yk5hnyfeE3q",
    "data": {
        "ability": {
            "value": ""
        },
        "area": {
            "value": ""
        },
        "areasize": {
            "value": ""
        },
        "category": {
            "value": "spell"
        },
        "components": {
            "material": false,
            "somatic": true,
            "verbal": true
        },
        "cost": {
            "value": ""
        },
        "damage": {
            "value": {
                "0": {
                    "type": {
                        "categories": [],
                        "value": "piercing"
                    },
                    "value": "2d12"
                }
            }
        },
        "description": {
            "value": "<p>You replicate the fiery venom of the tor linnorm and inflict an enemy with the dread dragon's debilitating bite. You deal [[/r {2d12}[piercing]]]{2d12 piercing damage} to the targeted creature and afflict it with tor linnorm venom. If the target takes piercing damage, they must attempt a Fortitude save.</p>\n<hr />\n<p><strong>Critical Success</strong> The target is unaffected.</p>\n<p><strong>Success</strong> The target takes [[/r {8d6}[fire]]]{8d6 fire damage}.</p>\n<p><strong>Failure</strong> The target is afflicted with Tor Linnorm Venom at stage 1.</p>\n<p><strong>Critical Failure</strong> The target is afflicted with tor linnorm venom at stage 2.</p>\n<hr />\n<p><strong>Tor Linnorm Venom</strong> (fire, injury, poison) <strong>Level 17</strong></p>\n<p><strong>Maximum Duration</strong> 10 rounds</p>\n<p><strong>Stage 1</strong> [[/r {8d6}[fire]]]{8d6 fire damage} and @Compendium[pf2e.conditionitems.Drained]{Drained 1} (1 round)</p>\n<p><strong>Stage 2</strong> [[/r {12d6}[fire]]]{12d6 fire damage} and @Compendium[pf2e.conditionitems.Drained]{Drained 2} (1 round)</p>"
        },
        "duration": {
            "value": ""
        },
        "hasCounteractCheck": {
            "value": false
        },
        "level": {
            "value": 9
        },
        "location": {
            "value": "Z9TGJ4zsSKnZVV9u"
        },
        "materials": {
            "value": ""
        },
        "prepared": {
            "value": ""
        },
        "primarycheck": {
            "value": ""
        },
        "range": {
            "value": "touch"
        },
        "rules": [],
        "save": {
            "basic": "",
            "value": "fortitude"
        },
        "school": {
            "value": "necromancy"
        },
        "secondarycasters": {
            "value": ""
        },
        "secondarycheck": {
            "value": ""
        },
        "source": {
            "value": "Pathfinder #160: Assault on Hunting Lodge Seven"
        },
        "spellType": {
            "value": "save"
        },
        "sustained": {
            "value": false
        },
        "target": {
            "value": "1 creature"
        },
        "time": {
            "value": "2"
        },
        "traditions": {
            "custom": "",
            "value": [
                "arcane",
                "primal"
            ]
        },
        "traits": {
            "custom": "",
            "rarity": "uncommon",
            "selected": [],
            "value": [
                "fire",
                "poison"
            ]
        }
    },
    "flags": {},
    "img": "systems/pf2e/icons/spells/linnorm-sting.webp",
    "name": "Linnorm Sting",
    "type": "spell"
}
