{
    "_id": "WfINystwLv9ohYpS",
    "data": {
        "ability": {
            "value": ""
        },
        "area": {
            "areaType": "burst",
            "value": "5"
        },
        "category": {
            "value": "spell"
        },
        "components": {
            "focus": false,
            "material": false,
            "somatic": true,
            "verbal": true
        },
        "cost": {
            "value": ""
        },
        "damage": {
            "value": {}
        },
        "description": {
            "value": "<p>A tightly packed crowd of humanoids appropriate to the area appear, facing you and agreeing loudly with anything you say. A creature that touches a member of the crowd or makes a Seek action to examine the crowd can attempt to disbelieve your illusion. The crowd is difficult terrain for anyone who hasn't disbelieved the illusion.</p>\n<p>When you spend 1 or more actions to cast a composition spell or to perform an activity that includes a Performance check, you can also Sustain this Spell as part of that action.</p>\n<hr />\n<p><strong>Heightened (+1)</strong> The crowd occupies an additional 10-foot square in range. The additional square doesn't need to be adjacent to any other square created by the spell. It can overlap, but there's no additional effect in the overlapped squares.</p>"
        },
        "duration": {
            "value": "sustained up to 10 minutes"
        },
        "hasCounteractCheck": {
            "value": false
        },
        "level": {
            "value": 2
        },
        "materials": {
            "value": ""
        },
        "range": {
            "value": "60 feet"
        },
        "rules": [],
        "save": {
            "basic": "",
            "value": ""
        },
        "school": {
            "value": "illusion"
        },
        "source": {
            "value": "Pathfinder Secrets of Magic"
        },
        "spellType": {
            "value": "utility"
        },
        "sustained": {
            "value": false
        },
        "target": {
            "value": ""
        },
        "time": {
            "value": "2"
        },
        "traditions": {
            "custom": "",
            "value": [
                "arcane",
                "occult"
            ]
        },
        "traits": {
            "custom": "",
            "rarity": "common",
            "value": [
                "visual"
            ]
        }
    },
    "flags": {},
    "img": "systems/pf2e/icons/spells/phantom-crowd.webp",
    "name": "Phantom Crowd",
    "type": "spell"
}
