{
    "_id": "kwlKUxEuT8T15YW6",
    "data": {
        "ability": {
            "value": ""
        },
        "area": {
            "areaType": "",
            "value": null
        },
        "areasize": {
            "value": ""
        },
        "category": {
            "value": "focus"
        },
        "components": {
            "material": false,
            "somatic": false,
            "verbal": true
        },
        "cost": {
            "value": ""
        },
        "damage": {
            "value": {}
        },
        "description": {
            "value": "<p>You enhance a summoned creature with the power of the elements. If your next action is to cast either <em>@Compendium[pf2e.spells-srd.Summon Animal]{Summon Animal}</em> or <em>@Compendium[pf2e.spells-srd.Summon Plant or Fungus]{Summon Plant or Fungus}</em>, choose air, earth, fire, or water, and the creature you summon gains the corresponding abilities.</p>\n<ul>\n<li><strong>@Compendium[pf2e.spell-effects.Spell Effect: Primal Summons (Air)]{Air}</strong> The creature gains a fly Speed of 60 feet.</li>\n<li><strong>@Compendium[pf2e.spell-effects.Spell Effect: Primal Summons (Earth)]{Earth}</strong> The creature gains a burrow Speed of 20 feet, reduces its land Speed by 10 feet (minimum 5 feet), and gains resistance 5 to physical damage.</li>\n<li><strong>@Compendium[pf2e.spell-effects.Spell Effect: Primal Summons (Fire)]{Fire}</strong> The creature's attacks deal 1d6 extra fire damage, and it gains resistance 10 to fire and weakness 5 to cold and water.</li>\n<li><strong>@Compendium[pf2e.spell-effects.Spell Effect: Primal Summons (Water)]{Water}</strong> The creature gains a swim Speed of 60 feet, can spend 1 action after a melee attack to attempt a Shove (ignoring multiple attack penalty), and gains resistance 5 to fire.</li>\n</ul>"
        },
        "duration": {
            "value": ""
        },
        "hasCounteractCheck": {
            "value": false
        },
        "level": {
            "value": 6
        },
        "location": {
            "value": ""
        },
        "materials": {
            "value": ""
        },
        "prepared": {
            "value": ""
        },
        "primarycheck": {
            "value": ""
        },
        "range": {
            "value": ""
        },
        "rules": [],
        "save": {
            "basic": "",
            "value": ""
        },
        "school": {
            "value": "conjuration"
        },
        "secondarycasters": {
            "value": ""
        },
        "secondarycheck": {
            "value": ""
        },
        "source": {
            "value": "Pathfinder Core Rulebook"
        },
        "spellType": {
            "value": "utility"
        },
        "sustained": {
            "value": false
        },
        "target": {
            "value": ""
        },
        "time": {
            "value": "free"
        },
        "traditions": {
            "value": []
        },
        "traits": {
            "custom": "",
            "rarity": "uncommon",
            "value": [
                "druid"
            ]
        }
    },
    "flags": {},
    "img": "systems/pf2e/icons/spells/primal-summons.webp",
    "name": "Primal Summons",
    "type": "spell"
}
