{
    "_id": "gMODOGamz88rgHuf",
    "data": {
        "ability": {
            "value": ""
        },
        "area": {
            "areaType": "",
            "value": null
        },
        "areasize": {
            "value": ""
        },
        "category": {
            "value": "spell"
        },
        "components": {
            "material": false,
            "somatic": true,
            "verbal": true
        },
        "cost": {
            "value": ""
        },
        "damage": {
            "value": {}
        },
        "description": {
            "value": "<p>You ward a creature against a specified alignment. Choose chaotic, evil, good, or lawful when you cast this spell. The target gains a +1 status bonus to Armor Class and saving throws against creatures and effects of the chosen alignment. This bonus increases to +3 against effects from such creatures that would directly control the target and against attacks made by summoned creatures of the chosen alignment.</p>\n<p>This spell gains the trait that opposes the alignment you chose-if you choose chaos, this spell gains the lawful trait, and vice versa; if you choose evil, this spell gains the good trait, and vice versa.</p>\n<p>@Compendium[pf2e.spell-effects.Spell Effect: Protection from Chaotic]{Spell Effect: Protection from Chaotic}</p>\n<p>@Compendium[pf2e.spell-effects.Spell Effect: Protection from Evil]{Spell Effect: Protection from Evil}</p>\n<p>@Compendium[pf2e.spell-effects.Spell Effect: Protection from Good]{Spell Effect: Protection from Good}</p>\n<p>@Compendium[pf2e.spell-effects.Spell Effect: Protection from Lawful]{Spell Effect: Protection from Lawful}</p>"
        },
        "duration": {
            "value": "1 minute"
        },
        "hasCounteractCheck": {
            "value": false
        },
        "level": {
            "value": 1
        },
        "location": {
            "value": ""
        },
        "materials": {
            "value": ""
        },
        "prepared": {
            "value": ""
        },
        "primarycheck": {
            "value": ""
        },
        "range": {
            "value": "touch"
        },
        "rules": [],
        "save": {
            "basic": "",
            "value": ""
        },
        "school": {
            "value": "abjuration"
        },
        "secondarycasters": {
            "value": ""
        },
        "secondarycheck": {
            "value": ""
        },
        "source": {
            "value": "Pathfinder Core Rulebook"
        },
        "spellType": {
            "value": "utility"
        },
        "sustained": {
            "value": false
        },
        "target": {
            "value": "1 creature"
        },
        "time": {
            "value": "2"
        },
        "traditions": {
            "value": [
                "divine",
                "occult"
            ]
        },
        "traits": {
            "custom": "",
            "rarity": "uncommon",
            "value": []
        }
    },
    "flags": {},
    "img": "systems/pf2e/icons/spells/protection.webp",
    "name": "Protection",
    "type": "spell"
}
