{
    "_id": "CxpFy4HJHf4ACbxF",
    "data": {
        "ability": {
            "value": ""
        },
        "area": {
            "areaType": "",
            "value": ""
        },
        "areasize": {
            "value": ""
        },
        "category": {
            "value": "spell"
        },
        "components": {
            "focus": false,
            "material": false,
            "somatic": true,
            "verbal": true
        },
        "cost": {
            "value": ""
        },
        "damage": {
            "value": {}
        },
        "description": {
            "value": "<p>You cause otherwise edible food to rot and spoil instantly, and water and other liquids to become brackish and undrinkable. @Compendium[pf2e.equipment-srd.Holy Water]{Holy Water}, @Compendium[pf2e.equipment-srd.Unholy Water]{Unholy Water}, and similar food and drink of significance are spoiled by this spell, unless they are associated with a deity of decay or putrefaction, but it has no effect on creatures of any type, potions, or alchemical elixirs. One cubic foot of liquid is roughly 8 gallons.</p>\n<hr />\n<p><strong>Heightened (2nd)</strong> You can target an alchemical elixir with this spell, attempting a counteract check against it. If you succeed, the elixir spoils and becomes a mundane item.</p>\n<p><strong>Heightened (3rd)</strong> You can target a potion or alchemical elixir with this spell, attempting a counteract check against it. If you succeed, the elixir or potion spoils and becomes a mundane item.</p>"
        },
        "duration": {
            "value": ""
        },
        "hasCounteractCheck": {
            "value": true
        },
        "heightening": {
            "levels": {
                "2": {
                    "target": {
                        "value": "1 cubic foot of clean food or water, or an alchemical elixir"
                    }
                },
                "3": {
                    "target": {
                        "value": "1 cubic foot of clean food or water, or a potion or alchemical elixir"
                    }
                }
            },
            "type": "fixed"
        },
        "level": {
            "value": 1
        },
        "location": {
            "value": ""
        },
        "materials": {
            "value": ""
        },
        "prepared": {
            "value": ""
        },
        "primarycheck": {
            "value": ""
        },
        "range": {
            "value": "touch"
        },
        "rules": [],
        "save": {
            "basic": "",
            "value": ""
        },
        "school": {
            "value": "necromancy"
        },
        "secondarycasters": {
            "value": ""
        },
        "secondarycheck": {
            "value": ""
        },
        "source": {
            "value": "Pathfinder #158: Sixty Feet Under"
        },
        "spellType": {
            "value": "utility"
        },
        "sustained": {
            "value": false
        },
        "target": {
            "value": "1 cubic foot of clean food or water"
        },
        "time": {
            "value": "2"
        },
        "traditions": {
            "custom": "",
            "value": [
                "divine",
                "primal"
            ]
        },
        "traits": {
            "custom": "",
            "rarity": "common",
            "selected": {
                "necromancy": "Necromancy"
            },
            "value": []
        }
    },
    "flags": {},
    "img": "systems/pf2e/icons/spells/putrefy-food-and-drink.webp",
    "name": "Putrefy Food and Drink",
    "type": "spell"
}
