{
    "_id": "fTK6ysisGhy3hRvz",
    "data": {
        "ability": {
            "value": ""
        },
        "area": {
            "areaType": "",
            "value": ""
        },
        "category": {
            "value": "spell"
        },
        "components": {
            "focus": false,
            "material": false,
            "somatic": true,
            "verbal": true
        },
        "cost": {
            "value": ""
        },
        "damage": {
            "value": {}
        },
        "description": {
            "value": "<p>You flood the target with energy from the terrain around it, compressing centuries of evolution into a single moment. The target gains one of the following natural adaptations based on the surrounding environment.</p>\n<ul>\n<li><strong>Aquatic</strong> The target gains a swim Speed equal to its land Speed. If it already had a swim Speed, it gains a +10-foot status bonus to its swim Speed. @Compendium[pf2e.spell-effects.Spell Effect: Rapid Adaptation (Aquatic Base Swim Speed)]{Spell Effect: Rapid Adaptation (Aquatic Base Swim Speed)} or @Compendium[pf2e.spell-effects.Spell Effect: Rapid Adaptation (Aquatic Speed Bonus)]{Spell Effect: Rapid Adaptation (Aquatic Speed Bonus)}</li>\n<li><strong>Arctic</strong> The target isn't affected by severe or extreme cold, and when it rolls a success on an Acrobatics check to Balance on ice and snow, it gets a critical success instead. @Compendium[pf2e.spell-effects.Spell Effect: Rapid Adaptation (Arctic)]{Spell Effect: Rapid Adaptation (Arctic)}</li>\n<li><strong>Desert</strong> The target isn't affected by severe or extreme heat, and when it rolls a success on an Acrobatics check to Balance on sand, it gets a critical success instead. @Compendium[pf2e.spell-effects.Spell Effect: Rapid Adaptation (Desert)]{Spell Effect: Rapid Adaptation (Desert)}</li>\n<li><strong>Forest</strong> The target gains scent as an imprecise sense with a range of 30 feet. @Compendium[pf2e.spell-effects.Spell Effect: Rapid Adaptation (Forest)]{Spell Effect: Rapid Adaptation (Forest)}</li>\n<li><strong>Mountain</strong> The target isn't @Compendium[pf2e.conditionitems.Flat-Footed]{Flat-Footed} when Climbing, and when it rolls a success on an Acrobatics check to Balance on rubble, it gets a critical success instead. @Compendium[pf2e.spell-effects.Spell Effect: Rapid Adaptation (Mountain)]{Spell Effect: Rapid Adaptation (Mountain)}</li>\n<li><strong>Plains</strong> The target gains a +10-foot status bonus to its land Speed. @Compendium[pf2e.spell-effects.Spell Effect: Rapid Adaptation (Plains)]{Spell Effect: Rapid Adaptation (Plains)}</li>\n<li><strong>Underground</strong> The target gains darkvision. @Compendium[pf2e.spell-effects.Spell Effect: Rapid Adaptation (Underground)]{Spell Effect: Rapid Adaptation (Underground)}</li>\n</ul>"
        },
        "duration": {
            "value": "1 hour"
        },
        "hasCounteractCheck": {
            "value": false
        },
        "level": {
            "value": 2
        },
        "location": {
            "value": ""
        },
        "materials": {
            "value": ""
        },
        "range": {
            "value": "touch"
        },
        "rules": [],
        "save": {
            "basic": "",
            "value": ""
        },
        "school": {
            "value": "transmutation"
        },
        "source": {
            "value": "Pathfinder Secrets of Magic"
        },
        "spellType": {
            "value": "utility"
        },
        "sustained": {
            "value": false
        },
        "target": {
            "value": "your companion or eidolon"
        },
        "time": {
            "value": "2"
        },
        "traditions": {
            "custom": "",
            "value": [
                "arcane",
                "primal"
            ]
        },
        "traits": {
            "custom": "",
            "rarity": "common",
            "value": []
        }
    },
    "flags": {},
    "img": "systems/pf2e/icons/spells/rapid-adaptation.webp",
    "name": "Rapid Adaptation",
    "type": "spell"
}
