{
    "_id": "v8VnSMzaSYwkq6c7",
    "data": {
        "ability": {
            "value": ""
        },
        "area": {
            "areaType": "",
            "value": ""
        },
        "category": {
            "value": "spell"
        },
        "components": {
            "focus": false,
            "material": false,
            "somatic": true,
            "verbal": true
        },
        "cost": {
            "value": ""
        },
        "damage": {
            "applyMod": false,
            "value": {}
        },
        "damageType": {
            "value": ""
        },
        "description": {
            "value": "<p>You unravel the magic of a spell that affects a container, door, or lock, converting it into energy you can repurpose to power your own spells.</p>\n<p>Attempt a counteract check against the target spell or magical effect that wards or seals a doorway or chest, such as <em>@Compendium[pf2e.spells-srd.Lock]{Lock}</em>, or against a spell or effect that deals damage or delivers secondary effects when it's opened, such as <em>@Compendium[pf2e.spells-srd.Glyph of Warding]{Glyph of Warding}</em>. If you succeed, you recover its energy, restoring one of your expended spell slots of 3rd level or lower.</p>\n<hr />\n<p><strong>Heightened (8th)</strong> You can restore an expended spell slot of 4th level or lower.</p>\n<p><strong>Heightened (9th)</strong> You can restore an expended spell slot of 5th level or lower.</p>\n<p><strong>Heightened (10th)</strong> You can restore an expended spell slot of 6th level or lower.</p>"
        },
        "duration": {
            "value": ""
        },
        "hasCounteractCheck": {
            "value": true
        },
        "level": {
            "value": 7
        },
        "location": {
            "value": ""
        },
        "materials": {
            "value": ""
        },
        "prepared": {
            "value": false
        },
        "range": {
            "value": "120 feet"
        },
        "rarity": {
            "value": "common"
        },
        "rules": [],
        "save": {
            "basic": "",
            "value": ""
        },
        "school": {
            "value": "abjuration"
        },
        "source": {
            "value": "Pathfinder #173: Doorway to the Red Star"
        },
        "spellCategorie": {
            "value": "spell"
        },
        "spellType": {
            "value": "utility"
        },
        "sustained": {
            "value": false
        },
        "target": {
            "value": "one magically sealed or warded doorway or chest"
        },
        "time": {
            "value": "2"
        },
        "traditions": {
            "value": [
                "arcane",
                "divine",
                "occult"
            ]
        },
        "traits": {
            "custom": "",
            "rarity": "rare",
            "value": []
        },
        "usage": {
            "value": ""
        }
    },
    "flags": {},
    "img": "systems/pf2e/icons/spells/return-to-essence.webp",
    "name": "Return To Essence",
    "type": "spell"
}
