{
    "_id": "Popa5umI3H33levx",
    "data": {
        "ability": {
            "value": ""
        },
        "area": {
            "areaType": "burst",
            "value": "15"
        },
        "areasize": {
            "value": "15-foot burst"
        },
        "category": {
            "value": "spell"
        },
        "components": {
            "focus": false,
            "material": false,
            "somatic": true,
            "verbal": true
        },
        "cost": {
            "value": ""
        },
        "damage": {
            "value": {
                "0": {
                    "applyMod": false,
                    "type": {
                        "categories": [],
                        "subtype": "",
                        "value": "cold"
                    },
                    "value": "2d4"
                }
            }
        },
        "description": {
            "value": "<p>You call down a chill wind. When you Cast this Spell, you deal 2d4 cold damage to each creature in the area (basic Reflex save). If a creature in the area critically fails its Reflex save and was standing, it also falls @Compendium[pf2e.conditionitems.Prone]{Prone}.</p>\n<p>You also create a layer of ice on all surfaces in the area, which become difficult terrain. Unattended objects in the area become slick with ice, and picking them up requires a successful Reflex save or Acrobatics check against your spell DC. The ice melts on any object that takes fire damage as well as in any square included in the area of a higher-level spell or effect with the fire trait.</p>\n<hr />\n<p><strong>Heightened (5th)</strong> The damage increases to 8d4 cold damage and the area is a 30-foot burst.</p>\n<p><strong>Heightened (8th)</strong> The damage increases to 14d4 cold damage and the area is a 60-foot burst.</p>"
        },
        "duration": {
            "value": "1 minute"
        },
        "hasCounteractCheck": {
            "value": false
        },
        "heightening": {
            "levels": {
                "5": {
                    "area": {
                        "areaType": "burst",
                        "value": "30"
                    },
                    "damage": {
                        "value": {
                            "0": {
                                "applyMod": false,
                                "type": {
                                    "categories": [],
                                    "subtype": "",
                                    "value": "cold"
                                },
                                "value": "8d4"
                            }
                        }
                    }
                },
                "8": {
                    "area": {
                        "areaType": "burst",
                        "value": "60"
                    },
                    "damage": {
                        "value": {
                            "0": {
                                "applyMod": false,
                                "type": {
                                    "categories": [],
                                    "subtype": "",
                                    "value": "cold"
                                },
                                "value": "14d4"
                            }
                        }
                    }
                }
            },
            "type": "fixed"
        },
        "level": {
            "value": 2
        },
        "location": {
            "value": ""
        },
        "materials": {
            "value": ""
        },
        "prepared": {
            "value": ""
        },
        "primarycheck": {
            "value": ""
        },
        "range": {
            "value": "60 feet"
        },
        "rules": [],
        "save": {
            "basic": "basic",
            "value": "reflex"
        },
        "school": {
            "value": "evocation"
        },
        "secondarycasters": {
            "value": ""
        },
        "secondarycheck": {
            "value": ""
        },
        "source": {
            "value": "Pathfinder #151: The Show Must Go On"
        },
        "spellType": {
            "value": "save"
        },
        "sustained": {
            "value": false
        },
        "target": {
            "value": ""
        },
        "time": {
            "value": "2"
        },
        "traditions": {
            "custom": "",
            "value": [
                "arcane",
                "primal"
            ]
        },
        "traits": {
            "custom": "",
            "rarity": "uncommon",
            "value": [
                "cold"
            ]
        }
    },
    "flags": {},
    "img": "systems/pf2e/icons/spells/rime-slick.webp",
    "name": "Rime Slick",
    "type": "spell"
}
