{
    "_id": "OsrtOeG0TvDNnEFH",
    "data": {
        "ability": {
            "value": ""
        },
        "area": {
            "areaType": "",
            "value": null
        },
        "areasize": {
            "value": ""
        },
        "category": {
            "value": "focus"
        },
        "components": {
            "material": false,
            "somatic": true,
            "verbal": true
        },
        "cost": {
            "value": ""
        },
        "damage": {
            "value": {}
        },
        "description": {
            "value": "<p>You ensure a secret remains safe from prying spies.</p>\n<p>Choose one piece of information that at least some of the targets know; you can target a creature only if it remains within range for the full minute during which you Cast the Spell.</p>\n<p>The spell grants those who know the piece of knowledge you have chosen a +4 status bonus to skill checks (typically Deception checks) to conceal this knowledge and to saving throws against spells that specifically attempt to obtain this knowledge from them and effects that would force them to reveal it.</p>\n<p>If you Cast this Spell again, any previous <em>safeguard secret</em> you had cast ends.</p>\n<p>@Compendium[pf2e.spell-effects.Spell Effect: Safeguard Secret]{Spell Effect: Safeguard Secret}</p>"
        },
        "duration": {
            "value": "1 hour"
        },
        "hasCounteractCheck": {
            "value": false
        },
        "level": {
            "value": 4
        },
        "location": {
            "value": ""
        },
        "materials": {
            "value": ""
        },
        "prepared": {
            "value": ""
        },
        "primarycheck": {
            "value": ""
        },
        "range": {
            "value": "10 feet"
        },
        "rules": [],
        "save": {
            "basic": "",
            "value": ""
        },
        "school": {
            "value": "abjuration"
        },
        "secondarycasters": {
            "value": ""
        },
        "secondarycheck": {
            "value": ""
        },
        "source": {
            "value": "Pathfinder Core Rulebook"
        },
        "spellType": {
            "value": "utility"
        },
        "sustained": {
            "value": false
        },
        "target": {
            "value": "you and any number of willing allies"
        },
        "time": {
            "value": "1 minute"
        },
        "traditions": {
            "value": []
        },
        "traits": {
            "custom": "",
            "rarity": "uncommon",
            "value": [
                "cleric",
                "mental"
            ]
        }
    },
    "flags": {},
    "img": "systems/pf2e/icons/spells/safeguard-secret.webp",
    "name": "Safeguard Secret",
    "type": "spell"
}
