{
    "_id": "9W2Qv0wXLg6tQg3y",
    "data": {
        "ability": {
            "value": ""
        },
        "area": {
            "value": ""
        },
        "areasize": {
            "value": ""
        },
        "category": {
            "value": "spell"
        },
        "components": {
            "material": false,
            "somatic": true,
            "verbal": false
        },
        "cost": {
            "value": ""
        },
        "damage": {
            "value": {}
        },
        "description": {
            "value": "<p><strong>Trigger</strong> An effect would deal physical or energy damage to you or a creature in range.</p>\n<p>A sparkling magical barrier envelops each target, shielding them against the triggering effect. Choose one type of physical or energy damage the triggering effect deals. Each target gains resistance 10 against that damage type for the triggering effect. The resistance applies only against the initial damage, not against any persistent damage or other lingering effects of the effect.</p>\n<hr />\n<p><strong>Heightened (+1)</strong> The resistance increases by 1.</p>"
        },
        "duration": {
            "value": ""
        },
        "hasCounteractCheck": {
            "value": false
        },
        "level": {
            "value": 6
        },
        "location": {
            "value": ""
        },
        "materials": {
            "value": "An effect would deal physical or energy damage to you or a creature in range."
        },
        "prepared": {
            "value": false
        },
        "primarycheck": {
            "value": ""
        },
        "range": {
            "value": "30 feet"
        },
        "rules": [],
        "save": {
            "basic": "",
            "value": ""
        },
        "school": {
            "value": "abjuration"
        },
        "secondarycasters": {
            "value": ""
        },
        "secondarycheck": {
            "value": ""
        },
        "source": {
            "value": "Pathfinder Advanced Player's Guide"
        },
        "spellType": {
            "value": "utility"
        },
        "sustained": {
            "value": false
        },
        "target": {
            "value": "up to 5 willing creatures who would be harmed by the triggering effect"
        },
        "time": {
            "value": "reaction"
        },
        "traditions": {
            "value": [
                "divine",
                "occult",
                "primal"
            ]
        },
        "traits": {
            "custom": "",
            "rarity": "common",
            "value": []
        }
    },
    "flags": {},
    "img": "systems/pf2e/icons/spells/scintillating-safeguard.webp",
    "name": "Scintillating Safeguard",
    "type": "spell"
}
