{
    "_id": "n8eEXXAtguoErW0y",
    "data": {
        "ability": {
            "value": ""
        },
        "area": {
            "value": ""
        },
        "areasize": {
            "value": "30-foot burst"
        },
        "category": {
            "value": "focus"
        },
        "components": {
            "material": false,
            "somatic": true,
            "verbal": true
        },
        "cost": {
            "value": ""
        },
        "damage": {
            "value": {
                "0": {
                    "type": {
                        "categories": [],
                        "value": "negative"
                    },
                    "value": "14d4"
                }
            }
        },
        "description": {
            "value": "<p>Grasping darkness surges from you, dealing [[/r {14d4}[negative]]]{14d4 negative damage}. Each creature in the area must attempt a Fortitude save.</p>\n<hr />\n<p><strong>Critical Success</strong> The creature is unaffected.</p>\n<p><strong>Success</strong> The creature takes half damage and is @Compendium[pf2e.conditionitems.Enfeebled]{Enfeebled 1} for 1 round.</p>\n<p><strong>Failure</strong> The creature takes full damage and is @Compendium[pf2e.conditionitems.Enfeebled]{Enfeebled 2} for 1 round.</p>\n<p><strong>Critical Failure</strong> The creature takes double damage and is @Compendium[pf2e.conditionitems.Stunned]{Stunned 1}, @Compendium[pf2e.conditionitems.Enfeebled]{Enfeebled 2} for 1 round, and @Compendium[pf2e.conditionitems.Immobilized]{Immobilized} for 1 round or until it @Compendium[pf2e.actionspf2e.Escape]{Escapes}, whichever comes first.</p>\n<hr />\n<p><strong>Heightened (+1)</strong> The negative damage increases by [[/r {2d4}[negative]]]{2d4 negative}.</p>"
        },
        "duration": {
            "value": ""
        },
        "hasCounteractCheck": {
            "value": false
        },
        "heightening": {
            "damage": {
                "0": "2d4"
            },
            "interval": 1,
            "type": "interval"
        },
        "level": {
            "value": 7
        },
        "location": {
            "value": ""
        },
        "materials": {
            "value": ""
        },
        "prepared": {
            "value": ""
        },
        "primarycheck": {
            "value": ""
        },
        "range": {
            "value": ""
        },
        "rules": [],
        "save": {
            "basic": "",
            "value": "fortitude"
        },
        "school": {
            "value": "evocation"
        },
        "secondarycasters": {
            "value": ""
        },
        "secondarycheck": {
            "value": ""
        },
        "source": {
            "value": "Pathfinder Advanced Player's Guide"
        },
        "spellType": {
            "value": "save"
        },
        "sustained": {
            "value": false
        },
        "target": {
            "value": ""
        },
        "time": {
            "value": "2"
        },
        "traditions": {
            "value": []
        },
        "traits": {
            "custom": "",
            "rarity": "uncommon",
            "value": [
                "monk"
            ]
        }
    },
    "flags": {},
    "img": "systems/pf2e/icons/spells/shadows-web.webp",
    "name": "Shadow's Web",
    "type": "spell"
}
