{
    "_id": "IGXGs9PlqUCvODcH",
    "data": {
        "ability": {
            "value": ""
        },
        "area": {
            "areaType": "",
            "value": null
        },
        "areasize": {
            "value": ""
        },
        "category": {
            "value": "focus"
        },
        "components": {
            "material": false,
            "somatic": false,
            "verbal": true
        },
        "cost": {
            "value": ""
        },
        "damage": {
            "value": {}
        },
        "description": {
            "value": "<p>You chant a dirge or an elegy that either rouses the dead to action or reminds undead that they should lay to rest.</p>\n<p>If you target dead creatures, the bodies animate and can continue acting as if they were alive. A creature animated in this way has 60 temporary Hit Points. The animated creatures are slowed 1 but can otherwise act normally. Creatures animated with this spell die again once the spell ends.</p>\n<p>If you target undead creatures, each undead must attempt a basic Will save.</p>\n<hr />\n<p><strong>Critical Success</strong> The undead takes 5d6 positive damage.</p>\n<p><strong>Success</strong> The undead takes 10d6 positive damage and is @Compendium[pf2e.conditionitems.Slowed]{Slowed 1} for 1 round.</p>\n<p><strong>Failure</strong> The undead takes 100 positive damage and is @Compendium[pf2e.conditionitems.Slowed]{Slowed 1} for 1 minute.</p>\n<p><strong>Critical Failure</strong> The undead is destroyed.</p>"
        },
        "duration": {
            "value": "sustained up to 1 minute"
        },
        "hasCounteractCheck": {
            "value": false
        },
        "level": {
            "value": 10
        },
        "location": {
            "value": ""
        },
        "materials": {
            "value": ""
        },
        "prepared": {
            "value": ""
        },
        "primarycheck": {
            "value": ""
        },
        "range": {
            "value": "30 feet"
        },
        "rules": [],
        "save": {
            "basic": "",
            "value": ""
        },
        "school": {
            "value": "necromancy"
        },
        "secondarycasters": {
            "value": ""
        },
        "secondarycheck": {
            "value": ""
        },
        "source": {
            "value": "Pathfinder #150: Broken Promises"
        },
        "spellType": {
            "value": "utility"
        },
        "sustained": {
            "value": false
        },
        "target": {
            "value": "up to 4 dead creatures or up to 4 undead creatures"
        },
        "time": {
            "value": "2"
        },
        "traditions": {
            "custom": "",
            "value": []
        },
        "traits": {
            "custom": "",
            "rarity": "uncommon",
            "value": [
                "bard",
                "composition"
            ]
        }
    },
    "flags": {},
    "img": "systems/pf2e/icons/spells/song-of-the-fallen.webp",
    "name": "Song of the Fallen",
    "type": "spell"
}
