{
    "_id": "jQdm301h6e8hIY4U",
    "data": {
        "ability": {
            "value": ""
        },
        "area": {
            "areaType": "",
            "value": ""
        },
        "areasize": {
            "value": ""
        },
        "category": {
            "value": "spell"
        },
        "components": {
            "material": false,
            "somatic": true,
            "verbal": true
        },
        "cost": {
            "value": ""
        },
        "damage": {
            "value": {
                "0": {
                    "applyMod": true,
                    "type": {
                        "categories": [],
                        "value": "force"
                    },
                    "value": "2d8"
                }
            }
        },
        "description": {
            "value": "<p>A Medium guardian made of magical force appears and attacks foes you designate within range. The spiritual guardian is translucent and appears to be holding your deity's favored weapon.</p>\n<p>When you Cast the Spell, the spiritual guardian appears in an unoccupied space next to a foe of your choice within range and makes a Strike against it. Each time you Sustain the Spell, you can move the spiritual guardian to an unoccupied space next to a target within range (if necessary) and make a Strike with it. The guardian uses and contributes to your multiple attack penalty. Alternatively, when you Sustain the Spell, you can have the guardian move adjacent to an ally and protect that ally. If you do, each time the ally would take damage, the guardian takes the first 10 damage instead of your ally. It continues to do so until you move the guardian to attack an enemy or defend a different ally, or until the guardian is destroyed (it has 50 Hit Points and can't recover Hit Points by any means). The guardian can't usually take damage except when protecting an ally, though <em>disintegrate</em> automatically destroys it if it hits the spiritual guardian's AC of 25.</p>\n<p>The guardian's Strikes are melee spell attacks. Regardless of the appearance of the guardian's weapon, the guardian deals force damage equal to 2d8 plus your spellcasting ability modifier, but you can deal damage of the type normally dealt by the weapon it holds instead of force damage. No other traits or statistics of the weapon apply, and even a ranged weapon attacks adjacent creatures only. Despite making a spell attack, the spiritual guardian's weapon is a weapon for the purposes of triggers, resistances, and so forth.</p>\n<p>The guardian takes up space and allies can use it when flanking, but it doesn't have any other attributes a creature would normally have aside from Hit Points, and creatures can move through its space without hindrance. The guardian can't make any attack other than its Strike, and feats or spells that affect weapons or enhance allies do not apply to the guardian.</p>\n<hr />\n<p><strong>Heightened (+2)</strong> The guardian's damage increases by 1d8, and its Hit Points increase by 20.</p>"
        },
        "duration": {
            "value": "sustained up to 1 minute"
        },
        "hasCounteractCheck": {
            "value": false
        },
        "heightening": {
            "damage": {
                "0": "1d8"
            },
            "interval": 1,
            "type": "interval"
        },
        "level": {
            "value": 5
        },
        "location": {
            "value": ""
        },
        "materials": {
            "value": "You have a deity."
        },
        "prepared": {
            "value": ""
        },
        "primarycheck": {
            "value": ""
        },
        "range": {
            "value": "120 feet"
        },
        "rules": [],
        "save": {
            "basic": "",
            "value": ""
        },
        "school": {
            "value": "abjuration"
        },
        "secondarycasters": {
            "value": ""
        },
        "secondarycheck": {
            "value": ""
        },
        "source": {
            "value": "Pathfinder Core Rulebook"
        },
        "spellType": {
            "value": "attack"
        },
        "sustained": {
            "value": false
        },
        "target": {
            "value": ""
        },
        "time": {
            "value": "2"
        },
        "traditions": {
            "value": [
                "divine"
            ]
        },
        "traits": {
            "custom": "",
            "rarity": "common",
            "value": [
                "force"
            ]
        }
    },
    "flags": {},
    "img": "systems/pf2e/icons/spells/spiritual-guardian.webp",
    "name": "Spiritual Guardian",
    "type": "spell"
}
