{
    "_id": "zoY0fQYTF1NzezTg",
    "data": {
        "ability": {
            "value": ""
        },
        "area": {
            "areaType": "",
            "value": ""
        },
        "areasize": {
            "value": ""
        },
        "category": {
            "value": "focus"
        },
        "components": {
            "material": false,
            "somatic": false,
            "verbal": true
        },
        "cost": {
            "value": ""
        },
        "damage": {
            "value": {}
        },
        "description": {
            "value": "<p><strong>Trigger</strong> You make a successful unarmed Strike against a flying creature.</p>\n<hr />\n<p>You deny a flying creature the support of the air.</p>\n<hr />\n<p><strong>Critical Success</strong> The creature is unaffected.</p>\n<p><strong>Success</strong> The target descends 60 feet. If it hits a surface, it takes bludgeoning damage as if it had fallen.</p>\n<p><strong>Failure</strong> As success, and if the target hits a surface, it falls prone and can't @Compendium[pf2e.actionspf2e.Fly]{Fly}, <em>@Compendium[pf2e.spells-srd.Levitate]{Levitate}</em>, or otherwise leave the ground for 1 minute.</p>\n<p><strong>Critical Failure</strong> As failure, and the creature takes double damage from hitting a surface.</p>\n<hr />\n<p><strong>Heightened (+1)</strong> Increase the distance the creature must descend by 20 feet.</p>"
        },
        "duration": {
            "value": ""
        },
        "hasCounteractCheck": {
            "value": false
        },
        "level": {
            "value": 5
        },
        "location": {
            "value": "Aq01kMb7yAj1VxPX"
        },
        "materials": {
            "value": ""
        },
        "prepared": {
            "value": ""
        },
        "primarycheck": {
            "value": ""
        },
        "range": {
            "value": ""
        },
        "rules": [],
        "save": {
            "basic": "",
            "value": "fortitude"
        },
        "school": {
            "value": "evocation"
        },
        "secondarycasters": {
            "value": ""
        },
        "secondarycheck": {
            "value": ""
        },
        "source": {
            "value": "Pathfinder #158: Sixty Feet Under"
        },
        "spellType": {
            "value": "save"
        },
        "sustained": {
            "value": false
        },
        "target": {
            "value": "the creature you hit"
        },
        "time": {
            "value": "Reaction"
        },
        "traditions": {
            "value": []
        },
        "traits": {
            "custom": "",
            "rarity": "uncommon",
            "selected": {
                "evocation": "Evocation"
            },
            "value": [
                "air"
            ]
        }
    },
    "flags": {},
    "img": "systems/pf2e/icons/spells/steal-the-sky.webp",
    "name": "Steal the Sky",
    "type": "spell"
}
