{
    "_id": "bVtkBJvGLP69qVGI",
    "data": {
        "ability": {
            "value": ""
        },
        "area": {
            "areaType": "",
            "value": null
        },
        "areasize": {
            "value": ""
        },
        "category": {
            "value": "spell"
        },
        "components": {
            "material": false,
            "somatic": true,
            "verbal": true
        },
        "cost": {
            "value": ""
        },
        "damage": {
            "value": {}
        },
        "description": {
            "value": "<p>You free those who travel alongside you from environmental hindrances. Targets don't take circumstance penalties to Speed from vegetation, rubble, winds, or other properties of the environment, whether or not the environment is magical, and they ignore difficult terrain from such environmental properties.</p>\n<hr />\n<p><strong>Heightened (9th)</strong> The targets also ignore greater difficult terrain from environmental properties.</p>"
        },
        "duration": {
            "value": "1 hour"
        },
        "hasCounteractCheck": {
            "value": false
        },
        "level": {
            "value": 7
        },
        "location": {
            "value": ""
        },
        "materials": {
            "value": ""
        },
        "prepared": {
            "value": ""
        },
        "primarycheck": {
            "value": ""
        },
        "range": {
            "value": "30 feet"
        },
        "rules": [],
        "save": {
            "basic": "",
            "value": ""
        },
        "school": {
            "value": "abjuration"
        },
        "secondarycasters": {
            "value": ""
        },
        "secondarycheck": {
            "value": ""
        },
        "source": {
            "value": "Pathfinder Core Rulebook"
        },
        "spellType": {
            "value": "utility"
        },
        "sustained": {
            "value": false
        },
        "target": {
            "value": "up to 10 creatures"
        },
        "time": {
            "value": "2"
        },
        "traditions": {
            "value": [
                "primal"
            ]
        },
        "traits": {
            "custom": "",
            "rarity": "common",
            "value": []
        }
    },
    "flags": {},
    "img": "systems/pf2e/icons/spells/unfettered-pack.webp",
    "name": "Unfettered Pack",
    "type": "spell"
}
