{
    "_id": "Q25JQAgnJSGgFDKZ",
    "data": {
        "ability": {
            "value": ""
        },
        "area": {
            "areaType": "",
            "value": null
        },
        "areasize": {
            "value": ""
        },
        "category": {
            "value": "focus"
        },
        "components": {
            "material": false,
            "somatic": false,
            "verbal": true
        },
        "cost": {
            "value": ""
        },
        "damage": {
            "value": {}
        },
        "description": {
            "value": "<p>You surround yourself in a veil of confidence. You reduce your current @Compendium[pf2e.conditionitems.Frightened]{Frightened} condition by 1, and whenever you would become Frightened during the duration, reduce the amount by 1. If you critically fail a save against fear, veil of confidence ends immediately, and you increase any Frightened condition you gain from the critical failure by 1 instead of decreasing it.</p>"
        },
        "duration": {
            "value": "1 minute"
        },
        "hasCounteractCheck": {
            "value": false
        },
        "level": {
            "value": 1
        },
        "location": {
            "value": ""
        },
        "materials": {
            "value": ""
        },
        "prepared": {
            "value": ""
        },
        "primarycheck": {
            "value": ""
        },
        "range": {
            "value": ""
        },
        "rules": [],
        "save": {
            "basic": "",
            "value": ""
        },
        "school": {
            "value": "enchantment"
        },
        "secondarycasters": {
            "value": ""
        },
        "secondarycheck": {
            "value": ""
        },
        "source": {
            "value": "Pathfinder Core Rulebook"
        },
        "spellType": {
            "value": "utility"
        },
        "sustained": {
            "value": false
        },
        "target": {
            "value": ""
        },
        "time": {
            "value": "1"
        },
        "traditions": {
            "value": []
        },
        "traits": {
            "custom": "",
            "rarity": "uncommon",
            "value": [
                "cleric",
                "mental"
            ]
        }
    },
    "flags": {},
    "img": "systems/pf2e/icons/spells/veil-of-confidence.webp",
    "name": "Veil of Confidence",
    "type": "spell"
}
