{
    "_id": "NhNKzq1DvFxkvTEc",
    "data": {
        "ability": {
            "value": ""
        },
        "area": {
            "areaType": "",
            "value": ""
        },
        "areasize": {
            "value": ""
        },
        "category": {
            "value": "focus"
        },
        "components": {
            "focus": false,
            "material": false,
            "somatic": true,
            "verbal": false
        },
        "cost": {
            "value": ""
        },
        "damage": {
            "value": {}
        },
        "description": {
            "value": "<p>You focus your gaze on a creature and gain a flash of divine insight into its nature. If the creature has any weaknesses, you learn them, as well as which of its three saving throw modifiers is lowest.</p>\n<p>You also learn an inherent understanding of its movements and gain a +2 status bonus to your next attack roll (or skill check made as part of an attack action) against that foe before the end of your turn.</p>\n<p>The target is then temporarily immune to <em>Vision of Weakness</em> for 1 day.</p>\n<p>@Compendium[pf2e.spell-effects.Spell Effect: Vision of Weakness]{Spell Effect: Vision of Weakness}</p>"
        },
        "duration": {
            "value": ""
        },
        "hasCounteractCheck": {
            "value": false
        },
        "level": {
            "value": 2
        },
        "location": {
            "value": ""
        },
        "materials": {
            "value": ""
        },
        "prepared": {
            "value": ""
        },
        "primarycheck": {
            "value": ""
        },
        "range": {
            "value": ""
        },
        "rules": [],
        "save": {
            "basic": "",
            "value": ""
        },
        "school": {
            "value": "divination"
        },
        "secondarycasters": {
            "value": ""
        },
        "secondarycheck": {
            "value": ""
        },
        "source": {
            "value": "Pathfinder Advanced Player's Guide"
        },
        "spellType": {
            "value": "utility"
        },
        "sustained": {
            "value": false
        },
        "target": {
            "value": "1 creature"
        },
        "time": {
            "value": "1"
        },
        "traditions": {
            "custom": "",
            "value": []
        },
        "traits": {
            "custom": "",
            "rarity": "uncommon",
            "value": [
                "cursebound",
                "oracle"
            ]
        }
    },
    "flags": {},
    "img": "systems/pf2e/icons/spells/vision-of-weakness.webp",
    "name": "Vision of Weakness",
    "type": "spell"
}
