{
    "_id": "SAbzItAI4uwbdnQk",
    "data": {
        "actionCategory": {
            "value": ""
        },
        "actionType": {
            "value": "passive"
        },
        "actions": {
            "value": null
        },
        "description": {
            "value": "<p><strong>Necril:</strong> You know the Necril language.</p>\n<p><strong>Undead Vision:</strong> You gain low-light vision, or you gain darkvision if your ancestry already has low-light vision.</p>\n<p><strong>Negative Healing:</strong> You are damaged by positive damage and aren't healed by positive healing effects. You don't take negative damage and are healed by negative effects that heal undead.</p>\n<p><strong>Negative Survival:</strong> Unlike normal undead, you aren't destroyed when reduced to 0 Hit Points. Instead, powerful negative energy attempts to keep you from being destroyed even in dire straits. You are knocked out and begin dying when reduced to 0 Hit Points. Because you're undead, many methods of bringing someone back from dying, such as stabilize, don't benefit you. When you would die, you're destroyed rather than dead, just like other undead.</p>\n<p><strong>Immunity to Death Effects:</strong> You're immune to death effects. This keeps you from being automatically killed or from having your dying value automatically increase, but it doesn't make you immune to other parts of the spell or effect. For example, you can still take mental damage and become frightened by a phantasmal killer, you just don't instantly die from it.</p>\n<p><strong>Disease and Poison Protection:</strong> You gain a +1 circumstance bonus to saving throws (or any other defense) against disease and poison.</p>\n<p><strong>Undead Hunger:</strong> While you don't eat or drink the same food as humanoids do, you usually have thirsts and hungers related to your undead state, such as a ghoul's hunger for humanoid flesh, a zombie's craving for brains, and a vampire's desire for blood. Additionally, while you don't sleep, you enter a state of quiescence for at least 4 hours a day to recuperate, which lets your undead flesh reknit and recover naturally. Many undead choose to rest when the sun is at its highest.</p>"
        },
        "featType": {
            "value": "ancestryfeature"
        },
        "level": {
            "value": 0
        },
        "location": null,
        "prerequisites": {
            "value": []
        },
        "rules": [
            {
                "key": "Sense",
                "label": "PF2E.SensesLowLightVision",
                "selector": "lowLightVision"
            },
            {
                "key": "Sense",
                "label": "PF2E.SensesDarkvision",
                "predicate": {
                    "all": [
                        "self:low-light-vision:from-ancestry"
                    ]
                },
                "selector": "darkvision"
            },
            {
                "key": "ActiveEffectLike",
                "mode": "add",
                "path": "data.traits.languages.value",
                "value": "necril"
            },
            {
                "key": "FlatModifier",
                "predicate": {
                    "any": [
                        "disease",
                        "poison"
                    ]
                },
                "selector": "saving-throw",
                "type": "circumstance",
                "value": 1
            },
            {
                "key": "Immunity",
                "type": "death-effects"
            }
        ],
        "source": {
            "value": "Pathfinder Book of the Dead"
        },
        "traits": {
            "custom": "",
            "rarity": "common",
            "value": []
        }
    },
    "flags": {},
    "img": "systems/pf2e/icons/default-icons/feat.svg",
    "name": "Basic Undead Benefits",
    "type": "feat"
}
