{
    "_id": "bHUrm79wJCcI7L3A",
    "data": {
        "actionCategory": {
            "value": ""
        },
        "actionType": {
            "value": "passive"
        },
        "actions": {
            "value": null
        },
        "description": {
            "value": "<p>If exposed to direct sunlight, you immediately become @Compendium[pf2e.conditionitems.Slowed]{Slowed 1}. The slowed value increases by 1 each time you end your turn in sunlight. If you lose all your actions in this way, you are destroyed. Due to your supernatural aversion to light, you don't cast shadows or show a reflection in mirrors.</p>"
        },
        "featType": {
            "value": "ancestryfeature"
        },
        "level": {
            "value": 0
        },
        "location": null,
        "prerequisites": {
            "value": []
        },
        "rules": [],
        "source": {
            "value": "Pathfinder Book of the Dead"
        },
        "traits": {
            "custom": "",
            "rarity": "common",
            "value": []
        }
    },
    "flags": {},
    "img": "systems/pf2e/icons/default-icons/feat.svg",
    "name": "Sunlight",
    "type": "feat"
}
