{
    "_id": "BgHrucbZ9TH92RDv",
    "data": {
        "actionCategory": {
            "value": "interaction"
        },
        "actionType": {
            "value": "passive"
        },
        "actions": {
            "value": null
        },
        "description": {
            "value": "<p>A conrasu can enter a meditative, healing state as a 10-minute activity when exposed to direct sunlight, in which case they recover 1d8 Hit Points. At 3rd level, and every 2 levels thereafter, this healing increases by 1d8. [[/r ceil(@actor.level/2))d8[healing]]]{Levelled healing}</p>\n<p>Once a conrasu has recovered Hit Points in this way, they are temporarily immune to further uses of Sunlight Healing for 1 day.</p>"
        },
        "featType": {
            "value": "ancestryfeature"
        },
        "level": {
            "value": 0
        },
        "location": null,
        "prerequisites": {
            "value": []
        },
        "rules": [],
        "source": {
            "value": ""
        },
        "traits": {
            "custom": "",
            "rarity": "common",
            "value": [
                "conrasu"
            ]
        }
    },
    "flags": {},
    "img": "systems/pf2e/icons/default-icons/feat.svg",
    "name": "Sunlight Healing",
    "type": "feat"
}
