{
    "_id": "xyOxzfIUTrN5c8ex",
    "data": {
        "attributes": {
            "ac": {
                "value": 10
            },
            "hardness": 0,
            "hp": {
                "details": "",
                "max": 10,
                "temp": 0,
                "value": 10
            },
            "stealth": {
                "details": "<p>(master) to notice your vision tint red</p>",
                "value": 22
            }
        },
        "creatureType": "",
        "details": {
            "description": "<p>A wailing spirit appears and gouges their own eyes. As they do, blood seeps from the eyes of those who witness the act, obscuring their vision.</p>",
            "disable": "<p>@Check[type:diplomacy|dc:30|name:Talk to the spirit] (master) to talk the spirit out of gouging its eyes or @Check[type:religion|dc:32|name:Ease the spirit's sorrows] (trained) to ease the spirit's sorrows</p>",
            "isComplex": false,
            "level": {
                "value": 10
            },
            "reset": "<p>1 day</p>",
            "routine": ""
        },
        "saves": {
            "fortitude": {
                "saveDetail": "",
                "value": 0
            },
            "reflex": {
                "saveDetail": "",
                "value": 0
            },
            "will": {
                "saveDetail": "",
                "value": 0
            }
        },
        "source": {
            "value": "Pathfinder Book of the Dead"
        },
        "statusEffects": [],
        "traits": {
            "di": {
                "custom": "",
                "selected": {},
                "value": []
            },
            "dr": [],
            "dv": [],
            "rarity": "common",
            "size": {
                "value": "med"
            },
            "traits": {
                "custom": "",
                "value": [
                    "haunt"
                ]
            }
        }
    },
    "flags": {},
    "img": "systems/pf2e/icons/default-icons/hazard.svg",
    "items": [
        {
            "_id": "81Htx72275BlwBKF",
            "data": {
                "actionCategory": {
                    "value": "offensive"
                },
                "actionType": {
                    "value": "reaction"
                },
                "actions": {
                    "value": null
                },
                "deathNote": false,
                "description": {
                    "value": "<p><strong>Trigger</strong> A creature approaches within 15 feet</p>\n<hr />\n<p><strong>Effect</strong> Blood seeps from the eyes of all creatures within @Template[type:emanation|distance:30]{30 feet}, dealing persistent bleed damage. Each creature in the area must attempt a @Check[type:fortitude|dc:33] save.</p>\n<hr />\n<p><strong>Critical Success</strong> The creature is unaffected.</p>\n<p><strong>Success</strong> The creature takes [[/r {2d8+3}[persistent,bleed]]]{2d8+3} @Compendium[pf2e.conditionitems.Persistent Damage]{Persistent Bleed Damage} and is @Compendium[pf2e.conditionitems.Dazzled]{Dazzled} for 1 round.</p>\n<p><strong>Failure</strong> The creature takes [[/r {4d8+6}[persistent,bleed]]]{4d8+6} @Compendium[pf2e.conditionitems.Persistent Damage]{Persistent Bleed Damage} and is dazzled for as long as the persistent damage lasts.</p>\n<p><strong>Critical Failure</strong> The creature takes [[/r {8d8+12}[persistent,bleed]]]{8d8+12} @Compendium[pf2e.conditionitems.Persistent Damage]{Persistent Bleed Damage} and is @Compendium[pf2e.conditionitems.Blinded]{Blinded} for as long as the persistent damage lasts.</p>"
                },
                "requirements": {
                    "value": ""
                },
                "rules": [],
                "slug": null,
                "source": {
                    "value": ""
                },
                "traits": {
                    "custom": "",
                    "rarity": "common",
                    "value": [
                        "divine",
                        "necromancy"
                    ]
                },
                "trigger": {
                    "value": ""
                }
            },
            "flags": {},
            "img": "systems/pf2e/icons/actions/Reaction.webp",
            "name": "Weep Blood",
            "sort": 0,
            "type": "action"
        }
    ],
    "name": "Blood Tears",
    "token": {
        "disposition": 0,
        "height": 1,
        "img": "systems/pf2e/icons/default-icons/hazard.svg",
        "name": "1",
        "width": 1
    },
    "type": "hazard"
}
