{
    "_id": "Tjgk2iMSjSbUnuXO",
    "data": {
        "attributes": {
            "ac": {
                "value": 10
            },
            "hardness": 0,
            "hp": {
                "details": "",
                "max": 10,
                "temp": 0,
                "value": 10
            },
            "stealth": {
                "details": "<p><span class=\"fontstyle0\">(trained)</span></p>",
                "value": 7
            }
        },
        "creatureType": "",
        "details": {
            "description": "<p>The temperature suddenly drops as spectral forces gather in the area.</p>",
            "disable": "<p>@Check[type:religion|dc:19|name:Banish the Cold Spot] (trained) to banish the cold spot with ritual prayers or @Check[type:occultism|dc:20|name:Foil the Arrival of Outside Forces] (trained) to foil the arrival of outside forces</p>",
            "isComplex": false,
            "level": {
                "value": 1
            },
            "reset": "<p>1 hour</p>",
            "routine": ""
        },
        "saves": {
            "fortitude": {
                "saveDetail": "",
                "value": 0
            },
            "reflex": {
                "saveDetail": "",
                "value": 0
            },
            "will": {
                "saveDetail": "",
                "value": 0
            }
        },
        "source": {
            "value": "Pathfinder Book of the Dead"
        },
        "statusEffects": [],
        "traits": {
            "di": {
                "custom": "",
                "selected": {},
                "value": []
            },
            "dr": [],
            "dv": [],
            "rarity": "common",
            "size": {
                "value": "med"
            },
            "traits": {
                "custom": "",
                "value": [
                    "haunt"
                ]
            }
        }
    },
    "flags": {},
    "img": "systems/pf2e/icons/default-icons/hazard.svg",
    "items": [
        {
            "_id": "Xoqie6AhgsKZ7wJ3",
            "data": {
                "actionCategory": {
                    "value": "offensive"
                },
                "actionType": {
                    "value": "reaction"
                },
                "actions": {
                    "value": null
                },
                "deathNote": false,
                "description": {
                    "value": "<p><strong>Trigger</strong> A living creature enters the area</p>\n<p><strong>Effect</strong> The temperature drops as @Compendium[pf2e.conditionitems.Invisible]{Invisible} spirits gather around the living. Living creatures within 15 feet take [[/r {2d4+5}[cold]]]{2d4+5 cold damage} (@Check[type:fortitude|dc:17|basic:true]). Creatures that critically fail their save are additionally @Compendium[pf2e.conditionitems.Clumsy]{Clumsy 1}.</p>"
                },
                "requirements": {
                    "value": ""
                },
                "rules": [],
                "slug": null,
                "source": {
                    "value": ""
                },
                "traits": {
                    "custom": "",
                    "rarity": "common",
                    "value": [
                        "cold",
                        "evocation",
                        "occult"
                    ]
                },
                "trigger": {
                    "value": ""
                }
            },
            "flags": {},
            "img": "systems/pf2e/icons/actions/Reaction.webp",
            "name": "Sudden Chill",
            "sort": 0,
            "type": "action"
        }
    ],
    "name": "Cold Spot",
    "token": {
        "disposition": 0,
        "height": 1,
        "img": "systems/pf2e/icons/default-icons/hazard.svg",
        "name": "Cold Spot",
        "width": 1
    },
    "type": "hazard"
}
