{
    "_id": "VQqdG5PKdCFHXquy",
    "data": {
        "attributes": {
            "ac": {
                "value": 10
            },
            "hardness": 0,
            "hp": {
                "details": "",
                "max": 10,
                "temp": 0,
                "value": 10
            },
            "stealth": {
                "details": "<p>(trained) to feel breath upon your neck</p>",
                "value": 6
            }
        },
        "creatureType": "",
        "details": {
            "description": "<p>Angry spirits breathe down the necks of intruders and whisper haunting threats or messages in their ears.</p>",
            "disable": "<p>@Check[type:religion|dc:15|name:Ward Yourself From Evil] (trained) to ward yourself from evil or @Check[type:performance|dc:16|name:Drown Out the Spirits' Voices] to drown out the spirits' voices</p>",
            "isComplex": false,
            "level": {
                "value": 0
            },
            "reset": "",
            "routine": ""
        },
        "saves": {
            "fortitude": {
                "saveDetail": "",
                "value": 0
            },
            "reflex": {
                "saveDetail": "",
                "value": 0
            },
            "will": {
                "saveDetail": "",
                "value": 0
            }
        },
        "source": {
            "value": "Pathfinder Book of the Dead"
        },
        "statusEffects": [],
        "traits": {
            "di": {
                "custom": "",
                "selected": {},
                "value": []
            },
            "dr": [],
            "dv": [],
            "rarity": "common",
            "size": {
                "value": "med"
            },
            "traits": {
                "custom": "",
                "value": [
                    "haunt"
                ]
            }
        }
    },
    "flags": {},
    "img": "systems/pf2e/icons/default-icons/hazard.svg",
    "items": [
        {
            "_id": "Dj9dMn2OXHtfdyMz",
            "data": {
                "actionCategory": {
                    "value": "offensive"
                },
                "actionType": {
                    "value": "reaction"
                },
                "actions": {
                    "value": null
                },
                "deathNote": false,
                "description": {
                    "value": "<p><strong>Trigger</strong> A creature enters the haunt's area</p>\n<p><strong>Effect</strong> The haunt deals [[/r {1d6+4}[mental]]]{1d6+4 mental damage} to creatures in the area (@Check[type:will|dc:19|basic:true]). On a failure, the creature is also @Compendium[pf2e.conditionitems.Frightened]{Frightened 1}.</p>"
                },
                "requirements": {
                    "value": ""
                },
                "rules": [],
                "slug": null,
                "source": {
                    "value": ""
                },
                "traits": {
                    "custom": "",
                    "rarity": "common",
                    "value": [
                        "auditory",
                        "emotion",
                        "enchantment",
                        "mental",
                        "occult"
                    ]
                },
                "trigger": {
                    "value": ""
                }
            },
            "flags": {},
            "img": "systems/pf2e/icons/actions/Reaction.webp",
            "name": "Whisper",
            "sort": 0,
            "type": "action"
        }
    ],
    "name": "Disembodied Voices",
    "token": {
        "disposition": 0,
        "height": 1,
        "img": "systems/pf2e/icons/default-icons/hazard.svg",
        "name": "Disembodied Voices",
        "width": 1
    },
    "type": "hazard"
}
