{
    "_id": "KhHVStbsPSuPElFI",
    "data": {
        "abilities": {
            "cha": {
                "mod": 0
            },
            "con": {
                "mod": 4
            },
            "dex": {
                "mod": 5
            },
            "int": {
                "mod": -3
            },
            "str": {
                "mod": 4
            },
            "wis": {
                "mod": 1
            }
        },
        "attributes": {
            "ac": {
                "details": "",
                "value": 24
            },
            "allSaves": {
                "value": ""
            },
            "hp": {
                "details": "negative healing",
                "max": 160,
                "temp": 0,
                "value": 160
            },
            "initiative": {
                "ability": "perception"
            },
            "perception": {
                "value": 18
            },
            "speed": {
                "otherSpeeds": [],
                "special": "",
                "value": "35"
            }
        },
        "details": {
            "alignment": {
                "value": "NE"
            },
            "blurb": "",
            "creatureType": "",
            "level": {
                "value": 7
            },
            "privateNotes": "",
            "publicNotes": "<p>These hideous undead creatures result from an exquisitely painful necromantic process where flayed humanoids are animated through their exposed blood vessels. Cults of undeath typically punish apostates and renegades with this cruel method of reanimation, though sacrificial victims or unfortunate prisoners might suffer a similar fate. Excorions have supernaturally strong, pulsing veins that extend outward from their bodies like thousands of tiny, bloody cilia.</p>\n<p>Excorions move their bulks not with their dead muscles but with heaving contractions of their blood vessels, which pull them along in a swift but jerky manner. Excorions can shift their magical blood easily throughout their bodies, allowing them to squirt blood from their gaping, skinless mouths or to messily mark their foes.</p>\n<p>Most excorions are so broken by the process of their creation that they retain few memories of their past lives or identities. This is, typically, a minor blessing in their cursed tale, protecting the excorion's former friends and family from truly realizing their horrific fate.</p>",
            "source": {
                "value": "Pathfinder Book of the Dead"
            }
        },
        "resources": {},
        "saves": {
            "fortitude": {
                "saveDetail": "",
                "value": 17
            },
            "reflex": {
                "saveDetail": "",
                "value": 18
            },
            "will": {
                "saveDetail": "",
                "value": 14
            }
        },
        "traits": {
            "ci": [],
            "di": {
                "custom": "",
                "value": [
                    "death-effects",
                    "disease",
                    "mental",
                    "paralyzed",
                    "poison",
                    "unconscious"
                ]
            },
            "dr": [],
            "dv": [
                {
                    "exceptions": "",
                    "type": "positive",
                    "value": 10
                },
                {
                    "exceptions": "",
                    "type": "slashing",
                    "value": 5
                }
            ],
            "languages": {
                "custom": "",
                "selected": [],
                "value": []
            },
            "rarity": "uncommon",
            "senses": {
                "value": "darkvision"
            },
            "size": {
                "value": "med"
            },
            "traits": {
                "custom": "",
                "value": [
                    "undead"
                ]
            }
        }
    },
    "flags": {},
    "img": "systems/pf2e/icons/default-icons/npc.svg",
    "items": [
        {
            "_id": "yl83ga21pc0ii43n",
            "data": {
                "attack": {
                    "value": ""
                },
                "attackEffects": {
                    "custom": "",
                    "value": [
                        "grab"
                    ]
                },
                "bonus": {
                    "value": 18
                },
                "damageRolls": {
                    "iPIIkXX1K18ILyfV": {
                        "damage": "2d8+8",
                        "damageType": "bludgeoning"
                    }
                },
                "description": {
                    "value": ""
                },
                "rules": [],
                "slug": null,
                "source": {
                    "value": ""
                },
                "traits": {
                    "custom": "",
                    "rarity": "common",
                    "value": [
                        "agile",
                        "finesse"
                    ]
                },
                "weaponType": {
                    "value": "melee"
                }
            },
            "flags": {},
            "img": "systems/pf2e/icons/default-icons/melee.svg",
            "name": "Fist",
            "sort": 100000,
            "type": "melee"
        },
        {
            "_id": "supp5wizpe79eqi9",
            "data": {
                "attack": {
                    "value": ""
                },
                "attackEffects": {
                    "custom": "",
                    "value": []
                },
                "bonus": {
                    "value": 18
                },
                "damageRolls": {
                    "nu3OJ73aDomKLoAK": {
                        "damage": "3d6+4",
                        "damageType": "bludgeoning"
                    }
                },
                "description": {
                    "value": "<p>Target is @Compendium[pf2e.conditionitems.Dazzled]{Dazzled} for 1 round.</p>"
                },
                "rules": [],
                "slug": null,
                "source": {
                    "value": ""
                },
                "traits": {
                    "custom": "",
                    "rarity": "common",
                    "value": [
                        "range-increment-20"
                    ]
                },
                "weaponType": {
                    "value": "ranged"
                }
            },
            "flags": {},
            "img": "systems/pf2e/icons/default-icons/melee.svg",
            "name": "Bloody Spew",
            "sort": 200000,
            "type": "melee"
        },
        {
            "_id": "UwqJzuhMBvtDiE1L",
            "data": {
                "actionCategory": {
                    "value": "interaction"
                },
                "actionType": {
                    "value": "passive"
                },
                "actions": {
                    "value": null
                },
                "deathNote": false,
                "description": {
                    "value": "<p>@Localize[PF2E.NPC.Abilities.Glossary.Darkvision]</p>"
                },
                "requirements": {
                    "value": ""
                },
                "rules": [],
                "slug": "darkvision",
                "source": {
                    "value": ""
                },
                "traits": {
                    "custom": "",
                    "rarity": "common",
                    "value": []
                },
                "trigger": {
                    "value": ""
                },
                "weapon": {
                    "value": ""
                }
            },
            "flags": {
                "core": {
                    "sourceId": "Compendium.pf2e.bestiary-ability-glossary-srd.qCCLZhnp2HhP3Ex6"
                }
            },
            "img": "systems/pf2e/icons/actions/Passive.webp",
            "name": "Darkvision",
            "sort": 300000,
            "type": "action"
        },
        {
            "_id": "ibAx8T7dlGLGUNfN",
            "data": {
                "actionCategory": {
                    "value": "defensive"
                },
                "actionType": {
                    "value": "passive"
                },
                "actions": {
                    "value": null
                },
                "deathNote": false,
                "description": {
                    "value": "<p>@Localize[PF2E.NPC.Abilities.Glossary.NegativeHealing]</p>"
                },
                "requirements": {
                    "value": ""
                },
                "rules": [
                    {
                        "key": "ActiveEffectLike",
                        "mode": "override",
                        "path": "data.attributes.hp.negativeHealing",
                        "value": true
                    }
                ],
                "slug": "negative-healing",
                "source": {
                    "value": ""
                },
                "traits": {
                    "custom": "",
                    "rarity": "common",
                    "value": []
                },
                "trigger": {
                    "value": ""
                },
                "weapon": {
                    "value": ""
                }
            },
            "flags": {
                "core": {
                    "sourceId": "Compendium.pf2e.bestiary-ability-glossary-srd.TTCw5NusiSSkJU1x"
                }
            },
            "img": "systems/pf2e/icons/actions/Passive.webp",
            "name": "Negative Healing",
            "sort": 400000,
            "type": "action"
        },
        {
            "_id": "47dj3m4gnycp9ovy",
            "data": {
                "actionCategory": {
                    "value": "defensive"
                },
                "actionType": {
                    "value": "passive"
                },
                "actions": {
                    "value": null
                },
                "deathNote": false,
                "description": {
                    "value": "<p>The excorion moves about by way of hundreds of pulsating blood vessels, which stretch from its body in dozens of tight, ropy bundles and anchor it to the ground. An excorion can't be @Compendium[pf2e.actionspf2e.Trip]{Tripped}, @Compendium[pf2e.actionspf2e.Shove]{Shoved}, or otherwise forcibly moved except by magic, and the excorion ignores difficult terrain (but not greater difficult terrain).</p>"
                },
                "requirements": {
                    "value": ""
                },
                "rules": [],
                "slug": null,
                "source": {
                    "value": ""
                },
                "traits": {
                    "custom": "",
                    "rarity": "common",
                    "value": []
                },
                "trigger": {
                    "value": ""
                }
            },
            "flags": {},
            "img": "systems/pf2e/icons/actions/Passive.webp",
            "name": "Vein Walker",
            "sort": 500000,
            "type": "action"
        },
        {
            "_id": "bpw486wu7j66tqyz",
            "data": {
                "actionCategory": {
                    "value": "offensive"
                },
                "actionType": {
                    "value": "action"
                },
                "actions": {
                    "value": 1
                },
                "deathNote": false,
                "description": {
                    "value": "<p>The excorion plants a magical handprint on the target, marking them as chosen for death. The excorion makes a fist Strike against an adjacent creature; this doesn't count toward the excorion's multiple attack penalty. On a hit, the attack does no damage, but the creature becomes observed to every excorion within 60 feet, even if an excorion's line of sight would be blocked by a wall or other obstacle. This effect lasts until the handprint is washed off, which requires water and spending 3 actions to fully clean off.</p>"
                },
                "requirements": {
                    "value": ""
                },
                "rules": [],
                "slug": null,
                "source": {
                    "value": ""
                },
                "traits": {
                    "custom": "",
                    "rarity": "common",
                    "value": []
                },
                "trigger": {
                    "value": ""
                }
            },
            "flags": {},
            "img": "systems/pf2e/icons/actions/OneAction.webp",
            "name": "Bloody Handprint",
            "sort": 600000,
            "type": "action"
        },
        {
            "_id": "2xvk1ovgd1lsv1ze",
            "data": {
                "actionCategory": {
                    "value": "offensive"
                },
                "actionType": {
                    "value": "action"
                },
                "actions": {
                    "value": 2
                },
                "deathNote": false,
                "description": {
                    "value": "<p><strong>Requirements</strong> The excorion has at least 70 Hit Points;</p>\n<hr />\n<p><strong>Effect</strong> The excorion sacrifices itself and transfers its bloody, vital energy to a willing living creature within 30 feet. The excorion is immediately destroyed, and the targeted living creature heals a number of HP equal to half the excorion's remaining HP at the time that it used this ability. The living creature is @Compendium[pf2e.conditionitems.Slowed]{Slowed 1} during its next turn as its body adjusts to the newly transfused blood and vital energy; the living creature also counts as an excorion for 1 minute for the purpose of seeing other excorions' Bloody Handprint marks.</p>"
                },
                "requirements": {
                    "value": ""
                },
                "rules": [],
                "slug": null,
                "source": {
                    "value": ""
                },
                "traits": {
                    "custom": "",
                    "rarity": "common",
                    "value": []
                },
                "trigger": {
                    "value": ""
                }
            },
            "flags": {},
            "img": "systems/pf2e/icons/actions/TwoActions.webp",
            "name": "Vital Transfusion",
            "sort": 700000,
            "type": "action"
        },
        {
            "_id": "9cot9pecrjfwekp6",
            "data": {
                "actionCategory": {
                    "value": "offensive"
                },
                "actionType": {
                    "value": "action"
                },
                "actions": {
                    "value": 1
                },
                "deathNote": false,
                "description": {
                    "value": "<p>The excorion spews necrotic blood all over a foe it has @Compendium[pf2e.conditionitems.Grabbed]{Grabbed} or @Compendium[pf2e.conditionitems.Restrained]{Restrained}. The grabbed creature must succeed at a @Check[type:fortitude|dc:25] save or become @Compendium[pf2e.conditionitems.Sickened]{Sickened 2}.</p>"
                },
                "requirements": {
                    "value": ""
                },
                "rules": [],
                "slug": null,
                "source": {
                    "value": ""
                },
                "traits": {
                    "custom": "",
                    "rarity": "common",
                    "value": []
                },
                "trigger": {
                    "value": ""
                }
            },
            "flags": {},
            "img": "systems/pf2e/icons/actions/OneAction.webp",
            "name": "Vomit Blood",
            "sort": 800000,
            "type": "action"
        },
        {
            "_id": "3BLhMeYajV3Rxi3L",
            "data": {
                "actionCategory": {
                    "value": "offensive"
                },
                "actionType": {
                    "value": "action"
                },
                "actions": {
                    "value": 1
                },
                "deathNote": false,
                "description": {
                    "value": "<p>@Localize[PF2E.NPC.Abilities.Glossary.Grab]</p>"
                },
                "requirements": {
                    "value": ""
                },
                "rules": [],
                "slug": "grab",
                "source": {
                    "value": ""
                },
                "traits": {
                    "custom": "",
                    "rarity": "common",
                    "value": []
                },
                "trigger": {
                    "value": ""
                },
                "weapon": {
                    "value": ""
                }
            },
            "flags": {
                "core": {
                    "sourceId": "Compendium.pf2e.bestiary-ability-glossary-srd.Tkd8sH4pwFIPzqTr"
                }
            },
            "img": "systems/pf2e/icons/actions/OneAction.webp",
            "name": "Grab",
            "sort": 900000,
            "type": "action"
        },
        {
            "_id": "uw45swk8ys98c21u",
            "data": {
                "description": {
                    "value": ""
                },
                "mod": {
                    "value": 16
                },
                "proficient": {
                    "value": 0
                },
                "rules": [],
                "slug": null,
                "source": {
                    "value": ""
                },
                "traits": {
                    "custom": "",
                    "rarity": "common",
                    "value": []
                }
            },
            "flags": {},
            "img": "systems/pf2e/icons/default-icons/lore.svg",
            "name": "Acrobatics",
            "sort": 1000000,
            "type": "lore"
        },
        {
            "_id": "5vdmdd5zb5xyaiou",
            "data": {
                "description": {
                    "value": ""
                },
                "mod": {
                    "value": 17
                },
                "proficient": {
                    "value": 0
                },
                "rules": [],
                "slug": null,
                "source": {
                    "value": ""
                },
                "traits": {
                    "custom": "",
                    "rarity": "common",
                    "value": []
                }
            },
            "flags": {},
            "img": "systems/pf2e/icons/default-icons/lore.svg",
            "name": "Athletics",
            "sort": 1100000,
            "type": "lore"
        },
        {
            "_id": "mrx2e7wvsplq2tjj",
            "data": {
                "description": {
                    "value": ""
                },
                "mod": {
                    "value": 16
                },
                "proficient": {
                    "value": 0
                },
                "rules": [],
                "slug": null,
                "source": {
                    "value": ""
                },
                "traits": {
                    "custom": "",
                    "rarity": "common",
                    "value": []
                }
            },
            "flags": {},
            "img": "systems/pf2e/icons/default-icons/lore.svg",
            "name": "Stealth",
            "sort": 1200000,
            "type": "lore"
        }
    ],
    "name": "Excorion",
    "token": {
        "disposition": -1,
        "height": 1,
        "img": "systems/pf2e/icons/default-icons/npc.svg",
        "name": "Excorion",
        "width": 1
    },
    "type": "npc"
}
