{
    "_id": "XuHQXwAGBdS1s2Kq",
    "data": {
        "attributes": {
            "ac": {
                "value": 10
            },
            "hardness": 0,
            "hp": {
                "details": "",
                "max": 10,
                "temp": 0,
                "value": 10
            },
            "stealth": {
                "details": "<p>(expert) to hear phantom tones</p>",
                "value": 18
            }
        },
        "creatureType": "",
        "details": {
            "description": "<p>A spirit musician rises out of an instrument and plays a frantic, bone-shaking melody.</p>",
            "disable": "<p>@Check[type:performance|dc:26|name:Bring the music to a close|traits:action:perform] (trained) to bring the spirit's music to a close or @Check[type:occultism|dc:28|name:Banish the spirit] check (expert) to banish the spirit</p>",
            "isComplex": false,
            "level": {
                "value": 8
            },
            "reset": "<p>1 hour</p>",
            "routine": ""
        },
        "saves": {
            "fortitude": {
                "saveDetail": "",
                "value": 0
            },
            "reflex": {
                "saveDetail": "",
                "value": 0
            },
            "will": {
                "saveDetail": "",
                "value": 0
            }
        },
        "source": {
            "value": "Pathfinder Book of the Dead"
        },
        "statusEffects": [],
        "traits": {
            "di": {
                "custom": "",
                "selected": {},
                "value": []
            },
            "dr": [],
            "dv": [],
            "rarity": "common",
            "size": {
                "value": "med"
            },
            "traits": {
                "custom": "",
                "value": [
                    "haunt"
                ]
            }
        }
    },
    "flags": {},
    "img": "systems/pf2e/icons/default-icons/hazard.svg",
    "items": [
        {
            "_id": "R7D68innrOxLHJAm",
            "data": {
                "actionCategory": {
                    "value": "offensive"
                },
                "actionType": {
                    "value": "reaction"
                },
                "actions": {
                    "value": null
                },
                "deathNote": false,
                "description": {
                    "value": "<p><strong>Trigger</strong> A creature touches the instrument</p>\n<hr />\n<p><strong>Effect</strong> The musician's bone-shaking musical performance deals [[/r {4d10+22}[sonic]]]{4d10+22 sonic damage} to creatures within @Template[type:emanation|distance:30]{30 feet} (@Check[type:will|dc:30|basic:true]).</p>"
                },
                "requirements": {
                    "value": ""
                },
                "rules": [],
                "slug": null,
                "source": {
                    "value": ""
                },
                "traits": {
                    "custom": "",
                    "rarity": "common",
                    "value": [
                        "auditory",
                        "evocation",
                        "occult",
                        "sonic"
                    ]
                },
                "trigger": {
                    "value": ""
                }
            },
            "flags": {},
            "img": "systems/pf2e/icons/actions/Reaction.webp",
            "name": "Musical Assault",
            "sort": 0,
            "type": "action"
        }
    ],
    "name": "Frenetic Musician",
    "token": {
        "disposition": 0,
        "height": 1,
        "img": "systems/pf2e/icons/default-icons/hazard.svg",
        "name": "Frenetic Musician",
        "width": 1
    },
    "type": "hazard"
}
