{
    "_id": "ZqZlji7aCGCGATMP",
    "data": {
        "abilities": {
            "cha": {
                "mod": -2
            },
            "con": {
                "mod": 2
            },
            "dex": {
                "mod": 1
            },
            "int": {
                "mod": -5
            },
            "str": {
                "mod": 3
            },
            "wis": {
                "mod": 0
            }
        },
        "attributes": {
            "ac": {
                "details": "",
                "value": 13
            },
            "allSaves": {
                "value": ""
            },
            "hp": {
                "details": "negative healing",
                "max": 35,
                "temp": 0,
                "value": 35
            },
            "initiative": {
                "ability": "perception"
            },
            "perception": {
                "value": 2
            },
            "speed": {
                "otherSpeeds": [
                    {
                        "type": "climb",
                        "value": "20"
                    }
                ],
                "special": "",
                "value": "20"
            }
        },
        "details": {
            "alignment": {
                "value": "NE"
            },
            "blurb": "",
            "creatureType": "",
            "level": {
                "value": 0
            },
            "privateNotes": "",
            "publicNotes": "<p>At around 5 feet long, this massive, rotting serpent lacks potent venom, but its bite still injects putrid fluid that can cause infection.</p>\n<hr />\n<p>Simple to create and varied in purpose, these shambling undead are often used for their strength and endless stamina to conduct boring, repetitive tasks.</p>",
            "source": {
                "value": "Pathfinder Book of the Dead"
            }
        },
        "resources": {},
        "saves": {
            "fortitude": {
                "saveDetail": "",
                "value": 6
            },
            "reflex": {
                "saveDetail": "",
                "value": 3
            },
            "will": {
                "saveDetail": "",
                "value": 2
            }
        },
        "traits": {
            "ci": [],
            "di": {
                "custom": "",
                "value": [
                    "death-effects",
                    "disease",
                    "mental",
                    "paralyzed",
                    "poison",
                    "unconscious"
                ]
            },
            "dr": [],
            "dv": [
                {
                    "exceptions": "",
                    "type": "positive",
                    "value": 5
                },
                {
                    "exceptions": "",
                    "type": "slashing",
                    "value": 5
                }
            ],
            "languages": {
                "custom": "",
                "selected": [],
                "value": []
            },
            "rarity": "common",
            "senses": {
                "value": "darkvision"
            },
            "size": {
                "value": "med"
            },
            "traits": {
                "custom": "",
                "value": [
                    "mindless",
                    "undead",
                    "zombie"
                ]
            }
        }
    },
    "flags": {},
    "img": "systems/pf2e/icons/default-icons/npc.svg",
    "items": [
        {
            "_id": "st807lr60deuanz4",
            "data": {
                "active": true,
                "alsoApplies": {
                    "linked": [],
                    "unlinked": []
                },
                "base": "Slowed",
                "description": {
                    "value": "<p>You have fewer actions. Slowed always includes a value. When you regain your actions at the start of your turn, reduce the number of actions you regain by your slowed value. Because slowed has its effect at the start of your turn, you don't immediately lose actions if you become slowed during your turn.</p>"
                },
                "duration": {
                    "perpetual": true,
                    "text": "",
                    "value": 0
                },
                "group": "",
                "hud": {
                    "img": {
                        "useStatusName": true,
                        "value": "systems/pf2e/icons/conditions-2/slowed.webp"
                    },
                    "selectable": true,
                    "statusName": "slowed"
                },
                "modifiers": [],
                "overrides": [],
                "references": {
                    "children": [],
                    "immunityFrom": [],
                    "overriddenBy": [],
                    "overrides": []
                },
                "removable": true,
                "rules": [],
                "slug": "slowed",
                "source": {
                    "value": ""
                },
                "sources": {
                    "hud": true,
                    "values": []
                },
                "traits": {
                    "custom": "",
                    "rarity": "common",
                    "value": []
                },
                "value": {
                    "immutable": false,
                    "isValued": true,
                    "modifiers": [],
                    "value": 1
                }
            },
            "flags": {
                "core": {
                    "sourceId": "Compendium.pf2e.conditionitems.xYTAsEpcJE1Ccni3"
                },
                "pf2e": {
                    "condition": true
                }
            },
            "img": "systems/pf2e/icons/conditions/slowed.webp",
            "name": "Slowed",
            "sort": 100000,
            "type": "condition"
        },
        {
            "_id": "cifv4nupbufci3x9",
            "data": {
                "attack": {
                    "value": ""
                },
                "attackEffects": {
                    "custom": "",
                    "value": [
                        "filth-fever"
                    ]
                },
                "bonus": {
                    "value": 7
                },
                "damageRolls": {
                    "8tbue4TSO3uahOHm": {
                        "damage": "1d6+3",
                        "damageType": "piercing"
                    }
                },
                "description": {
                    "value": ""
                },
                "rules": [],
                "slug": null,
                "source": {
                    "value": ""
                },
                "traits": {
                    "custom": "",
                    "rarity": "common",
                    "value": []
                },
                "weaponType": {
                    "value": "melee"
                }
            },
            "flags": {},
            "img": "systems/pf2e/icons/default-icons/melee.svg",
            "name": "Fangs",
            "sort": 200000,
            "type": "melee"
        },
        {
            "_id": "pKH0djjdIbsZYSyj",
            "data": {
                "actionCategory": {
                    "value": "interaction"
                },
                "actionType": {
                    "value": "passive"
                },
                "actions": {
                    "value": null
                },
                "deathNote": false,
                "description": {
                    "value": "<p>@Localize[PF2E.NPC.Abilities.Glossary.Darkvision]</p>"
                },
                "requirements": {
                    "value": ""
                },
                "rules": [],
                "slug": "darkvision",
                "source": {
                    "value": ""
                },
                "traits": {
                    "custom": "",
                    "rarity": "common",
                    "value": []
                },
                "trigger": {
                    "value": ""
                },
                "weapon": {
                    "value": ""
                }
            },
            "flags": {
                "core": {
                    "sourceId": "Compendium.pf2e.bestiary-ability-glossary-srd.qCCLZhnp2HhP3Ex6"
                }
            },
            "img": "systems/pf2e/icons/actions/Passive.webp",
            "name": "Darkvision",
            "sort": 300000,
            "type": "action"
        },
        {
            "_id": "FRWKAh9vjYaNCqdT",
            "data": {
                "actionCategory": {
                    "value": "defensive"
                },
                "actionType": {
                    "value": "passive"
                },
                "actions": {
                    "value": null
                },
                "deathNote": false,
                "description": {
                    "value": "<p>@Localize[PF2E.NPC.Abilities.Glossary.NegativeHealing]</p>"
                },
                "requirements": {
                    "value": ""
                },
                "rules": [
                    {
                        "key": "ActiveEffectLike",
                        "mode": "override",
                        "path": "data.attributes.hp.negativeHealing",
                        "value": true
                    }
                ],
                "slug": "negative-healing",
                "source": {
                    "value": ""
                },
                "traits": {
                    "custom": "",
                    "rarity": "common",
                    "value": []
                },
                "trigger": {
                    "value": ""
                },
                "weapon": {
                    "value": ""
                }
            },
            "flags": {
                "core": {
                    "sourceId": "Compendium.pf2e.bestiary-ability-glossary-srd.TTCw5NusiSSkJU1x"
                }
            },
            "img": "systems/pf2e/icons/actions/Passive.webp",
            "name": "Negative Healing",
            "sort": 400000,
            "type": "action"
        },
        {
            "_id": "gwzami23yywnrl99",
            "data": {
                "actionCategory": {
                    "value": "defensive"
                },
                "actionType": {
                    "value": "passive"
                },
                "actions": {
                    "value": null
                },
                "deathNote": false,
                "description": {
                    "value": "<p>A zombie snake is permanently @Compendium[pf2e.conditionitems.Slowed]{Slowed 1} and can't use reactions.</p>"
                },
                "requirements": {
                    "value": ""
                },
                "rules": [],
                "slug": null,
                "source": {
                    "value": ""
                },
                "traits": {
                    "custom": "",
                    "rarity": "common",
                    "value": []
                },
                "trigger": {
                    "value": ""
                }
            },
            "flags": {},
            "img": "systems/pf2e/icons/actions/Passive.webp",
            "name": "Slow",
            "sort": 500000,
            "type": "action"
        },
        {
            "_id": "1rzixvxa00esxhop",
            "data": {
                "actionCategory": {
                    "value": "offensive"
                },
                "actionType": {
                    "value": "passive"
                },
                "actions": {
                    "value": null
                },
                "deathNote": false,
                "description": {
                    "value": "<p>The sickened and unconscious conditions from filth fever can't end or be reduced until the disease is cured;</p>\n<p><strong>Saving Throw</strong> @Check[type:fortitude|dc:14];</p>\n<hr />\n<p><strong>Stage 1</strong> carrier with no ill effect ([[/r 1d4 #Stage 1]]{1d4 hours});</p>\n<p><strong>Stage 2</strong> @Compendium[pf2e.conditionitems.Sickened]{Sickened 1} (1 day);</p>\n<p><strong>Stage 3</strong> sickened 1 and @Compendium[pf2e.conditionitems.Slowed]{Slowed 1} (1 day);</p>\n<p><strong>Stage 4</strong> @Compendium[pf2e.conditionitems.Unconscious]{Unconscious} (1 day);</p>\n<p><strong>Stage 5</strong> dead</p>"
                },
                "requirements": {
                    "value": ""
                },
                "rules": [],
                "slug": null,
                "source": {
                    "value": ""
                },
                "traits": {
                    "custom": "",
                    "rarity": "common",
                    "value": [
                        "disease"
                    ]
                },
                "trigger": {
                    "value": ""
                }
            },
            "flags": {},
            "img": "systems/pf2e/icons/actions/Passive.webp",
            "name": "Filth Fever",
            "sort": 600000,
            "type": "action"
        },
        {
            "_id": "r8roprsdjshnobh6",
            "data": {
                "description": {
                    "value": ""
                },
                "mod": {
                    "value": 5
                },
                "proficient": {
                    "value": 0
                },
                "rules": [],
                "slug": null,
                "source": {
                    "value": ""
                },
                "traits": {
                    "custom": "",
                    "rarity": "common",
                    "value": []
                }
            },
            "flags": {},
            "img": "systems/pf2e/icons/default-icons/lore.svg",
            "name": "Athletics",
            "sort": 700000,
            "type": "lore"
        },
        {
            "_id": "zdhbliznqr9syh2j",
            "data": {
                "description": {
                    "value": ""
                },
                "mod": {
                    "value": 5
                },
                "proficient": {
                    "value": 0
                },
                "rules": [],
                "slug": null,
                "source": {
                    "value": ""
                },
                "traits": {
                    "custom": "",
                    "rarity": "common",
                    "value": []
                }
            },
            "flags": {},
            "img": "systems/pf2e/icons/default-icons/lore.svg",
            "name": "Stealth",
            "sort": 800000,
            "type": "lore"
        }
    ],
    "name": "Zombie Snake",
    "token": {
        "disposition": -1,
        "height": 1,
        "img": "systems/pf2e/icons/default-icons/npc.svg",
        "name": "Zombie Snake",
        "width": 1
    },
    "type": "npc"
}
