{
    "_id": "XBf4Uz3n0AwSmpXx",
    "data": {
        "actionCategory": {
            "value": ""
        },
        "actionType": {
            "value": "passive"
        },
        "actions": {
            "value": null
        },
        "description": {
            "value": "<p><strong>[Generic]</strong></p>\n<p><strong>Prerequisites</strong><strong></strong> Tier 1 with the Vigilant Seal</p>\n<p><strong>Cost</strong> 4 Fame</p>\n<p><strong>Effect</strong> It doesn't matter how powerful your weapons are if you don't know where to strike. Before an adventure, you take time to study a certain category of creatures, making it easier to recall their capabilities later. When you purchase this boon, either select one creature type from <strong>List 1</strong> below, or choose two creature types from <strong>List 2</strong>. While this boon is slotted, you have a +1 circumstance bonus to <span style=\"text-decoration: underline;\">Recall Knowledge</span> about creatures of the selected type(s). If your Reputation Tier for the Vigilant Seal faction is 4, this bonus increases to +2.</p>\n<p><strong>List 1</strong></p>\n<ul>\n<li>@Compendium[pf2e.actionspf2e.Recall Knowledge (Occultism)]{Aberration};</li>\n<li>@Compendium[pf2e.actionspf2e.Recall Knowledge (Nature)]{Animal};</li>\n<li>@Compendium[pf2e.actionspf2e.Recall Knowledge (Nature)]{Beast (nature)} or @Compendium[pf2e.actionspf2e.Recall Knowledge (Arcana)]{Beast (arcana)};</li>\n<li>@Compendium[pf2e.actionspf2e.Recall Knowledge (Arcana)]{Construct (arcana)} or @Compendium[pf2e.actionspf2e.Recall Knowledge (Crafting)]{Construct (crafting)};</li>\n<li>@Compendium[pf2e.actionspf2e.Recall Knowledge (Arcana)]{Dragon};</li>\n<li>@Compendium[pf2e.actionspf2e.Recall Knowledge (Arcana)]{Elemental (arcana)} or @Compendium[pf2e.actionspf2e.Recall Knowledge (Nature)]{Elemental (nature)};</li>\n<li>@Compendium[pf2e.actionspf2e.Recall Knowledge (Religion)]{Fiend} or</li>\n<li>@Compendium[pf2e.actionspf2e.Recall Knowledge (Religion)]{Undead}.</li>\n</ul>\n<p><strong>List 2</strong></p>\n<ul>\n<li>@Compendium[pf2e.actionspf2e.Recall Knowledge (Occultism)]{Astral};</li>\n<li>@Compendium[pf2e.actionspf2e.Recall Knowledge (Religion)]{Celestial};</li>\n<li>@Compendium[pf2e.actionspf2e.Recall Knowledge (Occultism)]{Ethereal};</li>\n<li>@Compendium[pf2e.actionspf2e.Recall Knowledge (Nature)]{Fey};</li>\n<li>@Compendium[pf2e.actionspf2e.Recall Knowledge (Nature)]{Fungus};</li>\n<li>@Compendium[pf2e.actionspf2e.Recall Knowledge (Society)]{Giant};</li>\n<li>@Compendium[pf2e.actionspf2e.Recall Knowledge (Religion)]{Monitor};</li>\n<li>@Compendium[pf2e.actionspf2e.Recall Knowledge (Occultism)]{Ooze} or</li>\n<li>@Compendium[pf2e.actionspf2e.Recall Knowledge (Nature)]{Plant}.</li>\n</ul>"
        },
        "featType": {
            "value": "pfsboon"
        },
        "level": {
            "value": 0
        },
        "prerequisites": {
            "value": []
        },
        "rules": [],
        "source": {
            "value": ""
        },
        "traits": {
            "custom": "",
            "rarity": "common",
            "value": []
        }
    },
    "flags": {},
    "img": "systems/pf2e/icons/default-icons/mystery-man.webp",
    "name": "Adversary Lore",
    "type": "feat"
}
