{
    "_id": "aG5cua0K2SlurXxw",
    "data": {
        "actionCategory": {
            "value": ""
        },
        "actionType": {
            "value": "passive"
        },
        "actions": {
            "value": null
        },
        "description": {
            "value": "<p><strong>[Promotional]</strong></p>\n<p><strong>Prerequisites</strong> Player is wearing or carrying an accessory that promotes Pathfinder Society</p>\n<p><strong>Cost</strong> 0 Fame</p>\n<p><strong>Effect</strong> Up to twice per adventure, you can spend an action to reduce the severity of your @Compendium[pf2e.conditionitems.Frightened]{Frightened} or @Compendium[pf2e.conditionitems.Stupefied]{Stupefied} condition by 1.</p>\n<p><strong>Special</strong> A PC can only slot one promotional boon at a time.</p>"
        },
        "featType": {
            "value": "pfsboon"
        },
        "level": {
            "value": 0
        },
        "prerequisites": {
            "value": []
        },
        "rules": [],
        "source": {
            "value": ""
        },
        "traits": {
            "custom": "",
            "rarity": "common",
            "value": []
        }
    },
    "flags": {},
    "img": "systems/pf2e/icons/default-icons/mystery-man.webp",
    "name": "Promotional Accessory",
    "type": "feat"
}
