{
    "_id": "Gmzby7whs5O0wuYC",
    "data": {
        "actionCategory": {
            "value": ""
        },
        "actionType": {
            "value": "passive"
        },
        "actions": {
            "value": null
        },
        "description": {
            "value": "<p><strong>[Service]</strong></p>\n<p><strong>Prerequisites</strong> Tier 3 with any faction</p>\n<p><strong>Cost</strong> 4 Fame</p>\n<p><strong>Effect</strong> When you purchase this boon, you remove one point of Infamy that you have accrued.</p>\n<p><strong>Normal</strong> Removing Infamy typically costs 12 Fame per point.</p>\n<p><strong>Special</strong> You can purchase this boon only once, even if you qualify for it from multiple factions.</p>"
        },
        "featType": {
            "value": "pfsboon"
        },
        "level": {
            "value": 0
        },
        "prerequisites": {
            "value": []
        },
        "rules": [],
        "source": {
            "value": ""
        },
        "traits": {
            "custom": "",
            "rarity": "common",
            "value": []
        }
    },
    "flags": {},
    "img": "systems/pf2e/icons/default-icons/mystery-man.webp",
    "name": "Untarnished Reputation",
    "type": "feat"
}
