{
    "_id": "72THfaqak0F4XnON",
    "data": {
        "description": {
            "value": "<p>Granted by @Compendium[pf2e.feats-srd.Didactic Strike]{Didactic Strike}.</p>\n<p>Your first attack against the designated target before the investigator's next turn deals an extra 2d6 precision damage to the target if it hits.</p>"
        },
        "duration": {
            "expiry": "turn-start",
            "sustained": false,
            "unit": "unlimited",
            "value": -1
        },
        "level": {
            "value": 16
        },
        "rules": [
            {
                "damageType": "precision",
                "diceNumber": 2,
                "dieSize": "d6",
                "key": "DamageDice",
                "selector": "strike-damage"
            }
        ],
        "source": {
            "value": ""
        },
        "start": {
            "initiative": null,
            "value": 0
        },
        "target": null,
        "tokenIcon": {
            "show": true
        },
        "traits": {
            "custom": "",
            "rarity": "common",
            "value": []
        }
    },
    "flags": {},
    "img": "systems/pf2e/icons/equipment/adventuring-gear/lovers-ink.webp",
    "name": "Effect: Didactic Strike",
    "type": "effect"
}
