{
    "_id": "gWwG7MNAesJgpmRW",
    "data": {
        "description": {
            "value": "<p>Granted by @Compendium[pf2e.feats-srd.Cut From The Air]{Cut From The Air}.</p>\n<p>You gain a +4 circumstance bonus to AC against the triggering attack.</p>"
        },
        "duration": {
            "expiry": "turn-start",
            "sustained": false,
            "unit": "unlimited",
            "value": -1
        },
        "level": {
            "value": 10
        },
        "rules": [
            {
                "key": "FlatModifier",
                "selector": "ac",
                "type": "circumstance",
                "value": 4
            }
        ],
        "source": {
            "value": ""
        },
        "start": {
            "initiative": null,
            "value": 0
        },
        "target": null,
        "tokenIcon": {
            "show": true
        },
        "traits": {
            "custom": "",
            "rarity": "common",
            "value": []
        }
    },
    "flags": {},
    "img": "systems/pf2e/icons/equipment/consumables/ammunition/viper-arrow.webp",
    "name": "Effect: Cut from the Air",
    "type": "effect"
}
