{
    "_id": "ZzE6jPbCyUqEqhcb",
    "data": {
        "description": {
            "value": "<p>Complex and symmetrical, an <em>axiomatic</em> rune imbues a weapon with lawful energy. A weapon with this rune deals an additional 1d6 lawful damage against chaotic targets. If you are chaotic, you are @Compendium[pf2e.conditionitems.Enfeebled]{Enfeebled 2} while carrying or wielding this weapon.</p>\n<p>When you critically succeed at an attack roll with this weapon against a chaotic creature, instead of rolling, count each weapon damage die as average damage rounded up (3 for d4, 4 for d6, 5 for d8, 6 for d10, 7 for d12).</p>\n<p><strong>Craft Requirements</strong> You are lawful.</p>"
        },
        "duration": {
            "expiry": "turn-start",
            "sustained": false,
            "unit": "unlimited",
            "value": -1
        },
        "level": {
            "value": 1
        },
        "rules": [
            {
                "choices": {
                    "includeHandwraps": true,
                    "ownedItems": true,
                    "types": [
                        "weapon"
                    ]
                },
                "key": "ChoiceSet",
                "prompt": "PF2E.SpecificRule.Prompt.Weapon"
            },
            {
                "key": "Note",
                "selector": "{item|flags.pf2e.rulesSelections.effectBladeAllyAxiomaticRune}-damage",
                "text": "<strong>Axiomatic</strong> When you critically succeed at an attack roll with this weapon against a chaotic creature, instead of rolling, count each weapon damage die as average damage rounded up (3 for d4, 4 for d6, 5 for d8, 6 for d10, 7 for d12)."
            },
            {
                "damageType": "lawful",
                "diceNumber": 1,
                "dieSize": "d6",
                "key": "DamageDice",
                "selector": "{item|flags.pf2e.rulesSelections.effectBladeAllyAxiomaticRune}-damage"
            }
        ],
        "source": {
            "value": ""
        },
        "start": {
            "initiative": null,
            "value": 0
        },
        "target": null,
        "tokenIcon": {
            "show": true
        },
        "traits": {
            "custom": "",
            "rarity": "common",
            "value": []
        }
    },
    "flags": {},
    "img": "systems/pf2e/icons/equipment/runes/weapon-property-runes/weapon-property-runes.webp",
    "name": "Effect: Blade Ally Axiomatic Rune",
    "type": "effect"
}
