{
    "_id": "GCEOngH5zL0rRyle",
    "data": {
        "description": {
            "value": "<p>Granted by @Compendium[pf2e.feats-srd.Emblazon Energy]{Emblazon Energy} when applied to a weapon.</p>\n<ul>\n<li><strong>Weapon</strong> The weapon deals an extra 1d4 fire damage, or an extra 1d6 fire damage if you have a domain spell with the fire trait.</li>\n</ul>"
        },
        "duration": {
            "expiry": "turn-start",
            "sustained": false,
            "unit": "unlimited",
            "value": -1
        },
        "level": {
            "value": 8
        },
        "rules": [
            {
                "choices": {
                    "ownedItems": true,
                    "types": [
                        "weapon"
                    ]
                },
                "key": "ChoiceSet",
                "prompt": "PF2E.SpecificRule.Prompt.Weapon"
            },
            {
                "damageType": "fire",
                "diceNumber": 1,
                "dieSize": "d4",
                "key": "DamageDice",
                "label": "Emblazon Energy (Fire)",
                "predicate": {
                    "not": [
                        "fire-domain"
                    ]
                },
                "selector": "{item|flags.pf2e.rulesSelections.effectEmblazonEnergyWeaponFire}-damage"
            },
            {
                "damageType": "fire",
                "diceNumber": 1,
                "dieSize": "d6",
                "key": "DamageDice",
                "label": "Emblazon Energy (Fire Domain)",
                "predicate": {
                    "all": [
                        "fire-domain"
                    ]
                },
                "selector": "{item|flags.pf2e.rulesSelections.effectEmblazonEnergyWeaponFire}-damage"
            }
        ],
        "source": {
            "value": ""
        },
        "start": {
            "initiative": null,
            "value": 0
        },
        "target": null,
        "tokenIcon": {
            "show": true
        },
        "traits": {
            "custom": "",
            "rarity": "common",
            "value": []
        }
    },
    "flags": {},
    "img": "systems/pf2e/icons/spells/spiritual-weapon.webp",
    "name": "Effect: Emblazon Energy (Weapon, Fire)",
    "type": "effect"
}
