{
    "_id": "6YhbQmOmbmy84W1C",
    "data": {
        "badge": null,
        "description": {
            "value": "<p>Granted by @Compendium[pf2e.feats-srd.Crimson Shroud]{Crimson Shroud}.</p>"
        },
        "duration": {
            "expiry": "turn-start",
            "sustained": false,
            "unit": "minutes",
            "value": 1
        },
        "level": {
            "value": 6
        },
        "rules": [
            {
                "key": "FastHealing",
                "value": "floor(@actor.level / 2)"
            }
        ],
        "source": {
            "value": ""
        },
        "start": {
            "initiative": null,
            "value": 0
        },
        "target": null,
        "tokenIcon": {
            "show": true
        },
        "traits": {
            "custom": "",
            "rarity": "common",
            "value": []
        }
    },
    "flags": {},
    "img": "systems/pf2e/icons/spells/sanguine-mist.webp",
    "name": "Effect: Crimson Shroud",
    "type": "effect"
}
