{
    "_id": "SXYcrnGzWCuj8zq7",
    "data": {
        "description": {
            "value": "<p>Applied when you apply a poison created with @Compendium[pf2e.feats-srd.Poison Weapon]{Poison Weapon}.</p>"
        },
        "duration": {
            "expiry": "turn-start",
            "sustained": false,
            "unit": "days",
            "value": 1
        },
        "level": {
            "value": 1
        },
        "rules": [
            {
                "choices": {
                    "ownedItems": true,
                    "predicate": {
                        "all": [
                            "item:equipped"
                        ],
                        "any": [
                            "item:damage:type:slashing",
                            "item:damage:type:piercing"
                        ]
                    },
                    "types": [
                        "weapon"
                    ]
                },
                "key": "ChoiceSet",
                "prompt": "PF2E.SpecificRule.Prompt.Weapon"
            },
            {
                "damageType": "poison",
                "diceNumber": 1,
                "dieSize": "d4",
                "key": "DamageDice",
                "selector": "{item|flags.pf2e.rulesSelections.effectPoisonWeapon}-damage"
            }
        ],
        "source": {
            "value": ""
        },
        "start": {
            "initiative": null,
            "value": 0
        },
        "target": null,
        "tokenIcon": {
            "show": true
        },
        "traits": {
            "custom": "",
            "rarity": "common",
            "value": []
        }
    },
    "flags": {},
    "img": "systems/pf2e/icons/equipment/alchemical-items/alchemical-poisons/hunting-spider-venom.webp",
    "name": "Effect: Poison Weapon",
    "type": "effect"
}
