{
    "_id": "nlMZCi8xi9YSvlYR",
    "data": {
        "badge": null,
        "description": {
            "value": "<p>Your construct innovation gains a +2 circumstance bonus to its attack rolls.</p>"
        },
        "duration": {
            "expiry": "turn-start",
            "sustained": false,
            "unit": "rounds",
            "value": 1
        },
        "level": {
            "value": 1
        },
        "rules": [
            {
                "key": "FlatModifier",
                "selector": "attack",
                "type": "circumstance",
                "value": 2
            }
        ],
        "source": {
            "value": ""
        },
        "start": {
            "initiative": null,
            "value": 0
        },
        "target": null,
        "tokenIcon": {
            "show": true
        },
        "traits": {
            "custom": "",
            "rarity": "common",
            "value": []
        }
    },
    "flags": {},
    "img": "systems/pf2e/icons/features/feats/engine-of-destruction.webp",
    "name": "Effect: Engine of Destruction",
    "type": "effect"
}
