{
    "_id": "EzgW32MCOGov9h5C",
    "data": {
        "description": {
            "value": "<p>Granted by @Compendium[pf2e.feats-srd.Striking Retribution]{Striking Retribution}</p>"
        },
        "duration": {
            "expiry": "turn-start",
            "sustained": false,
            "unit": "minutes",
            "value": 1
        },
        "level": {
            "value": 1
        },
        "rules": [
            {
                "key": "FlatModifier",
                "label": "Striking Retribution (vs. alghollthu and their servants) if alghollthu enchants ally",
                "predicate": {
                    "any": [
                        "target:alghollthu",
                        "target:alghollthu-servant"
                    ]
                },
                "selector": "strike-damage",
                "type": "circumstance",
                "value": 4
            }
        ],
        "source": {
            "value": ""
        },
        "start": {
            "initiative": null,
            "value": 0
        },
        "target": null,
        "tokenIcon": {
            "show": true
        },
        "traits": {
            "custom": "",
            "rarity": "common",
            "value": []
        }
    },
    "flags": {},
    "img": "systems/pf2e/icons/spells/retributive-pain.webp",
    "name": "Effect: Striking Retribution",
    "type": "effect"
}
