{
    "_id": "ZMFgz4GYSsFeaKKK",
    "data": {
        "badge": null,
        "description": {
            "value": "<p><strong>Effect</strong> While working with less experienced Pathfinder allies, you provide important insights that keep your less experienced colleagues safe from harm. For any PCs benefiting from a Level Bump and whose levels are lower than yours, you increase the Level Bump's modifier to saving throws to 2.</p>\n<p><strong>Normal</strong> A Level Bump increases a PC's saving throw modifiers by 1.</p>\n<p><strong>Special</strong> A PC can only benefit from two mentor boons.</p>"
        },
        "duration": {
            "expiry": "turn-start",
            "sustained": false,
            "unit": "unlimited",
            "value": -1
        },
        "level": {
            "value": 1
        },
        "rules": [
            {
                "key": "FlatModifier",
                "label": "Rugged Mentor Adjustment",
                "selector": "saving-throw",
                "value": 1
            }
        ],
        "source": {
            "value": ""
        },
        "start": {
            "initiative": null,
            "value": 0
        },
        "target": null,
        "tokenIcon": {
            "show": false
        },
        "traits": {
            "custom": "",
            "rarity": "common",
            "value": []
        }
    },
    "flags": {},
    "img": "systems/pf2e/icons/features/feats/pfs-rugged-mentor-boon.webp",
    "name": "Effect: Rugged Mentor Boon (PFS)",
    "type": "effect"
}
