{
    "_id": "FPuICuxBLiDaEbDX",
    "data": {
        "description": {
            "value": "<p>Granted by @Compendium[pf2e.feats-srd.Aura of Life]{Aura of Life}</p>\n<p>Your allies within 15 feet gain a +1 status bonus to saves against necromancy effects.</p>"
        },
        "duration": {
            "expiry": "turn-start",
            "sustained": false,
            "unit": "unlimited",
            "value": -1
        },
        "level": {
            "value": 14
        },
        "rules": [
            {
                "key": "FlatModifier",
                "label": "Aura of Life (vs. necromancy)",
                "predicate": {
                    "all": [
                        "necromancy"
                    ]
                },
                "selector": "saving-throw",
                "type": "status",
                "value": 1
            }
        ],
        "source": {
            "value": ""
        },
        "start": {
            "initiative": null,
            "value": 0
        },
        "target": null,
        "tokenIcon": {
            "show": true
        },
        "traits": {
            "custom": "",
            "rarity": "common",
            "value": []
        }
    },
    "flags": {},
    "img": "systems/pf2e/icons/spells/destructive-aura.webp",
    "name": "Effect: Aura of Life",
    "type": "effect"
}
