{
    "_id": "HKPmrxkZwHRND5Um",
    "data": {
        "badge": null,
        "description": {
            "value": "<p>Granted by @Compendium[pf2e.feats-srd.Favored Terrain]{Favored Terrain (Aquatic)} if you have the @Compendium[pf2e.classfeatures.Wild Stride]{Wild Stride} class feature, and are in aquatic terrain and already have a swimSpeed.</p>\n<p>You gain a +10-foot status bonus to your swim Speed.</p>"
        },
        "duration": {
            "expiry": "turn-start",
            "sustained": false,
            "unit": "unlimited",
            "value": -1
        },
        "level": {
            "value": 11
        },
        "rules": [
            {
                "key": "FlatModifier",
                "selector": "swim-speed",
                "type": "status",
                "value": 10
            }
        ],
        "source": {
            "value": ""
        },
        "start": {
            "initiative": null,
            "value": 0
        },
        "target": null,
        "tokenIcon": {
            "show": true
        },
        "traits": {
            "custom": "",
            "rarity": "common",
            "value": []
        }
    },
    "flags": {},
    "img": "systems/pf2e/icons/spells/elemental-form-water.webp",
    "name": "Favored Terrain (Increase Swim Speed)",
    "type": "effect"
}
