{
    "_id": "h45sUZFs5jhuQdCE",
    "data": {
        "badge": null,
        "description": {
            "value": "<p>You have learned to attack meridians and pressure points like your rival Shino Hakusa. You gain a vitality blast ranged unarmed Strike that deals [[/r {1d4}[negative]]]{1d4 negative damage}, has a range of 30 feet, and has the unarmed and versatile positive traits.</p>\n<p>Additionally, when you use Stunning Fist, instead of saving against being stunned, you can choose to have the target make a Fortitude save against your class DC with the following results. You must choose to do this before the target rolls its save.</p>\n<hr />\n<p><strong>Critical Success</strong> The target is unaffected.</p>\n<p><strong>Success</strong> The target's muscles become temporarily weaker. For 1 round, the target is @Compendium[pf2e.conditionitems.Enfeebled]{Enfeebled 2}, and any time it attempts to take an action with the manipulate trait, the action is disrupted unless it succeeds at a flat check with a DC equal to 5 + its enfeebled value.</p>\n<p><strong>Failure</strong> As success, but the duration is 1 minute.</p>\n<p><strong>Critical Failure</strong> As success, but the duration is 1 minute, the flat check is DC 11, and the target takes -10-foot status penalty to all Speeds for the duration.</p>"
        },
        "duration": {
            "expiry": "turn-start",
            "sustained": false,
            "unit": "encounter",
            "value": -1
        },
        "level": {
            "value": 1
        },
        "rules": [
            {
                "category": "unarmed",
                "damage": {
                    "base": {
                        "damageType": "negative",
                        "dice": 1,
                        "die": "d4"
                    }
                },
                "key": "Strike",
                "label": "Vitality Blast",
                "range": null,
                "traits": [
                    "unarmed",
                    "versatile positive"
                ]
            }
        ],
        "source": {
            "value": ""
        },
        "start": {
            "initiative": null,
            "value": 0
        },
        "target": null,
        "tokenIcon": {
            "show": true
        },
        "traits": {
            "custom": "",
            "rarity": "common",
            "value": []
        }
    },
    "flags": {},
    "img": "systems/pf2e/icons/spells/door-to-beyond.webp",
    "name": "Stance: Vitality-Manipulation Stance",
    "type": "effect"
}
