{
    "_id": "kfeL172Ix3x1YRc9",
    "data": {
        "abilities": {
            "cha": {
                "mod": 5
            },
            "con": {
                "mod": 4
            },
            "dex": {
                "mod": 2
            },
            "int": {
                "mod": 0
            },
            "str": {
                "mod": 5
            },
            "wis": {
                "mod": 5
            }
        },
        "attributes": {
            "ac": {
                "details": "",
                "value": 27
            },
            "allSaves": {
                "value": "+1 status to all saves vs. positive"
            },
            "hp": {
                "details": "negative healing",
                "max": 165,
                "temp": 0,
                "value": 165
            },
            "initiative": {
                "ability": "perception"
            },
            "perception": {
                "value": 20
            },
            "speed": {
                "otherSpeeds": [],
                "value": "20"
            }
        },
        "details": {
            "alignment": {
                "value": "LE"
            },
            "blurb": "",
            "creatureType": "Undead",
            "level": {
                "value": 9
            },
            "privateNotes": "",
            "publicNotes": "<p>While mummy guardians are undead crafted from the corpses of sacrificed-usually unwilling victims-and retain only fragments of their memories, a mummy pharaoh is the result of a deliberate embrace of undeath by a sadistic and cruel ruler. The transformation from life to undeath is no less awful and painful, but as the transition is an intentional bid to escape death by a powerful personality who fully embraces the blasphemous repercussions of the choice, the mummy pharaoh retains its memories and personality intact. Although in most cases a mummy pharaoh is formed from a particularly depraved ruler instructing their priests to perform complex rituals that grant the ruler eternal unlife, a ruler who was filled with incredible anger in life might spontaneously arise from death as a mummy pharaoh without undergoing this ritual. Depending on the nature of the ruler, a mummy pharaoh might have spellcasting or other class features instead of its Attack of Opportunity and disruptive abilities-the exact nature of the abilities the ruler had in life can significantly change or strengthen the mummy pharaoh presented here (which represents the least powerful variety of this deadly undead foe).</p>\n<hr />\n<p>While many cultures practice mummification of the dead for benign reasons, undead mummies are created through foul rituals, typically to provide eternally vigilant guardians.</p>",
            "source": {
                "value": "Pathfinder Bestiary"
            }
        },
        "resources": {},
        "saves": {
            "fortitude": {
                "saveDetail": "",
                "value": 19
            },
            "reflex": {
                "saveDetail": "",
                "value": 15
            },
            "will": {
                "saveDetail": "",
                "value": 20
            }
        },
        "traits": {
            "ci": [],
            "di": {
                "custom": "",
                "value": [
                    "death-effects",
                    "disease",
                    "paralyzed",
                    "poison",
                    "unconscious"
                ]
            },
            "dr": [],
            "dv": [
                {
                    "type": "fire",
                    "value": 10
                }
            ],
            "languages": {
                "custom": "Any Two Ancient Languages",
                "selected": [],
                "value": [
                    "necril"
                ]
            },
            "rarity": "rare",
            "senses": {
                "value": "darkvision"
            },
            "size": {
                "value": "med"
            },
            "traits": {
                "custom": "",
                "value": [
                    "mummy",
                    "undead"
                ]
            }
        }
    },
    "flags": {},
    "img": "systems/pf2e/icons/default-icons/npc.svg",
    "items": [
        {
            "_id": "AlibNTP9NftVxXAs",
            "data": {
                "MAP": {
                    "value": ""
                },
                "baseItem": "longspear",
                "bonus": {
                    "value": 0
                },
                "bonusDamage": {
                    "value": 0
                },
                "category": "simple",
                "containerId": null,
                "damage": {
                    "damageType": "piercing",
                    "dice": 1,
                    "die": "d8",
                    "value": ""
                },
                "description": {
                    "value": "<p>This very long spear, sometimes called a pike, is purely for thrusting rather than throwing. Used by many soldiers and city watch for crowd control and defense against charging enemies, it must be wielded with two hands.</p>"
                },
                "equipped": {
                    "carryType": "held",
                    "handsHeld": 2,
                    "invested": null
                },
                "equippedBulk": {
                    "value": ""
                },
                "group": "spear",
                "hardness": 0,
                "hp": {
                    "brokenThreshold": 0,
                    "max": 0,
                    "value": 0
                },
                "level": {
                    "value": 0
                },
                "negateBulk": {
                    "value": "0"
                },
                "potencyRune": {
                    "value": 1
                },
                "preciousMaterial": {
                    "value": null
                },
                "preciousMaterialGrade": {
                    "value": null
                },
                "price": {
                    "value": {
                        "sp": 5
                    }
                },
                "property1": {
                    "critDamage": "",
                    "critDamageType": "",
                    "critDice": null,
                    "critDie": "",
                    "criticalConditionType": "",
                    "criticalConditionValue": null,
                    "damageType": "",
                    "dice": null,
                    "die": "",
                    "strikeConditionType": "",
                    "strikeConditionValue": null,
                    "value": ""
                },
                "propertyRune1": {
                    "value": null
                },
                "propertyRune2": {
                    "value": null
                },
                "propertyRune3": {
                    "value": null
                },
                "propertyRune4": {
                    "value": null
                },
                "quantity": 1,
                "range": null,
                "reload": {
                    "value": ""
                },
                "rules": [],
                "size": "med",
                "slug": "longspear",
                "source": {
                    "value": "Pathfinder Core Rulebook"
                },
                "specific": {
                    "value": false
                },
                "splashDamage": {
                    "value": 0
                },
                "stackGroup": null,
                "strikingRune": {
                    "value": "striking"
                },
                "traits": {
                    "custom": "",
                    "rarity": "common",
                    "value": [
                        "reach"
                    ]
                },
                "usage": {
                    "value": "held-in-two-hands"
                },
                "weight": {
                    "value": "2"
                }
            },
            "flags": {
                "core": {
                    "sourceId": "Compendium.pf2e.equipment-srd.aXuJh4i8HqSu6NYV"
                }
            },
            "img": "systems/pf2e/icons/equipment/weapons/longspear.webp",
            "name": "Longspear",
            "sort": 100000,
            "type": "weapon"
        },
        {
            "_id": "wsuET1ePJr0p7cTd",
            "data": {
                "attack": {
                    "value": ""
                },
                "attackEffects": {
                    "custom": "",
                    "value": [
                        "insidious-mummy-rot"
                    ]
                },
                "bonus": {
                    "value": 20
                },
                "damageRolls": {
                    "9cev5tkzhoi4rdzfuibk": {
                        "damage": "1d10+11",
                        "damageType": "bludgeoning"
                    }
                },
                "description": {
                    "value": ""
                },
                "rules": [],
                "slug": null,
                "source": {
                    "value": ""
                },
                "traits": {
                    "custom": "",
                    "rarity": "common",
                    "value": [
                        "agile"
                    ]
                },
                "weaponType": {
                    "value": "melee"
                }
            },
            "flags": {},
            "img": "systems/pf2e/icons/default-icons/melee.svg",
            "name": "Fist",
            "sort": 200000,
            "type": "melee"
        },
        {
            "_id": "bCgl0VBfwaBeDgOh",
            "data": {
                "attack": {
                    "value": ""
                },
                "attackEffects": {
                    "custom": "",
                    "value": [
                        "insidious-mummy-rot"
                    ]
                },
                "bonus": {
                    "value": 21
                },
                "damageRolls": {
                    "i2etawlumsp3vp1jj656": {
                        "damage": "2d8+11",
                        "damageType": "piercing"
                    }
                },
                "description": {
                    "value": ""
                },
                "rules": [],
                "slug": null,
                "source": {
                    "value": ""
                },
                "traits": {
                    "custom": "",
                    "rarity": "common",
                    "value": [
                        "magical",
                        "reach-10"
                    ]
                },
                "weaponType": {
                    "value": "melee"
                }
            },
            "flags": {},
            "img": "systems/pf2e/icons/default-icons/melee.svg",
            "name": "Longspear",
            "sort": 300000,
            "type": "melee"
        },
        {
            "_id": "M2XLTTlSc1yU99ym",
            "data": {
                "actionCategory": {
                    "value": "interaction"
                },
                "actionType": {
                    "value": "passive"
                },
                "actions": {
                    "value": null
                },
                "description": {
                    "value": "<p>@Localize[PF2E.NPC.Abilities.Glossary.Darkvision]</p>"
                },
                "requirements": {
                    "value": ""
                },
                "rules": [],
                "slug": "darkvision",
                "source": {
                    "value": ""
                },
                "traits": {
                    "custom": "",
                    "rarity": "common",
                    "value": []
                },
                "trigger": {
                    "value": ""
                },
                "weapon": {
                    "value": ""
                }
            },
            "flags": {
                "core": {
                    "sourceId": "Compendium.pf2e.bestiary-ability-glossary-srd.qCCLZhnp2HhP3Ex6"
                }
            },
            "img": "systems/pf2e/icons/actions/Passive.webp",
            "name": "Darkvision",
            "sort": 400000,
            "type": "action"
        },
        {
            "_id": "rYzzaXPAJ15uHtmD",
            "data": {
                "actionCategory": {
                    "value": "defensive"
                },
                "actionType": {
                    "value": "passive"
                },
                "actions": {
                    "value": null
                },
                "description": {
                    "value": ""
                },
                "requirements": {
                    "value": ""
                },
                "rules": [
                    {
                        "key": "FlatModifier",
                        "predicate": {
                            "all": [
                                "positive"
                            ]
                        },
                        "selector": "saving-throw",
                        "type": "status",
                        "value": 1
                    }
                ],
                "slug": "1-status-to-all-saves-vs-magic",
                "source": {
                    "value": ""
                },
                "traits": {
                    "custom": "",
                    "rarity": "common",
                    "value": []
                },
                "trigger": {
                    "value": ""
                },
                "weapon": {
                    "value": ""
                }
            },
            "flags": {
                "core": {
                    "sourceId": "Compendium.pf2e.bestiary-ability-glossary-srd.kquBnQ0kObZztnBc"
                }
            },
            "img": "systems/pf2e/icons/actions/Passive.webp",
            "name": "+1 Status to All Saves vs Positive",
            "sort": 500000,
            "type": "action"
        },
        {
            "_id": "BzrCf46VVV0IyaJb",
            "data": {
                "actionCategory": {
                    "value": "defensive"
                },
                "actionType": {
                    "value": "reaction"
                },
                "actions": {
                    "value": null
                },
                "description": {
                    "value": "<p>The mummy pharaoh can use Attack of Opportunity when a creature within its reach uses a concentrate action, in addition to its normal trigger. It can disrupt triggering concentrate actions, and it disrupts actions on any hit, not just a critical hit.</p>\n<hr />\n<p>@Localize[PF2E.NPC.Abilities.Glossary.AttackOfOpportunity]</p>"
                },
                "requirements": {
                    "value": ""
                },
                "rules": [],
                "slug": "attack-of-opportunity",
                "source": {
                    "value": ""
                },
                "traits": {
                    "custom": "",
                    "rarity": "common",
                    "value": []
                },
                "trigger": {
                    "value": ""
                },
                "weapon": {
                    "value": ""
                }
            },
            "flags": {
                "core": {
                    "sourceId": "Compendium.pf2e.bestiary-ability-glossary-srd.hFtNbo1LKYCoDy2O"
                }
            },
            "img": "systems/pf2e/icons/actions/Reaction.webp",
            "name": "Attack of Opportunity",
            "sort": 600000,
            "type": "action"
        },
        {
            "_id": "NKPJH9dvADsJ0zhQ",
            "data": {
                "actionCategory": {
                    "value": "defensive"
                },
                "actionType": {
                    "value": "passive"
                },
                "actions": {
                    "value": null
                },
                "description": {
                    "value": "<p>@Template[type:emanation|distance:30]{30 feet} @Compendium[pf2e.bestiary-ability-glossary-srd.Aura]{Aura}</p>\n<hr />\n<p>Living creatures are @Compendium[pf2e.conditionitems.Frightened]{Frightened 1} while in a mummy pharaoh's despair aura. They can't naturally recover from this fear while in the area but recover instantly once they leave the area. When a creature first enters the area, it must succeed at a @Check[type:will|dc:26] save (after taking the penalty from being frightened) or be @Compendium[pf2e.conditionitems.Paralyzed]{Paralyzed} for [[/br 1d4 #Paralyze Duration]]{1d4 rounds}. The creature is then temporarily immune for 24 hours.</p>"
                },
                "requirements": {
                    "value": ""
                },
                "rules": [],
                "slug": null,
                "source": {
                    "value": ""
                },
                "traits": {
                    "custom": "",
                    "rarity": "common",
                    "value": [
                        "aura",
                        "divine",
                        "emotion",
                        "enchantment",
                        "fear",
                        "incapacitation",
                        "mental"
                    ]
                },
                "trigger": {
                    "value": ""
                },
                "weapon": {
                    "value": ""
                }
            },
            "flags": {},
            "img": "systems/pf2e/icons/actions/Passive.webp",
            "name": "Great Despair",
            "sort": 700000,
            "type": "action"
        },
        {
            "_id": "h4fFfvaiDiqgTpTz",
            "data": {
                "actionCategory": {
                    "value": "defensive"
                },
                "actionType": {
                    "value": "passive"
                },
                "actions": {
                    "value": null
                },
                "deathNote": true,
                "description": {
                    "value": "<p>When a mummy pharaoh is destroyed, necromantic energies rebuild its body in its tomb over [[/br 1d10 #Rejuvenation]]{1d10 days}. If the re-forming body is destroyed during that time, the process starts anew. A slain mummy pharaoh can be destroyed for good with a <em>@Compendium[pf2e.spells-srd.Consecrate]{Consecrate}</em> ritual.</p>"
                },
                "requirements": {
                    "value": ""
                },
                "rules": [],
                "slug": null,
                "source": {
                    "value": ""
                },
                "traits": {
                    "custom": "",
                    "rarity": "common",
                    "value": [
                        "divine",
                        "necromancy"
                    ]
                },
                "trigger": {
                    "value": ""
                },
                "weapon": {
                    "value": ""
                }
            },
            "flags": {},
            "img": "systems/pf2e/icons/actions/Passive.webp",
            "name": "Rejuvenation",
            "sort": 800000,
            "type": "action"
        },
        {
            "_id": "OaKZ88EQ5UVii9xw",
            "data": {
                "actionCategory": {
                    "value": "defensive"
                },
                "actionType": {
                    "value": "passive"
                },
                "actions": {
                    "value": null
                },
                "description": {
                    "value": "<p>@Template[type:emanation|distance:100]{100 feet} @Compendium[pf2e.bestiary-ability-glossary-srd.Aura]{Aura}</p>\n<hr />\n<p>Commanded or allied undead in the aura that have a lower level than the mummy pharaoh gain a +1 circumstance bonus to attack rolls, damage rolls, AC, saves, and skill checks.</p>\n<hr />\n<p>@Compendium[pf2e.bestiary-effects.Effect: Undead Mastery]{Effect: Undead Mastery}</p>"
                },
                "requirements": {
                    "value": ""
                },
                "rules": [],
                "slug": null,
                "source": {
                    "value": ""
                },
                "traits": {
                    "custom": "",
                    "rarity": "common",
                    "value": [
                        "aura",
                        "divine",
                        "necromancy"
                    ]
                },
                "trigger": {
                    "value": ""
                },
                "weapon": {
                    "value": ""
                }
            },
            "flags": {},
            "img": "systems/pf2e/icons/actions/Passive.webp",
            "name": "Undead Mastery",
            "sort": 900000,
            "type": "action"
        },
        {
            "_id": "4WUyRzJH8pu1zq5J",
            "data": {
                "actionCategory": {
                    "value": "offensive"
                },
                "actionType": {
                    "value": "passive"
                },
                "actions": {
                    "value": null
                },
                "description": {
                    "value": "<p>The mummy pharaoh can deliver insidious mummy rot through melee weapons it wields.</p>"
                },
                "requirements": {
                    "value": ""
                },
                "rules": [],
                "slug": null,
                "source": {
                    "value": ""
                },
                "traits": {
                    "custom": "",
                    "rarity": "common",
                    "value": [
                        "divine",
                        "necromancy"
                    ]
                },
                "trigger": {
                    "value": ""
                },
                "weapon": {
                    "value": ""
                }
            },
            "flags": {},
            "img": "systems/pf2e/icons/actions/Passive.webp",
            "name": "Channel Rot",
            "sort": 1000000,
            "type": "action"
        },
        {
            "_id": "I7lbbBC8haIiOXzD",
            "data": {
                "actionCategory": {
                    "value": "offensive"
                },
                "actionType": {
                    "value": "passive"
                },
                "actions": {
                    "value": null
                },
                "description": {
                    "value": "<p>This disease and any damage from it can't be healed until this curse is removed. A creature killed by insidious mummy rot turns to sand and can't be resurrected except by a 7th-level <em>@Compendium[pf2e.spells-srd.Resurrect]{Resurrect}</em> ritual or similar magic.</p>\n<p><strong>Saving Throw</strong> @Check[type:fortitude|dc:26]</p>\n<hr />\n<p><strong>Stage 1</strong> carrier with no ill effect (1 minute)</p>\n<p><strong>Stage 2</strong> [[/r {8d6}[negative]]]{8d6 negative damage} and @Compendium[pf2e.conditionitems.Stupefied]{Stupefied 2} (1 day)</p>"
                },
                "requirements": {
                    "value": ""
                },
                "rules": [],
                "slug": null,
                "source": {
                    "value": ""
                },
                "traits": {
                    "custom": "",
                    "rarity": "common",
                    "value": [
                        "curse",
                        "disease",
                        "divine",
                        "necromancy"
                    ]
                },
                "trigger": {
                    "value": ""
                },
                "weapon": {
                    "value": ""
                }
            },
            "flags": {},
            "img": "systems/pf2e/icons/actions/Passive.webp",
            "name": "Insidious Mummy Rot",
            "sort": 1100000,
            "type": "action"
        },
        {
            "_id": "TRcRCZ4v7cyZtfSF",
            "data": {
                "actionCategory": {
                    "value": "offensive"
                },
                "actionType": {
                    "value": "action"
                },
                "actions": {
                    "value": 2
                },
                "description": {
                    "value": "<p>The mummy pharaoh exhales a @Template[type:cone|distance:60] of superheated sand that deals [[/r {5d6}[fire]+{5d6}[slashing]]]{5d6 fire damage and 5d6 slashing damage} (@Check[type:reflex|dc:28|basic:true] save).</p>\n<p>The mummy pharaoh can't use Sandstorm Wrath again for [[/br 1d4 #Recharge Sandstorm Wrath]]{1d4 rounds}.</p>"
                },
                "requirements": {
                    "value": ""
                },
                "rules": [],
                "slug": null,
                "source": {
                    "value": ""
                },
                "traits": {
                    "custom": "",
                    "rarity": "common",
                    "value": [
                        "concentrate",
                        "divine",
                        "evocation",
                        "fire"
                    ]
                },
                "trigger": {
                    "value": ""
                },
                "weapon": {
                    "value": ""
                }
            },
            "flags": {},
            "img": "systems/pf2e/icons/actions/TwoActions.webp",
            "name": "Sandstorm Wrath",
            "sort": 1200000,
            "type": "action"
        },
        {
            "_id": "hbS5Gpcbagf4W8A5",
            "data": {
                "description": {
                    "value": ""
                },
                "mod": {
                    "value": 18
                },
                "proficient": {
                    "value": 0
                },
                "rules": [],
                "slug": null,
                "source": {
                    "value": ""
                },
                "traits": {
                    "custom": "",
                    "rarity": "common",
                    "value": []
                }
            },
            "flags": {},
            "img": "systems/pf2e/icons/default-icons/lore.svg",
            "name": "Deception",
            "sort": 1300000,
            "type": "lore"
        },
        {
            "_id": "Ynmy9513pA0VFd28",
            "data": {
                "description": {
                    "value": ""
                },
                "mod": {
                    "value": 20
                },
                "proficient": {
                    "value": 0
                },
                "rules": [],
                "slug": null,
                "source": {
                    "value": ""
                },
                "traits": {
                    "custom": "",
                    "rarity": "common",
                    "value": []
                }
            },
            "flags": {},
            "img": "systems/pf2e/icons/default-icons/lore.svg",
            "name": "Intimidation",
            "sort": 1400000,
            "type": "lore"
        },
        {
            "_id": "Cf4yJiSQyPotZ9zl",
            "data": {
                "description": {
                    "value": ""
                },
                "mod": {
                    "value": 15
                },
                "proficient": {
                    "value": 0
                },
                "rules": [],
                "slug": null,
                "source": {
                    "value": ""
                },
                "traits": {
                    "custom": "",
                    "rarity": "common",
                    "value": []
                }
            },
            "flags": {},
            "img": "systems/pf2e/icons/default-icons/lore.svg",
            "name": "Occultism",
            "sort": 1500000,
            "type": "lore"
        },
        {
            "_id": "s5pBTB36kmYFJofo",
            "data": {
                "description": {
                    "value": ""
                },
                "mod": {
                    "value": 20
                },
                "proficient": {
                    "value": 0
                },
                "rules": [],
                "slug": null,
                "source": {
                    "value": ""
                },
                "traits": {
                    "custom": "",
                    "rarity": "common",
                    "value": []
                }
            },
            "flags": {},
            "img": "systems/pf2e/icons/default-icons/lore.svg",
            "name": "Religion",
            "sort": 1600000,
            "type": "lore"
        },
        {
            "_id": "9l62IwSFw6b8jdvz",
            "data": {
                "description": {
                    "value": ""
                },
                "mod": {
                    "value": 13
                },
                "proficient": {
                    "value": 0
                },
                "rules": [],
                "slug": null,
                "source": {
                    "value": ""
                },
                "traits": {
                    "custom": "",
                    "rarity": "common",
                    "value": []
                }
            },
            "flags": {},
            "img": "systems/pf2e/icons/default-icons/lore.svg",
            "name": "Stealth",
            "sort": 1700000,
            "type": "lore"
        }
    ],
    "name": "Mummy Pharaoh",
    "token": {
        "disposition": -1,
        "height": 1,
        "img": "systems/pf2e/icons/default-icons/npc.svg",
        "name": "Mummy Pharaoh",
        "width": 1
    },
    "type": "npc"
}
