{
    "_id": "S38CM3hyr7DnsmRR",
    "data": {
        "badge": null,
        "description": {
            "value": "<p>The creature gains 10 temporary Hit Points and a +2 status bonus to attack and damage rolls.</p>"
        },
        "duration": {
            "expiry": "turn-start",
            "sustained": false,
            "unit": "days",
            "value": 1
        },
        "level": {
            "value": 16
        },
        "rules": [
            {
                "key": "TempHP",
                "value": 10
            },
            {
                "key": "FlatModifier",
                "selector": "attack",
                "type": "status",
                "value": 2
            },
            {
                "key": "FlatModifier",
                "selector": "strike-damage",
                "type": "status",
                "value": 2
            }
        ],
        "source": {
            "value": "Pathfinder Bestiary"
        },
        "start": {
            "initiative": null,
            "value": 0
        },
        "target": null,
        "tokenIcon": {
            "show": true
        },
        "traits": {
            "custom": "",
            "rarity": "common",
            "value": []
        }
    },
    "flags": {},
    "img": "systems/pf2e/icons/spells/eject-soul.webp",
    "name": "Effect: Devour Soul (Victim Level 15 or Higher)",
    "type": "effect"
}
