{
    "_id": "2DlOfFoYLGSlfugH",
    "data": {
        "badge": null,
        "description": {
            "value": "<p>The affected creature can roll twice on one d20 roll within the next minute and use the higher result.</p>"
        },
        "duration": {
            "expiry": "turn-start",
            "sustained": false,
            "unit": "minutes",
            "value": 1
        },
        "level": {
            "value": 2
        },
        "rules": [
            {
                "domain": "all",
                "key": "RollOption",
                "option": "manipulate-luck",
                "toggleable": true
            },
            {
                "keep": "higher",
                "key": "RollTwice",
                "predicate": {
                    "all": [
                        "manipulate-luck"
                    ]
                },
                "selector": "all"
            }
        ],
        "source": {
            "value": "Pathfinder Bestiary 3"
        },
        "start": {
            "initiative": null,
            "value": 0
        },
        "target": null,
        "tokenIcon": {
            "show": true
        },
        "traits": {
            "custom": "",
            "rarity": "common",
            "value": []
        }
    },
    "flags": {},
    "img": "systems/pf2e/icons/spells/tempt-fate.webp",
    "name": "Effect: Manipulate Luck (Good)",
    "type": "effect"
}
