{
    "_id": "64wrP9IbfHbj1mrA",
    "data": {
        "badge": null,
        "description": {
            "value": "<p>The creature gains a +1 status bonus to attack rolls and skill checks.</p>"
        },
        "duration": {
            "expiry": "turn-start",
            "sustained": false,
            "unit": "unlimited",
            "value": -1
        },
        "level": {
            "value": 7
        },
        "rules": [
            {
                "key": "FlatModifier",
                "selector": "attack",
                "type": "status",
                "value": 1
            },
            {
                "key": "FlatModifier",
                "selector": "skill-check",
                "type": "status",
                "value": 1
            }
        ],
        "source": {
            "value": "Pathfinder #164: Hands of the Devil"
        },
        "start": {
            "initiative": null,
            "value": 0
        },
        "target": null,
        "tokenIcon": {
            "show": true
        },
        "traits": {
            "custom": "",
            "rarity": "common",
            "value": []
        }
    },
    "flags": {},
    "img": "systems/pf2e/icons/spells/agitate.webp",
    "name": "Effect: War Leader",
    "type": "effect"
}
