{
    "_id": "rpxdrOlzY2SOtMWB",
    "data": {
        "badge": null,
        "description": {
            "value": "<p>The creature gains resistance 10 to physical damage.</p>"
        },
        "duration": {
            "expiry": "turn-start",
            "sustained": false,
            "unit": "rounds",
            "value": 3
        },
        "level": {
            "value": 14
        },
        "rules": [
            {
                "key": "Resistance",
                "type": "physical",
                "value": 10
            }
        ],
        "source": {
            "value": "Pathfinder Bestiary"
        },
        "start": {
            "initiative": null,
            "value": 0
        },
        "target": null,
        "tokenIcon": {
            "show": true
        },
        "traits": {
            "custom": "",
            "rarity": "common",
            "value": []
        }
    },
    "flags": {},
    "img": "systems/pf2e/icons/spells/whirlwind.webp",
    "name": "Effect: Whirlwind Form",
    "type": "effect"
}
