{
    "_id": "kjP0J97hhoIhbF3M",
    "data": {
        "description": {
            "value": "<p>Undead within the aura deal an additional [[/r {1d6}[negative]]]{1d6 negative damage} with their natural attacks.</p>"
        },
        "duration": {
            "expiry": "turn-start",
            "sustained": false,
            "unit": "unlimited",
            "value": -1
        },
        "level": {
            "value": 1
        },
        "rules": [
            {
                "damageType": "negative",
                "diceNumber": 1,
                "dieSize": "d6",
                "key": "DamageDice",
                "predicate": {
                    "all": [
                        "unarmed"
                    ]
                },
                "selector": "strike-damage"
            }
        ],
        "source": {
            "value": ""
        },
        "start": {
            "initiative": null,
            "value": 0
        },
        "target": null,
        "tokenIcon": {
            "show": false
        },
        "traits": {
            "custom": "",
            "rarity": "common",
            "value": []
        }
    },
    "flags": {},
    "img": "systems/pf2e/icons/spells/necromancers-generocity.webp",
    "name": "Effect: Necrotic Field",
    "type": "effect"
}
