{
    "_id": "yxgHWK2rTZKKAzDN",
    "data": {
        "badge": null,
        "description": {
            "value": "<p>The creature must roll twice and take the worse result on all checks.</p>"
        },
        "duration": {
            "expiry": "turn-start",
            "sustained": false,
            "unit": "unlimited",
            "value": -1
        },
        "level": {
            "value": 1
        },
        "rules": [
            {
                "keep": "lower",
                "key": "RollTwice",
                "selector": "all"
            }
        ],
        "source": {
            "value": "Pathfinder Bestiary"
        },
        "start": {
            "initiative": null,
            "value": 0
        },
        "target": null,
        "tokenIcon": {
            "show": true
        },
        "traits": {
            "custom": "",
            "rarity": "common",
            "value": []
        }
    },
    "flags": {},
    "img": "systems/pf2e/icons/spells/tempt-fate.webp",
    "name": "Effect: Unluck Aura",
    "type": "effect"
}
