{
    "_id": "C9nb9XbnQgbnXpTq",
    "data": {
        "badge": null,
        "description": {
            "value": "<p>The creature gains a fly Speed of 40 feet.</p>"
        },
        "duration": {
            "expiry": "turn-start",
            "sustained": false,
            "unit": "unlimited",
            "value": -1
        },
        "level": {
            "value": 8
        },
        "rules": [
            {
                "key": "BaseSpeed",
                "selector": "fly",
                "value": 40
            }
        ],
        "source": {
            "value": "Pathfinder Bestiary"
        },
        "start": {
            "initiative": null,
            "value": 0
        },
        "target": null,
        "tokenIcon": {
            "show": true
        },
        "traits": {
            "custom": "",
            "rarity": "common",
            "value": []
        }
    },
    "flags": {},
    "img": "systems/pf2e/icons/spells/diamond-dust.webp",
    "name": "Effect: Crystalline Dust Form",
    "type": "effect"
}
