{
    "_id": "fPhbDSTPuT01f0Kn",
    "data": {
        "badge": null,
        "description": {
            "value": "<p>The creature takes a -10-foot status penalty to its Speed.</p>"
        },
        "duration": {
            "expiry": "turn-start",
            "sustained": false,
            "unit": "rounds",
            "value": 1
        },
        "level": {
            "value": 1
        },
        "rules": [
            {
                "key": "FlatModifier",
                "selector": "land-speed",
                "type": "status",
                "value": -10
            }
        ],
        "source": {
            "value": "Pathfinder Bestiary"
        },
        "start": {
            "initiative": null,
            "value": 0
        },
        "target": null,
        "tokenIcon": {
            "show": true
        },
        "traits": {
            "custom": "",
            "rarity": "common",
            "value": []
        }
    },
    "flags": {},
    "img": "systems/pf2e/icons/spells/entangle.webp",
    "name": "Effect: Ensnare",
    "type": "effect"
}
