{
    "_id": "ckL8iL7BKBPteEVL",
    "data": {
        "badge": null,
        "description": {
            "value": "<p>The creature takes a -1 status penalty to Perception checks and Will saves.</p>"
        },
        "duration": {
            "expiry": "turn-start",
            "sustained": false,
            "unit": "minutes",
            "value": 1
        },
        "level": {
            "value": 1
        },
        "rules": [
            {
                "key": "FlatModifier",
                "selector": "perception",
                "type": "status",
                "value": -1
            },
            {
                "key": "FlatModifier",
                "selector": "will",
                "type": "status",
                "value": -1
            }
        ],
        "source": {
            "value": "Pathfinder Bestiary"
        },
        "start": {
            "initiative": null,
            "value": 0
        },
        "target": null,
        "tokenIcon": {
            "show": true
        },
        "traits": {
            "custom": "",
            "rarity": "common",
            "value": []
        }
    },
    "flags": {},
    "img": "systems/pf2e/icons/spells/unfathomable-song.webp",
    "name": "Effect: Goblin Song",
    "type": "effect"
}
