{
    "_id": "zzdOof9hHUf9s13H",
    "data": {
        "badge": null,
        "description": {
            "value": "<p>The creature must roll twice and use the lower result on its next d20 roll.</p>"
        },
        "duration": {
            "expiry": null,
            "sustained": false,
            "unit": "unlimited",
            "value": -1
        },
        "level": {
            "value": 2
        },
        "rules": [
            {
                "keep": "lower",
                "key": "RollTwice",
                "selector": "all"
            }
        ],
        "source": {
            "value": "Pathfinder Bestiary 3"
        },
        "start": {
            "initiative": null,
            "value": 0
        },
        "target": null,
        "tokenIcon": {
            "show": true
        },
        "traits": {
            "custom": "",
            "rarity": "common",
            "value": []
        }
    },
    "flags": {},
    "img": "systems/pf2e/icons/spells/tempt-fate.webp",
    "name": "Effect: Manipulate Luck (Bad)",
    "type": "effect"
}
