{
    "_id": "3Wtzyb0ZgkaC7vHY",
    "data": {
        "badge": null,
        "description": {
            "value": "<p>The creature gains a +1 status bonus to attack rolls and a +2 status bonus to damage rolls, and takes a -2 status penalty to AC.</p>"
        },
        "duration": {
            "expiry": "turn-start",
            "sustained": false,
            "unit": "minutes",
            "value": 1
        },
        "level": {
            "value": 1
        },
        "rules": [
            {
                "key": "FlatModifier",
                "selector": "attack-roll",
                "type": "status",
                "value": 1
            },
            {
                "key": "FlatModifier",
                "selector": "damage",
                "type": "status",
                "value": 2
            },
            {
                "key": "FlatModifier",
                "selector": "ac",
                "type": "status",
                "value": -2
            }
        ],
        "source": {
            "value": "Pathfinder Gamemastery Guide"
        },
        "start": {
            "initiative": null,
            "value": 0
        },
        "target": null,
        "tokenIcon": {
            "show": true
        },
        "traits": {
            "custom": "",
            "rarity": "common",
            "value": []
        }
    },
    "flags": {},
    "img": "systems/pf2e/icons/spells/hideous-laughter.webp",
    "name": "Effect: Fanatical Frenzy",
    "type": "effect"
}
