{
    "_id": "R5MsKeC8KHGBHawz",
    "content": "<p>Play at the start of a turn when you or an ally is affected by an ongoing incapacitation effect.</p>\n<hr />\n<p>The creature ignores that incapacitation effect until the end of their turn. This turn doesn't count as part of the duration for that effect.</p>",
    "flags": {},
    "name": "Stay in the Fight",
    "permission": {
        "default": 0
    }
}
