{
    "_id": "GMoxs9RQ88uMxfW4",
    "data": {
        "attributes": {
            "ac": {
                "check": 0,
                "details": "",
                "value": 18
            },
            "collisionDC": {
                "value": 20
            },
            "collisionDamage": {
                "value": "2d10"
            },
            "hardness": 10,
            "hp": {
                "brokenThreshold": 5,
                "details": "",
                "max": 80,
                "temp": 0,
                "value": 80
            }
        },
        "details": {
            "AC": 0,
            "crew": "1 pilot",
            "description": "",
            "level": {
                "value": 5
            },
            "passengers": "4",
            "pilotingCheck": "Crafting (DC 22), Engineering Lore (DC 20), or Piloting Lore (DC 20)",
            "price": 480,
            "space": {
                "high": 5,
                "long": 15,
                "wide": 15
            },
            "speed": "swim 20 feet (alchemical, underwater only)"
        },
        "saves": {
            "fortitude": {
                "item": 0,
                "rank": 0,
                "saveDetail": "",
                "value": 12
            }
        },
        "source": {
            "value": ""
        },
        "traits": {
            "ci": [],
            "di": {
                "custom": "",
                "value": [
                    "object-immunities"
                ]
            },
            "dr": [],
            "dv": [],
            "rarity": "uncommon",
            "size": {
                "value": "lg"
            },
            "traits": {
                "custom": "",
                "value": []
            }
        }
    },
    "flags": {},
    "img": "systems/pf2e/icons/default-icons/vehicle.svg",
    "items": [
        {
            "_id": "Qx3tJuimyRKT7l2W",
            "data": {
                "actionCategory": {
                    "value": ""
                },
                "actionType": {
                    "value": "passive"
                },
                "actions": {
                    "value": null
                },
                "description": {
                    "value": "<p>The bathysphere is raised and lowered from a cable at the surface and can move only vertically.</p>"
                },
                "requirements": {
                    "value": ""
                },
                "rules": [],
                "slug": null,
                "source": {
                    "value": ""
                },
                "traits": {
                    "custom": "",
                    "rarity": "common",
                    "value": []
                },
                "trigger": {
                    "value": ""
                }
            },
            "flags": {},
            "img": "systems/pf2e/icons/actions/Passive.webp",
            "name": "Cable",
            "sort": 0,
            "type": "action"
        },
        {
            "_id": "7LOtkjkF6S8p6CRA",
            "data": {
                "actionCategory": {
                    "value": ""
                },
                "actionType": {
                    "value": "passive"
                },
                "actions": {
                    "value": null
                },
                "description": {
                    "value": "<p>Crew and passengers can breathe while the vehicle is underwater to a depth of 500 feet or less.</p>"
                },
                "requirements": {
                    "value": ""
                },
                "rules": [],
                "slug": null,
                "source": {
                    "value": ""
                },
                "traits": {
                    "custom": "",
                    "rarity": "common",
                    "value": []
                },
                "trigger": {
                    "value": ""
                }
            },
            "flags": {},
            "img": "systems/pf2e/icons/actions/Passive.webp",
            "name": "Tether Buoy",
            "sort": 0,
            "type": "action"
        },
        {
            "_id": "upS8Tctv0gf8rQOC",
            "data": {
                "actionCategory": {
                    "value": ""
                },
                "actionType": {
                    "value": "action"
                },
                "actions": {
                    "value": 2
                },
                "description": {
                    "value": "<p>The pilot releases the bathysphere's ballast. The bathysphere moves 3 times its Speed toward the surface at the end of the pilot's turn.</p>"
                },
                "requirements": {
                    "value": ""
                },
                "rules": [],
                "slug": null,
                "source": {
                    "value": ""
                },
                "traits": {
                    "custom": "",
                    "rarity": "common",
                    "value": []
                },
                "trigger": {
                    "value": ""
                }
            },
            "flags": {},
            "img": "systems/pf2e/icons/actions/TwoActions.webp",
            "name": "Ballast Release",
            "sort": 0,
            "type": "action"
        }
    ],
    "name": "Bathysphere",
    "token": {
        "disposition": 0,
        "height": 3,
        "img": "systems/pf2e/icons/default-icons/vehicle.svg",
        "name": "Bathysphere",
        "width": 3
    },
    "type": "vehicle"
}
