{
    "_id": "66dAXEMUjL7BrX8I",
    "data": {
        "attributes": {
            "ac": {
                "check": 0,
                "details": "",
                "value": 13
            },
            "collisionDC": {
                "value": 16
            },
            "collisionDamage": {
                "value": "2d8"
            },
            "hardness": 5,
            "hp": {
                "brokenThreshold": 5,
                "details": "",
                "max": 40,
                "temp": 0,
                "value": 40
            }
        },
        "details": {
            "AC": 0,
            "crew": "1 pilot",
            "description": "",
            "level": {
                "value": 2
            },
            "passengers": "2",
            "pilotingCheck": "Driving Lore (DC 16) or Nature (DC 18 to DC 26, depending on pulling creature)",
            "price": "100",
            "space": {
                "high": 7,
                "long": 10,
                "wide": 10
            },
            "speed": "the Speed of the slowest pulling creature (pulled by 2 Large creatures)"
        },
        "saves": {
            "fortitude": {
                "item": 0,
                "rank": 0,
                "saveDetail": "",
                "value": 8
            }
        },
        "source": {
            "value": "Pathfinder Gamemastery Guide"
        },
        "traits": {
            "ci": [],
            "di": {
                "custom": "",
                "value": [
                    "critical-hits",
                    "object-immunities",
                    "precision"
                ]
            },
            "dr": [],
            "dv": [],
            "rarity": "common",
            "size": {
                "value": "lg"
            },
            "traits": {
                "custom": "",
                "value": []
            }
        }
    },
    "flags": {},
    "img": "systems/pf2e/icons/default-icons/vehicle.svg",
    "items": [],
    "name": "Carriage",
    "token": {
        "disposition": 0,
        "height": 2,
        "img": "systems/pf2e/icons/default-icons/vehicle.svg",
        "name": "Carriage",
        "width": 2
    },
    "type": "vehicle"
}
