{
    "_id": "1ldIHIoe1aKHilX2",
    "data": {
        "attributes": {
            "ac": {
                "check": 0,
                "details": "",
                "value": 36
            },
            "collisionDC": {
                "value": 32
            },
            "collisionDamage": {
                "value": "10d12"
            },
            "hardness": 15,
            "hp": {
                "brokenThreshold": 5,
                "details": "",
                "max": 200,
                "temp": 0,
                "value": 200
            }
        },
        "details": {
            "AC": 0,
            "crew": "1 pilot, 2 crew",
            "description": "",
            "level": {
                "value": 1
            },
            "passengers": "6",
            "pilotingCheck": "Athletics (DC 39), Driving Lore (DC 34), Sailing Lore (DC 34), or Nature (DC 39)",
            "price": 29000,
            "space": {
                "high": 25,
                "long": 15,
                "wide": 15
            },
            "speed": "80 feet (Wind)"
        },
        "saves": {
            "fortitude": {
                "item": 0,
                "rank": 0,
                "saveDetail": "",
                "value": 30
            }
        },
        "source": {
            "value": "Pathfinder #174: Shadows of the Ancients"
        },
        "traits": {
            "di": {
                "custom": "",
                "value": [
                    "object-immunities"
                ]
            },
            "dr": [],
            "dv": [],
            "rarity": "rare",
            "size": {
                "value": "huge"
            },
            "traits": {
                "custom": "",
                "value": []
            }
        }
    },
    "flags": {},
    "img": "systems/pf2e/icons/default-icons/vehicle.svg",
    "items": [],
    "name": "Sandsailer",
    "token": {
        "disposition": 0,
        "height": 3,
        "img": "systems/pf2e/icons/default-icons/vehicle.svg",
        "name": "Sandsailer",
        "width": 3
    },
    "type": "vehicle"
}
