{
    "_id": "K0ThJViHQzzxRmqE",
    "data": {
        "attributes": {
            "ac": {
                "check": 0,
                "details": "",
                "value": 28
            },
            "collisionDC": {
                "value": 30
            },
            "collisionDamage": {
                "value": "9d10"
            },
            "hardness": 20,
            "hp": {
                "brokenThreshold": 5,
                "details": "",
                "max": 210,
                "temp": 0,
                "value": 210
            }
        },
        "details": {
            "AC": 0,
            "crew": "1 pilot, 3 crew",
            "description": "<p>The Second Kiss is a massive rigid airship. An oval fabric envelope stretched over a wood‑and‑metal frame contains a dozen sealed gasbags of floranine gas that provide lift to get the vessel airborne. A pair of clockwork‑powered propellers mounted in nacelles on either side of the crew cabin provides forward motion. Crew steer the ship with rudders and ailerons in four massive tail fins.</p>",
            "level": {
                "value": 12
            },
            "passengers": "8",
            "pilotingCheck": "Piloting Lore (DC 30) or Crafting (DC 32)",
            "price": 7000,
            "space": {
                "high": 60,
                "long": 300,
                "wide": 50
            },
            "speed": "fly 30"
        },
        "saves": {
            "fortitude": {
                "item": 0,
                "rank": 0,
                "saveDetail": "",
                "value": 22
            }
        },
        "source": {
            "value": ""
        },
        "traits": {
            "di": {
                "custom": "",
                "value": [
                    "object-immunities"
                ]
            },
            "dr": [],
            "dv": [],
            "rarity": "unique",
            "size": {
                "value": "grg"
            },
            "traits": {
                "custom": "",
                "value": []
            }
        }
    },
    "flags": {},
    "img": "systems/pf2e/icons/default-icons/vehicle.svg",
    "items": [
        {
            "_id": "V0HecEvj92RlltT5",
            "data": {
                "actionCategory": {
                    "value": "offensive"
                },
                "actionType": {
                    "value": "passive"
                },
                "actions": {
                    "value": null
                },
                "deathNote": false,
                "description": {
                    "value": "<p>This vehicle must move twice its length for each 90-degree turn it makes.</p>"
                },
                "requirements": {
                    "value": ""
                },
                "rules": [],
                "slug": null,
                "source": {
                    "value": ""
                },
                "traits": {
                    "custom": "",
                    "rarity": "common",
                    "value": []
                },
                "trigger": {
                    "value": ""
                }
            },
            "flags": {},
            "img": "systems/pf2e/icons/actions/Passive.webp",
            "name": "Sluggish",
            "sort": 0,
            "type": "action"
        }
    ],
    "name": "Second Kiss",
    "token": {
        "disposition": 0,
        "height": 60,
        "img": "systems/pf2e/icons/default-icons/vehicle.svg",
        "name": "Second Kiss",
        "width": 10
    },
    "type": "vehicle"
}
