{
    "_id": "6CFijrzNSXtS8ExJ",
    "data": {
        "attributes": {
            "ac": {
                "check": 0,
                "details": "",
                "value": 20
            },
            "collisionDC": {
                "value": 23
            },
            "collisionDamage": {
                "value": "5d10"
            },
            "hardness": 15,
            "hp": {
                "brokenThreshold": 5,
                "details": "",
                "max": 80,
                "temp": 0,
                "value": 80
            }
        },
        "details": {
            "AC": 0,
            "crew": "1 pilot",
            "description": "",
            "level": {
                "value": 7
            },
            "passengers": "1",
            "pilotingCheck": "Arcana (DC 25), Nature (DC 25 to 33, depending on pulling creature), or Piloting Lore (DC 23)",
            "price": "1000",
            "space": {
                "high": 8,
                "long": 10,
                "wide": 15
            },
            "speed": "the fly Speed of the slowest pulling creature (pulled by 2 Large creatures or 1 Huge creature)"
        },
        "saves": {
            "fortitude": {
                "item": 0,
                "rank": 0,
                "saveDetail": "",
                "value": 14
            }
        },
        "source": {
            "value": "Pathfinder #167: Ready? Fight!"
        },
        "traits": {
            "ci": [],
            "di": {
                "custom": "",
                "value": [
                    "critical-hits",
                    "object-immunities",
                    "precision"
                ]
            },
            "dr": [],
            "dv": [],
            "rarity": "uncommon",
            "size": {
                "value": "lg"
            },
            "traits": {
                "custom": "",
                "value": []
            }
        }
    },
    "flags": {},
    "img": "systems/pf2e/icons/default-icons/vehicle.svg",
    "items": [],
    "name": "Sky Chariot, Light",
    "token": {
        "disposition": 0,
        "height": 2,
        "img": "systems/pf2e/icons/default-icons/vehicle.svg",
        "name": "Sky Chariot, Light",
        "width": 3
    },
    "type": "vehicle"
}
