{
    "_id": "JQAknpXhJo5bwgOM",
    "data": {
        "attributes": {
            "ac": {
                "check": 0,
                "details": "",
                "value": 24
            },
            "collisionDC": {
                "value": 24
            },
            "collisionDamage": {
                "value": "3d10"
            },
            "hardness": 10,
            "hp": {
                "brokenThreshold": 5,
                "details": "",
                "max": 120,
                "temp": 0,
                "value": 120
            }
        },
        "details": {
            "AC": 0,
            "crew": "1 pilot",
            "description": "",
            "level": {
                "value": 7
            },
            "passengers": "2",
            "pilotingCheck": "Arcana (DC 25), Crafting (DC 25), Engineering Lore (DC 23), or Piloting Lore (DC 23)",
            "price": 1200,
            "space": {
                "high": 25,
                "long": 10,
                "wide": 10
            },
            "speed": "30 feet (alchemical, magical)"
        },
        "saves": {
            "fortitude": {
                "item": 0,
                "rank": 0,
                "saveDetail": "",
                "value": 13
            }
        },
        "source": {
            "value": "Pathfinder Lost Omens: The Grand Bazaar"
        },
        "traits": {
            "ci": [],
            "di": {
                "custom": "",
                "value": [
                    "object-immunities"
                ]
            },
            "dr": [],
            "dv": [],
            "rarity": "uncommon",
            "size": {
                "value": "lg"
            },
            "traits": {
                "custom": "",
                "value": []
            }
        }
    },
    "flags": {},
    "img": "systems/pf2e/icons/default-icons/vehicle.svg",
    "items": [
        {
            "_id": "b3OQJLYv4hEX7yhn",
            "data": {
                "actionCategory": {
                    "value": ""
                },
                "actionType": {
                    "value": "passive"
                },
                "actions": {
                    "value": null
                },
                "description": {
                    "value": "<p>The strider can bridge a gap as wide as 30 feet by Striding over it.</p>"
                },
                "requirements": {
                    "value": ""
                },
                "rules": [],
                "slug": null,
                "source": {
                    "value": ""
                },
                "traits": {
                    "custom": "",
                    "rarity": "common",
                    "value": []
                },
                "trigger": {
                    "value": ""
                }
            },
            "flags": {},
            "img": "systems/pf2e/icons/actions/Passive.webp",
            "name": "Long Reach",
            "sort": 0,
            "type": "action"
        }
    ],
    "name": "Strider",
    "token": {
        "disposition": 0,
        "height": 2,
        "img": "systems/pf2e/icons/default-icons/vehicle.svg",
        "name": "Strider",
        "width": 2
    },
    "type": "vehicle"
}
