{
    "_id": "CsGxHwDh1y8Ti4mX",
    "data": {
        "attributes": {
            "ac": {
                "value": 19
            },
            "hardness": 5,
            "hasHealth": true,
            "hp": {
                "details": "",
                "max": 21,
                "temp": 0,
                "value": 21
            },
            "stealth": {
                "details": "<p>(or 0 if the net is exposed)</p>",
                "value": 12
            }
        },
        "creatureType": "",
        "details": {
            "description": "<p>A net with soil and aquatic plants on it covers a 10-foot pit dug into the bottom of a body of water.</p>",
            "disable": "<p>@Check[type:thievery|dc:18|name:Remove the Net|traits:mechanical,trap] to remove the net</p>",
            "isComplex": false,
            "level": {
                "value": 3
            },
            "reset": "<p>Others can fall into the pit, but the net entangles only the first creature to trigger the trap. The net must be reset manually.</p>",
            "routine": ""
        },
        "flavourText": "",
        "recallKnowledgeText": "",
        "saves": {
            "fortitude": {
                "saveDetail": "",
                "value": 6
            },
            "reflex": {
                "saveDetail": "",
                "value": 6
            },
            "will": {
                "saveDetail": "",
                "value": 0
            }
        },
        "sidebarText": "",
        "source": {
            "value": "Pathfinder Society Scenario 1-20: The Lost Legend"
        },
        "statusEffects": [],
        "traits": {
            "ci": [],
            "di": {
                "custom": "",
                "selected": {},
                "value": [
                    "critical-hits",
                    "object-immunities",
                    "precision"
                ]
            },
            "dr": [],
            "dv": [],
            "rarity": "common",
            "size": {
                "value": "med"
            },
            "traits": {
                "custom": "",
                "value": [
                    "mechanical",
                    "trap"
                ]
            }
        }
    },
    "flags": {},
    "img": "systems/pf2e/icons/default-icons/hazard.svg",
    "items": [
        {
            "_id": "zdc4sdtrphrpjb66",
            "data": {
                "actionCategory": {
                    "value": "offensive"
                },
                "actionType": {
                    "value": "reaction"
                },
                "actions": {
                    "value": null
                },
                "description": {
                    "value": "<p><strong>Trigger</strong> A creature walks on the net.</p><hr />\n<p><strong>Effect</strong> The triggering creature falls into a spiked pit and submerges, with the net collapsing to entangle the creature. Spikes in the pit deal [[/r {2d10}[piercing]]]{2d10 piercing damage}. The net imposes a -10-foot penalty to the creature's speed. A creature must succeed at two DC 18 checks to Escape from the net a critical success to Escape frees them immediately. A creature that can't breathe underwater may begin drowning. Any round the creature struggles to escape the net, the creature uses 2 rounds of air.</p>"
                },
                "requirements": {
                    "value": ""
                },
                "rules": [],
                "slug": null,
                "source": {
                    "value": ""
                },
                "traits": {
                    "custom": "",
                    "rarity": "common",
                    "value": []
                },
                "trigger": {
                    "value": ""
                }
            },
            "flags": {},
            "img": "systems/pf2e/icons/actions/Reaction.webp",
            "name": "Pitfall",
            "sort": 0,
            "type": "action"
        }
    ],
    "name": "Boggard Pit (5-6)",
    "token": {
        "disposition": 0,
        "height": 1,
        "img": "systems/pf2e/icons/default-icons/npc.svg",
        "name": "Boggard Pit",
        "width": 1
    },
    "type": "hazard"
}
