{
    "_id": "oGYYCFUoopC8MSYS",
    "data": {
        "attributes": {
            "ac": {
                "value": 10
            },
            "hardness": 0,
            "hasHealth": true,
            "hp": {
                "details": "",
                "max": 10,
                "temp": 0,
                "value": 0
            },
            "stealth": {
                "details": "",
                "value": 8
            }
        },
        "creatureType": "",
        "details": {
            "description": "<p>A large tree has been cut down and supported only by a rope.</p>",
            "disable": "<p>The trap cannot be disabled in advance.</p>",
            "isComplex": false,
            "level": {
                "value": 1
            },
            "reset": "",
            "routine": ""
        },
        "saves": {
            "fortitude": {
                "saveDetail": "",
                "value": 0
            },
            "reflex": {
                "saveDetail": "",
                "value": 0
            },
            "will": {
                "saveDetail": "",
                "value": 0
            }
        },
        "source": {
            "value": "Pathfinder Society Scenario 1-04: Bandits of Immenwood"
        },
        "statusEffects": [],
        "traits": {
            "ci": [],
            "di": {
                "custom": "",
                "selected": {},
                "value": []
            },
            "dr": [],
            "dv": [],
            "rarity": "common",
            "size": {
                "value": "med"
            },
            "traits": {
                "custom": "",
                "value": [
                    "mechanical",
                    "trap"
                ]
            }
        }
    },
    "flags": {},
    "img": "systems/pf2e/icons/default-icons/hazard.svg",
    "items": [
        {
            "_id": "Z028JAs5iGhRVP7r",
            "data": {
                "actionCategory": {
                    "value": "offensive"
                },
                "actionType": {
                    "value": "reaction"
                },
                "actions": {
                    "value": null
                },
                "description": {
                    "value": "<p><strong>Trigger</strong> The squirrel swam finishes chewing through the rope at the beginning of its turn</p>\n<p><strong>Effect</strong> The tree drops 10 feet in front of the wagon, blocking the road. The tree deals [[/r {2d8}[bludgeoning]]]{2d8 bludgeoning damage} to anyone beneath the tree when it drops and pushes them out of its space in a random direction. A creature that succeeds at a @Check[type:reflex|dc:18|traits:damaging-effect,hazard,mechanical,trap] save takes no damage and rolls out of the way in a random direction. On a critical success, it can choose the direction. Mounted creatures do not attempt a save unless their mount attempts a save and fails. If a mounted creature's mount fails the save, the mounted creature can attempt its own @Check[type:reflex|dc:18|name:Mounted Deadfall|traits:damaging-effect,hazard,mechanical,trap] save by leaping off its mount, taking [[/r {1d4}[bludgeoning]]]{1d4 bludgeoning damage} from the fall. This damage is taken whether the save is successful or not.</p>"
                },
                "requirements": {
                    "value": ""
                },
                "rules": [],
                "slug": null,
                "source": {
                    "value": ""
                },
                "traits": {
                    "custom": "",
                    "rarity": "common",
                    "value": []
                },
                "trigger": {
                    "value": ""
                }
            },
            "flags": {},
            "img": "systems/pf2e/icons/actions/Reaction.webp",
            "name": "Deadfall",
            "sort": 0,
            "type": "action"
        }
    ],
    "name": "Deadfall Trap (1-2)",
    "token": {
        "disposition": 0,
        "height": 1,
        "img": "systems/pf2e/icons/default-icons/hazard.svg",
        "name": "Deadfall Trap",
        "width": 1
    },
    "type": "hazard"
}
