{
    "_id": "xwLdaMLETLv6XSlK",
    "data": {
        "attributes": {
            "ac": {
                "value": 16
            },
            "hardness": 5,
            "hasHealth": true,
            "hp": {
                "details": "",
                "max": 24,
                "temp": 0,
                "value": 24
            },
            "stealth": {
                "details": "<p>(trained); DC 20 (trained) to notice the construct limbs at the bottom of the pit.</p>",
                "value": 7
            }
        },
        "creatureType": "",
        "details": {
            "description": "<p>The limbs of smashed constructs line the bottom of the fissure, beneath the water. They desperately grab anything that gets too close.</p>",
            "disable": "<p>@Check[type:thievery|dc:18|name:Immobilize Limbs] (trained) or @Check[type:engineering-lore|dc:16|name:Immobilize Limbs]{Engineering Lore} or @Check[type:azlant-lore|dc:16|name:Immobilize Limbs]{Azlant Lore} twice to immobilize the limbs, or @Check[type:deception|dc:18|name:Trick Limbs]{ Deception} twice to trick the limbs into grasping each other.</p>",
            "isComplex": true,
            "level": {
                "value": 1
            },
            "reset": "",
            "routine": "<p><span class=\"pf2-icon\">2</span> The grasping limbs try to Grapple all creatures in the water (Athletics [[/r 1d20 +9 #Athletics]]{+9}). They then tighten around all creatures they have grabbed or restrained, dealing [[/r {1d8}[bludgeoning]]]{1d8 bludgeoning damage }(@Check[type:fortitude|dc:17|basic:true|name:Grasping Limbs]).</p>"
        },
        "saves": {
            "fortitude": {
                "saveDetail": "",
                "value": 10
            },
            "reflex": {
                "saveDetail": "",
                "value": 4
            },
            "will": {
                "saveDetail": "",
                "value": 0
            }
        },
        "source": {
            "value": "Pathfinder Society Quest #9: Wayfinder Origins"
        },
        "statusEffects": [],
        "traits": {
            "ci": [],
            "di": {
                "custom": "",
                "selected": {},
                "value": [
                    "precision",
                    "critical-hits",
                    "object-immunities"
                ]
            },
            "dr": [],
            "dv": [],
            "rarity": "unique",
            "size": {
                "value": "med"
            },
            "traits": {
                "custom": "",
                "value": []
            }
        }
    },
    "flags": {},
    "img": "systems/pf2e/icons/default-icons/hazard.svg",
    "items": [
        {
            "_id": "sFXPrl6HPYHEscXg",
            "data": {
                "actionCategory": {
                    "value": "offensive"
                },
                "actionType": {
                    "value": "reaction"
                },
                "actions": {
                    "value": null
                },
                "description": {
                    "value": "<p><strong>Trigger</strong> A creature falls into the water</p>\n<p><strong>Effect</strong> The smashed constructs at the bottom of the water try to Grapple the triggering creature (Athletics [[/r 1d20+9 #Athletics]]{+9}). The trap rolls initiative.</p>"
                },
                "requirements": {
                    "value": ""
                },
                "rules": [],
                "slug": null,
                "source": {
                    "value": ""
                },
                "traits": {
                    "custom": "",
                    "rarity": "common",
                    "value": []
                },
                "trigger": {
                    "value": ""
                },
                "weapon": {
                    "value": ""
                }
            },
            "flags": {},
            "img": "systems/pf2e/icons/actions/Reaction.webp",
            "name": "Grasp",
            "sort": 0,
            "type": "action"
        }
    ],
    "name": "Grasping Limbs (3-4)",
    "token": {
        "disposition": 0,
        "height": 1,
        "img": "systems/pf2e/icons/default-icons/hazard.svg",
        "name": "Grasping Limbs",
        "width": 1
    },
    "type": "hazard"
}
