{
    "_id": "BjkteD4admd5peO7",
    "data": {
        "attributes": {
            "ac": {
                "value": 19
            },
            "hardness": 12,
            "hasHealth": true,
            "hp": {
                "details": "",
                "max": 51,
                "temp": 0,
                "value": 51
            },
            "stealth": {
                "details": "<p>or <em>Detect Magic</em></p>",
                "value": 0
            }
        },
        "creatureType": "",
        "details": {
            "description": "<p>A magnetically charged platform draws in armored creatures, then flings them up into the sky, where they are struck by lightning.</p>",
            "disable": "<p>@Check[type:thievery|dc:23|name:Ground the Electricity|traits:electricity,magical,trap] (trained) to ground out the energy or @Check[type:arcana|dc:26|name:Neutralize the Magical Charge|traits:electricity,magical,trap] (expert) to neutralize the magical charge</p>",
            "isComplex": false,
            "level": {
                "value": 5
            },
            "reset": "",
            "routine": ""
        },
        "saves": {
            "fortitude": {
                "saveDetail": "",
                "value": 17
            },
            "reflex": {
                "saveDetail": "",
                "value": 15
            },
            "will": {
                "saveDetail": "",
                "value": 0
            }
        },
        "source": {
            "value": "Pathfinder Society Scenario 1-25: Grim Symphony"
        },
        "statusEffects": [],
        "traits": {
            "ci": [],
            "di": {
                "custom": "",
                "selected": {},
                "value": [
                    "critical-hits",
                    "electricity",
                    "object-immunities",
                    "precision"
                ]
            },
            "dr": [],
            "dv": [],
            "rarity": "uncommon",
            "size": {
                "value": "med"
            },
            "traits": {
                "custom": "",
                "value": [
                    "electricity",
                    "magical",
                    "trap"
                ]
            }
        }
    },
    "flags": {},
    "img": "systems/pf2e/icons/default-icons/hazard.svg",
    "items": [
        {
            "_id": "lYidBvsejwCe09Tf",
            "data": {
                "actionCategory": {
                    "value": "offensive"
                },
                "actionType": {
                    "value": "reaction"
                },
                "actions": {
                    "value": null
                },
                "description": {
                    "value": "<p><strong>Trigger</strong> A creature moves within 10 feet of the platform</p>\n<p><strong>Effect</strong> All creatures within 10 feet of the platform must each attempt a @Check[type:fortitude|dc:23|traits:magical,trap] save. Creatures who are wearing metal armor or are made of metal suffer a -2 circumstance penalty to this save.</p>\n<hr />\n<p><strong>Critical Success</strong> The creature is unaffected.</p>\n<p><strong>Success</strong> The creature is dragged 5 feet toward the platform.</p>\n<p><strong>Failure</strong> The creature is dragged onto the platform, which is quickly raised on chains 30 feet into the air. The creature is then struck by lightning for [[/r {4d8+14}[electricity]]]{4d8+14 electricity damage}.</p>\n<p><strong>Critical Failure</strong> As failure, but the creature is also knocked @Compendium[pf2e.conditionitems.Prone]{Prone} and @Compendium[pf2e.conditionitems.Restrained]{Restrained} on the platform (Escape DC 20).</p>"
                },
                "requirements": {
                    "value": ""
                },
                "rules": [],
                "slug": null,
                "source": {
                    "value": ""
                },
                "traits": {
                    "custom": "",
                    "rarity": "common",
                    "value": [
                        "arcane",
                        "electricity",
                        "evocation"
                    ]
                },
                "trigger": {
                    "value": ""
                },
                "weapon": {
                    "value": ""
                }
            },
            "flags": {},
            "img": "systems/pf2e/icons/actions/Reaction.webp",
            "name": "Magnetic Drag",
            "sort": 0,
            "type": "action"
        }
    ],
    "name": "Lightning Platform (7-8)",
    "token": {
        "disposition": 0,
        "height": 1,
        "img": "systems/pf2e/icons/default-icons/hazard.svg",
        "name": "Lightning Platform",
        "width": 1
    },
    "type": "hazard"
}
