{
    "_id": "ZUwhZ8D3TpH2ctzo",
    "data": {
        "attributes": {
            "ac": {
                "value": 21
            },
            "hardness": 0,
            "hasHealth": true,
            "hp": {
                "details": "",
                "max": 48,
                "temp": 0,
                "value": 48
            },
            "stealth": {
                "details": "<p>(trained)</p>",
                "value": 11
            }
        },
        "creatureType": "",
        "details": {
            "description": "<p>A pile of stolen and volatile fireworks.</p>",
            "disable": "<p>Craft DC 21 (trained), Engineering Lore DC 19 (trained), or Explosives Lore DC 19 (trained) to safely remove the lit firework or Thievery DC 21 (trained) to remove the lit fuse from the firework.</p>",
            "isComplex": false,
            "level": {
                "value": 4
            },
            "reset": "",
            "routine": ""
        },
        "saves": {
            "fortitude": {
                "saveDetail": "",
                "value": 6
            },
            "reflex": {
                "saveDetail": "",
                "value": 6
            },
            "will": {
                "saveDetail": "",
                "value": 0
            }
        },
        "source": {
            "value": "Pathfinder Society Quest 5: The Dragon who Stole Evoking Day"
        },
        "statusEffects": [],
        "traits": {
            "ci": [],
            "di": {
                "custom": "",
                "selected": {},
                "value": [
                    "critical-hits",
                    "object-immunities",
                    "precision"
                ]
            },
            "dr": [],
            "dv": [],
            "rarity": "common",
            "size": {
                "value": "med"
            },
            "traits": {
                "custom": "",
                "value": [
                    "mechanical",
                    "trap"
                ]
            }
        }
    },
    "flags": {},
    "img": "systems/pf2e/icons/default-icons/hazard.svg",
    "items": [
        {
            "_id": "c9FZbqKa82gtTjP3",
            "data": {
                "actionCategory": {
                    "value": "offensive"
                },
                "actionType": {
                    "value": "reaction"
                },
                "actions": {
                    "value": null
                },
                "description": {
                    "value": "<p><strong>Trigger</strong> The pile of fireworks takes acid or fire damage.</p>\n<p><strong>Effect</strong> The fuse of one of the fireworks begins to burn and the pile of fireworks enters initiative immediately before the triggering creature or effect.</p>"
                },
                "requirements": {
                    "value": ""
                },
                "rules": [],
                "slug": null,
                "source": {
                    "value": ""
                },
                "traits": {
                    "custom": "",
                    "rarity": "common",
                    "value": []
                },
                "trigger": {
                    "value": ""
                },
                "weapon": {
                    "value": ""
                }
            },
            "flags": {},
            "img": "systems/pf2e/icons/actions/Reaction.webp",
            "name": "Light Fuse",
            "sort": 0,
            "type": "action"
        },
        {
            "_id": "KTk8KdzrL2MoJzR8",
            "data": {
                "actionCategory": {
                    "value": "offensive"
                },
                "actionType": {
                    "value": "free"
                },
                "actions": {
                    "value": null
                },
                "description": {
                    "value": "<p><strong>Trigger</strong> The pile of fireworks begins its turn.</p>\n<p><strong>Effect</strong> The pile of fireworks explodes, dealing [[/r {6d8}[fire]]]{6d8 fire damage} (@Check[type:reflex|dc:25|basic:true]) save to all creatures within 15 feet.</p>"
                },
                "requirements": {
                    "value": ""
                },
                "rules": [],
                "slug": null,
                "source": {
                    "value": ""
                },
                "traits": {
                    "custom": "",
                    "rarity": "common",
                    "value": []
                },
                "trigger": {
                    "value": ""
                },
                "weapon": {
                    "value": ""
                }
            },
            "flags": {},
            "img": "systems/pf2e/icons/actions/FreeAction.webp",
            "name": "Explosive Blast",
            "sort": 0,
            "type": "action"
        }
    ],
    "name": "Pile of Fireworks (5-6)",
    "token": {
        "disposition": 0,
        "height": 1,
        "img": "systems/pf2e/icons/default-icons/hazard.svg",
        "name": "Pile of Fireworks",
        "width": 1
    },
    "type": "hazard"
}
