{
    "_id": "hpz50kmKMKVQWxW9",
    "data": {
        "attributes": {
            "ac": {
                "value": 0
            },
            "hardness": 0,
            "hasHealth": true,
            "hp": {
                "details": "",
                "max": 10,
                "temp": 0,
                "value": 10
            },
            "stealth": {
                "details": "<p>(trained) to hear the scratching beneath the floorboards</p>",
                "value": 10
            }
        },
        "creatureType": "",
        "details": {
            "description": "<p>Illusory hands tear from the floorboards, clawing at their victim's legs and leaving real wounds.</p>",
            "disable": "<p>Religion DC 16 (trained) to exorcize the spirits</p>",
            "isComplex": false,
            "level": {
                "value": 2
            },
            "reset": "<p>The underlying spirits remain, resetting the haunt every midnight, until the true story of what happened here becomes public.</p>",
            "routine": ""
        },
        "saves": {
            "fortitude": {
                "saveDetail": "",
                "value": 0
            },
            "reflex": {
                "saveDetail": "",
                "value": 0
            },
            "will": {
                "saveDetail": "",
                "value": 0
            }
        },
        "source": {
            "value": ""
        },
        "statusEffects": [],
        "traits": {
            "ci": [],
            "di": {
                "custom": "",
                "selected": {},
                "value": []
            },
            "dr": [],
            "dv": [],
            "rarity": "common",
            "size": {
                "value": "med"
            },
            "traits": {
                "custom": "",
                "value": [
                    "haunt"
                ]
            }
        }
    },
    "flags": {},
    "img": "systems/pf2e/icons/default-icons/hazard.svg",
    "items": [
        {
            "_id": "vGwlY8H7EONqROr1",
            "data": {
                "actionCategory": {
                    "value": "offensive"
                },
                "actionType": {
                    "value": "reaction"
                },
                "actions": {
                    "value": null
                },
                "description": {
                    "value": "<p><strong>Trigger</strong> A creature passes through area <strong>C2</strong> for the second time in 24 hours.</p>\n<p><strong>Effect</strong> Phantasmal rotting hands burst out from the floor under the target, tearing into their legs. The hands' appearance varies based on the reason for the haunting (see the table below).</p>\n<p>The hands deal [[/r {4d6}[slashing]]]{4d6 slashing damage} and [[/r {2d6}[persistent,bleed]]] @Compendium[pf2e.conditionitems.Persistent Damage]{Persistent Bleed Damage} (@Check[type:will|dc:17|basic:true] save). If a creature takes any damage from the haunt, the claws leave rending wounds on the target's legs, reducing their land Speed by 10 feet (minimum 5 feet) until the target is restored to its maximum HP.</p>\n<table class=\"pf2-table\">\n<thead>\n<tr>\n<th>Owners</th>\n<th>Haunt Manifestations</th>\n</tr>\n</thead>\n<tbody>\n<tr>\n<td>Archdevil Worshippers</td>\n<td>Scent of brimstone and sound of chanting in Infernal (a PC who understands Infernal or succeeds at a @Check[type:religion|dc:10|name:Recognize Chanting], @Check[type:hell-lore|dc:10|name:Recognize Chanting]{Hell Lore}, or @Check[type:mephistopheles-lore|dc:10|name:Recognize Chanting]{Mephistopheles Lore} check recognizes the chanting as a prayer to Mephistopheles)</td>\n</tr>\n<tr>\n<td>Soulbound Dollmakers</td>\n<td>Flesh flaking off the rotting hands reveals smooth porcelain underneath (a PC who succeeds at a @Check[type:crafting|dc:10|name:Recognize Craftsmanship] or @Check[type:occultism|dc:10|name:Recognize Craftsmanship] check recognizes the craftsmanship as that of soulbound dolls)</td>\n</tr>\n<tr>\n<td>Alchemical Experimenters</td>\n<td>A chemical scent overpowers the rot, and precise surgical cuts can be seen on the arms (a PC who succeeds at a @Check[type:crafting|dc:10|name:Recognize Cuts] or @Check[type:medicine|dc:10|name:Recognize Cuts] check realizes both are medical but unnecessary)</td>\n</tr>\n<tr>\n<td>Slavers</td>\n<td>The hands still wear heavy manacles around the wrists</td>\n</tr>\n<tr>\n<td>Crime Lords</td>\n<td>The hands are tattooed and some are cleanly missing fingers (a PC who succeeds at a @Check[type:society|dc:10|name:Recognize Marks] or @Check[type:underworld-lore|dc:10|name:Recognize Marks]{Underworld Lore} check recognizes these as marks of gangs active before the earthquake)</td>\n</tr>\n<tr>\n<td>Misguided Pharasmins</td>\n<td>A scent of incense lingers as the haunt vanishes (a PC who succeeds at a @Check[type:religion|dc:10|name:Recognize Rites] or @Check[type:pharasma-lore|dc:10|name:Recognize Rites]{Pharasma Lore} check recognizes the scent from Pharasmin funerals)</td>\n</tr>\n</tbody>\n</table>"
                },
                "requirements": {
                    "value": ""
                },
                "rules": [],
                "slug": null,
                "source": {
                    "value": ""
                },
                "traits": {
                    "custom": "",
                    "rarity": "common",
                    "value": [
                        "mental",
                        "divine",
                        "illusion"
                    ]
                },
                "trigger": {
                    "value": ""
                },
                "weapon": {
                    "value": ""
                }
            },
            "flags": {},
            "img": "systems/pf2e/icons/actions/Reaction.webp",
            "name": "Scrabbling Hands",
            "sort": 100000,
            "type": "action"
        }
    ],
    "name": "Scrabbling Hands",
    "token": {
        "disposition": 0,
        "height": 1,
        "img": "systems/pf2e/icons/default-icons/hazard.svg",
        "name": "Scrabbling Hands",
        "width": 1
    },
    "type": "hazard"
}
